Method,Job,AnalyzeLaunchVariance,EvaluateOverhead,MaxAbsoluteError,MaxRelativeError,MinInvokeCount,MinIterationTime,OutlierMode,Affinity,EnvironmentVariables,Jit,Platform,PowerPlanMode,Runtime,AllowVeryLargeObjects,Concurrent,CpuGroups,Force,HeapAffinitizeMask,HeapCount,NoAffinitize,RetainVm,Server,Arguments,BuildConfiguration,Clock,EngineFactory,NuGetReferences,Toolchain,IsMutator,InvocationCount,IterationCount,IterationTime,LaunchCount,MaxIterationCount,MaxWarmupIterationCount,MinIterationCount,MinWarmupIterationCount,RunStrategy,UnrollFactor,WarmupCount,Mean,Error,StdDev,Median,Min,Max,Gen 0,Gen 1,Gen 2,Allocated
HashScalarString,Job-QMKCTP,False,Default,Default,Default,Default,Default,Default,00000000,Empty,RyuJit,X64,00000000-0000-0000-0000-000000000000,.NET Core 5.0,False,True,False,True,Default,Default,False,False,False,/p:DebugType=portable,Default,Default,Default,Default,Default,Default,1,Default,250.0000 ms,Default,20,Default,15,Default,Default,16,1,"2,078.3 μs",3.99 μs,3.74 μs,"2,077.5 μs","2,072.7 μs","2,086.6 μs",0.0000,0.0000,0.0000,3 B
HashScalarFloat,Job-QMKCTP,False,Default,Default,Default,Default,Default,Default,00000000,Empty,RyuJit,X64,00000000-0000-0000-0000-000000000000,.NET Core 5.0,False,True,False,True,Default,Default,False,False,False,/p:DebugType=portable,Default,Default,Default,Default,Default,Default,1,Default,250.0000 ms,Default,20,Default,15,Default,Default,16,1,940.9 μs,3.01 μs,2.66 μs,939.7 μs,938.6 μs,946.4 μs,0.0000,0.0000,0.0000,2 B
HashScalarDouble,Job-QMKCTP,False,Default,Default,Default,Default,Default,Default,00000000,Empty,RyuJit,X64,00000000-0000-0000-0000-000000000000,.NET Core 5.0,False,True,False,True,Default,Default,False,False,False,/p:DebugType=portable,Default,Default,Default,Default,Default,Default,1,Default,250.0000 ms,Default,20,Default,15,Default,Default,16,1,828.6 μs,2.99 μs,2.65 μs,827.9 μs,825.1 μs,834.3 μs,0.0000,0.0000,0.0000,6 B
HashScalarKey,Job-QMKCTP,False,Default,Default,Default,Default,Default,Default,00000000,Empty,RyuJit,X64,00000000-0000-0000-0000-000000000000,.NET Core 5.0,False,True,False,True,Default,Default,False,False,False,/p:DebugType=portable,Default,Default,Default,Default,Default,Default,1,Default,250.0000 ms,Default,20,Default,15,Default,Default,16,1,641.0 μs,6.35 μs,5.94 μs,638.5 μs,631.3 μs,648.8 μs,0.0000,0.0000,0.0000,1 B
HashVectorString,Job-QMKCTP,False,Default,Default,Default,Default,Default,Default,00000000,Empty,RyuJit,X64,00000000-0000-0000-0000-000000000000,.NET Core 5.0,False,True,False,True,Default,Default,False,False,False,/p:DebugType=portable,Default,Default,Default,Default,Default,Default,1,Default,250.0000 ms,Default,20,Default,15,Default,Default,16,1,"24,160.1 μs","6,681.47 μs","6,861.37 μs","19,570.1 μs","19,505.8 μs","41,759.5 μs",0.0000,0.0000,0.0000,200 B
HashVectorFloat,Job-QMKCTP,False,Default,Default,Default,Default,Default,Default,00000000,Empty,RyuJit,X64,00000000-0000-0000-0000-000000000000,.NET Core 5.0,False,True,False,True,Default,Default,False,False,False,/p:DebugType=portable,Default,Default,Default,Default,Default,Default,1,Default,250.0000 ms,Default,20,Default,15,Default,Default,16,1,"9,672.4 μs",81.33 μs,76.08 μs,"9,636.1 μs","9,595.7 μs","9,797.1 μs",0.0000,0.0000,0.0000,60 B
HashVectorDouble,Job-QMKCTP,False,Default,Default,Default,Default,Default,Default,00000000,Empty,RyuJit,X64,00000000-0000-0000-0000-000000000000,.NET Core 5.0,False,True,False,True,Default,Default,False,False,False,/p:DebugType=portable,Default,Default,Default,Default,Default,Default,1,Default,250.0000 ms,Default,20,Default,15,Default,Default,16,1,"10,422.6 μs",94.03 μs,87.96 μs,"10,372.7 μs","10,351.4 μs","10,558.9 μs",0.0000,0.0000,0.0000,60 B
HashVectorKey,Job-QMKCTP,False,Default,Default,Default,Default,Default,Default,00000000,Empty,RyuJit,X64,00000000-0000-0000-0000-000000000000,.NET Core 5.0,False,True,False,True,Default,Default,False,False,False,/p:DebugType=portable,Default,Default,Default,Default,Default,Default,1,Default,250.0000 ms,Default,20,Default,15,Default,Default,16,1,"9,013.2 μs",86.62 μs,81.03 μs,"8,968.5 μs","8,922.6 μs","9,132.8 μs",0.0000,0.0000,0.0000,58 B
