{
  "benchmarks": ["akka-uct"],
  "format_version": 5,
  "data": {
    "akka-uct": {
      "results": [{
        "duration_ns": 24082635069,
        "uptime_ns": 927642938
      }, {
        "duration_ns": 19230687888,
        "uptime_ns": 25417544569
      }, {
        "duration_ns": 19188734544,
        "uptime_ns": 45039731152
      }, {
        "duration_ns": 19312867204,
        "uptime_ns": 64677610475
      }, {
        "duration_ns": 19632144112,
        "uptime_ns": 84410665433
      }, {
        "duration_ns": 19601212385,
        "uptime_ns": 104407550916
      }, {
        "duration_ns": 18645960039,
        "uptime_ns": 124401205828
      }, {
        "duration_ns": 19683693959,
        "uptime_ns": 143422928612
      }, {
        "duration_ns": 19058085347,
        "uptime_ns": 163536574331
      }, {
        "duration_ns": 17959121673,
        "uptime_ns": 183030399086
      }, {
        "duration_ns": 18993335771,
        "uptime_ns": 201414554726
      }, {
        "duration_ns": 19172354715,
        "uptime_ns": 220847609771
      }, {
        "duration_ns": 19942729616,
        "uptime_ns": 240476209190
      }, {
        "duration_ns": 19077693030,
        "uptime_ns": 260860940611
      }, {
        "duration_ns": 18684617054,
        "uptime_ns": 280250028556
      }, {
        "duration_ns": 19110954811,
        "uptime_ns": 299288895232
      }, {
        "duration_ns": 20742376785,
        "uptime_ns": 318786137568
      }, {
        "duration_ns": 20807879699,
        "uptime_ns": 339947020944
      }, {
        "duration_ns": 19781324896,
        "uptime_ns": 361172572983
      }, {
        "duration_ns": 20456782696,
        "uptime_ns": 381354308539
      }, {
        "duration_ns": 19067514609,
        "uptime_ns": 402239786727
      }, {
        "duration_ns": 18554790879,
        "uptime_ns": 421735548120
      }, {
        "duration_ns": 19807618721,
        "uptime_ns": 440686967136
      }, {
        "duration_ns": 18354769234,
        "uptime_ns": 460920123168
      }, {
        "duration_ns": 18974642240,
        "uptime_ns": 479716833592
      }, {
        "duration_ns": 18280850252,
        "uptime_ns": 499082720957
      }, {
        "duration_ns": 18127011140,
        "uptime_ns": 517807355668
      }, {
        "duration_ns": 18813969180,
        "uptime_ns": 536297279763
      }, {
        "duration_ns": 18763055716,
        "uptime_ns": 555514828490
      }, {
        "duration_ns": 18193466373,
        "uptime_ns": 574621190651
      }, {
        "duration_ns": 18811254253,
        "uptime_ns": 593234304332
      }, {
        "duration_ns": 18938281838,
        "uptime_ns": 612456193429
      }, {
        "duration_ns": 18213366203,
        "uptime_ns": 631755127298
      }, {
        "duration_ns": 17860183361,
        "uptime_ns": 650404849596
      }, {
        "duration_ns": 18079404597,
        "uptime_ns": 668690686376
      }, {
        "duration_ns": 18406533065,
        "uptime_ns": 687159463609
      }, {
        "duration_ns": 17674044733,
        "uptime_ns": 706016078975
      }, {
        "duration_ns": 19496719805,
        "uptime_ns": 724117891009
      }, {
        "duration_ns": 19090061404,
        "uptime_ns": 743993930629
      }, {
        "duration_ns": 19612323224,
        "uptime_ns": 763465530185
      }, {
        "duration_ns": 18866838705,
        "uptime_ns": 783504843940
      }, {
        "duration_ns": 18790057673,
        "uptime_ns": 802780579585
      }, {
        "duration_ns": 18274850552,
        "uptime_ns": 822005724081
      }, {
        "duration_ns": 19684041259,
        "uptime_ns": 840726599771
      }, {
        "duration_ns": 19577604124,
        "uptime_ns": 860797620504
      }, {
        "duration_ns": 18475785345,
        "uptime_ns": 880732867009
      }, {
        "duration_ns": 18842875543,
        "uptime_ns": 899598026736
      }, {
        "duration_ns": 20576135364,
        "uptime_ns": 918783882649
      }, {
        "duration_ns": 20400088890,
        "uptime_ns": 939758025188
      }, {
        "duration_ns": 18793343014,
        "uptime_ns": 960549732128
      }, {
        "duration_ns": 18317391075,
        "uptime_ns": 979714246173
      }, {
        "duration_ns": 18312971454,
        "uptime_ns": 998467224060
      }, {
        "duration_ns": 18121390170,
        "uptime_ns": 1017128797793
      }, {
        "duration_ns": 17909786521,
        "uptime_ns": 1035638893184
      }, {
        "duration_ns": 20527131240,
        "uptime_ns": 1053921120562
      }, {
        "duration_ns": 19364652396,
        "uptime_ns": 1074835973214
      }, {
        "duration_ns": 20561281721,
        "uptime_ns": 1094637638836
      }, {
        "duration_ns": 18185330594,
        "uptime_ns": 1115543923664
      }, {
        "duration_ns": 18811717514,
        "uptime_ns": 1134159790206
      }, {
        "duration_ns": 20668634565,
        "uptime_ns": 1153420294911
      }, {
        "duration_ns": 19685287820,
        "uptime_ns": 1174550028195
      }, {
        "duration_ns": 18805210245,
        "uptime_ns": 1194633892613
      }, {
        "duration_ns": 19723653380,
        "uptime_ns": 1213854869808
      }, {
        "duration_ns": 18332788346,
        "uptime_ns": 1233967906259
      }, {
        "duration_ns": 20331550915,
        "uptime_ns": 1252688912719
      }, {
        "duration_ns": 18845405709,
        "uptime_ns": 1273405003314
      }, {
        "duration_ns": 19226498920,
        "uptime_ns": 1292681800099
      }, {
        "duration_ns": 18146756069,
        "uptime_ns": 1312357779226
      }, {
        "duration_ns": 18705262265,
        "uptime_ns": 1330892813715
      }, {
        "duration_ns": 18490113797,
        "uptime_ns": 1349982810457
      }, {
        "duration_ns": 17575977389,
        "uptime_ns": 1368862067485
      }, {
        "duration_ns": 18816579320,
        "uptime_ns": 1386860979549
      }, {
        "duration_ns": 19353995909,
        "uptime_ns": 1406080662032
      }, {
        "duration_ns": 18771136588,
        "uptime_ns": 1425870298668
      }, {
        "duration_ns": 18677090884,
        "uptime_ns": 1445061924368
      }, {
        "duration_ns": 20736793999,
        "uptime_ns": 1464108818354
      }, {
        "duration_ns": 19786529170,
        "uptime_ns": 1485242885852
      }, {
        "duration_ns": 18785578031,
        "uptime_ns": 1505426799523
      }, {
        "duration_ns": 19226247136,
        "uptime_ns": 1524628584547
      }, {
        "duration_ns": 20323988245,
        "uptime_ns": 1544200010409
      }, {
        "duration_ns": 19475421349,
        "uptime_ns": 1564960642292
      }, {
        "duration_ns": 21131605508,
        "uptime_ns": 1584816656430
      }, {
        "duration_ns": 19084025886,
        "uptime_ns": 1606402725333
      }, {
        "duration_ns": 18427298645,
        "uptime_ns": 1625924380769
      }, {
        "duration_ns": 19298334568,
        "uptime_ns": 1644772502816
      }, {
        "duration_ns": 19589407862,
        "uptime_ns": 1664458599011
      }, {
        "duration_ns": 20824112106,
        "uptime_ns": 1684466515593
      }, {
        "duration_ns": 19568421088,
        "uptime_ns": 1705674215045
      }, {
        "duration_ns": 19160959860,
        "uptime_ns": 1725552039781
      }, {
        "duration_ns": 18400101352,
        "uptime_ns": 1745123837369
      }, {
        "duration_ns": 19017607105,
        "uptime_ns": 1763843667894
      }, {
        "duration_ns": 18576095062,
        "uptime_ns": 1783244491129
      }, {
        "duration_ns": 20049729701,
        "uptime_ns": 1802243026350
      }, {
        "duration_ns": 21115682227,
        "uptime_ns": 1822678958955
      }, {
        "duration_ns": 19884923086,
        "uptime_ns": 1844197598695
      }, {
        "duration_ns": 20572307371,
        "uptime_ns": 1864522624038
      }, {
        "duration_ns": 20319233296,
        "uptime_ns": 1885533415951
      }, {
        "duration_ns": 19676767019,
        "uptime_ns": 1906277612216
      }, {
        "duration_ns": 19232877406,
        "uptime_ns": 1926381723460
      }, {
        "duration_ns": 19639282316,
        "uptime_ns": 1946021426338
      }],
      "termination": "normal"
    }
  },
  "environment": {
    "os": {
      "virt_mem_committed": 5885534208,
      "name": "Linux",
      "open_fd_count": 21,
      "phys_mem_free": 1230184448,
      "swap_space_total": 0,
      "available_processors": 4,
      "phys_mem_total": 8348585984,
      "version": "5.4.0-54-generic",
      "arch": "amd64",
      "max_fd_count": 1048576,
      "swap_space_free": 0
    },
    "vm": {
      "termination": "normal",
      "name": "OpenJDK 64-Bit Server VM",
      "spec_vendor": "Oracle Corporation",
      "spec_name": "Java Virtual Machine Specification",
      "classloading": {
        "class_count": 3477,
        "classes_total": 3523
      },
      "compiler": {
        "name": "HotSpot 64-Bit Tiered Compilers",
        "compilation_time_ms": 43118
      },
      "start_iso": "2020-11-25T01:57:22.561Z",
      "collectors": [{
        "name": "G1 Young Generation",
        "collection_count": 4107,
        "collection_time_ms": 453878
      }, {
        "name": "G1 Old Generation",
        "collection_count": 100,
        "collection_time_ms": 39493
      }],
      "start_unix_ms": 1606269442561,
      "version": "11.0.9.1+1-Ubuntu-0ubuntu1.20.04",
      "mode": "mixed mode, sharing",
      "args": [],
      "pools": [{
        "name": "CodeHeap 'non-nmethods'",
        "type": "NON_HEAP",
        "usage": {
          "init": 2555904,
          "used": 1183616,
          "committed": 2555904,
          "max": 5832704
        },
        "peak_usage": {
          "init": 2555904,
          "used": 1195904,
          "committed": 2555904,
          "max": 5832704
        }
      }, {
        "name": "Metaspace",
        "type": "NON_HEAP",
        "usage": {
          "init": 0,
          "used": 19961144,
          "committed": 21495808,
          "max": -1
        },
        "peak_usage": {
          "init": 0,
          "used": 19961144,
          "committed": 21495808,
          "max": -1
        }
      }, {
        "name": "CodeHeap 'profiled nmethods'",
        "type": "NON_HEAP",
        "usage": {
          "init": 2555904,
          "used": 6911744,
          "committed": 7012352,
          "max": 122912768
        },
        "peak_usage": {
          "init": 2555904,
          "used": 6911744,
          "committed": 7012352,
          "max": 122912768
        }
      }, {
        "name": "Compressed Class Space",
        "type": "NON_HEAP",
        "usage": {
          "init": 0,
          "used": 2995880,
          "committed": 3407872,
          "max": 1073741824
        },
        "peak_usage": {
          "init": 0,
          "used": 2995880,
          "committed": 3407872,
          "max": 1073741824
        }
      }, {
        "name": "G1 Eden Space",
        "type": "HEAP",
        "usage": {
          "init": 15728640,
          "used": 439353344,
          "committed": 746586112,
          "max": -1
        },
        "peak_usage": {
          "init": 15728640,
          "used": 1203765248,
          "committed": 1265631232,
          "max": -1
        }
      }, {
        "name": "G1 Old Gen",
        "type": "HEAP",
        "usage": {
          "init": 116391936,
          "used": 640360416,
          "committed": 1233125376,
          "max": 2088763392
        },
        "peak_usage": {
          "init": 116391936,
          "used": 996959312,
          "committed": 1970274304,
          "max": 2088763392
        }
      }, {
        "name": "G1 Survivor Space",
        "type": "HEAP",
        "usage": {
          "init": 0,
          "used": 26214400,
          "committed": 26214400,
          "max": -1
        },
        "peak_usage": {
          "init": 0,
          "used": 150994944,
          "committed": 150994944,
          "max": -1
        }
      }, {
        "name": "CodeHeap 'non-profiled nmethods'",
        "type": "NON_HEAP",
        "usage": {
          "init": 2555904,
          "used": 3354368,
          "committed": 3407872,
          "max": 122912768
        },
        "peak_usage": {
          "init": 2555904,
          "used": 3354368,
          "committed": 3407872,
          "max": 122912768
        }
      }],
      "uptime_ms": 1965806,
      "vendor": "Ubuntu",
      "threads": {
        "thread_count": 18,
        "thread_count_max": 36,
        "daemon_thread_count": 8,
        "threads_total": 9109
      },
      "spec_version": "11",
      "memory": {
        "heap_usage": {
          "init": 132120576,
          "used": 1102782432,
          "committed": 2005925888,
          "max": 2088763392
        },
        "nonheap_usage": {
          "init": 7667712,
          "used": 34332832,
          "committed": 37879808,
          "max": -1
        },
        "pending_finalization_count": 0
      }
    },
    "jre": {
      "java_version": "11.0.9.1",
      "name": "OpenJDK Runtime Environment",
      "spec_vendor": "Oracle Corporation",
      "spec_name": "Java Platform API Specification",
      "class_path": ["target/renaissance-gpl-0.11.0.jar"],
      "home": "/usr/lib/jvm/java-11-openjdk-amd64",
      "version": "11.0.9.1+1-Ubuntu-0ubuntu1.20.04",
      "java_vendor": "Ubuntu",
      "library_path": ["/usr/java/packages/lib", "/usr/lib/x86_64-linux-gnu/jni", "/lib/x86_64-linux-gnu", "/usr/lib/x86_64-linux-gnu", "/usr/lib/jni", "/lib", "/usr/lib"],
      "spec_version": "11"
    }
  },
  "suite": {
    "git": {
      "commit_hash": null,
      "commit_date": null,
      "dirty": "true"
    },
    "name": null,
    "version": null
  }
}