{
  "benchmarks": ["chi-square"],
  "format_version": 5,
  "data": {
    "chi-square": {
      "results": [{
        "duration_ns": 4201225968,
        "uptime_ns": 4778672425
      }, {
        "duration_ns": 1077518896,
        "uptime_ns": 9161466265
      }, {
        "duration_ns": 1241598679,
        "uptime_ns": 10385336679
      }, {
        "duration_ns": 1412249057,
        "uptime_ns": 11782924682
      }, {
        "duration_ns": 1310823424,
        "uptime_ns": 13329193076
      }, {
        "duration_ns": 1235219718,
        "uptime_ns": 14774750307
      }, {
        "duration_ns": 1184415451,
        "uptime_ns": 16154004725
      }, {
        "duration_ns": 1080521950,
        "uptime_ns": 17479115763
      }, {
        "duration_ns": 1150093122,
        "uptime_ns": 18703058122
      }, {
        "duration_ns": 1014933057,
        "uptime_ns": 19998386092
      }, {
        "duration_ns": 1090245017,
        "uptime_ns": 21158255163
      }, {
        "duration_ns": 1034990318,
        "uptime_ns": 22387320320
      }, {
        "duration_ns": 1177932015,
        "uptime_ns": 23557342601
      }, {
        "duration_ns": 1141934952,
        "uptime_ns": 24881869618
      }, {
        "duration_ns": 1046651434,
        "uptime_ns": 26166291821
      }, {
        "duration_ns": 1124352482,
        "uptime_ns": 27349818816
      }, {
        "duration_ns": 1265606343,
        "uptime_ns": 28614679479
      }, {
        "duration_ns": 1292263895,
        "uptime_ns": 30015889055
      }, {
        "duration_ns": 1071033260,
        "uptime_ns": 31444560063
      }, {
        "duration_ns": 1047256916,
        "uptime_ns": 32653683750
      }, {
        "duration_ns": 1022588143,
        "uptime_ns": 33834532698
      }, {
        "duration_ns": 1022669960,
        "uptime_ns": 34992800781
      }, {
        "duration_ns": 1032026184,
        "uptime_ns": 36150375253
      }, {
        "duration_ns": 1016486390,
        "uptime_ns": 37320018721
      }, {
        "duration_ns": 1064696008,
        "uptime_ns": 38483454567
      }, {
        "duration_ns": 1054146626,
        "uptime_ns": 39682135688
      }, {
        "duration_ns": 1057595865,
        "uptime_ns": 40871973141
      }, {
        "duration_ns": 1022741976,
        "uptime_ns": 42067311736
      }, {
        "duration_ns": 1295070281,
        "uptime_ns": 43225793438
      }, {
        "duration_ns": 1119115137,
        "uptime_ns": 44659069664
      }, {
        "duration_ns": 1018104902,
        "uptime_ns": 45915972518
      }, {
        "duration_ns": 1073330069,
        "uptime_ns": 47082105331
      }, {
        "duration_ns": 1095343846,
        "uptime_ns": 48292069335
      }, {
        "duration_ns": 1118441730,
        "uptime_ns": 49534547430
      }, {
        "duration_ns": 1024203719,
        "uptime_ns": 50798403302
      }, {
        "duration_ns": 1097187033,
        "uptime_ns": 51963519124
      }, {
        "duration_ns": 1177057707,
        "uptime_ns": 53205857503
      }, {
        "duration_ns": 1022473305,
        "uptime_ns": 54518600294
      }, {
        "duration_ns": 1016862505,
        "uptime_ns": 55693367551
      }, {
        "duration_ns": 1083932657,
        "uptime_ns": 56846320095
      }, {
        "duration_ns": 1102614566,
        "uptime_ns": 58075404542
      }, {
        "duration_ns": 1011112691,
        "uptime_ns": 59314992959
      }, {
        "duration_ns": 1020484495,
        "uptime_ns": 60462436071
      }, {
        "duration_ns": 1103979373,
        "uptime_ns": 61620280970
      }, {
        "duration_ns": 1051788170,
        "uptime_ns": 62867164274
      }, {
        "duration_ns": 1091944988,
        "uptime_ns": 64055457122
      }, {
        "duration_ns": 1019814144,
        "uptime_ns": 65287556098
      }, {
        "duration_ns": 1023144023,
        "uptime_ns": 66453486802
      }, {
        "duration_ns": 1080843034,
        "uptime_ns": 67614097892
      }, {
        "duration_ns": 1012977862,
        "uptime_ns": 68832274297
      }, {
        "duration_ns": 1226359473,
        "uptime_ns": 70010973545
      }, {
        "duration_ns": 1027080474,
        "uptime_ns": 71379682416
      }, {
        "duration_ns": 1174671295,
        "uptime_ns": 72547064601
      }, {
        "duration_ns": 1050306641,
        "uptime_ns": 73859583354
      }, {
        "duration_ns": 1265529661,
        "uptime_ns": 75047840415
      }, {
        "duration_ns": 1009372997,
        "uptime_ns": 76454274756
      }, {
        "duration_ns": 1017505513,
        "uptime_ns": 77640146979
      }, {
        "duration_ns": 1084799913,
        "uptime_ns": 78798193785
      }, {
        "duration_ns": 1071798052,
        "uptime_ns": 80036044183
      }, {
        "duration_ns": 1077693623,
        "uptime_ns": 81246435837
      }, {
        "duration_ns": 1016363190,
        "uptime_ns": 82462392050
      }, {
        "duration_ns": 1011383689,
        "uptime_ns": 83617797889
      }, {
        "duration_ns": 1074983937,
        "uptime_ns": 84773635574
      }, {
        "duration_ns": 1083872622,
        "uptime_ns": 85988472314
      }, {
        "duration_ns": 1019142256,
        "uptime_ns": 87212974239
      }, {
        "duration_ns": 1017965302,
        "uptime_ns": 88383486070
      }, {
        "duration_ns": 1124149208,
        "uptime_ns": 89541028497
      }, {
        "duration_ns": 1078883717,
        "uptime_ns": 90809874606
      }, {
        "duration_ns": 1148322732,
        "uptime_ns": 92030632326
      }, {
        "duration_ns": 1042182735,
        "uptime_ns": 93319186325
      }, {
        "duration_ns": 1013473412,
        "uptime_ns": 94503983331
      }, {
        "duration_ns": 1035079637,
        "uptime_ns": 95656686974
      }, {
        "duration_ns": 1030802103,
        "uptime_ns": 96832405770
      }, {
        "duration_ns": 1026295818,
        "uptime_ns": 98002751616
      }, {
        "duration_ns": 1015843725,
        "uptime_ns": 99169078027
      }, {
        "duration_ns": 1018118648,
        "uptime_ns": 100326380580
      }, {
        "duration_ns": 1060105291,
        "uptime_ns": 101495254939
      }, {
        "duration_ns": 1179957628,
        "uptime_ns": 102696475064
      }, {
        "duration_ns": 1019298513,
        "uptime_ns": 104016986084
      }, {
        "duration_ns": 1018337553,
        "uptime_ns": 105175951306
      }, {
        "duration_ns": 1021094020,
        "uptime_ns": 106344525727
      }, {
        "duration_ns": 1022985433,
        "uptime_ns": 107505393129
      }, {
        "duration_ns": 1119159453,
        "uptime_ns": 108669277906
      }, {
        "duration_ns": 1139222840,
        "uptime_ns": 109929764452
      }, {
        "duration_ns": 1108022281,
        "uptime_ns": 111209851800
      }, {
        "duration_ns": 1023294467,
        "uptime_ns": 112461185952
      }, {
        "duration_ns": 1012064043,
        "uptime_ns": 113629956635
      }, {
        "duration_ns": 1027124515,
        "uptime_ns": 114796651341
      }, {
        "duration_ns": 1217197963,
        "uptime_ns": 115966211278
      }, {
        "duration_ns": 997941694,
        "uptime_ns": 117338863985
      }, {
        "duration_ns": 1075046286,
        "uptime_ns": 118477519216
      }, {
        "duration_ns": 1052973046,
        "uptime_ns": 119693768664
      }, {
        "duration_ns": 1019076983,
        "uptime_ns": 120898347678
      }, {
        "duration_ns": 1019374664,
        "uptime_ns": 122060765935
      }, {
        "duration_ns": 1131966442,
        "uptime_ns": 123229867266
      }, {
        "duration_ns": 1001069148,
        "uptime_ns": 124506047250
      }, {
        "duration_ns": 997107550,
        "uptime_ns": 125662490517
      }, {
        "duration_ns": 1086048054,
        "uptime_ns": 126803169046
      }, {
        "duration_ns": 1134152936,
        "uptime_ns": 128030440736
      }, {
        "duration_ns": 1060188957,
        "uptime_ns": 129306719756
      }],
      "termination": "normal"
    }
  },
  "environment": {
    "os": {
      "virt_mem_committed": 5930283008,
      "name": "Linux",
      "open_fd_count": 212,
      "phys_mem_free": 2370134016,
      "swap_space_total": 0,
      "available_processors": 4,
      "phys_mem_total": 8348585984,
      "version": "5.4.0-54-generic",
      "arch": "amd64",
      "max_fd_count": 1048576,
      "swap_space_free": 0
    },
    "vm": {
      "termination": "normal",
      "name": "OpenJDK 64-Bit Server VM",
      "spec_vendor": "Oracle Corporation",
      "spec_name": "Java Virtual Machine Specification",
      "classloading": {
        "class_count": 9083,
        "classes_total": 9286
      },
      "compiler": {
        "name": "HotSpot 64-Bit Tiered Compilers",
        "compilation_time_ms": 33300
      },
      "start_iso": "2020-11-25T02:40:31.598Z",
      "collectors": [{
        "name": "G1 Young Generation",
        "collection_count": 636,
        "collection_time_ms": 1210
      }, {
        "name": "G1 Old Generation",
        "collection_count": 100,
        "collection_time_ms": 13976
      }],
      "start_unix_ms": 1606272031598,
      "version": "11.0.9.1+1-Ubuntu-0ubuntu1.20.04",
      "mode": "mixed mode, sharing",
      "args": [],
      "pools": [{
        "name": "CodeHeap 'non-nmethods'",
        "type": "NON_HEAP",
        "usage": {
          "init": 2555904,
          "used": 1311360,
          "committed": 2555904,
          "max": 5832704
        },
        "peak_usage": {
          "init": 2555904,
          "used": 1341312,
          "committed": 2555904,
          "max": 5832704
        }
      }, {
        "name": "Metaspace",
        "type": "NON_HEAP",
        "usage": {
          "init": 0,
          "used": 59213200,
          "committed": 60735488,
          "max": -1
        },
        "peak_usage": {
          "init": 0,
          "used": 59213200,
          "committed": 60735488,
          "max": -1
        }
      }, {
        "name": "CodeHeap 'profiled nmethods'",
        "type": "NON_HEAP",
        "usage": {
          "init": 2555904,
          "used": 18561408,
          "committed": 18612224,
          "max": 122912768
        },
        "peak_usage": {
          "init": 2555904,
          "used": 18561408,
          "committed": 18612224,
          "max": 122912768
        }
      }, {
        "name": "Compressed Class Space",
        "type": "NON_HEAP",
        "usage": {
          "init": 0,
          "used": 7569688,
          "committed": 8126464,
          "max": 1073741824
        },
        "peak_usage": {
          "init": 0,
          "used": 7569688,
          "committed": 8126464,
          "max": 1073741824
        }
      }, {
        "name": "G1 Eden Space",
        "type": "HEAP",
        "usage": {
          "init": 15728640,
          "used": 173015040,
          "committed": 375390208,
          "max": -1
        },
        "peak_usage": {
          "init": 15728640,
          "used": 721420288,
          "committed": 759169024,
          "max": -1
        }
      }, {
        "name": "G1 Old Gen",
        "type": "HEAP",
        "usage": {
          "init": 116391936,
          "used": 181991568,
          "committed": 225443840,
          "max": 2088763392
        },
        "peak_usage": {
          "init": 116391936,
          "used": 188016840,
          "committed": 493879296,
          "max": 2088763392
        }
      }, {
        "name": "G1 Survivor Space",
        "type": "HEAP",
        "usage": {
          "init": 0,
          "used": 1048576,
          "committed": 1048576,
          "max": -1
        },
        "peak_usage": {
          "init": 0,
          "used": 44040192,
          "committed": 44040192,
          "max": -1
        }
      }, {
        "name": "CodeHeap 'non-profiled nmethods'",
        "type": "NON_HEAP",
        "usage": {
          "init": 2555904,
          "used": 5915136,
          "committed": 5963776,
          "max": 122912768
        },
        "peak_usage": {
          "init": 2555904,
          "used": 5915136,
          "committed": 5963776,
          "max": 122912768
        }
      }],
      "uptime_ms": 130473,
      "vendor": "Ubuntu",
      "threads": {
        "thread_count": 21,
        "thread_count_max": 50,
        "daemon_thread_count": 20,
        "threads_total": 166
      },
      "spec_version": "11",
      "memory": {
        "heap_usage": {
          "init": 132120576,
          "used": 356055184,
          "committed": 601882624,
          "max": 2088763392
        },
        "nonheap_usage": {
          "init": 7667712,
          "used": 92558976,
          "committed": 95993856,
          "max": -1
        },
        "pending_finalization_count": 0
      }
    },
    "jre": {
      "java_version": "11.0.9.1",
      "name": "OpenJDK Runtime Environment",
      "spec_vendor": "Oracle Corporation",
      "spec_name": "Java Platform API Specification",
      "class_path": ["target/renaissance-gpl-0.11.0.jar"],
      "home": "/usr/lib/jvm/java-11-openjdk-amd64",
      "version": "11.0.9.1+1-Ubuntu-0ubuntu1.20.04",
      "java_vendor": "Ubuntu",
      "library_path": ["/usr/java/packages/lib", "/usr/lib/x86_64-linux-gnu/jni", "/lib/x86_64-linux-gnu", "/usr/lib/x86_64-linux-gnu", "/usr/lib/jni", "/lib", "/usr/lib"],
      "spec_version": "11"
    }
  },
  "suite": {
    "git": {
      "commit_hash": null,
      "commit_date": null,
      "dirty": "true"
    },
    "name": null,
    "version": null
  }
}