{
  "benchmarks": ["db-shootout"],
  "format_version": 5,
  "data": {
    "db-shootout": {
      "results": [{
        "duration_ns": 10315366369,
        "uptime_ns": 9373428540
      }, {
        "duration_ns": 9067047037,
        "uptime_ns": 19731257122
      }, {
        "duration_ns": 8172469853,
        "uptime_ns": 28845629989
      }, {
        "duration_ns": 7870191577,
        "uptime_ns": 37058848454
      }, {
        "duration_ns": 8646622085,
        "uptime_ns": 44967318146
      }, {
        "duration_ns": 7911590449,
        "uptime_ns": 53650430582
      }, {
        "duration_ns": 8090028522,
        "uptime_ns": 61604374691
      }, {
        "duration_ns": 8086000773,
        "uptime_ns": 69734616017
      }, {
        "duration_ns": 8047299818,
        "uptime_ns": 77871532015
      }, {
        "duration_ns": 7958298872,
        "uptime_ns": 85958235699
      }, {
        "duration_ns": 8091753097,
        "uptime_ns": 93957729649
      }, {
        "duration_ns": 8168674810,
        "uptime_ns": 102096589971
      }, {
        "duration_ns": 8601806449,
        "uptime_ns": 110305071550
      }, {
        "duration_ns": 8312234657,
        "uptime_ns": 118946974291
      }, {
        "duration_ns": 8022779997,
        "uptime_ns": 127294812757
      }, {
        "duration_ns": 8855317536,
        "uptime_ns": 135358295469
      }, {
        "duration_ns": 7820450125,
        "uptime_ns": 144253015589
      }, {
        "duration_ns": 8220674557,
        "uptime_ns": 152111608547
      }, {
        "duration_ns": 8824699653,
        "uptime_ns": 160371068498
      }, {
        "duration_ns": 8663518743,
        "uptime_ns": 169234532343
      }, {
        "duration_ns": 8333688600,
        "uptime_ns": 177938092915
      }, {
        "duration_ns": 8354493143,
        "uptime_ns": 186310954228
      }, {
        "duration_ns": 8689146458,
        "uptime_ns": 194709055859
      }, {
        "duration_ns": 8145985130,
        "uptime_ns": 203439183412
      }, {
        "duration_ns": 7994196598,
        "uptime_ns": 211625082068
      }, {
        "duration_ns": 8826346527,
        "uptime_ns": 219658958234
      }, {
        "duration_ns": 9018007454,
        "uptime_ns": 228528863795
      }, {
        "duration_ns": 8642094699,
        "uptime_ns": 237588361548
      }, {
        "duration_ns": 8669283033,
        "uptime_ns": 246267978871
      }, {
        "duration_ns": 8973750135,
        "uptime_ns": 254977662283
      }, {
        "duration_ns": 8705452095,
        "uptime_ns": 263991141115
      }, {
        "duration_ns": 8511382175,
        "uptime_ns": 272738816628
      }, {
        "duration_ns": 9058700330,
        "uptime_ns": 281289726554
      }, {
        "duration_ns": 7725730443,
        "uptime_ns": 290395623435
      }, {
        "duration_ns": 8464584779,
        "uptime_ns": 298152057027
      }, {
        "duration_ns": 9030854464,
        "uptime_ns": 306658288625
      }, {
        "duration_ns": 8569396570,
        "uptime_ns": 315727659338
      }, {
        "duration_ns": 8230788176,
        "uptime_ns": 324334116754
      }, {
        "duration_ns": 8883042460,
        "uptime_ns": 332597874823
      }, {
        "duration_ns": 7963535015,
        "uptime_ns": 341515073715
      }, {
        "duration_ns": 8485428458,
        "uptime_ns": 349513213449
      }, {
        "duration_ns": 7747302572,
        "uptime_ns": 358034553834
      }, {
        "duration_ns": 6594577697,
        "uptime_ns": 365810075027
      }, {
        "duration_ns": 7162453405,
        "uptime_ns": 372433250155
      }, {
        "duration_ns": 7030120288,
        "uptime_ns": 379623573156
      }, {
        "duration_ns": 7089830969,
        "uptime_ns": 386693815612
      }, {
        "duration_ns": 8050291037,
        "uptime_ns": 393825865979
      }, {
        "duration_ns": 8511814412,
        "uptime_ns": 401916246774
      }, {
        "duration_ns": 8705104586,
        "uptime_ns": 410464954040
      }, {
        "duration_ns": 8252969364,
        "uptime_ns": 419203823824
      }, {
        "duration_ns": 8288227443,
        "uptime_ns": 427493125229
      }, {
        "duration_ns": 8269066749,
        "uptime_ns": 435821047669
      }, {
        "duration_ns": 8478664949,
        "uptime_ns": 444124853445
      }, {
        "duration_ns": 8316270136,
        "uptime_ns": 452641690377
      }, {
        "duration_ns": 8262981563,
        "uptime_ns": 460996029781
      }, {
        "duration_ns": 9110288390,
        "uptime_ns": 469294211732
      }, {
        "duration_ns": 8646345667,
        "uptime_ns": 478446794947
      }, {
        "duration_ns": 8882188825,
        "uptime_ns": 487128306911
      }, {
        "duration_ns": 8344346118,
        "uptime_ns": 496045853522
      }, {
        "duration_ns": 8500716663,
        "uptime_ns": 504428061546
      }, {
        "duration_ns": 8219494692,
        "uptime_ns": 512963558131
      }, {
        "duration_ns": 9589607915,
        "uptime_ns": 521221328986
      }, {
        "duration_ns": 10014658968,
        "uptime_ns": 530847613763
      }, {
        "duration_ns": 8699112336,
        "uptime_ns": 540901142950
      }, {
        "duration_ns": 8540320462,
        "uptime_ns": 549635735777
      }, {
        "duration_ns": 8810570059,
        "uptime_ns": 558213116862
      }, {
        "duration_ns": 8480273926,
        "uptime_ns": 567064354383
      }, {
        "duration_ns": 7942517468,
        "uptime_ns": 575579623511
      }, {
        "duration_ns": 8427367324,
        "uptime_ns": 583567382167
      }, {
        "duration_ns": 8374003506,
        "uptime_ns": 592038047889
      }, {
        "duration_ns": 8876923891,
        "uptime_ns": 600452080049
      }, {
        "duration_ns": 8199347804,
        "uptime_ns": 609363810404
      }, {
        "duration_ns": 8701006840,
        "uptime_ns": 617599704147
      }, {
        "duration_ns": 8402267510,
        "uptime_ns": 626336924661
      }, {
        "duration_ns": 8498885248,
        "uptime_ns": 634780612333
      }, {
        "duration_ns": 8926757662,
        "uptime_ns": 643313099884
      }, {
        "duration_ns": 8226365292,
        "uptime_ns": 652280288139
      }, {
        "duration_ns": 8640465207,
        "uptime_ns": 660550599963
      }, {
        "duration_ns": 8228708133,
        "uptime_ns": 669233352890
      }, {
        "duration_ns": 8961359733,
        "uptime_ns": 677501484601
      }, {
        "duration_ns": 8789402436,
        "uptime_ns": 686499876859
      }, {
        "duration_ns": 8195562182,
        "uptime_ns": 695326582099
      }, {
        "duration_ns": 9246765098,
        "uptime_ns": 703562172869
      }, {
        "duration_ns": 8440267058,
        "uptime_ns": 712844143970
      }, {
        "duration_ns": 8397025454,
        "uptime_ns": 721330582765
      }, {
        "duration_ns": 9161000148,
        "uptime_ns": 729765012861
      }, {
        "duration_ns": 8033702931,
        "uptime_ns": 738962951799
      }, {
        "duration_ns": 9329390736,
        "uptime_ns": 747037757860
      }, {
        "duration_ns": 8075391710,
        "uptime_ns": 756401697304
      }, {
        "duration_ns": 9108039219,
        "uptime_ns": 764514878365
      }, {
        "duration_ns": 8840634463,
        "uptime_ns": 773661899390
      }, {
        "duration_ns": 8711706974,
        "uptime_ns": 782538073346
      }, {
        "duration_ns": 8446142609,
        "uptime_ns": 791285684016
      }, {
        "duration_ns": 8394774932,
        "uptime_ns": 799767962233
      }, {
        "duration_ns": 7860187406,
        "uptime_ns": 808210682959
      }, {
        "duration_ns": 8122738115,
        "uptime_ns": 816111901509
      }, {
        "duration_ns": 8487881132,
        "uptime_ns": 824274961585
      }, {
        "duration_ns": 8490428214,
        "uptime_ns": 832799510477
      }, {
        "duration_ns": 8569655804,
        "uptime_ns": 841328002959
      }, {
        "duration_ns": 8403541329,
        "uptime_ns": 849937372718
      }],
      "termination": "normal"
    }
  },
  "environment": {
    "os": {
      "virt_mem_committed": 6028726272,
      "name": "Linux",
      "open_fd_count": 65,
      "phys_mem_free": 1352327168,
      "swap_space_total": 0,
      "available_processors": 4,
      "phys_mem_total": 8348585984,
      "version": "5.4.0-54-generic",
      "arch": "amd64",
      "max_fd_count": 1048576,
      "swap_space_free": 0
    },
    "vm": {
      "termination": "normal",
      "name": "OpenJDK 64-Bit Server VM",
      "spec_vendor": "Oracle Corporation",
      "spec_name": "Java Virtual Machine Specification",
      "classloading": {
        "class_count": 3856,
        "classes_total": 3857
      },
      "compiler": {
        "name": "HotSpot 64-Bit Tiered Compilers",
        "compilation_time_ms": 17677
      },
      "start_iso": "2020-11-25T02:42:42.462Z",
      "collectors": [{
        "name": "G1 Young Generation",
        "collection_count": 9470,
        "collection_time_ms": 18755
      }, {
        "name": "G1 Old Generation",
        "collection_count": 100,
        "collection_time_ms": 3688
      }],
      "start_unix_ms": 1606272162462,
      "version": "11.0.9.1+1-Ubuntu-0ubuntu1.20.04",
      "mode": "mixed mode, sharing",
      "args": [],
      "pools": [{
        "name": "CodeHeap 'non-nmethods'",
        "type": "NON_HEAP",
        "usage": {
          "init": 2555904,
          "used": 1251712,
          "committed": 2555904,
          "max": 5832704
        },
        "peak_usage": {
          "init": 2555904,
          "used": 1286144,
          "committed": 2555904,
          "max": 5832704
        }
      }, {
        "name": "Metaspace",
        "type": "NON_HEAP",
        "usage": {
          "init": 0,
          "used": 21617064,
          "committed": 22675456,
          "max": -1
        },
        "peak_usage": {
          "init": 0,
          "used": 21617064,
          "committed": 22675456,
          "max": -1
        }
      }, {
        "name": "CodeHeap 'profiled nmethods'",
        "type": "NON_HEAP",
        "usage": {
          "init": 2555904,
          "used": 4579584,
          "committed": 5898240,
          "max": 122912768
        },
        "peak_usage": {
          "init": 2555904,
          "used": 5728640,
          "committed": 5898240,
          "max": 122912768
        }
      }, {
        "name": "Compressed Class Space",
        "type": "NON_HEAP",
        "usage": {
          "init": 0,
          "used": 2857392,
          "committed": 3276800,
          "max": 1073741824
        },
        "peak_usage": {
          "init": 0,
          "used": 2857392,
          "committed": 3276800,
          "max": 1073741824
        }
      }, {
        "name": "G1 Eden Space",
        "type": "HEAP",
        "usage": {
          "init": 15728640,
          "used": 10485760,
          "committed": 176160768,
          "max": -1
        },
        "peak_usage": {
          "init": 15728640,
          "used": 461373440,
          "committed": 503316480,
          "max": -1
        }
      }, {
        "name": "G1 Old Gen",
        "type": "HEAP",
        "usage": {
          "init": 116391936,
          "used": 391768120,
          "committed": 392167424,
          "max": 2088763392
        },
        "peak_usage": {
          "init": 116391936,
          "used": 635648776,
          "committed": 882900992,
          "max": 2088763392
        }
      }, {
        "name": "G1 Survivor Space",
        "type": "HEAP",
        "usage": {
          "init": 0,
          "used": 27262976,
          "committed": 27262976,
          "max": -1
        },
        "peak_usage": {
          "init": 0,
          "used": 58720256,
          "committed": 58720256,
          "max": -1
        }
      }, {
        "name": "CodeHeap 'non-profiled nmethods'",
        "type": "NON_HEAP",
        "usage": {
          "init": 2555904,
          "used": 2860672,
          "committed": 3932160,
          "max": 122912768
        },
        "peak_usage": {
          "init": 2555904,
          "used": 3844992,
          "committed": 3932160,
          "max": 122912768
        }
      }],
      "uptime_ms": 858458,
      "vendor": "Ubuntu",
      "threads": {
        "thread_count": 5,
        "thread_count_max": 10,
        "daemon_thread_count": 4,
        "threads_total": 2506
      },
      "spec_version": "11",
      "memory": {
        "heap_usage": {
          "init": 132120576,
          "used": 429516856,
          "committed": 595591168,
          "max": 2088763392
        },
        "nonheap_usage": {
          "init": 7667712,
          "used": 33115360,
          "committed": 38338560,
          "max": -1
        },
        "pending_finalization_count": 0
      }
    },
    "jre": {
      "java_version": "11.0.9.1",
      "name": "OpenJDK Runtime Environment",
      "spec_vendor": "Oracle Corporation",
      "spec_name": "Java Platform API Specification",
      "class_path": ["target/renaissance-gpl-0.11.0.jar"],
      "home": "/usr/lib/jvm/java-11-openjdk-amd64",
      "version": "11.0.9.1+1-Ubuntu-0ubuntu1.20.04",
      "java_vendor": "Ubuntu",
      "library_path": ["/usr/java/packages/lib", "/usr/lib/x86_64-linux-gnu/jni", "/lib/x86_64-linux-gnu", "/usr/lib/x86_64-linux-gnu", "/usr/lib/jni", "/lib", "/usr/lib"],
      "spec_version": "11"
    }
  },
  "suite": {
    "git": {
      "commit_hash": null,
      "commit_date": null,
      "dirty": "true"
    },
    "name": null,
    "version": null
  }
}