{
  "benchmarks": ["fj-kmeans"],
  "format_version": 5,
  "data": {
    "fj-kmeans": {
      "results": [{
        "duration_ns": 7728022475,
        "uptime_ns": 1141024088
      }, {
        "duration_ns": 6958455218,
        "uptime_ns": 8957564257
      }, {
        "duration_ns": 7009140094,
        "uptime_ns": 16003492164
      }, {
        "duration_ns": 6707836864,
        "uptime_ns": 23095225724
      }, {
        "duration_ns": 6861588034,
        "uptime_ns": 29889850572
      }, {
        "duration_ns": 6875373472,
        "uptime_ns": 36837563734
      }, {
        "duration_ns": 6945866235,
        "uptime_ns": 43801048000
      }, {
        "duration_ns": 6703899015,
        "uptime_ns": 50832744303
      }, {
        "duration_ns": 6726558507,
        "uptime_ns": 57629787399
      }, {
        "duration_ns": 6667503935,
        "uptime_ns": 64437519555
      }, {
        "duration_ns": 6851549165,
        "uptime_ns": 71185251234
      }, {
        "duration_ns": 6914296457,
        "uptime_ns": 78118415547
      }, {
        "duration_ns": 6960001810,
        "uptime_ns": 85115002595
      }, {
        "duration_ns": 6751005352,
        "uptime_ns": 92157617590
      }, {
        "duration_ns": 6804388231,
        "uptime_ns": 98995588260
      }, {
        "duration_ns": 6862236485,
        "uptime_ns": 105885162981
      }, {
        "duration_ns": 6984644279,
        "uptime_ns": 112830882276
      }, {
        "duration_ns": 6802202952,
        "uptime_ns": 119898868349
      }, {
        "duration_ns": 6984177800,
        "uptime_ns": 126787918572
      }, {
        "duration_ns": 6839431349,
        "uptime_ns": 133855243418
      }, {
        "duration_ns": 6802713536,
        "uptime_ns": 140775493718
      }, {
        "duration_ns": 6642015188,
        "uptime_ns": 147662609431
      }, {
        "duration_ns": 6626139196,
        "uptime_ns": 154387790251
      }, {
        "duration_ns": 6725719575,
        "uptime_ns": 161097057726
      }, {
        "duration_ns": 6658806913,
        "uptime_ns": 167905979875
      }, {
        "duration_ns": 6708523446,
        "uptime_ns": 174647773827
      }, {
        "duration_ns": 6664383370,
        "uptime_ns": 181440923198
      }, {
        "duration_ns": 6624753056,
        "uptime_ns": 188188492215
      }, {
        "duration_ns": 6636841218,
        "uptime_ns": 194905984946
      }, {
        "duration_ns": 6792300558,
        "uptime_ns": 201627163292
      }, {
        "duration_ns": 6545988123,
        "uptime_ns": 208498619882
      }, {
        "duration_ns": 6700576640,
        "uptime_ns": 215132134884
      }, {
        "duration_ns": 6658457822,
        "uptime_ns": 221916115612
      }, {
        "duration_ns": 6960070642,
        "uptime_ns": 228667684574
      }, {
        "duration_ns": 6789784594,
        "uptime_ns": 235712718338
      }, {
        "duration_ns": 6863241705,
        "uptime_ns": 242587726706
      }, {
        "duration_ns": 7013526092,
        "uptime_ns": 249538089446
      }, {
        "duration_ns": 6757056814,
        "uptime_ns": 256638665536
      }, {
        "duration_ns": 6985015851,
        "uptime_ns": 263485374296
      }, {
        "duration_ns": 6820618281,
        "uptime_ns": 270551928148
      }, {
        "duration_ns": 6954409523,
        "uptime_ns": 277454287151
      }, {
        "duration_ns": 6956553545,
        "uptime_ns": 284490594564
      }, {
        "duration_ns": 6856544920,
        "uptime_ns": 291528862551
      }, {
        "duration_ns": 6902398261,
        "uptime_ns": 298467037782
      }, {
        "duration_ns": 7026370349,
        "uptime_ns": 305454268543
      }, {
        "duration_ns": 6898868442,
        "uptime_ns": 312563236234
      }, {
        "duration_ns": 6639088383,
        "uptime_ns": 319549415860
      }, {
        "duration_ns": 6666720990,
        "uptime_ns": 326269220284
      }, {
        "duration_ns": 6704709279,
        "uptime_ns": 333021642608
      }, {
        "duration_ns": 7145669616,
        "uptime_ns": 339814616980
      }, {
        "duration_ns": 7015830259,
        "uptime_ns": 347042371859
      }, {
        "duration_ns": 6997304976,
        "uptime_ns": 354143347949
      }, {
        "duration_ns": 6875122601,
        "uptime_ns": 361225107249
      }, {
        "duration_ns": 6874611117,
        "uptime_ns": 368183851056
      }, {
        "duration_ns": 6706101125,
        "uptime_ns": 375142536797
      }, {
        "duration_ns": 6920077246,
        "uptime_ns": 381930051593
      }, {
        "duration_ns": 6820894618,
        "uptime_ns": 388931730777
      }, {
        "duration_ns": 6763399251,
        "uptime_ns": 395838877847
      }, {
        "duration_ns": 6880456997,
        "uptime_ns": 402683214906
      }, {
        "duration_ns": 6788491278,
        "uptime_ns": 409645259186
      }, {
        "duration_ns": 6831360328,
        "uptime_ns": 416517335299
      }, {
        "duration_ns": 6736886543,
        "uptime_ns": 423432080500
      }, {
        "duration_ns": 6903768254,
        "uptime_ns": 430252873749
      }, {
        "duration_ns": 6634088681,
        "uptime_ns": 437238992176
      }, {
        "duration_ns": 6807477522,
        "uptime_ns": 443964807721
      }, {
        "duration_ns": 6796770088,
        "uptime_ns": 450851850003
      }, {
        "duration_ns": 6828431446,
        "uptime_ns": 457736084113
      }, {
        "duration_ns": 6782491573,
        "uptime_ns": 464648177232
      }, {
        "duration_ns": 6691052332,
        "uptime_ns": 471515281003
      }, {
        "duration_ns": 7004038770,
        "uptime_ns": 478294672773
      }, {
        "duration_ns": 6708430235,
        "uptime_ns": 485380711448
      }, {
        "duration_ns": 6935527155,
        "uptime_ns": 492177188389
      }, {
        "duration_ns": 6690336454,
        "uptime_ns": 499194109769
      }, {
        "duration_ns": 6829178659,
        "uptime_ns": 505971140232
      }, {
        "duration_ns": 6832087745,
        "uptime_ns": 512882667993
      }, {
        "duration_ns": 6826576699,
        "uptime_ns": 519796914459
      }, {
        "duration_ns": 7015087112,
        "uptime_ns": 526706524232
      }, {
        "duration_ns": 6758536945,
        "uptime_ns": 533803756202
      }, {
        "duration_ns": 6873095756,
        "uptime_ns": 540650050677
      }, {
        "duration_ns": 6857657907,
        "uptime_ns": 547606997186
      }, {
        "duration_ns": 6815258181,
        "uptime_ns": 554548357258
      }, {
        "duration_ns": 6885080544,
        "uptime_ns": 561446087987
      }, {
        "duration_ns": 6791490868,
        "uptime_ns": 568412495404
      }, {
        "duration_ns": 6740714319,
        "uptime_ns": 575285572046
      }, {
        "duration_ns": 6689238134,
        "uptime_ns": 582108330655
      }, {
        "duration_ns": 6682445871,
        "uptime_ns": 588878665789
      }, {
        "duration_ns": 6736601612,
        "uptime_ns": 595644814211
      }, {
        "duration_ns": 6727137617,
        "uptime_ns": 602464827031
      }, {
        "duration_ns": 6822768670,
        "uptime_ns": 609275561236
      }, {
        "duration_ns": 6937818672,
        "uptime_ns": 616183533638
      }, {
        "duration_ns": 6862734487,
        "uptime_ns": 623203089089
      }, {
        "duration_ns": 6729868797,
        "uptime_ns": 630146853682
      }, {
        "duration_ns": 6778273220,
        "uptime_ns": 636957691504
      }, {
        "duration_ns": 6878117412,
        "uptime_ns": 643819266577
      }, {
        "duration_ns": 6741305592,
        "uptime_ns": 650780938415
      }, {
        "duration_ns": 6724223788,
        "uptime_ns": 657603306523
      }, {
        "duration_ns": 6662960594,
        "uptime_ns": 664409736552
      }, {
        "duration_ns": 6756975175,
        "uptime_ns": 671155658712
      }, {
        "duration_ns": 6826296933,
        "uptime_ns": 677993596593
      }, {
        "duration_ns": 6795650019,
        "uptime_ns": 684901435317
      }],
      "termination": "normal"
    }
  },
  "environment": {
    "os": {
      "virt_mem_committed": 5856522240,
      "name": "Linux",
      "open_fd_count": 17,
      "phys_mem_free": 2868428800,
      "swap_space_total": 0,
      "available_processors": 4,
      "phys_mem_total": 8348585984,
      "version": "5.4.0-54-generic",
      "arch": "amd64",
      "max_fd_count": 1048576,
      "swap_space_free": 0
    },
    "vm": {
      "termination": "normal",
      "name": "OpenJDK 64-Bit Server VM",
      "spec_vendor": "Oracle Corporation",
      "spec_name": "Java Virtual Machine Specification",
      "classloading": {
        "class_count": 2463,
        "classes_total": 2463
      },
      "compiler": {
        "name": "HotSpot 64-Bit Tiered Compilers",
        "compilation_time_ms": 5945
      },
      "start_iso": "2020-11-25T03:17:46.583Z",
      "collectors": [{
        "name": "G1 Young Generation",
        "collection_count": 5356,
        "collection_time_ms": 14442
      }, {
        "name": "G1 Old Generation",
        "collection_count": 100,
        "collection_time_ms": 8237
      }],
      "start_unix_ms": 1606274266583,
      "version": "11.0.9.1+1-Ubuntu-0ubuntu1.20.04",
      "mode": "mixed mode, sharing",
      "args": [],
      "pools": [{
        "name": "CodeHeap 'non-nmethods'",
        "type": "NON_HEAP",
        "usage": {
          "init": 2555904,
          "used": 1181696,
          "committed": 2555904,
          "max": 5832704
        },
        "peak_usage": {
          "init": 2555904,
          "used": 1193856,
          "committed": 2555904,
          "max": 5832704
        }
      }, {
        "name": "Metaspace",
        "type": "NON_HEAP",
        "usage": {
          "init": 0,
          "used": 13441448,
          "committed": 15204352,
          "max": -1
        },
        "peak_usage": {
          "init": 0,
          "used": 13441448,
          "committed": 15204352,
          "max": -1
        }
      }, {
        "name": "CodeHeap 'profiled nmethods'",
        "type": "NON_HEAP",
        "usage": {
          "init": 2555904,
          "used": 2909312,
          "committed": 2949120,
          "max": 122912768
        },
        "peak_usage": {
          "init": 2555904,
          "used": 2910208,
          "committed": 2949120,
          "max": 122912768
        }
      }, {
        "name": "Compressed Class Space",
        "type": "NON_HEAP",
        "usage": {
          "init": 0,
          "used": 2205568,
          "committed": 2621440,
          "max": 1073741824
        },
        "peak_usage": {
          "init": 0,
          "used": 2205568,
          "committed": 2621440,
          "max": 1073741824
        }
      }, {
        "name": "G1 Eden Space",
        "type": "HEAP",
        "usage": {
          "init": 15728640,
          "used": 89128960,
          "committed": 242221056,
          "max": -1
        },
        "peak_usage": {
          "init": 15728640,
          "used": 348127232,
          "committed": 365953024,
          "max": -1
        }
      }, {
        "name": "G1 Old Gen",
        "type": "HEAP",
        "usage": {
          "init": 116391936,
          "used": 146442176,
          "committed": 186646528,
          "max": 2088763392
        },
        "peak_usage": {
          "init": 116391936,
          "used": 260423784,
          "committed": 318767104,
          "max": 2088763392
        }
      }, {
        "name": "G1 Survivor Space",
        "type": "HEAP",
        "usage": {
          "init": 0,
          "used": 2097152,
          "committed": 2097152,
          "max": -1
        },
        "peak_usage": {
          "init": 0,
          "used": 10485760,
          "committed": 10485760,
          "max": -1
        }
      }, {
        "name": "CodeHeap 'non-profiled nmethods'",
        "type": "NON_HEAP",
        "usage": {
          "init": 2555904,
          "used": 803584,
          "committed": 2555904,
          "max": 122912768
        },
        "peak_usage": {
          "init": 2555904,
          "used": 966656,
          "committed": 2555904,
          "max": 122912768
        }
      }],
      "uptime_ms": 691806,
      "vendor": "Ubuntu",
      "threads": {
        "thread_count": 5,
        "thread_count_max": 19,
        "daemon_thread_count": 4,
        "threads_total": 118
      },
      "spec_version": "11",
      "memory": {
        "heap_usage": {
          "init": 132120576,
          "used": 237668288,
          "committed": 430964736,
          "max": 2088763392
        },
        "nonheap_usage": {
          "init": 7667712,
          "used": 20478248,
          "committed": 25886720,
          "max": -1
        },
        "pending_finalization_count": 0
      }
    },
    "jre": {
      "java_version": "11.0.9.1",
      "name": "OpenJDK Runtime Environment",
      "spec_vendor": "Oracle Corporation",
      "spec_name": "Java Platform API Specification",
      "class_path": ["target/renaissance-gpl-0.11.0.jar"],
      "home": "/usr/lib/jvm/java-11-openjdk-amd64",
      "version": "11.0.9.1+1-Ubuntu-0ubuntu1.20.04",
      "java_vendor": "Ubuntu",
      "library_path": ["/usr/java/packages/lib", "/usr/lib/x86_64-linux-gnu/jni", "/lib/x86_64-linux-gnu", "/usr/lib/x86_64-linux-gnu", "/usr/lib/jni", "/lib", "/usr/lib"],
      "spec_version": "11"
    }
  },
  "suite": {
    "git": {
      "commit_hash": null,
      "commit_date": null,
      "dirty": "true"
    },
    "name": null,
    "version": null
  }
}