{
  "benchmarks": ["log-regression"],
  "format_version": 5,
  "data": {
    "log-regression": {
      "results": [{
        "duration_ns": 8832171018,
        "uptime_ns": 3526234868
      }, {
        "duration_ns": 3556491252,
        "uptime_ns": 12458766694
      }, {
        "duration_ns": 3121358783,
        "uptime_ns": 16082933468
      }, {
        "duration_ns": 3041616126,
        "uptime_ns": 19268927651
      }, {
        "duration_ns": 2966908323,
        "uptime_ns": 22370970178
      }, {
        "duration_ns": 3106005126,
        "uptime_ns": 25403279620
      }, {
        "duration_ns": 2870455131,
        "uptime_ns": 28567120800
      }, {
        "duration_ns": 2869624664,
        "uptime_ns": 31503883302
      }, {
        "duration_ns": 2887891381,
        "uptime_ns": 34457361092
      }, {
        "duration_ns": 2980917524,
        "uptime_ns": 37405445966
      }, {
        "duration_ns": 2750566905,
        "uptime_ns": 40448109330
      }, {
        "duration_ns": 2893277887,
        "uptime_ns": 43263705947
      }, {
        "duration_ns": 2848058652,
        "uptime_ns": 46218437930
      }, {
        "duration_ns": 2859042653,
        "uptime_ns": 49130011637
      }, {
        "duration_ns": 2988794036,
        "uptime_ns": 52053270144
      }, {
        "duration_ns": 2854333318,
        "uptime_ns": 55106901899
      }, {
        "duration_ns": 2766908658,
        "uptime_ns": 58026507822
      }, {
        "duration_ns": 2936429306,
        "uptime_ns": 60861848550
      }, {
        "duration_ns": 2913072738,
        "uptime_ns": 63866444738
      }, {
        "duration_ns": 2783171027,
        "uptime_ns": 66849890315
      }, {
        "duration_ns": 2878915423,
        "uptime_ns": 69708918159
      }, {
        "duration_ns": 2904374353,
        "uptime_ns": 72658496995
      }, {
        "duration_ns": 2770245805,
        "uptime_ns": 75629353768
      }, {
        "duration_ns": 2868633746,
        "uptime_ns": 78470544650
      }, {
        "duration_ns": 2910732449,
        "uptime_ns": 81407802744
      }, {
        "duration_ns": 2887119286,
        "uptime_ns": 84385839596
      }, {
        "duration_ns": 2834439786,
        "uptime_ns": 87352080761
      }, {
        "duration_ns": 2798165046,
        "uptime_ns": 90257485135
      }, {
        "duration_ns": 2848674304,
        "uptime_ns": 93132993330
      }, {
        "duration_ns": 2933577823,
        "uptime_ns": 96051754712
      }, {
        "duration_ns": 2901997596,
        "uptime_ns": 99054327102
      }, {
        "duration_ns": 2896942374,
        "uptime_ns": 102028819635
      }, {
        "duration_ns": 2869201349,
        "uptime_ns": 104997156101
      }, {
        "duration_ns": 2849087368,
        "uptime_ns": 107938306786
      }, {
        "duration_ns": 2836723611,
        "uptime_ns": 110861812652
      }, {
        "duration_ns": 3002349244,
        "uptime_ns": 113771194623
      }, {
        "duration_ns": 2886815007,
        "uptime_ns": 116846900421
      }, {
        "duration_ns": 2910775018,
        "uptime_ns": 119807356055
      }, {
        "duration_ns": 2927600520,
        "uptime_ns": 122793390761
      }, {
        "duration_ns": 2870494137,
        "uptime_ns": 125795963845
      }, {
        "duration_ns": 2909718450,
        "uptime_ns": 128745950035
      }, {
        "duration_ns": 2829739568,
        "uptime_ns": 131731522408
      }, {
        "duration_ns": 2878240105,
        "uptime_ns": 134637341307
      }, {
        "duration_ns": 2907570448,
        "uptime_ns": 137593021967
      }, {
        "duration_ns": 2854399902,
        "uptime_ns": 140583476051
      }, {
        "duration_ns": 2961055921,
        "uptime_ns": 143523583972
      }, {
        "duration_ns": 2998403974,
        "uptime_ns": 146594833316
      }, {
        "duration_ns": 2790390963,
        "uptime_ns": 149672455924
      }, {
        "duration_ns": 2864387611,
        "uptime_ns": 152538743005
      }, {
        "duration_ns": 2900612737,
        "uptime_ns": 155486456081
      }, {
        "duration_ns": 2755339318,
        "uptime_ns": 158477691495
      }, {
        "duration_ns": 2865199073,
        "uptime_ns": 161309721516
      }, {
        "duration_ns": 2791425303,
        "uptime_ns": 164251126580
      }, {
        "duration_ns": 2830777700,
        "uptime_ns": 167118919556
      }, {
        "duration_ns": 2886949096,
        "uptime_ns": 170026795600
      }, {
        "duration_ns": 2999143687,
        "uptime_ns": 172989412511
      }, {
        "duration_ns": 2858594632,
        "uptime_ns": 176065107396
      }, {
        "duration_ns": 2968128675,
        "uptime_ns": 179001286873
      }, {
        "duration_ns": 2828301963,
        "uptime_ns": 182057608911
      }, {
        "duration_ns": 2809640379,
        "uptime_ns": 184968850679
      }, {
        "duration_ns": 2886457924,
        "uptime_ns": 187854944854
      }, {
        "duration_ns": 2872671278,
        "uptime_ns": 190818609063
      }, {
        "duration_ns": 2798765972,
        "uptime_ns": 193774546746
      }, {
        "duration_ns": 2811987416,
        "uptime_ns": 196652100781
      }, {
        "duration_ns": 2894477659,
        "uptime_ns": 199547944720
      }, {
        "duration_ns": 2898739813,
        "uptime_ns": 202519429913
      }, {
        "duration_ns": 2901312417,
        "uptime_ns": 205494799185
      }, {
        "duration_ns": 2792796826,
        "uptime_ns": 208473986890
      }, {
        "duration_ns": 2877794952,
        "uptime_ns": 211343638821
      }, {
        "duration_ns": 3011041622,
        "uptime_ns": 214296827032
      }, {
        "duration_ns": 2996363030,
        "uptime_ns": 217392940729
      }, {
        "duration_ns": 2902397301,
        "uptime_ns": 220471369929
      }, {
        "duration_ns": 2872582984,
        "uptime_ns": 223453073855
      }, {
        "duration_ns": 2974692080,
        "uptime_ns": 226421700357
      }, {
        "duration_ns": 3001384631,
        "uptime_ns": 229474257301
      }, {
        "duration_ns": 2841385490,
        "uptime_ns": 232552554622
      }, {
        "duration_ns": 2837570262,
        "uptime_ns": 235469885204
      }, {
        "duration_ns": 2907430031,
        "uptime_ns": 238387761597
      }, {
        "duration_ns": 2811750717,
        "uptime_ns": 241369903239
      }, {
        "duration_ns": 2875662154,
        "uptime_ns": 244264444658
      }, {
        "duration_ns": 2761964342,
        "uptime_ns": 247216756427
      }, {
        "duration_ns": 2887740676,
        "uptime_ns": 250056413365
      }, {
        "duration_ns": 2889214357,
        "uptime_ns": 253033497168
      }, {
        "duration_ns": 2788208054,
        "uptime_ns": 255999467360
      }, {
        "duration_ns": 2831994450,
        "uptime_ns": 258864089689
      }, {
        "duration_ns": 2907644396,
        "uptime_ns": 261776731862
      }, {
        "duration_ns": 2908868930,
        "uptime_ns": 264763397532
      }, {
        "duration_ns": 2814731736,
        "uptime_ns": 267762261814
      }, {
        "duration_ns": 3043273187,
        "uptime_ns": 270654303200
      }, {
        "duration_ns": 2916103246,
        "uptime_ns": 273775598148
      }, {
        "duration_ns": 2906006174,
        "uptime_ns": 276769277476
      }, {
        "duration_ns": 2775403452,
        "uptime_ns": 279751474682
      }, {
        "duration_ns": 2931465880,
        "uptime_ns": 282613166039
      }, {
        "duration_ns": 2813657088,
        "uptime_ns": 285622808002
      }, {
        "duration_ns": 2788021004,
        "uptime_ns": 288514815430
      }, {
        "duration_ns": 2872932810,
        "uptime_ns": 291380584182
      }, {
        "duration_ns": 2967718905,
        "uptime_ns": 294331503958
      }, {
        "duration_ns": 2952009750,
        "uptime_ns": 297378194565
      }, {
        "duration_ns": 2922525206,
        "uptime_ns": 300407069349
      }, {
        "duration_ns": 2835003409,
        "uptime_ns": 303407198972
      }],
      "termination": "normal"
    }
  },
  "environment": {
    "os": {
      "virt_mem_committed": 5950472192,
      "name": "Linux",
      "open_fd_count": 212,
      "phys_mem_free": 1952595968,
      "swap_space_total": 0,
      "available_processors": 4,
      "phys_mem_total": 8348585984,
      "version": "5.4.0-54-generic",
      "arch": "amd64",
      "max_fd_count": 1048576,
      "swap_space_free": 0
    },
    "vm": {
      "termination": "normal",
      "name": "OpenJDK 64-Bit Server VM",
      "spec_vendor": "Oracle Corporation",
      "spec_name": "Java Virtual Machine Specification",
      "classloading": {
        "class_count": 12707,
        "classes_total": 12713
      },
      "compiler": {
        "name": "HotSpot 64-Bit Tiered Compilers",
        "compilation_time_ms": 59017
      },
      "start_iso": "2020-11-25T03:35:32.636Z",
      "collectors": [{
        "name": "G1 Young Generation",
        "collection_count": 1322,
        "collection_time_ms": 7576
      }, {
        "name": "G1 Old Generation",
        "collection_count": 100,
        "collection_time_ms": 7333
      }],
      "start_unix_ms": 1606275332636,
      "version": "11.0.9.1+1-Ubuntu-0ubuntu1.20.04",
      "mode": "mixed mode, sharing",
      "args": [],
      "pools": [{
        "name": "CodeHeap 'non-nmethods'",
        "type": "NON_HEAP",
        "usage": {
          "init": 2555904,
          "used": 1390080,
          "committed": 2555904,
          "max": 5832704
        },
        "peak_usage": {
          "init": 2555904,
          "used": 1428608,
          "committed": 2555904,
          "max": 5832704
        }
      }, {
        "name": "Metaspace",
        "type": "NON_HEAP",
        "usage": {
          "init": 0,
          "used": 82894720,
          "committed": 84983808,
          "max": -1
        },
        "peak_usage": {
          "init": 0,
          "used": 82894720,
          "committed": 84983808,
          "max": -1
        }
      }, {
        "name": "CodeHeap 'profiled nmethods'",
        "type": "NON_HEAP",
        "usage": {
          "init": 2555904,
          "used": 26562432,
          "committed": 33095680,
          "max": 122912768
        },
        "peak_usage": {
          "init": 2555904,
          "used": 32037632,
          "committed": 33095680,
          "max": 122912768
        }
      }, {
        "name": "Compressed Class Space",
        "type": "NON_HEAP",
        "usage": {
          "init": 0,
          "used": 11047056,
          "committed": 11665408,
          "max": 1073741824
        },
        "peak_usage": {
          "init": 0,
          "used": 11047056,
          "committed": 11665408,
          "max": 1073741824
        }
      }, {
        "name": "G1 Eden Space",
        "type": "HEAP",
        "usage": {
          "init": 15728640,
          "used": 26214400,
          "committed": 163577856,
          "max": -1
        },
        "peak_usage": {
          "init": 15728640,
          "used": 304087040,
          "committed": 319815680,
          "max": -1
        }
      }, {
        "name": "G1 Old Gen",
        "type": "HEAP",
        "usage": {
          "init": 116391936,
          "used": 512244480,
          "committed": 709885952,
          "max": 2088763392
        },
        "peak_usage": {
          "init": 116391936,
          "used": 518554176,
          "committed": 791674880,
          "max": 2088763392
        }
      }, {
        "name": "G1 Survivor Space",
        "type": "HEAP",
        "usage": {
          "init": 0,
          "used": 1048576,
          "committed": 1048576,
          "max": -1
        },
        "peak_usage": {
          "init": 0,
          "used": 40894464,
          "committed": 40894464,
          "max": -1
        }
      }, {
        "name": "CodeHeap 'non-profiled nmethods'",
        "type": "NON_HEAP",
        "usage": {
          "init": 2555904,
          "used": 12191232,
          "committed": 12255232,
          "max": 122912768
        },
        "peak_usage": {
          "init": 2555904,
          "used": 12191232,
          "committed": 12255232,
          "max": 122912768
        }
      }],
      "uptime_ms": 306355,
      "vendor": "Ubuntu",
      "threads": {
        "thread_count": 21,
        "thread_count_max": 49,
        "daemon_thread_count": 20,
        "threads_total": 166
      },
      "spec_version": "11",
      "memory": {
        "heap_usage": {
          "init": 132120576,
          "used": 539507456,
          "committed": 874512384,
          "max": 2088763392
        },
        "nonheap_usage": {
          "init": 7667712,
          "used": 134058984,
          "committed": 144556032,
          "max": -1
        },
        "pending_finalization_count": 0
      }
    },
    "jre": {
      "java_version": "11.0.9.1",
      "name": "OpenJDK Runtime Environment",
      "spec_vendor": "Oracle Corporation",
      "spec_name": "Java Platform API Specification",
      "class_path": ["target/renaissance-gpl-0.11.0.jar"],
      "home": "/usr/lib/jvm/java-11-openjdk-amd64",
      "version": "11.0.9.1+1-Ubuntu-0ubuntu1.20.04",
      "java_vendor": "Ubuntu",
      "library_path": ["/usr/java/packages/lib", "/usr/lib/x86_64-linux-gnu/jni", "/lib/x86_64-linux-gnu", "/usr/lib/x86_64-linux-gnu", "/usr/lib/jni", "/lib", "/usr/lib"],
      "spec_version": "11"
    }
  },
  "suite": {
    "git": {
      "commit_hash": null,
      "commit_date": null,
      "dirty": "true"
    },
    "name": null,
    "version": null
  }
}