{
  "benchmarks": ["movie-lens"],
  "format_version": 5,
  "data": {
    "movie-lens": {
      "results": [{
        "duration_ns": 16716761383,
        "uptime_ns": 5787059730
      }, {
        "duration_ns": 12211181831,
        "uptime_ns": 22579462657
      }, {
        "duration_ns": 11407322949,
        "uptime_ns": 34878600102
      }, {
        "duration_ns": 10792404803,
        "uptime_ns": 46373997403
      }, {
        "duration_ns": 11111112332,
        "uptime_ns": 57256815827
      }, {
        "duration_ns": 10203616827,
        "uptime_ns": 68458882501
      }, {
        "duration_ns": 10521106413,
        "uptime_ns": 78753092200
      }, {
        "duration_ns": 10228140721,
        "uptime_ns": 89366048860
      }, {
        "duration_ns": 10489859658,
        "uptime_ns": 99688000068
      }, {
        "duration_ns": 10229033895,
        "uptime_ns": 110270702662
      }, {
        "duration_ns": 10115953237,
        "uptime_ns": 120593934851
      }, {
        "duration_ns": 10079408133,
        "uptime_ns": 130801849014
      }, {
        "duration_ns": 10439693808,
        "uptime_ns": 140976400062
      }, {
        "duration_ns": 10424212972,
        "uptime_ns": 151510923041
      }, {
        "duration_ns": 10247792016,
        "uptime_ns": 162027533370
      }, {
        "duration_ns": 10160253345,
        "uptime_ns": 172366609907
      }, {
        "duration_ns": 10112430401,
        "uptime_ns": 182618765203
      }, {
        "duration_ns": 10233555050,
        "uptime_ns": 192823166575
      }, {
        "duration_ns": 9968675391,
        "uptime_ns": 203145985933
      }, {
        "duration_ns": 10196924391,
        "uptime_ns": 213205275943
      }, {
        "duration_ns": 10345418083,
        "uptime_ns": 223498233487
      }, {
        "duration_ns": 10297599739,
        "uptime_ns": 233932136701
      }, {
        "duration_ns": 9591364804,
        "uptime_ns": 244315898458
      }, {
        "duration_ns": 10127341092,
        "uptime_ns": 253998614217
      }, {
        "duration_ns": 10487413139,
        "uptime_ns": 264213860238
      }, {
        "duration_ns": 10259785343,
        "uptime_ns": 274789175526
      }, {
        "duration_ns": 10119185982,
        "uptime_ns": 285134367699
      }, {
        "duration_ns": 9897174307,
        "uptime_ns": 295342085289
      }, {
        "duration_ns": 10372849922,
        "uptime_ns": 305329736501
      }, {
        "duration_ns": 10080646796,
        "uptime_ns": 315803882861
      }, {
        "duration_ns": 10079285382,
        "uptime_ns": 325970596393
      }, {
        "duration_ns": 9677550958,
        "uptime_ns": 336139680266
      }, {
        "duration_ns": 10275032951,
        "uptime_ns": 345909368065
      }, {
        "duration_ns": 9918499464,
        "uptime_ns": 356272766889
      }, {
        "duration_ns": 9927384159,
        "uptime_ns": 366277301840
      }, {
        "duration_ns": 10110093969,
        "uptime_ns": 376291651470
      }, {
        "duration_ns": 10065860940,
        "uptime_ns": 386489682417
      }, {
        "duration_ns": 10184206712,
        "uptime_ns": 396644562813
      }, {
        "duration_ns": 10062351651,
        "uptime_ns": 406921139130
      }, {
        "duration_ns": 10038970562,
        "uptime_ns": 417074171677
      }, {
        "duration_ns": 9913693663,
        "uptime_ns": 427203664117
      }, {
        "duration_ns": 9869036339,
        "uptime_ns": 437208279571
      }, {
        "duration_ns": 10091072689,
        "uptime_ns": 447165755939
      }, {
        "duration_ns": 9970207001,
        "uptime_ns": 457345105069
      }, {
        "duration_ns": 10399642943,
        "uptime_ns": 467406057430
      }, {
        "duration_ns": 10200020488,
        "uptime_ns": 477894528493
      }, {
        "duration_ns": 10038293162,
        "uptime_ns": 488186081779
      }, {
        "duration_ns": 10184371292,
        "uptime_ns": 498318236435
      }, {
        "duration_ns": 10129867649,
        "uptime_ns": 508592208734
      }, {
        "duration_ns": 9935944118,
        "uptime_ns": 518821851318
      }, {
        "duration_ns": 9987391288,
        "uptime_ns": 528847725802
      }, {
        "duration_ns": 10076817284,
        "uptime_ns": 538926041055
      }, {
        "duration_ns": 9720821091,
        "uptime_ns": 549092095593
      }, {
        "duration_ns": 10217183644,
        "uptime_ns": 558903047904
      }, {
        "duration_ns": 9939398916,
        "uptime_ns": 569208255655
      }, {
        "duration_ns": 10131988643,
        "uptime_ns": 579237837943
      }, {
        "duration_ns": 10179181143,
        "uptime_ns": 589457249265
      }, {
        "duration_ns": 10154935641,
        "uptime_ns": 599727508127
      }, {
        "duration_ns": 10109869175,
        "uptime_ns": 609973324004
      }, {
        "duration_ns": 10114398073,
        "uptime_ns": 620175287307
      }, {
        "duration_ns": 10122976097,
        "uptime_ns": 630378612864
      }, {
        "duration_ns": 10313489282,
        "uptime_ns": 640592962794
      }, {
        "duration_ns": 10110358498,
        "uptime_ns": 650996266746
      }, {
        "duration_ns": 9974043012,
        "uptime_ns": 661200595960
      }, {
        "duration_ns": 10382993388,
        "uptime_ns": 671264085828
      }, {
        "duration_ns": 10415026871,
        "uptime_ns": 681735715062
      }, {
        "duration_ns": 9775968487,
        "uptime_ns": 692237059649
      }, {
        "duration_ns": 10332868906,
        "uptime_ns": 702113304556
      }, {
        "duration_ns": 9979001094,
        "uptime_ns": 712537224374
      }, {
        "duration_ns": 9679525452,
        "uptime_ns": 722609445791
      }, {
        "duration_ns": 10263957927,
        "uptime_ns": 732381968881
      }, {
        "duration_ns": 10492004676,
        "uptime_ns": 742736077446
      }, {
        "duration_ns": 9976240731,
        "uptime_ns": 753314597164
      }, {
        "duration_ns": 10077293205,
        "uptime_ns": 763380487139
      }, {
        "duration_ns": 10306161922,
        "uptime_ns": 773547350328
      }, {
        "duration_ns": 10187737471,
        "uptime_ns": 783943829168
      }, {
        "duration_ns": 10150786947,
        "uptime_ns": 794222093640
      }, {
        "duration_ns": 10089137329,
        "uptime_ns": 804464846732
      }, {
        "duration_ns": 9872132491,
        "uptime_ns": 814646278005
      }, {
        "duration_ns": 10047738089,
        "uptime_ns": 824608858275
      }, {
        "duration_ns": 10106141183,
        "uptime_ns": 834745135037
      }, {
        "duration_ns": 10161788613,
        "uptime_ns": 844941178089
      }, {
        "duration_ns": 9836598211,
        "uptime_ns": 855194623817
      }, {
        "duration_ns": 10251167107,
        "uptime_ns": 865121588201
      }, {
        "duration_ns": 10191804208,
        "uptime_ns": 875461898692
      }, {
        "duration_ns": 10296724092,
        "uptime_ns": 885744992505
      }, {
        "duration_ns": 10253763315,
        "uptime_ns": 896129781830
      }, {
        "duration_ns": 10071546045,
        "uptime_ns": 906475192896
      }, {
        "duration_ns": 10105876628,
        "uptime_ns": 916638543418
      }, {
        "duration_ns": 10397347021,
        "uptime_ns": 926835715144
      }, {
        "duration_ns": 10026277507,
        "uptime_ns": 937320598078
      }, {
        "duration_ns": 10419644401,
        "uptime_ns": 947440145055
      }, {
        "duration_ns": 10174351255,
        "uptime_ns": 957949785113
      }, {
        "duration_ns": 10239580499,
        "uptime_ns": 968218762902
      }, {
        "duration_ns": 10080017340,
        "uptime_ns": 978549111594
      }, {
        "duration_ns": 10285643487,
        "uptime_ns": 988720225035
      }, {
        "duration_ns": 10326256534,
        "uptime_ns": 999097446585
      }, {
        "duration_ns": 10064590612,
        "uptime_ns": 1009513278500
      }, {
        "duration_ns": 10155315250,
        "uptime_ns": 1019667918485
      }, {
        "duration_ns": 10318565841,
        "uptime_ns": 1029913477099
      }],
      "termination": "normal"
    }
  },
  "environment": {
    "os": {
      "virt_mem_committed": 5938274304,
      "name": "Linux",
      "open_fd_count": 212,
      "phys_mem_free": 1803177984,
      "swap_space_total": 0,
      "available_processors": 4,
      "phys_mem_total": 8348585984,
      "version": "5.4.0-54-generic",
      "arch": "amd64",
      "max_fd_count": 1048576,
      "swap_space_free": 0
    },
    "vm": {
      "termination": "normal",
      "name": "OpenJDK 64-Bit Server VM",
      "spec_vendor": "Oracle Corporation",
      "spec_name": "Java Virtual Machine Specification",
      "classloading": {
        "class_count": 9172,
        "classes_total": 37099
      },
      "compiler": {
        "name": "HotSpot 64-Bit Tiered Compilers",
        "compilation_time_ms": 74205
      },
      "start_iso": "2020-11-25T03:49:33.038Z",
      "collectors": [{
        "name": "G1 Young Generation",
        "collection_count": 3487,
        "collection_time_ms": 23376
      }, {
        "name": "G1 Old Generation",
        "collection_count": 100,
        "collection_time_ms": 8850
      }],
      "start_unix_ms": 1606276173038,
      "version": "11.0.9.1+1-Ubuntu-0ubuntu1.20.04",
      "mode": "mixed mode, sharing",
      "args": [],
      "pools": [{
        "name": "CodeHeap 'non-nmethods'",
        "type": "NON_HEAP",
        "usage": {
          "init": 2555904,
          "used": 1928192,
          "committed": 2555904,
          "max": 5832704
        },
        "peak_usage": {
          "init": 2555904,
          "used": 1977728,
          "committed": 2555904,
          "max": 5832704
        }
      }, {
        "name": "Metaspace",
        "type": "NON_HEAP",
        "usage": {
          "init": 0,
          "used": 56205592,
          "committed": 58114048,
          "max": -1
        },
        "peak_usage": {
          "init": 0,
          "used": 56205592,
          "committed": 58114048,
          "max": -1
        }
      }, {
        "name": "CodeHeap 'profiled nmethods'",
        "type": "NON_HEAP",
        "usage": {
          "init": 2555904,
          "used": 13120384,
          "committed": 25690112,
          "max": 122912768
        },
        "peak_usage": {
          "init": 2555904,
          "used": 25342720,
          "committed": 25690112,
          "max": 122912768
        }
      }, {
        "name": "Compressed Class Space",
        "type": "NON_HEAP",
        "usage": {
          "init": 0,
          "used": 7694256,
          "committed": 8388608,
          "max": 1073741824
        },
        "peak_usage": {
          "init": 0,
          "used": 7694256,
          "committed": 8388608,
          "max": 1073741824
        }
      }, {
        "name": "G1 Eden Space",
        "type": "HEAP",
        "usage": {
          "init": 15728640,
          "used": 193986560,
          "committed": 329252864,
          "max": -1
        },
        "peak_usage": {
          "init": 15728640,
          "used": 378535936,
          "committed": 398458880,
          "max": -1
        }
      }, {
        "name": "G1 Old Gen",
        "type": "HEAP",
        "usage": {
          "init": 116391936,
          "used": 101660488,
          "committed": 201326592,
          "max": 2088763392
        },
        "peak_usage": {
          "init": 116391936,
          "used": 279281096,
          "committed": 279969792,
          "max": 2088763392
        }
      }, {
        "name": "G1 Survivor Space",
        "type": "HEAP",
        "usage": {
          "init": 0,
          "used": 13631488,
          "committed": 13631488,
          "max": -1
        },
        "peak_usage": {
          "init": 0,
          "used": 19922944,
          "committed": 19922944,
          "max": -1
        }
      }, {
        "name": "CodeHeap 'non-profiled nmethods'",
        "type": "NON_HEAP",
        "usage": {
          "init": 2555904,
          "used": 15660928,
          "committed": 15663104,
          "max": 122912768
        },
        "peak_usage": {
          "init": 2555904,
          "used": 15661824,
          "committed": 15728640,
          "max": 122912768
        }
      }],
      "uptime_ms": 1040821,
      "vendor": "Ubuntu",
      "threads": {
        "thread_count": 25,
        "thread_count_max": 85,
        "daemon_thread_count": 24,
        "threads_total": 6271
      },
      "spec_version": "11",
      "memory": {
        "heap_usage": {
          "init": 132120576,
          "used": 309278536,
          "committed": 544210944,
          "max": 2088763392
        },
        "nonheap_usage": {
          "init": 7667712,
          "used": 94595608,
          "committed": 110411776,
          "max": -1
        },
        "pending_finalization_count": 0
      }
    },
    "jre": {
      "java_version": "11.0.9.1",
      "name": "OpenJDK Runtime Environment",
      "spec_vendor": "Oracle Corporation",
      "spec_name": "Java Platform API Specification",
      "class_path": ["target/renaissance-gpl-0.11.0.jar"],
      "home": "/usr/lib/jvm/java-11-openjdk-amd64",
      "version": "11.0.9.1+1-Ubuntu-0ubuntu1.20.04",
      "java_vendor": "Ubuntu",
      "library_path": ["/usr/java/packages/lib", "/usr/lib/x86_64-linux-gnu/jni", "/lib/x86_64-linux-gnu", "/usr/lib/x86_64-linux-gnu", "/usr/lib/jni", "/lib", "/usr/lib"],
      "spec_version": "11"
    }
  },
  "suite": {
    "git": {
      "commit_hash": null,
      "commit_date": null,
      "dirty": "true"
    },
    "name": null,
    "version": null
  }
}