benchmark,duration_ns,uptime_ns,vm_start_unix_ms
rx-scrabble,946163650,1636040083,1606283376358
rx-scrabble,534844307,2678655544,1606283376358
rx-scrabble,432544827,3284569794,1606283376358
rx-scrabble,355395259,3780532614,1606283376358
rx-scrabble,212304122,4196261264,1606283376358
rx-scrabble,234071072,4470645874,1606283376358
rx-scrabble,210505349,4782272792,1606283376358
rx-scrabble,220005189,5066232803,1606283376358
rx-scrabble,208100109,5340151617,1606283376358
rx-scrabble,218868960,5604805079,1606283376358
rx-scrabble,219165951,5885038409,1606283376358
rx-scrabble,202999216,6156660183,1606283376358
rx-scrabble,210590365,6417626946,1606283376358
rx-scrabble,212310077,6685085006,1606283376358
rx-scrabble,233982781,6962659356,1606283376358
rx-scrabble,254089993,7251023262,1606283376358
rx-scrabble,247140145,7570290830,1606283376358
rx-scrabble,258783992,7872376583,1606283376358
rx-scrabble,246195992,8183532992,1606283376358
rx-scrabble,253914739,8485934106,1606283376358
rx-scrabble,261166021,8805356301,1606283376358
rx-scrabble,246482996,9119386910,1606283376358
rx-scrabble,249257815,9439480063,1606283376358
rx-scrabble,298284693,9744003953,1606283376358
rx-scrabble,256148941,10096281017,1606283376358
rx-scrabble,251732582,10435683474,1606283376358
rx-scrabble,267090971,10741386108,1606283376358
rx-scrabble,249036368,11057356648,1606283376358
rx-scrabble,268600581,11357015643,1606283376358
rx-scrabble,245253294,11679056235,1606283376358
rx-scrabble,246277331,12000827723,1606283376358
rx-scrabble,274852473,12300859244,1606283376358
rx-scrabble,261796142,12627568654,1606283376358
rx-scrabble,251625996,12946275031,1606283376358
rx-scrabble,296511721,13276632954,1606283376358
rx-scrabble,255129871,13628015446,1606283376358
rx-scrabble,250563884,13960264293,1606283376358
rx-scrabble,294255605,14273862977,1606283376358
rx-scrabble,271027833,14621466974,1606283376358
rx-scrabble,267198775,14949144171,1606283376358
rx-scrabble,255460805,15269354475,1606283376358
rx-scrabble,253452278,15579027415,1606283376358
rx-scrabble,267304259,15894774631,1606283376358
rx-scrabble,256525884,16219245887,1606283376358
rx-scrabble,269342188,16544216098,1606283376358
rx-scrabble,251810497,16866314793,1606283376358
rx-scrabble,259667412,17174670564,1606283376358
rx-scrabble,295188853,17512612688,1606283376358
rx-scrabble,252936714,17868479761,1606283376358
rx-scrabble,254811808,18192698228,1606283376358
rx-scrabble,267199107,18499537196,1606283376358
rx-scrabble,271022400,18816898243,1606283376358
rx-scrabble,262111615,19150626032,1606283376358
rx-scrabble,269146610,19481966028,1606283376358
rx-scrabble,252578241,19804661228,1606283376358
rx-scrabble,261204401,20117593483,1606283376358
rx-scrabble,266318764,20457720141,1606283376358
rx-scrabble,260930290,20778909865,1606283376358
rx-scrabble,281980409,21101477775,1606283376358
rx-scrabble,252648714,21443664986,1606283376358
rx-scrabble,255644064,21773619846,1606283376358
rx-scrabble,330238253,22104514098,1606283376358
rx-scrabble,252256358,22497079321,1606283376358
rx-scrabble,252256666,22802335232,1606283376358
rx-scrabble,265231792,23107740836,1606283376358
rx-scrabble,254869285,23423993653,1606283376358
rx-scrabble,253448212,23733808039,1606283376358
rx-scrabble,263500776,24041377308,1606283376358
rx-scrabble,253442479,24362190534,1606283376358
rx-scrabble,254587816,24672692438,1606283376358
rx-scrabble,327117448,24980878890,1606283376358
rx-scrabble,254370706,25364472240,1606283376358
rx-scrabble,253260053,25670162197,1606283376358
rx-scrabble,259625181,25993164218,1606283376358
rx-scrabble,253141492,26302154776,1606283376358
rx-scrabble,254942644,26605007632,1606283376358
rx-scrabble,253939378,26914022862,1606283376358
rx-scrabble,313283108,27246219957,1606283376358
rx-scrabble,264365055,27615491962,1606283376358
rx-scrabble,256732980,27933758295,1606283376358
rx-scrabble,264970253,28259964920,1606283376358
rx-scrabble,253672608,28578012751,1606283376358
rx-scrabble,254613054,28885678578,1606283376358
rx-scrabble,263999377,29210723209,1606283376358
rx-scrabble,251008150,29526278401,1606283376358
rx-scrabble,268235231,29834220893,1606283376358
rx-scrabble,252546954,30154706691,1606283376358
rx-scrabble,253841201,30475018393,1606283376358
rx-scrabble,254164044,30779162553,1606283376358
rx-scrabble,261106269,31087317881,1606283376358
rx-scrabble,264294747,31426797047,1606283376358
rx-scrabble,256734551,31741657042,1606283376358
rx-scrabble,263973381,32060923634,1606283376358
rx-scrabble,293522734,32377209659,1606283376358
rx-scrabble,250376498,32726915516,1606283376358
rx-scrabble,259638047,33030812679,1606283376358
rx-scrabble,256083135,33361943956,1606283376358
rx-scrabble,253378148,33671739551,1606283376358
rx-scrabble,267281133,34000530125,1606283376358
rx-scrabble,257159950,34319494230,1606283376358
