{
  "benchmarks": ["scrabble"],
  "format_version": 5,
  "data": {
    "scrabble": {
      "results": [{
        "duration_ns": 1616448615,
        "uptime_ns": 1524137842
      }, {
        "duration_ns": 851405930,
        "uptime_ns": 3289558980
      }, {
        "duration_ns": 942121497,
        "uptime_ns": 4254853648
      }, {
        "duration_ns": 956527125,
        "uptime_ns": 5356341548
      }, {
        "duration_ns": 881060135,
        "uptime_ns": 6421719004
      }, {
        "duration_ns": 877807242,
        "uptime_ns": 7425626614
      }, {
        "duration_ns": 956270647,
        "uptime_ns": 8413715798
      }, {
        "duration_ns": 875859948,
        "uptime_ns": 9493069785
      }, {
        "duration_ns": 944621329,
        "uptime_ns": 10478272442
      }, {
        "duration_ns": 959191986,
        "uptime_ns": 11547055471
      }, {
        "duration_ns": 940904112,
        "uptime_ns": 12637033215
      }, {
        "duration_ns": 858823264,
        "uptime_ns": 13706805511
      }, {
        "duration_ns": 855469701,
        "uptime_ns": 14675751053
      }, {
        "duration_ns": 856611141,
        "uptime_ns": 15658062891
      }, {
        "duration_ns": 880696266,
        "uptime_ns": 16637116294
      }, {
        "duration_ns": 861811163,
        "uptime_ns": 17628320747
      }, {
        "duration_ns": 964305407,
        "uptime_ns": 18612074789
      }, {
        "duration_ns": 859002381,
        "uptime_ns": 19696255293
      }, {
        "duration_ns": 895081540,
        "uptime_ns": 20666117157
      }, {
        "duration_ns": 901779605,
        "uptime_ns": 21682907874
      }, {
        "duration_ns": 861208541,
        "uptime_ns": 22711021898
      }, {
        "duration_ns": 878620589,
        "uptime_ns": 23693213797
      }, {
        "duration_ns": 858757801,
        "uptime_ns": 24684393181
      }, {
        "duration_ns": 860189948,
        "uptime_ns": 25665773392
      }, {
        "duration_ns": 936481504,
        "uptime_ns": 26647750670
      }, {
        "duration_ns": 947662201,
        "uptime_ns": 27695280862
      }, {
        "duration_ns": 864007814,
        "uptime_ns": 28768709473
      }, {
        "duration_ns": 857665161,
        "uptime_ns": 29745255086
      }, {
        "duration_ns": 858592795,
        "uptime_ns": 30727577840
      }, {
        "duration_ns": 865843886,
        "uptime_ns": 31707846669
      }, {
        "duration_ns": 933212011,
        "uptime_ns": 32695890360
      }, {
        "duration_ns": 859851305,
        "uptime_ns": 33751420444
      }, {
        "duration_ns": 862598273,
        "uptime_ns": 34737748607
      }, {
        "duration_ns": 865414260,
        "uptime_ns": 35723851052
      }, {
        "duration_ns": 964044152,
        "uptime_ns": 36711408035
      }, {
        "duration_ns": 865189118,
        "uptime_ns": 37803241781
      }, {
        "duration_ns": 854864348,
        "uptime_ns": 38779160463
      }, {
        "duration_ns": 857206240,
        "uptime_ns": 39756870255
      }, {
        "duration_ns": 859884034,
        "uptime_ns": 40735800717
      }, {
        "duration_ns": 991347293,
        "uptime_ns": 41719659795
      }, {
        "duration_ns": 847000691,
        "uptime_ns": 42823398714
      }, {
        "duration_ns": 959658102,
        "uptime_ns": 43792134427
      }, {
        "duration_ns": 858800838,
        "uptime_ns": 44859773279
      }, {
        "duration_ns": 967964443,
        "uptime_ns": 45838540767
      }, {
        "duration_ns": 954744895,
        "uptime_ns": 46919335650
      }, {
        "duration_ns": 870512583,
        "uptime_ns": 47993514004
      }, {
        "duration_ns": 865096711,
        "uptime_ns": 48971521202
      }, {
        "duration_ns": 867500781,
        "uptime_ns": 49956337209
      }, {
        "duration_ns": 908566442,
        "uptime_ns": 50945059118
      }, {
        "duration_ns": 864864701,
        "uptime_ns": 51974185388
      }, {
        "duration_ns": 853811746,
        "uptime_ns": 52959839689
      }, {
        "duration_ns": 964393903,
        "uptime_ns": 53936789441
      }, {
        "duration_ns": 954022874,
        "uptime_ns": 55022696801
      }, {
        "duration_ns": 843382978,
        "uptime_ns": 56088272315
      }, {
        "duration_ns": 849828418,
        "uptime_ns": 57051863784
      }, {
        "duration_ns": 868647853,
        "uptime_ns": 58022371948
      }, {
        "duration_ns": 858497129,
        "uptime_ns": 59011411521
      }, {
        "duration_ns": 860123999,
        "uptime_ns": 59991515749
      }, {
        "duration_ns": 859936542,
        "uptime_ns": 60973968053
      }, {
        "duration_ns": 1006589683,
        "uptime_ns": 61955255465
      }, {
        "duration_ns": 858188068,
        "uptime_ns": 63089711071
      }, {
        "duration_ns": 872808058,
        "uptime_ns": 64067127842
      }, {
        "duration_ns": 911221943,
        "uptime_ns": 65052145272
      }, {
        "duration_ns": 921621298,
        "uptime_ns": 66083830611
      }, {
        "duration_ns": 948540825,
        "uptime_ns": 67125885766
      }, {
        "duration_ns": 869371189,
        "uptime_ns": 68203422162
      }, {
        "duration_ns": 860883215,
        "uptime_ns": 69179438156
      }, {
        "duration_ns": 959480257,
        "uptime_ns": 70160867269
      }, {
        "duration_ns": 952255567,
        "uptime_ns": 71240804421
      }, {
        "duration_ns": 937653723,
        "uptime_ns": 72303569593
      }, {
        "duration_ns": 865924776,
        "uptime_ns": 73361456705
      }, {
        "duration_ns": 858543928,
        "uptime_ns": 74335986959
      }, {
        "duration_ns": 863472202,
        "uptime_ns": 75315333646
      }, {
        "duration_ns": 864401248,
        "uptime_ns": 76302196084
      }, {
        "duration_ns": 962568557,
        "uptime_ns": 77289085324
      }, {
        "duration_ns": 946046512,
        "uptime_ns": 78364596081
      }, {
        "duration_ns": 849200287,
        "uptime_ns": 79444156869
      }, {
        "duration_ns": 874298204,
        "uptime_ns": 80412952947
      }, {
        "duration_ns": 869034938,
        "uptime_ns": 81399810258
      }, {
        "duration_ns": 954015516,
        "uptime_ns": 82389338687
      }, {
        "duration_ns": 856365765,
        "uptime_ns": 83464826705
      }, {
        "duration_ns": 960002007,
        "uptime_ns": 84441389092
      }, {
        "duration_ns": 876206576,
        "uptime_ns": 85523542302
      }, {
        "duration_ns": 853822389,
        "uptime_ns": 86507106162
      }, {
        "duration_ns": 862753448,
        "uptime_ns": 87482500003
      }, {
        "duration_ns": 972508318,
        "uptime_ns": 88465330654
      }, {
        "duration_ns": 872069116,
        "uptime_ns": 89562659987
      }, {
        "duration_ns": 945180761,
        "uptime_ns": 90543522084
      }, {
        "duration_ns": 949762263,
        "uptime_ns": 91611180021
      }, {
        "duration_ns": 852604241,
        "uptime_ns": 92667649977
      }, {
        "duration_ns": 951922836,
        "uptime_ns": 93639766303
      }, {
        "duration_ns": 851057481,
        "uptime_ns": 94714421608
      }, {
        "duration_ns": 871413800,
        "uptime_ns": 95685768926
      }, {
        "duration_ns": 863235822,
        "uptime_ns": 96668033961
      }, {
        "duration_ns": 854945700,
        "uptime_ns": 97652478505
      }, {
        "duration_ns": 962448387,
        "uptime_ns": 98628357528
      }, {
        "duration_ns": 872589127,
        "uptime_ns": 99712148885
      }, {
        "duration_ns": 955803753,
        "uptime_ns": 100692825157
      }, {
        "duration_ns": 867156306,
        "uptime_ns": 101776839073
      }, {
        "duration_ns": 866579016,
        "uptime_ns": 102751322659
      }],
      "termination": "normal"
    }
  },
  "environment": {
    "os": {
      "virt_mem_committed": 5514661888,
      "name": "Linux",
      "open_fd_count": 18,
      "phys_mem_free": 2383159296,
      "swap_space_total": 0,
      "available_processors": 4,
      "phys_mem_total": 8348585984,
      "version": "5.4.0-54-generic",
      "arch": "amd64",
      "max_fd_count": 1048576,
      "swap_space_free": 0
    },
    "vm": {
      "termination": "normal",
      "name": "OpenJDK 64-Bit Server VM",
      "spec_vendor": "Oracle Corporation",
      "spec_name": "Java Virtual Machine Specification",
      "classloading": {
        "class_count": 2577,
        "classes_total": 2585
      },
      "compiler": {
        "name": "HotSpot 64-Bit Tiered Compilers",
        "compilation_time_ms": 7292
      },
      "start_iso": "2020-11-25T06:05:29.435Z",
      "collectors": [{
        "name": "G1 Young Generation",
        "collection_count": 809,
        "collection_time_ms": 8188
      }, {
        "name": "G1 Old Generation",
        "collection_count": 100,
        "collection_time_ms": 11695
      }],
      "start_unix_ms": 1606284329435,
      "version": "11.0.9.1+1-Ubuntu-0ubuntu1.20.04",
      "mode": "mixed mode, sharing",
      "args": [],
      "pools": [{
        "name": "CodeHeap 'non-nmethods'",
        "type": "NON_HEAP",
        "usage": {
          "init": 2555904,
          "used": 1175680,
          "committed": 2555904,
          "max": 5832704
        },
        "peak_usage": {
          "init": 2555904,
          "used": 1187840,
          "committed": 2555904,
          "max": 5832704
        }
      }, {
        "name": "Metaspace",
        "type": "NON_HEAP",
        "usage": {
          "init": 0,
          "used": 14186392,
          "committed": 15859712,
          "max": -1
        },
        "peak_usage": {
          "init": 0,
          "used": 14186976,
          "committed": 15859712,
          "max": -1
        }
      }, {
        "name": "CodeHeap 'profiled nmethods'",
        "type": "NON_HEAP",
        "usage": {
          "init": 2555904,
          "used": 3101696,
          "committed": 3276800,
          "max": 122912768
        },
        "peak_usage": {
          "init": 2555904,
          "used": 3220736,
          "committed": 3276800,
          "max": 122912768
        }
      }, {
        "name": "Compressed Class Space",
        "type": "NON_HEAP",
        "usage": {
          "init": 0,
          "used": 2341208,
          "committed": 2752512,
          "max": 1073741824
        },
        "peak_usage": {
          "init": 0,
          "used": 2341208,
          "committed": 2752512,
          "max": 1073741824
        }
      }, {
        "name": "G1 Eden Space",
        "type": "HEAP",
        "usage": {
          "init": 15728640,
          "used": 330301440,
          "committed": 479199232,
          "max": -1
        },
        "peak_usage": {
          "init": 15728640,
          "used": 443547648,
          "committed": 483393536,
          "max": -1
        }
      }, {
        "name": "G1 Old Gen",
        "type": "HEAP",
        "usage": {
          "init": 116391936,
          "used": 80895896,
          "committed": 296747008,
          "max": 2088763392
        },
        "peak_usage": {
          "init": 116391936,
          "used": 85596728,
          "committed": 331350016,
          "max": 2088763392
        }
      }, {
        "name": "G1 Survivor Space",
        "type": "HEAP",
        "usage": {
          "init": 0,
          "used": 25165824,
          "committed": 25165824,
          "max": -1
        },
        "peak_usage": {
          "init": 0,
          "used": 32505856,
          "committed": 32505856,
          "max": -1
        }
      }, {
        "name": "CodeHeap 'non-profiled nmethods'",
        "type": "NON_HEAP",
        "usage": {
          "init": 2555904,
          "used": 906368,
          "committed": 2555904,
          "max": 122912768
        },
        "peak_usage": {
          "init": 2555904,
          "used": 933504,
          "committed": 2555904,
          "max": 122912768
        }
      }],
      "uptime_ms": 103709,
      "vendor": "Ubuntu",
      "threads": {
        "thread_count": 8,
        "thread_count_max": 9,
        "daemon_thread_count": 7,
        "threads_total": 108
      },
      "spec_version": "11",
      "memory": {
        "heap_usage": {
          "init": 132120576,
          "used": 436363160,
          "committed": 801112064,
          "max": 2088763392
        },
        "nonheap_usage": {
          "init": 7667712,
          "used": 21657344,
          "committed": 27000832,
          "max": -1
        },
        "pending_finalization_count": 0
      }
    },
    "jre": {
      "java_version": "11.0.9.1",
      "name": "OpenJDK Runtime Environment",
      "spec_vendor": "Oracle Corporation",
      "spec_name": "Java Platform API Specification",
      "class_path": ["target/renaissance-gpl-0.11.0.jar"],
      "home": "/usr/lib/jvm/java-11-openjdk-amd64",
      "version": "11.0.9.1+1-Ubuntu-0ubuntu1.20.04",
      "java_vendor": "Ubuntu",
      "library_path": ["/usr/java/packages/lib", "/usr/lib/x86_64-linux-gnu/jni", "/lib/x86_64-linux-gnu", "/usr/lib/x86_64-linux-gnu", "/usr/lib/jni", "/lib", "/usr/lib"],
      "spec_version": "11"
    }
  },
  "suite": {
    "git": {
      "commit_hash": null,
      "commit_date": null,
      "dirty": "true"
    },
    "name": null,
    "version": null
  }
}