benchmark,duration_ns,uptime_ns,vm_start_unix_ms
fj-kmeans,2569971375,578312188,1606232074190
fj-kmeans,2190718334,3176117396,1606232074190
fj-kmeans,2257909125,5397163230,1606232074190
fj-kmeans,2215117291,7683189855,1606232074190
fj-kmeans,2184496458,9925833063,1606232074190
fj-kmeans,2231463166,12140073855,1606232074190
fj-kmeans,2205942709,14399243271,1606232074190
fj-kmeans,2231291166,16632291605,1606232074190
fj-kmeans,2197272833,18891473480,1606232074190
fj-kmeans,2224785250,21116314355,1606232074190
fj-kmeans,2200233958,23370715355,1606232074190
fj-kmeans,2203739750,25599844896,1606232074190
fj-kmeans,2206210417,27833052438,1606232074190
fj-kmeans,2179334708,30068835438,1606232074190
fj-kmeans,2212988833,32277721730,1606232074190
fj-kmeans,2215810833,34520177938,1606232074190
fj-kmeans,2235752333,36765151980,1606232074190
fj-kmeans,2176072916,39029724855,1606232074190
fj-kmeans,2234144750,41236670188,1606232074190
fj-kmeans,2184967791,43498267855,1606232074190
fj-kmeans,2196814917,45711111396,1606232074190
fj-kmeans,2235089375,47936029730,1606232074190
fj-kmeans,2194067834,50198190771,1606232074190
fj-kmeans,2211067000,52419132146,1606232074190
fj-kmeans,2203789291,54658646730,1606232074190
fj-kmeans,2220076042,56893260521,1606232074190
fj-kmeans,2196215500,59143029605,1606232074190
fj-kmeans,2219131875,61366718730,1606232074190
fj-kmeans,2174963834,63617974771,1606232074190
fj-kmeans,2198518500,65820592438,1606232074190
fj-kmeans,2217624833,68048145938,1606232074190
fj-kmeans,2176904500,70293286896,1606232074190
fj-kmeans,2210196375,72499394105,1606232074190
fj-kmeans,2191968917,74738597896,1606232074190
fj-kmeans,2235876125,76957684396,1606232074190
fj-kmeans,2172281416,79220723355,1606232074190
fj-kmeans,2185597583,81421076688,1606232074190
fj-kmeans,2227250584,83635213021,1606232074190
fj-kmeans,2172830208,85890410105,1606232074190
fj-kmeans,2205581500,88093091021,1606232074190
fj-kmeans,2188946041,90329838730,1606232074190
fj-kmeans,2217810167,92545745688,1606232074190
fj-kmeans,2185290375,94791661563,1606232074190
fj-kmeans,2181224000,97005964730,1606232074190
fj-kmeans,2228523917,99215556521,1606232074190
fj-kmeans,2196999375,101471745855,1606232074190
fj-kmeans,2234077375,103696974021,1606232074190
fj-kmeans,2189713583,105960087063,1606232074190
fj-kmeans,2205337208,108180058438,1606232074190
fj-kmeans,2182916625,110414996021,1606232074190
fj-kmeans,2209269833,112628090980,1606232074190
fj-kmeans,2183745459,114867566896,1606232074190
fj-kmeans,2210917208,117080401980,1606232074190
fj-kmeans,2197692667,119317178521,1606232074190
fj-kmeans,2191671625,121542378605,1606232074190
fj-kmeans,2234876083,123762625313,1606232074190
fj-kmeans,2190128875,126025183271,1606232074190
fj-kmeans,2209259042,128244527438,1606232074190
fj-kmeans,2167534583,130483712188,1606232074190
fj-kmeans,2230754084,132680171271,1606232074190
fj-kmeans,2182676458,134938868438,1606232074190
fj-kmeans,2191182041,137148526230,1606232074190
fj-kmeans,2207096416,139366579355,1606232074190
fj-kmeans,2160532166,141602290355,1606232074190
fj-kmeans,2219595584,143793668896,1606232074190
fj-kmeans,2161521459,146040906146,1606232074190
fj-kmeans,2212975125,148232022146,1606232074190
fj-kmeans,2194629958,150473759313,1606232074190
fj-kmeans,2174720292,152696678938,1606232074190
fj-kmeans,2234488542,154899115271,1606232074190
fj-kmeans,2179408708,157161305938,1606232074190
fj-kmeans,2244876792,159369964063,1606232074190
fj-kmeans,2197356542,161642528813,1606232074190
fj-kmeans,2206725458,163868016230,1606232074190
fj-kmeans,2177026500,166102078938,1606232074190
fj-kmeans,2196098083,168308692063,1606232074190
fj-kmeans,2192304042,170537629313,1606232074190
fj-kmeans,2196246667,172758870021,1606232074190
fj-kmeans,2210883333,174982306813,1606232074190
fj-kmeans,2180520250,177221570105,1606232074190
fj-kmeans,2219418083,179430876813,1606232074190
fj-kmeans,2174828000,181679998688,1606232074190
fj-kmeans,2220375833,183883288563,1606232074190
fj-kmeans,2166919250,186133353855,1606232074190
fj-kmeans,2181231042,188327411813,1606232074190
fj-kmeans,2227157916,190540385605,1606232074190
fj-kmeans,2182553292,192794736521,1606232074190
fj-kmeans,2231238542,195006197313,1606232074190
fj-kmeans,2172919083,197266035938,1606232074190
fj-kmeans,2215574500,199468191605,1606232074190
fj-kmeans,2186322667,201712343396,1606232074190
fj-kmeans,2214803792,203927118396,1606232074190
fj-kmeans,2174763583,206169232105,1606232074190
fj-kmeans,2165466542,208372839771,1606232074190
fj-kmeans,2204628458,210565830063,1606232074190
fj-kmeans,2169898250,212798395105,1606232074190
fj-kmeans,2211425250,214997255146,1606232074190
fj-kmeans,2165614875,217237356980,1606232074190
fj-kmeans,2220204500,219431922188,1606232074190
fj-kmeans,2196743875,221682485771,1606232074190
