benchmark,duration_ns,uptime_ns,vm_start_unix_ms
gauss-mix,1875750875,2201221730,1606232404107
gauss-mix,1101475750,4101166230,1606232404107
gauss-mix,1062363292,5225209438,1606232404107
gauss-mix,1044421417,6312391438,1606232404107
gauss-mix,1036534416,7380684105,1606232404107
gauss-mix,1039598125,8441016063,1606232404107
gauss-mix,1033331708,9506534063,1606232404107
gauss-mix,1034598500,10567058813,1606232404107
gauss-mix,1026059375,11627778396,1606232404107
gauss-mix,1033556125,12679844896,1606232404107
gauss-mix,1027296875,13744299063,1606232404107
gauss-mix,1019112250,14800485605,1606232404107
gauss-mix,1018263333,15848481188,1606232404107
gauss-mix,1015930250,16895329230,1606232404107
gauss-mix,1015042416,17941390605,1606232404107
gauss-mix,1018689667,18984484313,1606232404107
gauss-mix,1013551166,20034411105,1606232404107
gauss-mix,1006625625,21077126355,1606232404107
gauss-mix,1012960041,22113071230,1606232404107
gauss-mix,1012999541,23156328230,1606232404107
gauss-mix,1008842959,24199334771,1606232404107
gauss-mix,1007667750,25238320771,1606232404107
gauss-mix,1004591500,26276373730,1606232404107
gauss-mix,1017944000,27310820355,1606232404107
gauss-mix,1006693666,28359511105,1606232404107
gauss-mix,1006876292,29395948438,1606232404107
gauss-mix,1015176916,30432967855,1606232404107
gauss-mix,1003586125,31481090896,1606232404107
gauss-mix,1009103875,32516613063,1606232404107
gauss-mix,1008592833,33554643563,1606232404107
gauss-mix,1006329875,34592737813,1606232404107
gauss-mix,1014073875,35628935480,1606232404107
gauss-mix,1011542708,36673021980,1606232404107
gauss-mix,1011161125,37715351896,1606232404107
gauss-mix,1008235417,38756901396,1606232404107
gauss-mix,1007425583,39796691313,1606232404107
gauss-mix,1009612667,40834406771,1606232404107
gauss-mix,1005557708,41873771480,1606232404107
gauss-mix,1012682916,42910374605,1606232404107
gauss-mix,1020379417,43953018813,1606232404107
gauss-mix,1001897042,45006983896,1606232404107
gauss-mix,997118000,46039102855,1606232404107
gauss-mix,1005829041,47068091105,1606232404107
gauss-mix,1007449000,48104220938,1606232404107
gauss-mix,1002312958,49142466063,1606232404107
gauss-mix,1003687209,50175788271,1606232404107
gauss-mix,1001348959,51210391771,1606232404107
gauss-mix,994857875,52243698396,1606232404107
gauss-mix,1005395042,53270430063,1606232404107
gauss-mix,999616125,54306896230,1606232404107
gauss-mix,998220834,55338256646,1606232404107
gauss-mix,999814083,56371573188,1606232404107
gauss-mix,995581125,57404806105,1606232404107
gauss-mix,1006400417,58430330771,1606232404107
gauss-mix,995614834,59472908396,1606232404107
gauss-mix,998538084,60500028396,1606232404107
gauss-mix,995771750,61531085188,1606232404107
gauss-mix,998050083,62558793938,1606232404107
gauss-mix,1006505666,63589636855,1606232404107
gauss-mix,995709375,64625933730,1606232404107
gauss-mix,1000050375,65655778980,1606232404107
gauss-mix,1005963583,66689387105,1606232404107
gauss-mix,1014595917,67727788521,1606232404107
gauss-mix,1006893750,68781327230,1606232404107
gauss-mix,996946750,69821961605,1606232404107
gauss-mix,995416125,70849013813,1606232404107
gauss-mix,1001707500,71877888480,1606232404107
gauss-mix,1000486584,72911751646,1606232404107
gauss-mix,1012344041,73945772105,1606232404107
gauss-mix,996280625,74990883230,1606232404107
gauss-mix,1011599958,76021788855,1606232404107
gauss-mix,1001546250,77065706271,1606232404107
gauss-mix,1009303375,78100050563,1606232404107
gauss-mix,997954375,79142780896,1606232404107
gauss-mix,999818583,80171888563,1606232404107
gauss-mix,996511084,81203813021,1606232404107
gauss-mix,994860250,82233707896,1606232404107
gauss-mix,1010999667,83263862396,1606232404107
gauss-mix,998153458,84307354313,1606232404107
gauss-mix,1000874125,85337681396,1606232404107
gauss-mix,993089250,86370399813,1606232404107
gauss-mix,993977291,87395312980,1606232404107
gauss-mix,994730500,88423700355,1606232404107
gauss-mix,996107583,89453117938,1606232404107
gauss-mix,992663459,90484498646,1606232404107
gauss-mix,993026625,91511341271,1606232404107
gauss-mix,993610792,92536738521,1606232404107
gauss-mix,999293375,93563452605,1606232404107
gauss-mix,992039917,94596071313,1606232404107
gauss-mix,1000428834,95621838146,1606232404107
gauss-mix,997838791,96655679605,1606232404107
gauss-mix,998668375,97686528230,1606232404107
gauss-mix,997488417,98717430521,1606232404107
gauss-mix,1000049958,99747703938,1606232404107
gauss-mix,991235750,100781347438,1606232404107
gauss-mix,994040500,101805434896,1606232404107
gauss-mix,992440125,102830495938,1606232404107
gauss-mix,1002174125,103854860480,1606232404107
gauss-mix,994501666,104891297105,1606232404107
gauss-mix,997317916,105918672980,1606232404107
