{
  "benchmarks": ["log-regression"],
  "format_version": 5,
  "data": {
    "log-regression": {
      "results": [{
        "duration_ns": 3244943792,
        "uptime_ns": 1927423813
      }, {
        "duration_ns": 1313938000,
        "uptime_ns": 5223215605
      }, {
        "duration_ns": 1085382083,
        "uptime_ns": 6564502855
      }, {
        "duration_ns": 1152518209,
        "uptime_ns": 7685374896
      }, {
        "duration_ns": 1036686000,
        "uptime_ns": 8867754021
      }, {
        "duration_ns": 1069901375,
        "uptime_ns": 9935171813
      }, {
        "duration_ns": 1058442667,
        "uptime_ns": 11035578646
      }, {
        "duration_ns": 1187480167,
        "uptime_ns": 12125364396
      }, {
        "duration_ns": 1002506583,
        "uptime_ns": 13343242105
      }, {
        "duration_ns": 1116418041,
        "uptime_ns": 14381347105
      }, {
        "duration_ns": 1022968250,
        "uptime_ns": 15531572396
      }, {
        "duration_ns": 1106377667,
        "uptime_ns": 16590058771
      }, {
        "duration_ns": 974089791,
        "uptime_ns": 17730418980
      }, {
        "duration_ns": 1145845584,
        "uptime_ns": 18742138021
      }, {
        "duration_ns": 996614166,
        "uptime_ns": 19922421230
      }, {
        "duration_ns": 1129760042,
        "uptime_ns": 20955423688
      }, {
        "duration_ns": 974803083,
        "uptime_ns": 22118286855
      }, {
        "duration_ns": 1066028625,
        "uptime_ns": 23125954688
      }, {
        "duration_ns": 998381791,
        "uptime_ns": 24226176730
      }, {
        "duration_ns": 1112595208,
        "uptime_ns": 25257621230
      }, {
        "duration_ns": 978484208,
        "uptime_ns": 26403164688
      }, {
        "duration_ns": 1147260500,
        "uptime_ns": 27416203771
      }, {
        "duration_ns": 971268916,
        "uptime_ns": 28596943855
      }, {
        "duration_ns": 1130772584,
        "uptime_ns": 29604190521
      }, {
        "duration_ns": 969475625,
        "uptime_ns": 30771793521
      }, {
        "duration_ns": 1105468750,
        "uptime_ns": 31776712521
      }, {
        "duration_ns": 962274875,
        "uptime_ns": 32918419480
      }, {
        "duration_ns": 1084139958,
        "uptime_ns": 33917334480
      }, {
        "duration_ns": 962873500,
        "uptime_ns": 35035552980
      }, {
        "duration_ns": 1108041833,
        "uptime_ns": 36034665855
      }, {
        "duration_ns": 977075000,
        "uptime_ns": 37176910605
      }, {
        "duration_ns": 1072024542,
        "uptime_ns": 38191610021
      }, {
        "duration_ns": 961779792,
        "uptime_ns": 39299338271
      }, {
        "duration_ns": 1064742375,
        "uptime_ns": 40298714521
      }, {
        "duration_ns": 972271875,
        "uptime_ns": 41402154563
      }, {
        "duration_ns": 1058257250,
        "uptime_ns": 42412484480
      }, {
        "duration_ns": 963990333,
        "uptime_ns": 43506999813
      }, {
        "duration_ns": 1073846750,
        "uptime_ns": 44508351980
      }, {
        "duration_ns": 977947167,
        "uptime_ns": 45619626813
      }, {
        "duration_ns": 1045436958,
        "uptime_ns": 46635525480
      }, {
        "duration_ns": 970247542,
        "uptime_ns": 47718734813
      }, {
        "duration_ns": 1060889792,
        "uptime_ns": 48727311771
      }, {
        "duration_ns": 960492167,
        "uptime_ns": 49825533063
      }, {
        "duration_ns": 1029130959,
        "uptime_ns": 50825013646
      }, {
        "duration_ns": 968312875,
        "uptime_ns": 51895225896
      }, {
        "duration_ns": 1081843333,
        "uptime_ns": 52903465230
      }, {
        "duration_ns": 965705625,
        "uptime_ns": 54026457355
      }, {
        "duration_ns": 1042568750,
        "uptime_ns": 55033802021
      }, {
        "duration_ns": 969952917,
        "uptime_ns": 56114937688
      }, {
        "duration_ns": 1050696750,
        "uptime_ns": 57125995563
      }, {
        "duration_ns": 1049472500,
        "uptime_ns": 58219312396
      }, {
        "duration_ns": 965623292,
        "uptime_ns": 59306632521
      }, {
        "duration_ns": 1040169042,
        "uptime_ns": 60312860896
      }, {
        "duration_ns": 966309125,
        "uptime_ns": 61392196813
      }, {
        "duration_ns": 1047552375,
        "uptime_ns": 62401123771
      }, {
        "duration_ns": 992742209,
        "uptime_ns": 63487906896
      }, {
        "duration_ns": 1062502417,
        "uptime_ns": 64520769563
      }, {
        "duration_ns": 958777792,
        "uptime_ns": 65622933563
      }, {
        "duration_ns": 1052164250,
        "uptime_ns": 66623541646
      }, {
        "duration_ns": 974682125,
        "uptime_ns": 67714824188
      }, {
        "duration_ns": 1031955041,
        "uptime_ns": 68731161230
      }, {
        "duration_ns": 966312208,
        "uptime_ns": 69802975230
      }, {
        "duration_ns": 1040578333,
        "uptime_ns": 70813970688
      }, {
        "duration_ns": 954336250,
        "uptime_ns": 71894469230
      }, {
        "duration_ns": 1074401666,
        "uptime_ns": 72890013105
      }, {
        "duration_ns": 950329042,
        "uptime_ns": 74002545063
      }, {
        "duration_ns": 1040850667,
        "uptime_ns": 74993785688
      }, {
        "duration_ns": 954154667,
        "uptime_ns": 76074634813
      }, {
        "duration_ns": 1035790625,
        "uptime_ns": 77069627105
      }, {
        "duration_ns": 965334666,
        "uptime_ns": 78145180980
      }, {
        "duration_ns": 1049272125,
        "uptime_ns": 79151585313
      }, {
        "duration_ns": 956925500,
        "uptime_ns": 80241110896
      }, {
        "duration_ns": 1026073541,
        "uptime_ns": 81239646855
      }, {
        "duration_ns": 953813333,
        "uptime_ns": 82304365313
      }, {
        "duration_ns": 1042789542,
        "uptime_ns": 83298964521
      }, {
        "duration_ns": 946536875,
        "uptime_ns": 84379633021
      }, {
        "duration_ns": 1039228625,
        "uptime_ns": 85365565813
      }, {
        "duration_ns": 945651083,
        "uptime_ns": 86443125313
      }, {
        "duration_ns": 1055131792,
        "uptime_ns": 87429424813
      }, {
        "duration_ns": 978593833,
        "uptime_ns": 88524397605
      }, {
        "duration_ns": 1034191916,
        "uptime_ns": 89544556230
      }, {
        "duration_ns": 965653042,
        "uptime_ns": 90618277646
      }, {
        "duration_ns": 1045480959,
        "uptime_ns": 91626012271
      }, {
        "duration_ns": 950991583,
        "uptime_ns": 92711530980
      }, {
        "duration_ns": 1044801583,
        "uptime_ns": 93703453688
      }, {
        "duration_ns": 964112000,
        "uptime_ns": 94789284313
      }, {
        "duration_ns": 1022490459,
        "uptime_ns": 95794020771
      }, {
        "duration_ns": 968629791,
        "uptime_ns": 96856113980
      }, {
        "duration_ns": 1040392083,
        "uptime_ns": 97865411355
      }, {
        "duration_ns": 953461416,
        "uptime_ns": 98952094230
      }, {
        "duration_ns": 1030612750,
        "uptime_ns": 99946048396
      }, {
        "duration_ns": 945450292,
        "uptime_ns": 101018284271
      }, {
        "duration_ns": 1026831792,
        "uptime_ns": 102005661438
      }, {
        "duration_ns": 957338458,
        "uptime_ns": 103071516438
      }, {
        "duration_ns": 1032003042,
        "uptime_ns": 104072972813
      }, {
        "duration_ns": 947390792,
        "uptime_ns": 105147381938
      }, {
        "duration_ns": 1038190333,
        "uptime_ns": 106135449605
      }, {
        "duration_ns": 936293167,
        "uptime_ns": 107213648063
      }, {
        "duration_ns": 1028977292,
        "uptime_ns": 108191246271
      }, {
        "duration_ns": 1042637833,
        "uptime_ns": 109260201813
      }],
      "termination": "normal"
    }
  },
  "environment": {
    "os": {
      "virt_mem_committed": 425233432576,
      "name": "Mac OS X",
      "open_fd_count": 260,
      "phys_mem_free": 2876129280,
      "swap_space_total": 1073741824,
      "available_processors": 8,
      "phys_mem_total": 17179869184,
      "version": "11.0",
      "arch": "aarch64",
      "max_fd_count": 10240,
      "swap_space_free": 1045430272
    },
    "vm": {
      "termination": "normal",
      "name": "OpenJDK 64-Bit Server VM",
      "spec_vendor": "Oracle Corporation",
      "spec_name": "Java Virtual Machine Specification",
      "classloading": {
        "class_count": 12651,
        "classes_total": 12657
      },
      "compiler": {
        "name": "HotSpot 64-Bit Tiered Compilers",
        "compilation_time_ms": 25431
      },
      "start_iso": "2020-11-24T15:41:51.139Z",
      "collectors": [{
        "name": "G1 Young Generation",
        "collection_count": 1074,
        "collection_time_ms": 3728
      }, {
        "name": "G1 Old Generation",
        "collection_count": 100,
        "collection_time_ms": 3748
      }],
      "start_unix_ms": 1606232511139,
      "version": "11.0.9.1+1-LTS",
      "mode": "mixed mode",
      "args": [],
      "pools": [{
        "name": "CodeHeap 'non-nmethods'",
        "type": "NON_HEAP",
        "usage": {
          "init": 2555904,
          "used": 1773568,
          "committed": 2555904,
          "max": 5849088
        },
        "peak_usage": {
          "init": 2555904,
          "used": 1936512,
          "committed": 2555904,
          "max": 5849088
        }
      }, {
        "name": "Metaspace",
        "type": "NON_HEAP",
        "usage": {
          "init": 0,
          "used": 88980808,
          "committed": 90587136,
          "max": -1
        },
        "peak_usage": {
          "init": 0,
          "used": 88980808,
          "committed": 90587136,
          "max": -1
        }
      }, {
        "name": "CodeHeap 'profiled nmethods'",
        "type": "NON_HEAP",
        "usage": {
          "init": 2555904,
          "used": 28705664,
          "committed": 34471936,
          "max": 122896384
        },
        "peak_usage": {
          "init": 2555904,
          "used": 31977088,
          "committed": 34471936,
          "max": 122896384
        }
      }, {
        "name": "Compressed Class Space",
        "type": "NON_HEAP",
        "usage": {
          "init": 0,
          "used": 11742592,
          "committed": 12320768,
          "max": 1073741824
        },
        "peak_usage": {
          "init": 0,
          "used": 11742592,
          "committed": 12320768,
          "max": 1073741824
        }
      }, {
        "name": "G1 Eden Space",
        "type": "HEAP",
        "usage": {
          "init": 27262976,
          "used": 25165824,
          "committed": 256901120,
          "max": -1
        },
        "peak_usage": {
          "init": 27262976,
          "used": 440401920,
          "committed": 596639744,
          "max": -1
        }
      }, {
        "name": "G1 Old Gen",
        "type": "HEAP",
        "usage": {
          "init": 241172480,
          "used": 506987152,
          "committed": 807403520,
          "max": 4294967296
        },
        "peak_usage": {
          "init": 241172480,
          "used": 598713024,
          "committed": 1473249280,
          "max": 4294967296
        }
      }, {
        "name": "G1 Survivor Space",
        "type": "HEAP",
        "usage": {
          "init": 0,
          "used": 1048576,
          "committed": 1048576,
          "max": -1
        },
        "peak_usage": {
          "init": 0,
          "used": 60817408,
          "committed": 60817408,
          "max": -1
        }
      }, {
        "name": "CodeHeap 'non-profiled nmethods'",
        "type": "NON_HEAP",
        "usage": {
          "init": 2555904,
          "used": 14472704,
          "committed": 14483456,
          "max": 122912768
        },
        "peak_usage": {
          "init": 2555904,
          "used": 14472704,
          "committed": 14483456,
          "max": 122912768
        }
      }],
      "uptime_ms": 110374,
      "vendor": "Azul Systems, Inc.",
      "threads": {
        "thread_count": 37,
        "thread_count_max": 52,
        "daemon_thread_count": 36,
        "threads_total": 183
      },
      "spec_version": "11",
      "memory": {
        "heap_usage": {
          "init": 268435456,
          "used": 533201552,
          "committed": 1065353216,
          "max": 4294967296
        },
        "nonheap_usage": {
          "init": 7667712,
          "used": 145662248,
          "committed": 154419200,
          "max": -1
        },
        "pending_finalization_count": 0
      }
    },
    "jre": {
      "java_version": "11.0.9.1",
      "name": "OpenJDK Runtime Environment",
      "spec_vendor": "Oracle Corporation",
      "spec_name": "Java Platform API Specification",
      "class_path": ["target/renaissance-gpl-0.11.0.jar"],
      "home": "/Users/hankdev/apps/zulu11.43.1007-ca-jdk11.0.9.1-macos_aarch64/zulu-11.jdk/Contents/Home",
      "version": "11.0.9.1+1-LTS",
      "java_vendor": "Azul Systems, Inc.",
      "library_path": ["/Users/hankdev/Library/Java/Extensions", "/Library/Java/Extensions", "/Network/Library/Java/Extensions", "/System/Library/Java/Extensions", "/usr/lib/java", "."],
      "spec_version": "11"
    }
  },
  "suite": {
    "git": {
      "commit_hash": "91cf51ddb8af003685eca89f96371fd2e7bb3c7e",
      "commit_date": "2020-06-05T09:40:32+0200",
      "dirty": "false"
    },
    "name": "Renaissance Benchmark Suite",
    "version": "0.11.0"
  }
}