{
  "benchmarks": ["movie-lens"],
  "format_version": 5,
  "data": {
    "movie-lens": {
      "results": [{
        "duration_ns": 6723949334,
        "uptime_ns": 2985860708
      }, {
        "duration_ns": 4971101958,
        "uptime_ns": 9751129750
      }, {
        "duration_ns": 4701932417,
        "uptime_ns": 14768654750
      }, {
        "duration_ns": 4642630417,
        "uptime_ns": 19521880583
      }, {
        "duration_ns": 4552250667,
        "uptime_ns": 24212680625
      }, {
        "duration_ns": 4493998417,
        "uptime_ns": 28813387333
      }, {
        "duration_ns": 4543963542,
        "uptime_ns": 33355501833
      }, {
        "duration_ns": 4275088125,
        "uptime_ns": 37947610417
      }, {
        "duration_ns": 4359186417,
        "uptime_ns": 42271648750
      }, {
        "duration_ns": 4425893333,
        "uptime_ns": 46682283292
      }, {
        "duration_ns": 4276699000,
        "uptime_ns": 51156637250
      }, {
        "duration_ns": 4407918000,
        "uptime_ns": 55480756333
      }, {
        "duration_ns": 4359266084,
        "uptime_ns": 59938168458
      }, {
        "duration_ns": 4378477417,
        "uptime_ns": 64345565125
      }, {
        "duration_ns": 4298074875,
        "uptime_ns": 68773810250
      }, {
        "duration_ns": 4290855042,
        "uptime_ns": 73117357958
      }, {
        "duration_ns": 4399885042,
        "uptime_ns": 77453599958
      }, {
        "duration_ns": 4189190834,
        "uptime_ns": 81898285708
      }, {
        "duration_ns": 4308704958,
        "uptime_ns": 86133011625
      }, {
        "duration_ns": 4400740667,
        "uptime_ns": 90486248750
      }, {
        "duration_ns": 4290949917,
        "uptime_ns": 94933039000
      }, {
        "duration_ns": 4295020084,
        "uptime_ns": 99268509833
      }, {
        "duration_ns": 4227154500,
        "uptime_ns": 103607719625
      }, {
        "duration_ns": 4200363583,
        "uptime_ns": 107883469167
      }, {
        "duration_ns": 4350842042,
        "uptime_ns": 112126410750
      }, {
        "duration_ns": 4405533334,
        "uptime_ns": 116521773333
      }, {
        "duration_ns": 4258949792,
        "uptime_ns": 120971069708
      }, {
        "duration_ns": 4276310708,
        "uptime_ns": 125271455750
      }, {
        "duration_ns": 4191333375,
        "uptime_ns": 129592679833
      }, {
        "duration_ns": 4403985875,
        "uptime_ns": 133828725333
      }, {
        "duration_ns": 4394611917,
        "uptime_ns": 138285493375
      }, {
        "duration_ns": 4283952750,
        "uptime_ns": 142723263417
      }, {
        "duration_ns": 4294463584,
        "uptime_ns": 147051106833
      }, {
        "duration_ns": 4187889250,
        "uptime_ns": 151390641667
      }, {
        "duration_ns": 4397153333,
        "uptime_ns": 155623859167
      }, {
        "duration_ns": 4313716500,
        "uptime_ns": 160065828583
      }, {
        "duration_ns": 4252773625,
        "uptime_ns": 164423915583
      }, {
        "duration_ns": 4231861958,
        "uptime_ns": 168721991000
      }, {
        "duration_ns": 4301592875,
        "uptime_ns": 172999344500
      }, {
        "duration_ns": 4309992959,
        "uptime_ns": 177345027333
      }, {
        "duration_ns": 4317468083,
        "uptime_ns": 181698764292
      }, {
        "duration_ns": 4285520375,
        "uptime_ns": 186062120083
      }, {
        "duration_ns": 4228692708,
        "uptime_ns": 190393233125
      }, {
        "duration_ns": 4314479167,
        "uptime_ns": 194667825250
      }, {
        "duration_ns": 4386076542,
        "uptime_ns": 199029516583
      }, {
        "duration_ns": 4332486792,
        "uptime_ns": 203463442083
      }, {
        "duration_ns": 4313820709,
        "uptime_ns": 207842118458
      }, {
        "duration_ns": 4286141458,
        "uptime_ns": 212200621667
      }, {
        "duration_ns": 4304397958,
        "uptime_ns": 216532808167
      }, {
        "duration_ns": 4338739042,
        "uptime_ns": 220882844500
      }, {
        "duration_ns": 4231639417,
        "uptime_ns": 225266073500
      }, {
        "duration_ns": 4374080500,
        "uptime_ns": 229542145750
      }, {
        "duration_ns": 4245060541,
        "uptime_ns": 233958570167
      }, {
        "duration_ns": 4363131250,
        "uptime_ns": 238251211583
      }, {
        "duration_ns": 4302018458,
        "uptime_ns": 242660616250
      }, {
        "duration_ns": 4161618250,
        "uptime_ns": 247006777542
      }, {
        "duration_ns": 4273834959,
        "uptime_ns": 251213808958
      }, {
        "duration_ns": 4226252791,
        "uptime_ns": 255531575167
      }, {
        "duration_ns": 4304240917,
        "uptime_ns": 259804204375
      }, {
        "duration_ns": 4261761375,
        "uptime_ns": 264153478583
      }, {
        "duration_ns": 4207282625,
        "uptime_ns": 268463066333
      }, {
        "duration_ns": 4262689000,
        "uptime_ns": 272716585625
      }, {
        "duration_ns": 4295668167,
        "uptime_ns": 277025173083
      }, {
        "duration_ns": 4209817584,
        "uptime_ns": 281365644208
      }, {
        "duration_ns": 4382758666,
        "uptime_ns": 285621509417
      }, {
        "duration_ns": 4302684833,
        "uptime_ns": 290049972167
      }, {
        "duration_ns": 4204032292,
        "uptime_ns": 294396285125
      }, {
        "duration_ns": 4304987750,
        "uptime_ns": 298645951292
      }, {
        "duration_ns": 4227666875,
        "uptime_ns": 302995940125
      }, {
        "duration_ns": 4317996208,
        "uptime_ns": 307271939625
      }, {
        "duration_ns": 4257164458,
        "uptime_ns": 311635980000
      }, {
        "duration_ns": 4244522167,
        "uptime_ns": 315941098208
      }, {
        "duration_ns": 4288368958,
        "uptime_ns": 320231389417
      }, {
        "duration_ns": 4315667542,
        "uptime_ns": 324565217375
      }, {
        "duration_ns": 4212426583,
        "uptime_ns": 328925517500
      }, {
        "duration_ns": 4351502125,
        "uptime_ns": 333184049958
      }, {
        "duration_ns": 4230674958,
        "uptime_ns": 337581954875
      }, {
        "duration_ns": 4330856917,
        "uptime_ns": 341857450583
      }, {
        "duration_ns": 4220397917,
        "uptime_ns": 346234573458
      }, {
        "duration_ns": 4250452542,
        "uptime_ns": 350499922083
      }, {
        "duration_ns": 4191196833,
        "uptime_ns": 354796236750
      }, {
        "duration_ns": 4358091500,
        "uptime_ns": 359031315833
      }, {
        "duration_ns": 4290847458,
        "uptime_ns": 363434820250
      }, {
        "duration_ns": 4278598417,
        "uptime_ns": 367770942458
      }, {
        "duration_ns": 4316549875,
        "uptime_ns": 372093455208
      }, {
        "duration_ns": 4168440375,
        "uptime_ns": 376454523708
      }, {
        "duration_ns": 4303811666,
        "uptime_ns": 380667516667
      }, {
        "duration_ns": 4220421959,
        "uptime_ns": 385016926583
      }, {
        "duration_ns": 4295971500,
        "uptime_ns": 389284159667
      }, {
        "duration_ns": 4330737458,
        "uptime_ns": 393624818750
      }, {
        "duration_ns": 4232743875,
        "uptime_ns": 398001232042
      }, {
        "duration_ns": 4360821625,
        "uptime_ns": 402280100708
      }, {
        "duration_ns": 4301730583,
        "uptime_ns": 406686890875
      }, {
        "duration_ns": 4316459667,
        "uptime_ns": 411034491083
      }, {
        "duration_ns": 4317228333,
        "uptime_ns": 415396462750
      }, {
        "duration_ns": 4299625750,
        "uptime_ns": 419761230375
      }, {
        "duration_ns": 4284523167,
        "uptime_ns": 424106377750
      }, {
        "duration_ns": 4333262833,
        "uptime_ns": 428436405917
      }, {
        "duration_ns": 4306867334,
        "uptime_ns": 432815974208
      }, {
        "duration_ns": 4263661875,
        "uptime_ns": 437168676792
      }],
      "termination": "normal"
    }
  },
  "environment": {
    "os": {
      "virt_mem_committed": 425178464256,
      "name": "Mac OS X",
      "open_fd_count": 236,
      "phys_mem_free": 2337275904,
      "swap_space_total": 1073741824,
      "available_processors": 8,
      "phys_mem_total": 17179869184,
      "version": "11.0",
      "arch": "aarch64",
      "max_fd_count": 10240,
      "swap_space_free": 1045430272
    },
    "vm": {
      "termination": "normal",
      "name": "OpenJDK 64-Bit Server VM",
      "spec_vendor": "Oracle Corporation",
      "spec_name": "Java Virtual Machine Specification",
      "classloading": {
        "class_count": 9155,
        "classes_total": 37075
      },
      "compiler": {
        "name": "HotSpot 64-Bit Tiered Compilers",
        "compilation_time_ms": 33964
      },
      "start_iso": "2020-11-24T15:47:53.057Z",
      "collectors": [{
        "name": "G1 Young Generation",
        "collection_count": 2710,
        "collection_time_ms": 7891
      }, {
        "name": "G1 Old Generation",
        "collection_count": 100,
        "collection_time_ms": 4507
      }],
      "start_unix_ms": 1606232873057,
      "version": "11.0.9.1+1-LTS",
      "mode": "mixed mode",
      "args": [],
      "pools": [{
        "name": "CodeHeap 'non-nmethods'",
        "type": "NON_HEAP",
        "usage": {
          "init": 2555904,
          "used": 2227968,
          "committed": 2555904,
          "max": 5849088
        },
        "peak_usage": {
          "init": 2555904,
          "used": 2390400,
          "committed": 2555904,
          "max": 5849088
        }
      }, {
        "name": "Metaspace",
        "type": "NON_HEAP",
        "usage": {
          "init": 0,
          "used": 63073592,
          "committed": 65060864,
          "max": -1
        },
        "peak_usage": {
          "init": 0,
          "used": 63073592,
          "committed": 65060864,
          "max": -1
        }
      }, {
        "name": "CodeHeap 'profiled nmethods'",
        "type": "NON_HEAP",
        "usage": {
          "init": 2555904,
          "used": 15001088,
          "committed": 28573696,
          "max": 122896384
        },
        "peak_usage": {
          "init": 2555904,
          "used": 28374272,
          "committed": 28573696,
          "max": 122896384
        }
      }, {
        "name": "Compressed Class Space",
        "type": "NON_HEAP",
        "usage": {
          "init": 0,
          "used": 8390552,
          "committed": 9043968,
          "max": 1073741824
        },
        "peak_usage": {
          "init": 0,
          "used": 8390552,
          "committed": 9043968,
          "max": 1073741824
        }
      }, {
        "name": "G1 Eden Space",
        "type": "HEAP",
        "usage": {
          "init": 27262976,
          "used": 197132288,
          "committed": 468713472,
          "max": -1
        },
        "peak_usage": {
          "init": 27262976,
          "used": 502267904,
          "committed": 528482304,
          "max": -1
        }
      }, {
        "name": "G1 Old Gen",
        "type": "HEAP",
        "usage": {
          "init": 241172480,
          "used": 101384928,
          "committed": 285212672,
          "max": 4294967296
        },
        "peak_usage": {
          "init": 241172480,
          "used": 364041176,
          "committed": 364904448,
          "max": 4294967296
        }
      }, {
        "name": "G1 Survivor Space",
        "type": "HEAP",
        "usage": {
          "init": 0,
          "used": 15728640,
          "committed": 15728640,
          "max": -1
        },
        "peak_usage": {
          "init": 0,
          "used": 19922944,
          "committed": 19922944,
          "max": -1
        }
      }, {
        "name": "CodeHeap 'non-profiled nmethods'",
        "type": "NON_HEAP",
        "usage": {
          "init": 2555904,
          "used": 18902528,
          "committed": 18939904,
          "max": 122912768
        },
        "peak_usage": {
          "init": 2555904,
          "used": 18902528,
          "committed": 18939904,
          "max": 122912768
        }
      }],
      "uptime_ms": 441516,
      "vendor": "Azul Systems, Inc.",
      "threads": {
        "thread_count": 33,
        "thread_count_max": 110,
        "daemon_thread_count": 32,
        "threads_total": 6258
      },
      "spec_version": "11",
      "memory": {
        "heap_usage": {
          "init": 268435456,
          "used": 314245856,
          "committed": 769654784,
          "max": 4294967296
        },
        "nonheap_usage": {
          "init": 7667712,
          "used": 107582248,
          "committed": 124174336,
          "max": -1
        },
        "pending_finalization_count": 0
      }
    },
    "jre": {
      "java_version": "11.0.9.1",
      "name": "OpenJDK Runtime Environment",
      "spec_vendor": "Oracle Corporation",
      "spec_name": "Java Platform API Specification",
      "class_path": ["target/renaissance-gpl-0.11.0.jar"],
      "home": "/Users/hankdev/apps/zulu11.43.1007-ca-jdk11.0.9.1-macos_aarch64/zulu-11.jdk/Contents/Home",
      "version": "11.0.9.1+1-LTS",
      "java_vendor": "Azul Systems, Inc.",
      "library_path": ["/Users/hankdev/Library/Java/Extensions", "/Library/Java/Extensions", "/Network/Library/Java/Extensions", "/System/Library/Java/Extensions", "/usr/lib/java", "."],
      "spec_version": "11"
    }
  },
  "suite": {
    "git": {
      "commit_hash": "91cf51ddb8af003685eca89f96371fd2e7bb3c7e",
      "commit_date": "2020-06-05T09:40:32+0200",
      "dirty": "false"
    },
    "name": "Renaissance Benchmark Suite",
    "version": "0.11.0"
  }
}