{
  "benchmarks": ["neo4j-analytics"],
  "format_version": 5,
  "data": {
    "neo4j-analytics": {
      "results": [{
        "duration_ns": 4401686666,
        "uptime_ns": 15474902834
      }, {
        "duration_ns": 2401193000,
        "uptime_ns": 19923506625
      }, {
        "duration_ns": 2370175708,
        "uptime_ns": 22365416542
      }, {
        "duration_ns": 2388127708,
        "uptime_ns": 24771912042
      }, {
        "duration_ns": 2388758541,
        "uptime_ns": 27201492209
      }, {
        "duration_ns": 2401486791,
        "uptime_ns": 29634913209
      }, {
        "duration_ns": 2418524792,
        "uptime_ns": 32077616250
      }, {
        "duration_ns": 2398717958,
        "uptime_ns": 34540896084
      }, {
        "duration_ns": 2298568334,
        "uptime_ns": 36976179500
      }, {
        "duration_ns": 2372190959,
        "uptime_ns": 39313987875
      }, {
        "duration_ns": 2281541917,
        "uptime_ns": 41725145875
      }, {
        "duration_ns": 2364498583,
        "uptime_ns": 44045138334
      }, {
        "duration_ns": 2345536292,
        "uptime_ns": 46453578667
      }, {
        "duration_ns": 2289467000,
        "uptime_ns": 48837809167
      }, {
        "duration_ns": 2330995834,
        "uptime_ns": 51159550500
      }, {
        "duration_ns": 2330256166,
        "uptime_ns": 53529928084
      }, {
        "duration_ns": 2290850333,
        "uptime_ns": 55897016084
      }, {
        "duration_ns": 2518879958,
        "uptime_ns": 58227660167
      }, {
        "duration_ns": 2295955792,
        "uptime_ns": 60784267375
      }, {
        "duration_ns": 2305451500,
        "uptime_ns": 63112666000
      }, {
        "duration_ns": 2270526541,
        "uptime_ns": 65453381334
      }, {
        "duration_ns": 2342001750,
        "uptime_ns": 67762282250
      }, {
        "duration_ns": 2340245083,
        "uptime_ns": 70144154792
      }, {
        "duration_ns": 2246314292,
        "uptime_ns": 72520123292
      }, {
        "duration_ns": 2357341834,
        "uptime_ns": 74803385750
      }, {
        "duration_ns": 2305210167,
        "uptime_ns": 77197764750
      }, {
        "duration_ns": 2331332750,
        "uptime_ns": 79541137292
      }, {
        "duration_ns": 2307631084,
        "uptime_ns": 81910111750
      }, {
        "duration_ns": 2338217166,
        "uptime_ns": 84255577959
      }, {
        "duration_ns": 2315590208,
        "uptime_ns": 86629030834
      }, {
        "duration_ns": 2378446042,
        "uptime_ns": 88977748750
      }, {
        "duration_ns": 2344948417,
        "uptime_ns": 91398654250
      }, {
        "duration_ns": 2285079834,
        "uptime_ns": 93778971500
      }, {
        "duration_ns": 2320818792,
        "uptime_ns": 96101998625
      }, {
        "duration_ns": 2293695792,
        "uptime_ns": 98459466125
      }, {
        "duration_ns": 2321903209,
        "uptime_ns": 100791482625
      }, {
        "duration_ns": 2289667042,
        "uptime_ns": 103149594250
      }, {
        "duration_ns": 2360402667,
        "uptime_ns": 105477850542
      }, {
        "duration_ns": 2298094125,
        "uptime_ns": 107872865042
      }, {
        "duration_ns": 2352189458,
        "uptime_ns": 110206860334
      }, {
        "duration_ns": 2280314792,
        "uptime_ns": 112595072292
      }, {
        "duration_ns": 2354537542,
        "uptime_ns": 114913120667
      }, {
        "duration_ns": 2301264584,
        "uptime_ns": 117302911625
      }, {
        "duration_ns": 2315472875,
        "uptime_ns": 119637047542
      }, {
        "duration_ns": 2297823708,
        "uptime_ns": 121990283917
      }, {
        "duration_ns": 2316547334,
        "uptime_ns": 124325073250
      }, {
        "duration_ns": 2286670958,
        "uptime_ns": 126677224959
      }, {
        "duration_ns": 2342686042,
        "uptime_ns": 129002050417
      }, {
        "duration_ns": 2283876833,
        "uptime_ns": 131382530542
      }, {
        "duration_ns": 2298246292,
        "uptime_ns": 133704177625
      }, {
        "duration_ns": 2336951417,
        "uptime_ns": 136038532042
      }, {
        "duration_ns": 2326013542,
        "uptime_ns": 138411591417
      }, {
        "duration_ns": 2297925542,
        "uptime_ns": 140775583917
      }, {
        "duration_ns": 2377377375,
        "uptime_ns": 143110305584
      }, {
        "duration_ns": 2324704208,
        "uptime_ns": 145527229792
      }, {
        "duration_ns": 2295180833,
        "uptime_ns": 147890205667
      }, {
        "duration_ns": 2295174875,
        "uptime_ns": 150222108250
      }, {
        "duration_ns": 2290975916,
        "uptime_ns": 152549645334
      }, {
        "duration_ns": 2268160250,
        "uptime_ns": 154877846375
      }, {
        "duration_ns": 2357310959,
        "uptime_ns": 157184487250
      }, {
        "duration_ns": 2417819542,
        "uptime_ns": 159581826917
      }, {
        "duration_ns": 2297850625,
        "uptime_ns": 162036450250
      }, {
        "duration_ns": 2292352583,
        "uptime_ns": 164367913459
      }, {
        "duration_ns": 2371465917,
        "uptime_ns": 166701885667
      }, {
        "duration_ns": 2299965916,
        "uptime_ns": 169111540209
      }, {
        "duration_ns": 2280913875,
        "uptime_ns": 171446928792
      }, {
        "duration_ns": 2301657917,
        "uptime_ns": 173765311125
      }, {
        "duration_ns": 2292871166,
        "uptime_ns": 176104759209
      }, {
        "duration_ns": 2295390417,
        "uptime_ns": 178438210667
      }, {
        "duration_ns": 2278105250,
        "uptime_ns": 180766514834
      }, {
        "duration_ns": 2296634875,
        "uptime_ns": 183077628542
      }, {
        "duration_ns": 2308586458,
        "uptime_ns": 185408775209
      }, {
        "duration_ns": 2304923000,
        "uptime_ns": 187754405125
      }, {
        "duration_ns": 2358292875,
        "uptime_ns": 190098267875
      }, {
        "duration_ns": 2323251500,
        "uptime_ns": 192501299167
      }, {
        "duration_ns": 2286465209,
        "uptime_ns": 194864905375
      }, {
        "duration_ns": 2372159000,
        "uptime_ns": 197187906084
      }, {
        "duration_ns": 2398282166,
        "uptime_ns": 199598599209
      }, {
        "duration_ns": 2365909167,
        "uptime_ns": 202041397542
      }, {
        "duration_ns": 2377267875,
        "uptime_ns": 204451700000
      }, {
        "duration_ns": 2362418458,
        "uptime_ns": 206870774792
      }, {
        "duration_ns": 2269692833,
        "uptime_ns": 209272204959
      }, {
        "duration_ns": 2299022667,
        "uptime_ns": 211579734625
      }, {
        "duration_ns": 2298887166,
        "uptime_ns": 213914955084
      }, {
        "duration_ns": 2305486583,
        "uptime_ns": 216251022542
      }, {
        "duration_ns": 2308674459,
        "uptime_ns": 218594251375
      }, {
        "duration_ns": 2295224041,
        "uptime_ns": 220939718084
      }, {
        "duration_ns": 2366618416,
        "uptime_ns": 223273325334
      }, {
        "duration_ns": 2332059792,
        "uptime_ns": 225682897125
      }, {
        "duration_ns": 2283383125,
        "uptime_ns": 228055246375
      }, {
        "duration_ns": 2337032125,
        "uptime_ns": 230374368167
      }, {
        "duration_ns": 2364415917,
        "uptime_ns": 232750626042
      }, {
        "duration_ns": 2291844334,
        "uptime_ns": 235154183625
      }, {
        "duration_ns": 2360994625,
        "uptime_ns": 237484900417
      }, {
        "duration_ns": 2294631459,
        "uptime_ns": 239882773500
      }, {
        "duration_ns": 2334924084,
        "uptime_ns": 242212880375
      }, {
        "duration_ns": 2295063958,
        "uptime_ns": 244587509292
      }, {
        "duration_ns": 2422751875,
        "uptime_ns": 246920801750
      }, {
        "duration_ns": 2329370292,
        "uptime_ns": 249379510167
      }, {
        "duration_ns": 2369348167,
        "uptime_ns": 251747611292
      }],
      "termination": "normal"
    }
  },
  "environment": {
    "os": {
      "virt_mem_committed": 425261662208,
      "name": "Mac OS X",
      "open_fd_count": 110,
      "phys_mem_free": 2383937536,
      "swap_space_total": 2147483648,
      "available_processors": 8,
      "phys_mem_total": 17179869184,
      "version": "11.0",
      "arch": "aarch64",
      "max_fd_count": 10240,
      "swap_space_free": 1398276096
    },
    "vm": {
      "termination": "normal",
      "name": "OpenJDK 64-Bit Server VM",
      "spec_vendor": "Oracle Corporation",
      "spec_name": "Java Virtual Machine Specification",
      "classloading": {
        "class_count": 11863,
        "classes_total": 11899
      },
      "compiler": {
        "name": "HotSpot 64-Bit Tiered Compilers",
        "compilation_time_ms": 25943
      },
      "start_iso": "2020-11-24T15:59:56.655Z",
      "collectors": [{
        "name": "G1 Young Generation",
        "collection_count": 2211,
        "collection_time_ms": 15357
      }, {
        "name": "G1 Old Generation",
        "collection_count": 100,
        "collection_time_ms": 3773
      }],
      "start_unix_ms": 1606233596655,
      "version": "11.0.9.1+1-LTS",
      "mode": "mixed mode",
      "args": [],
      "pools": [{
        "name": "CodeHeap 'non-nmethods'",
        "type": "NON_HEAP",
        "usage": {
          "init": 2555904,
          "used": 1748736,
          "committed": 2555904,
          "max": 5849088
        },
        "peak_usage": {
          "init": 2555904,
          "used": 1961472,
          "committed": 2555904,
          "max": 5849088
        }
      }, {
        "name": "Metaspace",
        "type": "NON_HEAP",
        "usage": {
          "init": 0,
          "used": 74597160,
          "committed": 76218368,
          "max": -1
        },
        "peak_usage": {
          "init": 0,
          "used": 74597160,
          "committed": 76218368,
          "max": -1
        }
      }, {
        "name": "CodeHeap 'profiled nmethods'",
        "type": "NON_HEAP",
        "usage": {
          "init": 2555904,
          "used": 17666432,
          "committed": 25100288,
          "max": 122896384
        },
        "peak_usage": {
          "init": 2555904,
          "used": 25039872,
          "committed": 25100288,
          "max": 122896384
        }
      }, {
        "name": "Compressed Class Space",
        "type": "NON_HEAP",
        "usage": {
          "init": 0,
          "used": 10594184,
          "committed": 11206656,
          "max": 1073741824
        },
        "peak_usage": {
          "init": 0,
          "used": 10594184,
          "committed": 11206656,
          "max": 1073741824
        }
      }, {
        "name": "G1 Eden Space",
        "type": "HEAP",
        "usage": {
          "init": 27262976,
          "used": 357564416,
          "committed": 929038336,
          "max": -1
        },
        "peak_usage": {
          "init": 27262976,
          "used": 1244659712,
          "committed": 1380974592,
          "max": -1
        }
      }, {
        "name": "G1 Old Gen",
        "type": "HEAP",
        "usage": {
          "init": 241172480,
          "used": 220855432,
          "committed": 545259520,
          "max": 4294967296
        },
        "peak_usage": {
          "init": 241172480,
          "used": 2114453504,
          "committed": 3463446528,
          "max": 4294967296
        }
      }, {
        "name": "G1 Survivor Space",
        "type": "HEAP",
        "usage": {
          "init": 0,
          "used": 1048576,
          "committed": 1048576,
          "max": -1
        },
        "peak_usage": {
          "init": 0,
          "used": 119537664,
          "committed": 119537664,
          "max": -1
        }
      }, {
        "name": "CodeHeap 'non-profiled nmethods'",
        "type": "NON_HEAP",
        "usage": {
          "init": 2555904,
          "used": 11732608,
          "committed": 13107200,
          "max": 122912768
        },
        "peak_usage": {
          "init": 2555904,
          "used": 13066880,
          "committed": 13107200,
          "max": 122912768
        }
      }],
      "uptime_ms": 255226,
      "vendor": "Azul Systems, Inc.",
      "threads": {
        "thread_count": 7,
        "thread_count_max": 32,
        "daemon_thread_count": 6,
        "threads_total": 559
      },
      "spec_version": "11",
      "memory": {
        "heap_usage": {
          "init": 268435456,
          "used": 579468424,
          "committed": 1475346432,
          "max": 4294967296
        },
        "nonheap_usage": {
          "init": 7667712,
          "used": 116328720,
          "committed": 128188416,
          "max": -1
        },
        "pending_finalization_count": 0
      }
    },
    "jre": {
      "java_version": "11.0.9.1",
      "name": "OpenJDK Runtime Environment",
      "spec_vendor": "Oracle Corporation",
      "spec_name": "Java Platform API Specification",
      "class_path": ["target/renaissance-gpl-0.11.0.jar"],
      "home": "/Users/hankdev/apps/zulu11.43.1007-ca-jdk11.0.9.1-macos_aarch64/zulu-11.jdk/Contents/Home",
      "version": "11.0.9.1+1-LTS",
      "java_vendor": "Azul Systems, Inc.",
      "library_path": ["/Users/hankdev/Library/Java/Extensions", "/Library/Java/Extensions", "/Network/Library/Java/Extensions", "/System/Library/Java/Extensions", "/usr/lib/java", "."],
      "spec_version": "11"
    }
  },
  "suite": {
    "git": {
      "commit_hash": "91cf51ddb8af003685eca89f96371fd2e7bb3c7e",
      "commit_date": "2020-06-05T09:40:32+0200",
      "dirty": "false"
    },
    "name": "Renaissance Benchmark Suite",
    "version": "0.11.0"
  }
}