benchmark,duration_ns,uptime_ns,vm_start_unix_ms
par-mnemonics,2036615584,441433708,1606234297464
par-mnemonics,1957203959,2671551833,1606234297464
par-mnemonics,1931418042,4789462708,1606234297464
par-mnemonics,1945327667,6871352500,1606234297464
par-mnemonics,1940488667,8970687583,1606234297464
par-mnemonics,1934722084,11058468458,1606234297464
par-mnemonics,1966058708,13140407625,1606234297464
par-mnemonics,1939340209,15262818333,1606234297464
par-mnemonics,1935207625,17376987667,1606234297464
par-mnemonics,1948242208,19460303167,1606234297464
par-mnemonics,1937693667,21555679708,1606234297464
par-mnemonics,1950759083,23667575667,1606234297464
par-mnemonics,1958037000,25771555542,1606234297464
par-mnemonics,1950328875,27907640000,1606234297464
par-mnemonics,1957975166,30010036042,1606234297464
par-mnemonics,1953077583,32115815667,1606234297464
par-mnemonics,1953742584,34219894333,1606234297464
par-mnemonics,1954417542,36329188500,1606234297464
par-mnemonics,1940365083,38462816750,1606234297464
par-mnemonics,1952165375,40589171333,1606234297464
par-mnemonics,1932820708,42680317417,1606234297464
par-mnemonics,1949092917,44760623833,1606234297464
par-mnemonics,1939672042,46870323375,1606234297464
par-mnemonics,1955134250,48959727042,1606234297464
par-mnemonics,1931710209,51059742458,1606234297464
par-mnemonics,1947150708,53136845792,1606234297464
par-mnemonics,1957717542,55235046625,1606234297464
par-mnemonics,1958438708,57338289292,1606234297464
par-mnemonics,1944550042,59459076708,1606234297464
par-mnemonics,1965777458,61548238625,1606234297464
par-mnemonics,1940815500,63667851375,1606234297464
par-mnemonics,1968120042,65764251375,1606234297464
par-mnemonics,1961347250,67887206083,1606234297464
par-mnemonics,1961822917,70001052833,1606234297464
par-mnemonics,1955566750,72115186333,1606234297464
par-mnemonics,1961720791,74219342917,1606234297464
par-mnemonics,1941964791,76329408292,1606234297464
par-mnemonics,1958134584,78417627333,1606234297464
par-mnemonics,1950331292,80521609458,1606234297464
par-mnemonics,1947874625,82620028708,1606234297464
par-mnemonics,1944935875,84710618792,1606234297464
par-mnemonics,1953595625,86806248875,1606234297464
par-mnemonics,1955384583,88911081917,1606234297464
par-mnemonics,1951830333,91020502250,1606234297464
par-mnemonics,1950063917,93124142958,1606234297464
par-mnemonics,1934424042,95226241875,1606234297464
par-mnemonics,1945762875,97304833208,1606234297464
par-mnemonics,1938052042,99421973625,1606234297464
par-mnemonics,1952868667,101516467833,1606234297464
par-mnemonics,1941432417,103617735750,1606234297464
par-mnemonics,1935527791,105742418917,1606234297464
par-mnemonics,1946500458,107824028625,1606234297464
par-mnemonics,1936501250,109919805125,1606234297464
par-mnemonics,1942941042,112002518208,1606234297464
par-mnemonics,1947022750,114092743167,1606234297464
par-mnemonics,1933259875,116188531833,1606234297464
par-mnemonics,1940784875,118295087792,1606234297464
par-mnemonics,1925813875,120382666042,1606234297464
par-mnemonics,1950068542,122452235750,1606234297464
par-mnemonics,1941033625,124552955708,1606234297464
par-mnemonics,1930361958,126646015542,1606234297464
par-mnemonics,1943929583,128722815250,1606234297464
par-mnemonics,1929641709,130815698208,1606234297464
par-mnemonics,1940722584,132891960083,1606234297464
par-mnemonics,1952770291,134982794667,1606234297464
par-mnemonics,1939189333,137083489917,1606234297464
par-mnemonics,1945752958,139170824500,1606234297464
par-mnemonics,1941595166,141266441167,1606234297464
par-mnemonics,1931483750,143362670500,1606234297464
par-mnemonics,1951687625,145441867458,1606234297464
par-mnemonics,1965160083,147540408875,1606234297464
par-mnemonics,1946330667,149660459125,1606234297464
par-mnemonics,1944198500,151758448625,1606234297464
par-mnemonics,1944819791,153847361042,1606234297464
par-mnemonics,1941456917,155940382083,1606234297464
par-mnemonics,1956546166,158033626542,1606234297464
par-mnemonics,1937500417,160157538333,1606234297464
par-mnemonics,1937770709,162275699333,1606234297464
par-mnemonics,1953113833,164363144250,1606234297464
par-mnemonics,1934060625,166467647333,1606234297464
par-mnemonics,1950880875,168547567292,1606234297464
par-mnemonics,1965060625,170649090208,1606234297464
par-mnemonics,1937582333,172763974500,1606234297464
par-mnemonics,1946284125,174849615750,1606234297464
par-mnemonics,1941468500,176950170667,1606234297464
par-mnemonics,1949514000,179036148958,1606234297464
par-mnemonics,1950175083,181134928125,1606234297464
par-mnemonics,1952260500,183238717167,1606234297464
par-mnemonics,1938863375,185342421292,1606234297464
par-mnemonics,1974630417,187431879500,1606234297464
par-mnemonics,1945502792,189559001333,1606234297464
par-mnemonics,1924196250,191656045250,1606234297464
par-mnemonics,1954763792,193727049250,1606234297464
par-mnemonics,1936999250,195829752792,1606234297464
par-mnemonics,1952668917,197913229375,1606234297464
par-mnemonics,1927958333,200014909125,1606234297464
par-mnemonics,1948675084,202090215208,1606234297464
par-mnemonics,1941102959,204211022833,1606234297464
par-mnemonics,1937377000,206299233667,1606234297464
par-mnemonics,1939734667,208383452750,1606234297464
