benchmark,duration_ns,uptime_ns,vm_start_unix_ms
rx-scrabble,375900125,927970458,1606235405445
rx-scrabble,220944291,1353204750,1606235405445
rx-scrabble,129733542,1611750666,1606235405445
rx-scrabble,116029416,1766422500,1606235405445
rx-scrabble,113346083,1907039125,1606235405445
rx-scrabble,111105667,2044266541,1606235405445
rx-scrabble,106343625,2179659041,1606235405445
rx-scrabble,105656208,2309807833,1606235405445
rx-scrabble,106157292,2438485583,1606235405445
rx-scrabble,105209000,2568084958,1606235405445
rx-scrabble,105449875,2696354125,1606235405445
rx-scrabble,105038208,2824699208,1606235405445
rx-scrabble,105883042,2953260583,1606235405445
rx-scrabble,106243542,3082089958,1606235405445
rx-scrabble,115132250,3211057791,1606235405445
rx-scrabble,115387792,3349202958,1606235405445
rx-scrabble,115869375,3487354375,1606235405445
rx-scrabble,115935167,3625856166,1606235405445
rx-scrabble,115404833,3764463875,1606235405445
rx-scrabble,116077792,3902728958,1606235405445
rx-scrabble,115464125,4041310791,1606235405445
rx-scrabble,115337416,4179291125,1606235405445
rx-scrabble,114843459,4317078666,1606235405445
rx-scrabble,116456042,4455806833,1606235405445
rx-scrabble,116912750,4594976708,1606235405445
rx-scrabble,117292375,4734000791,1606235405445
rx-scrabble,115318084,4873465416,1606235405445
rx-scrabble,116570750,5010941875,1606235405445
rx-scrabble,116117959,5149664791,1606235405445
rx-scrabble,116472500,5288405833,1606235405445
rx-scrabble,116524542,5426808333,1606235405445
rx-scrabble,115724542,5565648166,1606235405445
rx-scrabble,116040041,5703508625,1606235405445
rx-scrabble,116597375,5841986500,1606235405445
rx-scrabble,117195875,5980903583,1606235405445
rx-scrabble,116722834,6120317041,1606235405445
rx-scrabble,116289875,6259628166,1606235405445
rx-scrabble,116004250,6397984875,1606235405445
rx-scrabble,115490458,6536246708,1606235405445
rx-scrabble,117396208,6674008333,1606235405445
rx-scrabble,117458875,6813527291,1606235405445
rx-scrabble,116716750,6953255125,1606235405445
rx-scrabble,116660458,7092262000,1606235405445
rx-scrabble,118398542,7231131916,1606235405445
rx-scrabble,117033292,7371738416,1606235405445
rx-scrabble,117193334,7511173166,1606235405445
rx-scrabble,116605041,7650699750,1606235405445
rx-scrabble,118134042,7789799958,1606235405445
rx-scrabble,117893209,7930438916,1606235405445
rx-scrabble,117592583,8070635750,1606235405445
rx-scrabble,116426458,8210803083,1606235405445
rx-scrabble,117670042,8349732291,1606235405445
rx-scrabble,117726042,8489474708,1606235405445
rx-scrabble,117673875,8629813583,1606235405445
rx-scrabble,117566667,8769581833,1606235405445
rx-scrabble,116419583,8909749333,1606235405445
rx-scrabble,116650500,9048476541,1606235405445
rx-scrabble,116441084,9187289541,1606235405445
rx-scrabble,115739334,9325918791,1606235405445
rx-scrabble,116417000,9463618250,1606235405445
rx-scrabble,117065417,9602559416,1606235405445
rx-scrabble,116313750,9742533416,1606235405445
rx-scrabble,117407666,9881160375,1606235405445
rx-scrabble,115883666,10020739000,1606235405445
rx-scrabble,116271666,10158964625,1606235405445
rx-scrabble,116480959,10297554291,1606235405445
rx-scrabble,117273708,10436038375,1606235405445
rx-scrabble,117250708,10575606375,1606235405445
rx-scrabble,117407167,10714861416,1606235405445
rx-scrabble,117947375,10854419791,1606235405445
rx-scrabble,116873292,10994530291,1606235405445
rx-scrabble,116833250,11133548291,1606235405445
rx-scrabble,116721584,11272945666,1606235405445
rx-scrabble,117538084,11411688666,1606235405445
rx-scrabble,117553000,11551402500,1606235405445
rx-scrabble,116299458,11691119625,1606235405445
rx-scrabble,116797000,11829663416,1606235405445
rx-scrabble,118876542,11968700083,1606235405445
rx-scrabble,117656583,12109981333,1606235405445
rx-scrabble,116941375,12249623333,1606235405445
rx-scrabble,116231167,12389161291,1606235405445
rx-scrabble,116813375,12527556625,1606235405445
rx-scrabble,117302125,12666431208,1606235405445
rx-scrabble,116514417,12805799458,1606235405445
rx-scrabble,116424792,12944570791,1606235405445
rx-scrabble,115974291,13082992000,1606235405445
rx-scrabble,117534042,13221192333,1606235405445
rx-scrabble,116819917,13360859083,1606235405445
rx-scrabble,117779791,13499799250,1606235405445
rx-scrabble,116135125,13639781208,1606235405445
rx-scrabble,116850333,13778072583,1606235405445
rx-scrabble,116917333,13917045708,1606235405445
rx-scrabble,116909833,14056115083,1606235405445
rx-scrabble,116647291,14195189000,1606235405445
rx-scrabble,115726500,14334166625,1606235405445
rx-scrabble,117225250,14471830708,1606235405445
rx-scrabble,119056458,14611996125,1606235405445
rx-scrabble,116583084,14752993541,1606235405445
rx-scrabble,117967917,14891638916,1606235405445
rx-scrabble,117407583,15031501375,1606235405445
