{
  "benchmarks": ["rx-scrabble"],
  "format_version": 5,
  "data": {
    "rx-scrabble": {
      "results": [{
        "duration_ns": 375900125,
        "uptime_ns": 927970458
      }, {
        "duration_ns": 220944291,
        "uptime_ns": 1353204750
      }, {
        "duration_ns": 129733542,
        "uptime_ns": 1611750666
      }, {
        "duration_ns": 116029416,
        "uptime_ns": 1766422500
      }, {
        "duration_ns": 113346083,
        "uptime_ns": 1907039125
      }, {
        "duration_ns": 111105667,
        "uptime_ns": 2044266541
      }, {
        "duration_ns": 106343625,
        "uptime_ns": 2179659041
      }, {
        "duration_ns": 105656208,
        "uptime_ns": 2309807833
      }, {
        "duration_ns": 106157292,
        "uptime_ns": 2438485583
      }, {
        "duration_ns": 105209000,
        "uptime_ns": 2568084958
      }, {
        "duration_ns": 105449875,
        "uptime_ns": 2696354125
      }, {
        "duration_ns": 105038208,
        "uptime_ns": 2824699208
      }, {
        "duration_ns": 105883042,
        "uptime_ns": 2953260583
      }, {
        "duration_ns": 106243542,
        "uptime_ns": 3082089958
      }, {
        "duration_ns": 115132250,
        "uptime_ns": 3211057791
      }, {
        "duration_ns": 115387792,
        "uptime_ns": 3349202958
      }, {
        "duration_ns": 115869375,
        "uptime_ns": 3487354375
      }, {
        "duration_ns": 115935167,
        "uptime_ns": 3625856166
      }, {
        "duration_ns": 115404833,
        "uptime_ns": 3764463875
      }, {
        "duration_ns": 116077792,
        "uptime_ns": 3902728958
      }, {
        "duration_ns": 115464125,
        "uptime_ns": 4041310791
      }, {
        "duration_ns": 115337416,
        "uptime_ns": 4179291125
      }, {
        "duration_ns": 114843459,
        "uptime_ns": 4317078666
      }, {
        "duration_ns": 116456042,
        "uptime_ns": 4455806833
      }, {
        "duration_ns": 116912750,
        "uptime_ns": 4594976708
      }, {
        "duration_ns": 117292375,
        "uptime_ns": 4734000791
      }, {
        "duration_ns": 115318084,
        "uptime_ns": 4873465416
      }, {
        "duration_ns": 116570750,
        "uptime_ns": 5010941875
      }, {
        "duration_ns": 116117959,
        "uptime_ns": 5149664791
      }, {
        "duration_ns": 116472500,
        "uptime_ns": 5288405833
      }, {
        "duration_ns": 116524542,
        "uptime_ns": 5426808333
      }, {
        "duration_ns": 115724542,
        "uptime_ns": 5565648166
      }, {
        "duration_ns": 116040041,
        "uptime_ns": 5703508625
      }, {
        "duration_ns": 116597375,
        "uptime_ns": 5841986500
      }, {
        "duration_ns": 117195875,
        "uptime_ns": 5980903583
      }, {
        "duration_ns": 116722834,
        "uptime_ns": 6120317041
      }, {
        "duration_ns": 116289875,
        "uptime_ns": 6259628166
      }, {
        "duration_ns": 116004250,
        "uptime_ns": 6397984875
      }, {
        "duration_ns": 115490458,
        "uptime_ns": 6536246708
      }, {
        "duration_ns": 117396208,
        "uptime_ns": 6674008333
      }, {
        "duration_ns": 117458875,
        "uptime_ns": 6813527291
      }, {
        "duration_ns": 116716750,
        "uptime_ns": 6953255125
      }, {
        "duration_ns": 116660458,
        "uptime_ns": 7092262000
      }, {
        "duration_ns": 118398542,
        "uptime_ns": 7231131916
      }, {
        "duration_ns": 117033292,
        "uptime_ns": 7371738416
      }, {
        "duration_ns": 117193334,
        "uptime_ns": 7511173166
      }, {
        "duration_ns": 116605041,
        "uptime_ns": 7650699750
      }, {
        "duration_ns": 118134042,
        "uptime_ns": 7789799958
      }, {
        "duration_ns": 117893209,
        "uptime_ns": 7930438916
      }, {
        "duration_ns": 117592583,
        "uptime_ns": 8070635750
      }, {
        "duration_ns": 116426458,
        "uptime_ns": 8210803083
      }, {
        "duration_ns": 117670042,
        "uptime_ns": 8349732291
      }, {
        "duration_ns": 117726042,
        "uptime_ns": 8489474708
      }, {
        "duration_ns": 117673875,
        "uptime_ns": 8629813583
      }, {
        "duration_ns": 117566667,
        "uptime_ns": 8769581833
      }, {
        "duration_ns": 116419583,
        "uptime_ns": 8909749333
      }, {
        "duration_ns": 116650500,
        "uptime_ns": 9048476541
      }, {
        "duration_ns": 116441084,
        "uptime_ns": 9187289541
      }, {
        "duration_ns": 115739334,
        "uptime_ns": 9325918791
      }, {
        "duration_ns": 116417000,
        "uptime_ns": 9463618250
      }, {
        "duration_ns": 117065417,
        "uptime_ns": 9602559416
      }, {
        "duration_ns": 116313750,
        "uptime_ns": 9742533416
      }, {
        "duration_ns": 117407666,
        "uptime_ns": 9881160375
      }, {
        "duration_ns": 115883666,
        "uptime_ns": 10020739000
      }, {
        "duration_ns": 116271666,
        "uptime_ns": 10158964625
      }, {
        "duration_ns": 116480959,
        "uptime_ns": 10297554291
      }, {
        "duration_ns": 117273708,
        "uptime_ns": 10436038375
      }, {
        "duration_ns": 117250708,
        "uptime_ns": 10575606375
      }, {
        "duration_ns": 117407167,
        "uptime_ns": 10714861416
      }, {
        "duration_ns": 117947375,
        "uptime_ns": 10854419791
      }, {
        "duration_ns": 116873292,
        "uptime_ns": 10994530291
      }, {
        "duration_ns": 116833250,
        "uptime_ns": 11133548291
      }, {
        "duration_ns": 116721584,
        "uptime_ns": 11272945666
      }, {
        "duration_ns": 117538084,
        "uptime_ns": 11411688666
      }, {
        "duration_ns": 117553000,
        "uptime_ns": 11551402500
      }, {
        "duration_ns": 116299458,
        "uptime_ns": 11691119625
      }, {
        "duration_ns": 116797000,
        "uptime_ns": 11829663416
      }, {
        "duration_ns": 118876542,
        "uptime_ns": 11968700083
      }, {
        "duration_ns": 117656583,
        "uptime_ns": 12109981333
      }, {
        "duration_ns": 116941375,
        "uptime_ns": 12249623333
      }, {
        "duration_ns": 116231167,
        "uptime_ns": 12389161291
      }, {
        "duration_ns": 116813375,
        "uptime_ns": 12527556625
      }, {
        "duration_ns": 117302125,
        "uptime_ns": 12666431208
      }, {
        "duration_ns": 116514417,
        "uptime_ns": 12805799458
      }, {
        "duration_ns": 116424792,
        "uptime_ns": 12944570791
      }, {
        "duration_ns": 115974291,
        "uptime_ns": 13082992000
      }, {
        "duration_ns": 117534042,
        "uptime_ns": 13221192333
      }, {
        "duration_ns": 116819917,
        "uptime_ns": 13360859083
      }, {
        "duration_ns": 117779791,
        "uptime_ns": 13499799250
      }, {
        "duration_ns": 116135125,
        "uptime_ns": 13639781208
      }, {
        "duration_ns": 116850333,
        "uptime_ns": 13778072583
      }, {
        "duration_ns": 116917333,
        "uptime_ns": 13917045708
      }, {
        "duration_ns": 116909833,
        "uptime_ns": 14056115083
      }, {
        "duration_ns": 116647291,
        "uptime_ns": 14195189000
      }, {
        "duration_ns": 115726500,
        "uptime_ns": 14334166625
      }, {
        "duration_ns": 117225250,
        "uptime_ns": 14471830708
      }, {
        "duration_ns": 119056458,
        "uptime_ns": 14611996125
      }, {
        "duration_ns": 116583084,
        "uptime_ns": 14752993541
      }, {
        "duration_ns": 117967917,
        "uptime_ns": 14891638916
      }, {
        "duration_ns": 117407583,
        "uptime_ns": 15031501375
      }],
      "termination": "normal"
    }
  },
  "environment": {
    "os": {
      "virt_mem_committed": 425087631360,
      "name": "Mac OS X",
      "open_fd_count": 17,
      "phys_mem_free": 6310903808,
      "swap_space_total": 2147483648,
      "available_processors": 8,
      "phys_mem_total": 17179869184,
      "version": "11.0",
      "arch": "aarch64",
      "max_fd_count": 10240,
      "swap_space_free": 1398276096
    },
    "vm": {
      "termination": "normal",
      "name": "OpenJDK 64-Bit Server VM",
      "spec_vendor": "Oracle Corporation",
      "spec_name": "Java Virtual Machine Specification",
      "classloading": {
        "class_count": 2418,
        "classes_total": 2487
      },
      "compiler": {
        "name": "HotSpot 64-Bit Tiered Compilers",
        "compilation_time_ms": 4434
      },
      "start_iso": "2020-11-24T16:30:05.445Z",
      "collectors": [{
        "name": "G1 Young Generation",
        "collection_count": 410,
        "collection_time_ms": 223
      }, {
        "name": "G1 Old Generation",
        "collection_count": 100,
        "collection_time_ms": 1795
      }],
      "start_unix_ms": 1606235405445,
      "version": "11.0.9.1+1-LTS",
      "mode": "mixed mode",
      "args": [],
      "pools": [{
        "name": "CodeHeap 'non-nmethods'",
        "type": "NON_HEAP",
        "usage": {
          "init": 2555904,
          "used": 1600128,
          "committed": 2555904,
          "max": 5849088
        },
        "peak_usage": {
          "init": 2555904,
          "used": 1728256,
          "committed": 2555904,
          "max": 5849088
        }
      }, {
        "name": "Metaspace",
        "type": "NON_HEAP",
        "usage": {
          "init": 0,
          "used": 19073848,
          "committed": 19922944,
          "max": -1
        },
        "peak_usage": {
          "init": 0,
          "used": 19073848,
          "committed": 19922944,
          "max": -1
        }
      }, {
        "name": "CodeHeap 'profiled nmethods'",
        "type": "NON_HEAP",
        "usage": {
          "init": 2555904,
          "used": 3844864,
          "committed": 5242880,
          "max": 122896384
        },
        "peak_usage": {
          "init": 2555904,
          "used": 5228800,
          "committed": 5242880,
          "max": 122896384
        }
      }, {
        "name": "Compressed Class Space",
        "type": "NON_HEAP",
        "usage": {
          "init": 0,
          "used": 2521896,
          "committed": 2883584,
          "max": 1073741824
        },
        "peak_usage": {
          "init": 0,
          "used": 2521896,
          "committed": 2883584,
          "max": 1073741824
        }
      }, {
        "name": "G1 Eden Space",
        "type": "HEAP",
        "usage": {
          "init": 27262976,
          "used": 15728640,
          "committed": 92274688,
          "max": -1
        },
        "peak_usage": {
          "init": 27262976,
          "used": 81788928,
          "committed": 233832448,
          "max": -1
        }
      }, {
        "name": "G1 Old Gen",
        "type": "HEAP",
        "usage": {
          "init": 241172480,
          "used": 35123208,
          "committed": 57671680,
          "max": 4294967296
        },
        "peak_usage": {
          "init": 241172480,
          "used": 51127416,
          "committed": 254803968,
          "max": 4294967296
        }
      }, {
        "name": "G1 Survivor Space",
        "type": "HEAP",
        "usage": {
          "init": 0,
          "used": 1048576,
          "committed": 1048576,
          "max": -1
        },
        "peak_usage": {
          "init": 0,
          "used": 9437184,
          "committed": 9437184,
          "max": -1
        }
      }, {
        "name": "CodeHeap 'non-profiled nmethods'",
        "type": "NON_HEAP",
        "usage": {
          "init": 2555904,
          "used": 2111616,
          "committed": 2555904,
          "max": 122912768
        },
        "peak_usage": {
          "init": 2555904,
          "used": 2317952,
          "committed": 2555904,
          "max": 122912768
        }
      }],
      "uptime_ms": 15222,
      "vendor": "Azul Systems, Inc.",
      "threads": {
        "thread_count": 14,
        "thread_count_max": 15,
        "daemon_thread_count": 13,
        "threads_total": 114
      },
      "spec_version": "11",
      "memory": {
        "heap_usage": {
          "init": 268435456,
          "used": 51900424,
          "committed": 150994944,
          "max": 4294967296
        },
        "nonheap_usage": {
          "init": 7667712,
          "used": 29086280,
          "committed": 33161216,
          "max": -1
        },
        "pending_finalization_count": 0
      }
    },
    "jre": {
      "java_version": "11.0.9.1",
      "name": "OpenJDK Runtime Environment",
      "spec_vendor": "Oracle Corporation",
      "spec_name": "Java Platform API Specification",
      "class_path": ["target/renaissance-gpl-0.11.0.jar"],
      "home": "/Users/hankdev/apps/zulu11.43.1007-ca-jdk11.0.9.1-macos_aarch64/zulu-11.jdk/Contents/Home",
      "version": "11.0.9.1+1-LTS",
      "java_vendor": "Azul Systems, Inc.",
      "library_path": ["/Users/hankdev/Library/Java/Extensions", "/Library/Java/Extensions", "/Network/Library/Java/Extensions", "/System/Library/Java/Extensions", "/usr/lib/java", "."],
      "spec_version": "11"
    }
  },
  "suite": {
    "git": {
      "commit_hash": "91cf51ddb8af003685eca89f96371fd2e7bb3c7e",
      "commit_date": "2020-06-05T09:40:32+0200",
      "dirty": "false"
    },
    "name": "Renaissance Benchmark Suite",
    "version": "0.11.0"
  }
}