{
  "benchmarks": ["scrabble"],
  "format_version": 5,
  "data": {
    "scrabble": {
      "results": [{
        "duration_ns": 525539958,
        "uptime_ns": 767694750
      }, {
        "duration_ns": 267018792,
        "uptime_ns": 1350832916
      }, {
        "duration_ns": 287715959,
        "uptime_ns": 1652893541
      }, {
        "duration_ns": 264787209,
        "uptime_ns": 1973998791
      }, {
        "duration_ns": 271156416,
        "uptime_ns": 2269544500
      }, {
        "duration_ns": 264673500,
        "uptime_ns": 2573548666
      }, {
        "duration_ns": 267079667,
        "uptime_ns": 2870516416
      }, {
        "duration_ns": 269675250,
        "uptime_ns": 3168363750
      }, {
        "duration_ns": 265250750,
        "uptime_ns": 3468059500
      }, {
        "duration_ns": 266187000,
        "uptime_ns": 3763633666
      }, {
        "duration_ns": 257861542,
        "uptime_ns": 4060882041
      }, {
        "duration_ns": 273596167,
        "uptime_ns": 4349153041
      }, {
        "duration_ns": 269806375,
        "uptime_ns": 4654368208
      }, {
        "duration_ns": 293211291,
        "uptime_ns": 4954763375
      }, {
        "duration_ns": 265075042,
        "uptime_ns": 5279171166
      }, {
        "duration_ns": 267225458,
        "uptime_ns": 5574567958
      }, {
        "duration_ns": 264758375,
        "uptime_ns": 5872978333
      }, {
        "duration_ns": 269754709,
        "uptime_ns": 6171441916
      }, {
        "duration_ns": 269244750,
        "uptime_ns": 6472471000
      }, {
        "duration_ns": 266823625,
        "uptime_ns": 6775431125
      }, {
        "duration_ns": 262322334,
        "uptime_ns": 7073541916
      }, {
        "duration_ns": 268050167,
        "uptime_ns": 7366745708
      }, {
        "duration_ns": 266154708,
        "uptime_ns": 7667380750
      }, {
        "duration_ns": 268663750,
        "uptime_ns": 7966007333
      }, {
        "duration_ns": 267991959,
        "uptime_ns": 8264076666
      }, {
        "duration_ns": 267397417,
        "uptime_ns": 8563331958
      }, {
        "duration_ns": 265405667,
        "uptime_ns": 8860732833
      }, {
        "duration_ns": 269742625,
        "uptime_ns": 9157256000
      }, {
        "duration_ns": 267250500,
        "uptime_ns": 9456829250
      }, {
        "duration_ns": 268163250,
        "uptime_ns": 9754886333
      }, {
        "duration_ns": 276040708,
        "uptime_ns": 10053865375
      }, {
        "duration_ns": 279628917,
        "uptime_ns": 10365885208
      }, {
        "duration_ns": 265560958,
        "uptime_ns": 10675757333
      }, {
        "duration_ns": 270767750,
        "uptime_ns": 10973041750
      }, {
        "duration_ns": 272078542,
        "uptime_ns": 11273907708
      }, {
        "duration_ns": 263949916,
        "uptime_ns": 11576917250
      }, {
        "duration_ns": 263968542,
        "uptime_ns": 11871826583
      }, {
        "duration_ns": 269071291,
        "uptime_ns": 12166637625
      }, {
        "duration_ns": 264903291,
        "uptime_ns": 12467070125
      }, {
        "duration_ns": 268982583,
        "uptime_ns": 12762808708
      }, {
        "duration_ns": 262441459,
        "uptime_ns": 13064276416
      }, {
        "duration_ns": 269242125,
        "uptime_ns": 13355256875
      }, {
        "duration_ns": 271182000,
        "uptime_ns": 13658611166
      }, {
        "duration_ns": 266454583,
        "uptime_ns": 13958735208
      }, {
        "duration_ns": 269725292,
        "uptime_ns": 14255779416
      }, {
        "duration_ns": 271260833,
        "uptime_ns": 14557338750
      }, {
        "duration_ns": 265430542,
        "uptime_ns": 14859898041
      }, {
        "duration_ns": 278247125,
        "uptime_ns": 15164441416
      }, {
        "duration_ns": 268240209,
        "uptime_ns": 15475036666
      }, {
        "duration_ns": 268790125,
        "uptime_ns": 15773115208
      }, {
        "duration_ns": 270954292,
        "uptime_ns": 16072811666
      }, {
        "duration_ns": 270292292,
        "uptime_ns": 16373736458
      }, {
        "duration_ns": 267404542,
        "uptime_ns": 16675173458
      }, {
        "duration_ns": 268075334,
        "uptime_ns": 16974485916
      }, {
        "duration_ns": 269212292,
        "uptime_ns": 17273210083
      }, {
        "duration_ns": 271460667,
        "uptime_ns": 17573671041
      }, {
        "duration_ns": 261407667,
        "uptime_ns": 17875740208
      }, {
        "duration_ns": 261767250,
        "uptime_ns": 18170696708
      }, {
        "duration_ns": 269490667,
        "uptime_ns": 18465329166
      }, {
        "duration_ns": 265664750,
        "uptime_ns": 18765967125
      }, {
        "duration_ns": 267357375,
        "uptime_ns": 19061967375
      }, {
        "duration_ns": 257104458,
        "uptime_ns": 19362558375
      }, {
        "duration_ns": 269437667,
        "uptime_ns": 19650695083
      }, {
        "duration_ns": 266485333,
        "uptime_ns": 19950312625
      }, {
        "duration_ns": 291142250,
        "uptime_ns": 20248780375
      }, {
        "duration_ns": 269535334,
        "uptime_ns": 20568773791
      }, {
        "duration_ns": 264366666,
        "uptime_ns": 20870503500
      }, {
        "duration_ns": 267633458,
        "uptime_ns": 21164518458
      }, {
        "duration_ns": 266318875,
        "uptime_ns": 21464633666
      }, {
        "duration_ns": 267988209,
        "uptime_ns": 21762107791
      }, {
        "duration_ns": 270957750,
        "uptime_ns": 22061943916
      }, {
        "duration_ns": 265617250,
        "uptime_ns": 22362941875
      }, {
        "duration_ns": 266185917,
        "uptime_ns": 22661386166
      }, {
        "duration_ns": 269476792,
        "uptime_ns": 22958440208
      }, {
        "duration_ns": 267812000,
        "uptime_ns": 23259648958
      }, {
        "duration_ns": 271365541,
        "uptime_ns": 23558292000
      }, {
        "duration_ns": 267383583,
        "uptime_ns": 23863223833
      }, {
        "duration_ns": 262471833,
        "uptime_ns": 24161030750
      }, {
        "duration_ns": 264934459,
        "uptime_ns": 24453302541
      }, {
        "duration_ns": 261545667,
        "uptime_ns": 24752528666
      }, {
        "duration_ns": 264486208,
        "uptime_ns": 25045130333
      }, {
        "duration_ns": 284407583,
        "uptime_ns": 25343301208
      }, {
        "duration_ns": 269567625,
        "uptime_ns": 25658045000
      }, {
        "duration_ns": 267231000,
        "uptime_ns": 25957815625
      }, {
        "duration_ns": 257510125,
        "uptime_ns": 26255702875
      }, {
        "duration_ns": 269438417,
        "uptime_ns": 26544999333
      }, {
        "duration_ns": 266187750,
        "uptime_ns": 26844752000
      }, {
        "duration_ns": 269409042,
        "uptime_ns": 27141297583
      }, {
        "duration_ns": 268629333,
        "uptime_ns": 27441356250
      }, {
        "duration_ns": 269122167,
        "uptime_ns": 27743609416
      }, {
        "duration_ns": 268815792,
        "uptime_ns": 28044101791
      }, {
        "duration_ns": 267766709,
        "uptime_ns": 28343644041
      }, {
        "duration_ns": 272760583,
        "uptime_ns": 28643081583
      }, {
        "duration_ns": 266322375,
        "uptime_ns": 28946525250
      }, {
        "duration_ns": 270937625,
        "uptime_ns": 29244199333
      }, {
        "duration_ns": 264744542,
        "uptime_ns": 29545712666
      }, {
        "duration_ns": 258530500,
        "uptime_ns": 29841752000
      }, {
        "duration_ns": 268111417,
        "uptime_ns": 30134125916
      }, {
        "duration_ns": 282954542,
        "uptime_ns": 30437983291
      }, {
        "duration_ns": 268231042,
        "uptime_ns": 30753089791
      }],
      "termination": "normal"
    }
  },
  "environment": {
    "os": {
      "virt_mem_committed": 425088630784,
      "name": "Mac OS X",
      "open_fd_count": 16,
      "phys_mem_free": 5379145728,
      "swap_space_total": 2147483648,
      "available_processors": 8,
      "phys_mem_total": 17179869184,
      "version": "11.0",
      "arch": "aarch64",
      "max_fd_count": 10240,
      "swap_space_free": 1431830528
    },
    "vm": {
      "termination": "normal",
      "name": "OpenJDK 64-Bit Server VM",
      "spec_vendor": "Oracle Corporation",
      "spec_name": "Java Virtual Machine Specification",
      "classloading": {
        "class_count": 2555,
        "classes_total": 2619
      },
      "compiler": {
        "name": "HotSpot 64-Bit Tiered Compilers",
        "compilation_time_ms": 3467
      },
      "start_iso": "2020-11-24T16:40:34.957Z",
      "collectors": [{
        "name": "G1 Young Generation",
        "collection_count": 803,
        "collection_time_ms": 2790
      }, {
        "name": "G1 Old Generation",
        "collection_count": 100,
        "collection_time_ms": 3079
      }],
      "start_unix_ms": 1606236034957,
      "version": "11.0.9.1+1-LTS",
      "mode": "mixed mode",
      "args": [],
      "pools": [{
        "name": "CodeHeap 'non-nmethods'",
        "type": "NON_HEAP",
        "usage": {
          "init": 2555904,
          "used": 1595520,
          "committed": 2555904,
          "max": 5849088
        },
        "peak_usage": {
          "init": 2555904,
          "used": 1656448,
          "committed": 2555904,
          "max": 5849088
        }
      }, {
        "name": "Metaspace",
        "type": "NON_HEAP",
        "usage": {
          "init": 0,
          "used": 21463736,
          "committed": 22282240,
          "max": -1
        },
        "peak_usage": {
          "init": 0,
          "used": 21463736,
          "committed": 22282240,
          "max": -1
        }
      }, {
        "name": "CodeHeap 'profiled nmethods'",
        "type": "NON_HEAP",
        "usage": {
          "init": 2555904,
          "used": 3370240,
          "committed": 3670016,
          "max": 122896384
        },
        "peak_usage": {
          "init": 2555904,
          "used": 3564160,
          "committed": 3670016,
          "max": 122896384
        }
      }, {
        "name": "Compressed Class Space",
        "type": "NON_HEAP",
        "usage": {
          "init": 0,
          "used": 3021912,
          "committed": 3407872,
          "max": 1073741824
        },
        "peak_usage": {
          "init": 0,
          "used": 3021912,
          "committed": 3407872,
          "max": 1073741824
        }
      }, {
        "name": "G1 Eden Space",
        "type": "HEAP",
        "usage": {
          "init": 27262976,
          "used": 242221056,
          "committed": 615514112,
          "max": -1
        },
        "peak_usage": {
          "init": 27262976,
          "used": 403701760,
          "committed": 680525824,
          "max": -1
        }
      }, {
        "name": "G1 Old Gen",
        "type": "HEAP",
        "usage": {
          "init": 241172480,
          "used": 82992576,
          "committed": 389021696,
          "max": 4294967296
        },
        "peak_usage": {
          "init": 241172480,
          "used": 94807008,
          "committed": 432013312,
          "max": 4294967296
        }
      }, {
        "name": "G1 Survivor Space",
        "type": "HEAP",
        "usage": {
          "init": 0,
          "used": 25165824,
          "committed": 25165824,
          "max": -1
        },
        "peak_usage": {
          "init": 0,
          "used": 28311552,
          "committed": 28311552,
          "max": -1
        }
      }, {
        "name": "CodeHeap 'non-profiled nmethods'",
        "type": "NON_HEAP",
        "usage": {
          "init": 2555904,
          "used": 1094912,
          "committed": 2555904,
          "max": 122912768
        },
        "peak_usage": {
          "init": 2555904,
          "used": 1147136,
          "committed": 2555904,
          "max": 122912768
        }
      }],
      "uptime_ms": 31083,
      "vendor": "Azul Systems, Inc.",
      "threads": {
        "thread_count": 12,
        "thread_count_max": 13,
        "daemon_thread_count": 11,
        "threads_total": 112
      },
      "spec_version": "11",
      "memory": {
        "heap_usage": {
          "init": 268435456,
          "used": 350379456,
          "committed": 1029701632,
          "max": 4294967296
        },
        "nonheap_usage": {
          "init": 7667712,
          "used": 30484840,
          "committed": 34471936,
          "max": -1
        },
        "pending_finalization_count": 0
      }
    },
    "jre": {
      "java_version": "11.0.9.1",
      "name": "OpenJDK Runtime Environment",
      "spec_vendor": "Oracle Corporation",
      "spec_name": "Java Platform API Specification",
      "class_path": ["target/renaissance-gpl-0.11.0.jar"],
      "home": "/Users/hankdev/apps/zulu11.43.1007-ca-jdk11.0.9.1-macos_aarch64/zulu-11.jdk/Contents/Home",
      "version": "11.0.9.1+1-LTS",
      "java_vendor": "Azul Systems, Inc.",
      "library_path": ["/Users/hankdev/Library/Java/Extensions", "/Library/Java/Extensions", "/Network/Library/Java/Extensions", "/System/Library/Java/Extensions", "/usr/lib/java", "."],
      "spec_version": "11"
    }
  },
  "suite": {
    "git": {
      "commit_hash": "91cf51ddb8af003685eca89f96371fd2e7bb3c7e",
      "commit_date": "2020-06-05T09:40:32+0200",
      "dirty": "false"
    },
    "name": "Renaissance Benchmark Suite",
    "version": "0.11.0"
  }
}