benchmark,duration_ns,uptime_ns,vm_start_unix_ms
akka-uct,14912823200,1039493200,1606352047585
akka-uct,16980563600,16738679200,1606352047585
akka-uct,13837212300,34553710600,1606352047585
akka-uct,14055208300,49134437700,1606352047585
akka-uct,15276487000,63957021700,1606352047585
akka-uct,13865725000,80140102000,1606352047585
akka-uct,14514492800,95122995000,1606352047585
akka-uct,15251219100,110471312700,1606352047585
akka-uct,14363105000,126596296600,1606352047585
akka-uct,14565172500,141858119900,1606352047585
akka-uct,13737559700,157320345800,1606352047585
akka-uct,13862818200,171853741400,1606352047585
akka-uct,13890233400,186637282800,1606352047585
akka-uct,14134649800,201402386500,1606352047585
akka-uct,14281827100,216326487700,1606352047585
akka-uct,14460865400,231373353700,1606352047585
akka-uct,13652685800,246733513500,1606352047585
akka-uct,14323794700,261162248300,1606352047585
akka-uct,15454371000,276286077700,1606352047585
akka-uct,13992717300,292645236100,1606352047585
akka-uct,14508088700,307545284100,1606352047585
akka-uct,13635718700,322938590300,1606352047585
akka-uct,14179770900,337468410700,1606352047585
akka-uct,14245833000,352462064700,1606352047585
akka-uct,14626994100,367625319800,1606352047585
akka-uct,14124638300,383152162400,1606352047585
akka-uct,13782694000,398101345400,1606352047585
akka-uct,14201156600,412761627900,1606352047585
akka-uct,14196611000,427805387900,1606352047585
akka-uct,14254863300,442901054900,1606352047585
akka-uct,13771306100,457965292000,1606352047585
akka-uct,14677870500,472601105100,1606352047585
akka-uct,14344729000,488091142500,1606352047585
akka-uct,14528705600,503271710300,1606352047585
akka-uct,13708307400,518754420400,1606352047585
akka-uct,14184049100,533337921800,1606352047585
akka-uct,13820543700,548301393200,1606352047585
akka-uct,13976294900,562993554700,1606352047585
akka-uct,14648677600,577847818100,1606352047585
akka-uct,13457366900,593344085900,1606352047585
akka-uct,13601658800,607660566600,1606352047585
akka-uct,14926015800,622035461000,1606352047585
akka-uct,14282303700,637918589700,1606352047585
akka-uct,13999493500,653098782100,1606352047585
akka-uct,14771044300,667952088300,1606352047585
akka-uct,14474059800,683713220000,1606352047585
akka-uct,15716073300,699045299900,1606352047585
akka-uct,14791899100,715687714000,1606352047585
akka-uct,12957432600,731327177700,1606352047585
akka-uct,14857488600,745108908300,1606352047585
akka-uct,14790318000,760863566800,1606352047585
akka-uct,14875735300,776434038100,1606352047585
akka-uct,14128534300,792176808900,1606352047585
akka-uct,13569869200,807268865900,1606352047585
akka-uct,13938952200,821740497100,1606352047585
akka-uct,13711202300,836504839700,1606352047585
akka-uct,13414359400,851008729100,1606352047585
akka-uct,14028766700,865254593100,1606352047585
akka-uct,13685998100,880082801400,1606352047585
akka-uct,14132002100,894572814800,1606352047585
akka-uct,15118058400,909612028100,1606352047585
akka-uct,14105710800,925619150300,1606352047585
akka-uct,13738922800,940640624000,1606352047585
akka-uct,14018388600,955241432600,1606352047585
akka-uct,14521395600,970019009200,1606352047585
akka-uct,14105636300,985387191600,1606352047585
akka-uct,13398019100,1000321455300,1606352047585
akka-uct,14297020100,1014450435400,1606352047585
akka-uct,14145591300,1029565772500,1606352047585
akka-uct,13403660700,1044657962700,1606352047585
akka-uct,14630490000,1058930675000,1606352047585
akka-uct,14187494300,1074337333700,1606352047585
akka-uct,14524418200,1089348622300,1606352047585
akka-uct,14333006000,1104686736900,1606352047585
akka-uct,13591277400,1119987746800,1606352047585
akka-uct,15145738700,1134425702100,1606352047585
akka-uct,13941739400,1150348145000,1606352047585
akka-uct,14393451200,1165081397800,1606352047585
akka-uct,14150171300,1180318876300,1606352047585
akka-uct,14019333300,1195264727400,1606352047585
akka-uct,13875801100,1210095009200,1606352047585
akka-uct,13655006100,1224921199000,1606352047585
akka-uct,14174111200,1239436706100,1606352047585
akka-uct,14013930200,1254470192400,1606352047585
akka-uct,14803404400,1269274340100,1606352047585
akka-uct,14672862100,1285011859600,1606352047585
akka-uct,14644455500,1300443140800,1606352047585
akka-uct,13990682700,1315956766900,1606352047585
akka-uct,13637322700,1330876745300,1606352047585
akka-uct,13895210800,1345385923800,1606352047585
akka-uct,14811893800,1360103818800,1606352047585
akka-uct,14093493100,1375853436700,1606352047585
akka-uct,13223296100,1390888927000,1606352047585
akka-uct,14229641500,1404999406300,1606352047585
akka-uct,13616607100,1420179033600,1606352047585
akka-uct,13655599400,1434588733800,1606352047585
akka-uct,14583621700,1449076253200,1606352047585
akka-uct,13831149200,1464547783100,1606352047585
akka-uct,13795111400,1479329190600,1606352047585
akka-uct,13261556800,1494078446900,1606352047585
