benchmark,duration_ns,uptime_ns,vm_start_unix_ms
chi-square,3210324700,4884526600,1606353829326
chi-square,894762900,8229039900,1606353829326
chi-square,1055285300,9179401400,1606353829326
chi-square,907072300,10299891800,1606353829326
chi-square,930494100,11259436900,1606353829326
chi-square,887264800,12254982300,1606353829326
chi-square,937480800,13194327700,1606353829326
chi-square,911263800,14180842200,1606353829326
chi-square,888374200,15145079600,1606353829326
chi-square,995364200,16085262200,1606353829326
chi-square,879605200,17146138000,1606353829326
chi-square,1059593900,18076165400,1606353829326
chi-square,848793200,19236105500,1606353829326
chi-square,916541000,20139297600,1606353829326
chi-square,868307100,21124677700,1606353829326
chi-square,856270800,22046178500,1606353829326
chi-square,979483600,22954121700,1606353829326
chi-square,889542400,24003882000,1606353829326
chi-square,972660200,24946079400,1606353829326
chi-square,867098100,26012050200,1606353829326
chi-square,912810900,26934093800,1606353829326
chi-square,858397000,27914225800,1606353829326
chi-square,849080600,28824979000,1606353829326
chi-square,928546200,29729163600,1606353829326
chi-square,876897700,30725406500,1606353829326
chi-square,1008585100,31656847800,1606353829326
chi-square,847712200,32757561500,1606353829326
chi-square,940205800,33670632300,1606353829326
chi-square,904704600,34688103000,1606353829326
chi-square,899285000,35650581100,1606353829326
chi-square,925620000,36607819500,1606353829326
chi-square,875956700,37609636700,1606353829326
chi-square,970835100,38537625200,1606353829326
chi-square,888987500,39620055400,1606353829326
chi-square,913386700,40563584500,1606353829326
chi-square,848866300,41541686400,1606353829326
chi-square,862097100,42444269300,1606353829326
chi-square,904864600,43362086500,1606353829326
chi-square,864799400,44333950000,1606353829326
chi-square,994515800,45249285700,1606353829326
chi-square,893206600,46337040700,1606353829326
chi-square,898290600,47283386700,1606353829326
chi-square,925033700,48250743100,1606353829326
chi-square,859689900,49232615400,1606353829326
chi-square,892870400,50146509600,1606353829326
chi-square,864461100,51117273900,1606353829326
chi-square,989895300,52035312800,1606353829326
chi-square,853087600,53126186500,1606353829326
chi-square,946630400,54040473800,1606353829326
chi-square,868399300,55059706300,1606353829326
chi-square,853249100,55983207700,1606353829326
chi-square,931453700,56888692900,1606353829326
chi-square,865847000,57897336600,1606353829326
chi-square,975527900,58819722900,1606353829326
chi-square,879285900,59900487300,1606353829326
chi-square,900087000,60837890000,1606353829326
chi-square,834606000,61820581600,1606353829326
chi-square,886729100,62708411300,1606353829326
chi-square,887386600,63651230200,1606353829326
chi-square,841532400,64610924300,1606353829326
chi-square,963472400,65508328600,1606353829326
chi-square,852846900,66569618100,1606353829326
chi-square,884745200,67477617500,1606353829326
chi-square,850385800,68434675100,1606353829326
chi-square,856518400,69340846600,1606353829326
chi-square,914360800,70251927500,1606353829326
chi-square,837381000,71238443000,1606353829326
chi-square,996505200,72132458600,1606353829326
chi-square,833486500,73230460100,1606353829326
chi-square,907084800,74122992800,1606353829326
chi-square,855780800,75102990300,1606353829326
chi-square,848426100,76012201900,1606353829326
chi-square,955106800,76914419200,1606353829326
chi-square,849629100,77949474400,1606353829326
chi-square,989346100,78853043100,1606353829326
chi-square,836275300,79957676000,1606353829326
chi-square,901396200,80848085900,1606353829326
chi-square,866742400,81826967800,1606353829326
chi-square,858138500,82747372600,1606353829326
chi-square,891261300,83660861000,1606353829326
chi-square,853058000,84628402600,1606353829326
chi-square,969713900,85538449500,1606353829326
chi-square,842967300,86612467800,1606353829326
chi-square,885108800,87512268100,1606353829326
chi-square,847639200,88470863800,1606353829326
chi-square,873868500,89373883600,1606353829326
chi-square,887225800,90304784700,1606353829326
chi-square,858853300,91261820900,1606353829326
chi-square,968588400,92177507100,1606353829326
chi-square,868088300,93263881500,1606353829326
chi-square,932947200,94188108500,1606353829326
chi-square,849341900,95194247200,1606353829326
chi-square,854749200,96099622600,1606353829326
chi-square,931596900,97012649900,1606353829326
chi-square,882632700,98020717300,1606353829326
chi-square,858238500,98976201600,1606353829326
chi-square,978387700,99890312700,1606353829326
chi-square,850657100,100967155300,1606353829326
chi-square,925559000,101875864300,1606353829326
chi-square,850749200,102873943300,1606353829326
