benchmark,duration_ns,uptime_ns,vm_start_unix_ms
dotty,8547037200,1128548450,1606354106033
dotty,3426104000,9784163250,1606354106033
dotty,3103264700,13283761850,1606354106033
dotty,2970659200,16469611250,1606354106033
dotty,2833050200,19516924650,1606354106033
dotty,2795644900,22422203150,1606354106033
dotty,2720787200,25295329050,1606354106033
dotty,2625145300,28096168750,1606354106033
dotty,2604263900,30804366150,1606354106033
dotty,2505474600,33493465650,1606354106033
dotty,2546638200,36080388550,1606354106033
dotty,2439989900,38714825050,1606354106033
dotty,2442995300,41237595550,1606354106033
dotty,2475452800,43762128950,1606354106033
dotty,2512527500,46323558550,1606354106033
dotty,2485250500,48919610350,1606354106033
dotty,2371873900,51492820150,1606354106033
dotty,2368051700,53951569250,1606354106033
dotty,2465062500,56403932350,1606354106033
dotty,2371214200,58954715250,1606354106033
dotty,2361449000,61414016750,1606354106033
dotty,2389128600,63861485250,1606354106033
dotty,2322916500,66337114450,1606354106033
dotty,2336429900,68756985050,1606354106033
dotty,2340108200,71182134050,1606354106033
dotty,2346595300,73611754650,1606354106033
dotty,2312840200,76048216750,1606354106033
dotty,2275542800,78453804650,1606354106033
dotty,2332844700,80818550550,1606354106033
dotty,2295025100,83240603850,1606354106033
dotty,2317802800,85622791550,1606354106033
dotty,2304483300,88031581450,1606354106033
dotty,2267764000,90423496550,1606354106033
dotty,2282170600,92790098950,1606354106033
dotty,2273450400,95162170550,1606354106033
dotty,2260747000,97522759550,1606354106033
dotty,2320481700,99875891950,1606354106033
dotty,2290082800,102286662050,1606354106033
dotty,2257421400,104671481350,1606354106033
dotty,2244753700,107016668850,1606354106033
dotty,2260258500,109350844150,1606354106033
dotty,2263499600,111707878150,1606354106033
dotty,2290261400,114058623650,1606354106033
dotty,2321692200,116439115650,1606354106033
dotty,2290794700,118852147850,1606354106033
dotty,2291756500,121236691750,1606354106033
dotty,2258382800,123619506250,1606354106033
dotty,2262351800,125966759050,1606354106033
dotty,2257260100,128317339250,1606354106033
dotty,2353387200,130667313550,1606354106033
dotty,2314278000,133110958950,1606354106033
dotty,2265968200,135520584850,1606354106033
dotty,2256000300,137876078150,1606354106033
dotty,2286106300,140222500350,1606354106033
dotty,2243003400,142598922350,1606354106033
dotty,2241469000,144936010250,1606354106033
dotty,2260828500,147269591350,1606354106033
dotty,2254963600,149621024150,1606354106033
dotty,2275362600,151963668550,1606354106033
dotty,2296063700,154329415750,1606354106033
dotty,2250553800,156715908950,1606354106033
dotty,2347216100,159057095050,1606354106033
dotty,2245004500,161493607450,1606354106033
dotty,2296693000,163827222750,1606354106033
dotty,2297629100,166214069850,1606354106033
dotty,2252575600,168606181650,1606354106033
dotty,2265003400,170949950650,1606354106033
dotty,2229101400,173308112350,1606354106033
dotty,2327044300,175626992750,1606354106033
dotty,2262129200,178043170250,1606354106033
dotty,2229282300,180395463150,1606354106033
dotty,2290296000,182716447850,1606354106033
dotty,2235369300,185102611150,1606354106033
dotty,2244416300,187428441250,1606354106033
dotty,2217818800,189764609750,1606354106033
dotty,2265536300,192072375750,1606354106033
dotty,2213851800,194429712850,1606354106033
dotty,2227151300,196736078750,1606354106033
dotty,2205381000,199054911650,1606354106033
dotty,2274998700,201353623950,1606354106033
dotty,2219129800,203720342350,1606354106033
dotty,2210307300,206040064350,1606354106033
dotty,2227892100,208341038850,1606354106033
dotty,2193437700,210661223250,1606354106033
dotty,2241940600,212945293150,1606354106033
dotty,2276444800,215281591850,1606354106033
dotty,2251662300,217653038650,1606354106033
dotty,2293538000,219998738250,1606354106033
dotty,2227225100,222387120050,1606354106033
dotty,2232367700,224706648150,1606354106033
dotty,2221896300,227042864450,1606354106033
dotty,2206647600,229357926650,1606354106033
dotty,2193371000,231654954650,1606354106033
dotty,2212322000,233943279550,1606354106033
dotty,2287540700,236252095550,1606354106033
dotty,2233756800,238633559450,1606354106033
dotty,2235424300,240961538050,1606354106033
dotty,2208504400,243290073050,1606354106033
dotty,2232156200,245590652350,1606354106033
dotty,2244944900,247913316350,1606354106033
