benchmark,duration_ns,uptime_ns,vm_start_unix_ms
finagle-chirper,16408784500,3172963850,1606354357048
finagle-chirper,12580761100,19722114350,1606354357048
finagle-chirper,12219703200,32439119050,1606354357048
finagle-chirper,10835124600,44795678550,1606354357048
finagle-chirper,1827438000,55760100650,1606354357048
finagle-chirper,3281681200,57659993950,1606354357048
finagle-chirper,1175992100,61019412050,1606354357048
finagle-chirper,2444565500,62286634050,1606354357048
finagle-chirper,3403013000,64822277850,1606354357048
finagle-chirper,3729822600,68325417750,1606354357048
finagle-chirper,2873703200,72173326450,1606354357048
finagle-chirper,3029069600,75164303450,1606354357048
finagle-chirper,3219111600,78324744250,1606354357048
finagle-chirper,970388900,81683681350,1606354357048
finagle-chirper,2360120100,82800175150,1606354357048
finagle-chirper,2148550600,85317145850,1606354357048
finagle-chirper,580462400,87630550750,1606354357048
finagle-chirper,2064039400,88383832250,1606354357048
finagle-chirper,1895655100,90628965550,1606354357048
finagle-chirper,389147700,92711572650,1606354357048
finagle-chirper,380695000,93290812850,1606354357048
finagle-chirper,336032400,93858770150,1606354357048
finagle-chirper,331064200,94388585950,1606354357048
finagle-chirper,337239600,94912718050,1606354357048
finagle-chirper,337983000,95464010050,1606354357048
finagle-chirper,336882200,96018033550,1606354357048
finagle-chirper,343757600,96570103850,1606354357048
finagle-chirper,338147600,97136195650,1606354357048
finagle-chirper,363934800,97717962950,1606354357048
finagle-chirper,374996200,98327607750,1606354357048
finagle-chirper,339015300,98946258750,1606354357048
finagle-chirper,341756300,99534088650,1606354357048
finagle-chirper,358030200,100130918750,1606354357048
finagle-chirper,381582100,100748197750,1606354357048
finagle-chirper,348491100,101399250650,1606354357048
finagle-chirper,339503100,102013827750,1606354357048
finagle-chirper,344381600,102627193150,1606354357048
finagle-chirper,350865200,103246779250,1606354357048
finagle-chirper,342884100,103886963250,1606354357048
finagle-chirper,351280700,104525205650,1606354357048
finagle-chirper,346203500,105166194250,1606354357048
finagle-chirper,344504500,105812833550,1606354357048
finagle-chirper,349737200,106474774750,1606354357048
finagle-chirper,345074900,107133600250,1606354357048
finagle-chirper,349049200,107798043850,1606354357048
finagle-chirper,343700400,108488975750,1606354357048
finagle-chirper,353102100,109175039950,1606354357048
finagle-chirper,363211600,109854574450,1606354357048
finagle-chirper,367684200,110548658350,1606354357048
finagle-chirper,393382900,111263179150,1606354357048
finagle-chirper,348433600,112010546550,1606354357048
finagle-chirper,352332700,112730564150,1606354357048
finagle-chirper,356668100,113458297150,1606354357048
finagle-chirper,354609100,114209584650,1606354357048
finagle-chirper,347563400,114948835150,1606354357048
finagle-chirper,356597100,115678171550,1606354357048
finagle-chirper,350341300,116409991950,1606354357048
finagle-chirper,348782200,117134465450,1606354357048
finagle-chirper,362693900,117865558750,1606354357048
finagle-chirper,352097800,118619539750,1606354357048
finagle-chirper,352475800,119367107250,1606354357048
finagle-chirper,354942200,120110166550,1606354357048
finagle-chirper,356161100,120871764950,1606354357048
finagle-chirper,358478000,121633474550,1606354357048
finagle-chirper,355556300,122408811150,1606354357048
finagle-chirper,378322300,123190378650,1606354357048
finagle-chirper,370082500,124013484550,1606354357048
finagle-chirper,370053800,124804336550,1606354357048
finagle-chirper,384134200,125622662550,1606354357048
finagle-chirper,403812700,126458805450,1606354357048
finagle-chirper,358384200,127324259950,1606354357048
finagle-chirper,361111500,128174101850,1606354357048
finagle-chirper,355443400,129022723650,1606354357048
finagle-chirper,371471700,129857558950,1606354357048
finagle-chirper,361738200,130713995550,1606354357048
finagle-chirper,368209900,131549832350,1606354357048
finagle-chirper,368969600,132389970050,1606354357048
finagle-chirper,370687100,133270971450,1606354357048
finagle-chirper,364317200,134156429050,1606354357048
finagle-chirper,366545700,135012316150,1606354357048
finagle-chirper,367435300,135896838150,1606354357048
finagle-chirper,361794300,136787675050,1606354357048
finagle-chirper,361015500,137674004350,1606354357048
finagle-chirper,369389500,138547525350,1606354357048
finagle-chirper,365630800,139454810450,1606354357048
finagle-chirper,391543700,140368356650,1606354357048
finagle-chirper,386506400,141291548850,1606354357048
finagle-chirper,369567500,142205454250,1606354357048
finagle-chirper,386867200,143146335250,1606354357048
finagle-chirper,440460200,144087982550,1606354357048
finagle-chirper,369822200,145109031850,1606354357048
finagle-chirper,375880000,146046531350,1606354357048
finagle-chirper,371788100,147004071150,1606354357048
finagle-chirper,367601000,147949343750,1606354357048
finagle-chirper,379415000,148909824450,1606354357048
finagle-chirper,371527000,149879249750,1606354357048
finagle-chirper,372233000,150833025650,1606354357048
finagle-chirper,388969400,151842112650,1606354357048
finagle-chirper,391947600,152891483450,1606354357048
finagle-chirper,378384600,153962180150,1606354357048
