benchmark,duration_ns,uptime_ns,vm_start_unix_ms
log-regression,5242352600,3722246800,1606355648772
log-regression,1836382900,9051359400,1606355648772
log-regression,1679387300,10937754000,1606355648772
log-regression,1709402600,12655849100,1606355648772
log-regression,1745674000,14419547300,1606355648772
log-regression,1692019600,16220489000,1606355648772
log-regression,1657796800,17965966300,1606355648772
log-regression,1706797200,19674580500,1606355648772
log-regression,1666668600,21431972900,1606355648772
log-regression,1675844900,23151515600,1606355648772
log-regression,1644527800,24882662500,1606355648772
log-regression,1609794100,26581365600,1606355648772
log-regression,1637404100,28246231300,1606355648772
log-regression,1630116200,29936033000,1606355648772
log-regression,1608156300,31619376100,1606355648772
log-regression,1585519600,33282034700,1606355648772
log-regression,1608017300,34920497500,1606355648772
log-regression,1607495700,36585790100,1606355648772
log-regression,1563708400,38248560600,1606355648772
log-regression,1636465900,39860553600,1606355648772
log-regression,1632145300,41567798300,1606355648772
log-regression,1572018200,43263472200,1606355648772
log-regression,1636432500,44895600800,1606355648772
log-regression,1621683200,46583647200,1606355648772
log-regression,1587469600,48275096100,1606355648772
log-regression,1605540900,49927107400,1606355648772
log-regression,1598052500,51587965900,1606355648772
log-regression,1582024100,53243115400,1606355648772
log-regression,1600165100,54883198400,1606355648772
log-regression,1619724800,56537494100,1606355648772
log-regression,1625013700,58213831900,1606355648772
log-regression,1590255200,59897454300,1606355648772
log-regression,1575441800,61546239400,1606355648772
log-regression,1605714900,63179901400,1606355648772
log-regression,1564456100,64845157300,1606355648772
log-regression,1581631800,66460329600,1606355648772
log-regression,1573122900,68114372300,1606355648772
log-regression,1573016700,69748009700,1606355648772
log-regression,1663064500,71376737400,1606355648772
log-regression,1603829700,73100118000,1606355648772
log-regression,1594339500,74770127900,1606355648772
log-regression,1587641700,76428680400,1606355648772
log-regression,1604886600,78077249800,1606355648772
log-regression,1614259500,79742585000,1606355648772
log-regression,1568896500,81413397800,1606355648772
log-regression,1585813000,83047105500,1606355648772
log-regression,1595313700,84703459300,1606355648772
log-regression,1605950500,86357481900,1606355648772
log-regression,1606173700,88029906400,1606355648772
log-regression,1592633200,89696800700,1606355648772
log-regression,1601194800,91353299800,1606355648772
log-regression,1574176900,93017147700,1606355648772
log-regression,1583844800,94654414300,1606355648772
log-regression,1584192900,96302043900,1606355648772
log-regression,1569646300,97946130400,1606355648772
log-regression,1658012700,99581715800,1606355648772
log-regression,1590326500,101300527100,1606355648772
log-regression,1610883200,102954873400,1606355648772
log-regression,1580375300,104632175400,1606355648772
log-regression,1603071100,106270803600,1606355648772
log-regression,1609023200,107931679800,1606355648772
log-regression,1587776800,109604583800,1606355648772
log-regression,1575967300,111256313600,1606355648772
log-regression,1583788400,112892448300,1606355648772
log-regression,1590476500,114537528100,1606355648772
log-regression,1571491800,116189282300,1606355648772
log-regression,1561614500,117819501500,1606355648772
log-regression,1582742600,119439569000,1606355648772
log-regression,1578641900,121080389800,1606355648772
log-regression,1587200600,122728348100,1606355648772
log-regression,1529432700,124376117100,1606355648772
log-regression,1530603200,125957645700,1606355648772
log-regression,1604931200,127557938400,1606355648772
log-regression,1577122100,129230961500,1606355648772
log-regression,1523129400,130866748800,1606355648772
log-regression,1596375300,132444627400,1606355648772
log-regression,1579151200,134108300800,1606355648772
log-regression,1588624700,135750062700,1606355648772
log-regression,1550115700,137400289500,1606355648772
log-regression,1583889500,139013413900,1606355648772
log-regression,1559174200,140659811300,1606355648772
log-regression,1573660900,142278258800,1606355648772
log-regression,1568136400,143916782300,1606355648772
log-regression,1523382200,145546041400,1606355648772
log-regression,1565915000,147125729900,1606355648772
log-regression,1583653200,148758611000,1606355648772
log-regression,1556608400,150409568600,1606355648772
log-regression,1556838000,152030207300,1606355648772
log-regression,1552501300,153648129900,1606355648772
log-regression,1605233800,155263380100,1606355648772
log-regression,1593687500,156928078800,1606355648772
log-regression,1536813100,158585949200,1606355648772
log-regression,1589004900,160176443300,1606355648772
log-regression,1536023200,161848292900,1606355648772
log-regression,1506389100,163449286700,1606355648772
log-regression,1590903200,165010237500,1606355648772
log-regression,1583285900,166669955400,1606355648772
log-regression,1553467200,168321858300,1606355648772
log-regression,1548885300,169934867000,1606355648772
log-regression,1531366800,171552446500,1606355648772
