{
  "benchmarks": ["neo4j-analytics"],
  "format_version": 5,
  "data": {
    "neo4j-analytics": {
      "results": [{
        "duration_ns": 6011618900,
        "uptime_ns": 22043521750
      }, {
        "duration_ns": 4458126300,
        "uptime_ns": 28222922650
      }, {
        "duration_ns": 4442391100,
        "uptime_ns": 32817765850
      }, {
        "duration_ns": 4442298400,
        "uptime_ns": 37399636150
      }, {
        "duration_ns": 4418872300,
        "uptime_ns": 41951600250
      }, {
        "duration_ns": 4343500600,
        "uptime_ns": 46519357050
      }, {
        "duration_ns": 4379275400,
        "uptime_ns": 50949569750
      }, {
        "duration_ns": 4436383900,
        "uptime_ns": 55451356450
      }, {
        "duration_ns": 4290274300,
        "uptime_ns": 60034125850
      }, {
        "duration_ns": 4319000600,
        "uptime_ns": 64453374850
      }, {
        "duration_ns": 4281644600,
        "uptime_ns": 68922975950
      }, {
        "duration_ns": 4355335300,
        "uptime_ns": 73339949450
      }, {
        "duration_ns": 4288097000,
        "uptime_ns": 77857714250
      }, {
        "duration_ns": 4328313900,
        "uptime_ns": 82287479150
      }, {
        "duration_ns": 4329318900,
        "uptime_ns": 86748172250
      }, {
        "duration_ns": 4323332000,
        "uptime_ns": 91217038650
      }, {
        "duration_ns": 4320467500,
        "uptime_ns": 95705718550
      }, {
        "duration_ns": 4306310900,
        "uptime_ns": 100137876550
      }, {
        "duration_ns": 4361464200,
        "uptime_ns": 104593832950
      }, {
        "duration_ns": 4306706900,
        "uptime_ns": 109154719850
      }, {
        "duration_ns": 4277038800,
        "uptime_ns": 113608880350
      }, {
        "duration_ns": 4338330800,
        "uptime_ns": 118019221850
      }, {
        "duration_ns": 4337385100,
        "uptime_ns": 122514197450
      }, {
        "duration_ns": 4267775400,
        "uptime_ns": 126978093350
      }, {
        "duration_ns": 4315628500,
        "uptime_ns": 131377411850
      }, {
        "duration_ns": 4380163400,
        "uptime_ns": 135859075850
      }, {
        "duration_ns": 4293557400,
        "uptime_ns": 140412884350
      }, {
        "duration_ns": 4328032600,
        "uptime_ns": 144844251350
      }, {
        "duration_ns": 4301250100,
        "uptime_ns": 149333185150
      }, {
        "duration_ns": 4286583600,
        "uptime_ns": 153761463350
      }, {
        "duration_ns": 4319086100,
        "uptime_ns": 158192388950
      }, {
        "duration_ns": 4304177500,
        "uptime_ns": 162665251850
      }, {
        "duration_ns": 4292954600,
        "uptime_ns": 167117840550
      }, {
        "duration_ns": 4333707400,
        "uptime_ns": 171561368850
      }, {
        "duration_ns": 4301330600,
        "uptime_ns": 176028313550
      }, {
        "duration_ns": 4317243000,
        "uptime_ns": 180460667050
      }, {
        "duration_ns": 4317294700,
        "uptime_ns": 184931381050
      }, {
        "duration_ns": 4342115600,
        "uptime_ns": 189409062550
      }, {
        "duration_ns": 4330221300,
        "uptime_ns": 193919104650
      }, {
        "duration_ns": 4319525000,
        "uptime_ns": 198391689450
      }, {
        "duration_ns": 4359456400,
        "uptime_ns": 202842063650
      }, {
        "duration_ns": 4374025200,
        "uptime_ns": 207369075950
      }, {
        "duration_ns": 4318804000,
        "uptime_ns": 211902883650
      }, {
        "duration_ns": 4342248100,
        "uptime_ns": 216367065050
      }, {
        "duration_ns": 4289755000,
        "uptime_ns": 220845280450
      }, {
        "duration_ns": 4312701400,
        "uptime_ns": 225258174350
      }, {
        "duration_ns": 4319265100,
        "uptime_ns": 229721508250
      }, {
        "duration_ns": 4313046900,
        "uptime_ns": 234192859650
      }, {
        "duration_ns": 4306213900,
        "uptime_ns": 238650748750
      }, {
        "duration_ns": 4353133200,
        "uptime_ns": 243114336750
      }, {
        "duration_ns": 4354122300,
        "uptime_ns": 247591811750
      }, {
        "duration_ns": 4278344100,
        "uptime_ns": 252124775150
      }, {
        "duration_ns": 4334656000,
        "uptime_ns": 256526874150
      }, {
        "duration_ns": 4280162600,
        "uptime_ns": 261026904550
      }, {
        "duration_ns": 4360754400,
        "uptime_ns": 265447926850
      }, {
        "duration_ns": 4328607300,
        "uptime_ns": 269960413250
      }, {
        "duration_ns": 4339357800,
        "uptime_ns": 274426801850
      }, {
        "duration_ns": 4345241100,
        "uptime_ns": 278911395750
      }, {
        "duration_ns": 4340957200,
        "uptime_ns": 283412672350
      }, {
        "duration_ns": 4388933300,
        "uptime_ns": 287907048950
      }, {
        "duration_ns": 4304064400,
        "uptime_ns": 292444491750
      }, {
        "duration_ns": 4287726600,
        "uptime_ns": 296892639950
      }, {
        "duration_ns": 4268473500,
        "uptime_ns": 301296368150
      }, {
        "duration_ns": 4346081300,
        "uptime_ns": 305698545150
      }, {
        "duration_ns": 4305811200,
        "uptime_ns": 310206680650
      }, {
        "duration_ns": 4348894300,
        "uptime_ns": 314641930050
      }, {
        "duration_ns": 4338760700,
        "uptime_ns": 319207920550
      }, {
        "duration_ns": 4336603800,
        "uptime_ns": 323697100450
      }, {
        "duration_ns": 4299334700,
        "uptime_ns": 328185038850
      }, {
        "duration_ns": 4319182600,
        "uptime_ns": 332601968250
      }, {
        "duration_ns": 4301499700,
        "uptime_ns": 337045972850
      }, {
        "duration_ns": 4328839300,
        "uptime_ns": 341473315950
      }, {
        "duration_ns": 4381104600,
        "uptime_ns": 345952326450
      }, {
        "duration_ns": 4326018500,
        "uptime_ns": 350493574250
      }, {
        "duration_ns": 4332531300,
        "uptime_ns": 354970398250
      }, {
        "duration_ns": 4279178900,
        "uptime_ns": 359457930050
      }, {
        "duration_ns": 4352157100,
        "uptime_ns": 363885977050
      }, {
        "duration_ns": 4300291800,
        "uptime_ns": 368405766950
      }, {
        "duration_ns": 4349395500,
        "uptime_ns": 372847704250
      }, {
        "duration_ns": 4304807100,
        "uptime_ns": 377355951150
      }, {
        "duration_ns": 4342461300,
        "uptime_ns": 381803635250
      }, {
        "duration_ns": 4306490300,
        "uptime_ns": 386293392250
      }, {
        "duration_ns": 4317592000,
        "uptime_ns": 390745552250
      }, {
        "duration_ns": 4341399400,
        "uptime_ns": 395188046250
      }, {
        "duration_ns": 4344344700,
        "uptime_ns": 399681975050
      }, {
        "duration_ns": 4338732700,
        "uptime_ns": 404220108250
      }, {
        "duration_ns": 4274302900,
        "uptime_ns": 408691904950
      }, {
        "duration_ns": 4362547500,
        "uptime_ns": 413098218250
      }, {
        "duration_ns": 4341191200,
        "uptime_ns": 417619574550
      }, {
        "duration_ns": 4279062900,
        "uptime_ns": 422110715950
      }, {
        "duration_ns": 4327216400,
        "uptime_ns": 426512859250
      }, {
        "duration_ns": 4336420800,
        "uptime_ns": 430974211950
      }, {
        "duration_ns": 4303977500,
        "uptime_ns": 435445262450
      }, {
        "duration_ns": 4305020700,
        "uptime_ns": 439891165350
      }, {
        "duration_ns": 4325537800,
        "uptime_ns": 444327978350
      }, {
        "duration_ns": 4347346500,
        "uptime_ns": 448784900850
      }, {
        "duration_ns": 4303226200,
        "uptime_ns": 453294602150
      }, {
        "duration_ns": 4315378700,
        "uptime_ns": 457738871250
      }, {
        "duration_ns": 4380167500,
        "uptime_ns": 462201020750
      }, {
        "duration_ns": 4322176600,
        "uptime_ns": 466749973450
      }],
      "termination": "normal"
    }
  },
  "environment": {
    "os": {
      "name": "Windows 10",
      "arch": "amd64",
      "version": "10.0",
      "available_processors": 32
    },
    "vm": {
      "termination": "normal",
      "name": "OpenJDK 64-Bit Server VM",
      "spec_vendor": "Oracle Corporation",
      "spec_name": "Java Virtual Machine Specification",
      "classloading": {
        "class_count": 11869,
        "classes_total": 11911
      },
      "compiler": {
        "name": "HotSpot 64-Bit Tiered Compilers",
        "compilation_time_ms": 47672
      },
      "start_iso": "2020-11-26T02:06:01.142Z",
      "collectors": [{
        "name": "G1 Young Generation",
        "collection_count": 1927,
        "collection_time_ms": 16406
      }, {
        "name": "G1 Old Generation",
        "collection_count": 100,
        "collection_time_ms": 14616
      }],
      "start_unix_ms": 1606356361142,
      "version": "11.0.9.1+1",
      "mode": "mixed mode",
      "args": [],
      "pools": [{
        "name": "CodeHeap 'non-nmethods'",
        "type": "NON_HEAP",
        "usage": {
          "init": 2555904,
          "used": 1375872,
          "committed": 4259840,
          "max": 8192000
        },
        "peak_usage": {
          "init": 2555904,
          "used": 3746048,
          "committed": 4259840,
          "max": 8192000
        }
      }, {
        "name": "Metaspace",
        "type": "NON_HEAP",
        "usage": {
          "init": 0,
          "used": 76540040,
          "committed": 78118912,
          "max": -1
        },
        "peak_usage": {
          "init": 0,
          "used": 76540040,
          "committed": 78118912,
          "max": -1
        }
      }, {
        "name": "CodeHeap 'profiled nmethods'",
        "type": "NON_HEAP",
        "usage": {
          "init": 2555904,
          "used": 19335296,
          "committed": 24117248,
          "max": 121700352
        },
        "peak_usage": {
          "init": 2555904,
          "used": 24042496,
          "committed": 24117248,
          "max": 121700352
        }
      }, {
        "name": "Compressed Class Space",
        "type": "NON_HEAP",
        "usage": {
          "init": 0,
          "used": 10521592,
          "committed": 11272192,
          "max": 1073741824
        },
        "peak_usage": {
          "init": 0,
          "used": 10521592,
          "committed": 11272192,
          "max": 1073741824
        }
      }, {
        "name": "G1 Eden Space",
        "type": "HEAP",
        "usage": {
          "init": 54525952,
          "used": 167772160,
          "committed": 1056964608,
          "max": -1
        },
        "peak_usage": {
          "init": 54525952,
          "used": 1367343104,
          "committed": 1476395008,
          "max": -1
        }
      }, {
        "name": "G1 Old Gen",
        "type": "HEAP",
        "usage": {
          "init": 1019215872,
          "used": 205691592,
          "committed": 624951296,
          "max": 17150509056
        },
        "peak_usage": {
          "init": 1019215872,
          "used": 3531603968,
          "committed": 12478054400,
          "max": 17150509056
        }
      }, {
        "name": "G1 Survivor Space",
        "type": "HEAP",
        "usage": {
          "init": 0,
          "used": 8388608,
          "committed": 8388608,
          "max": -1
        },
        "peak_usage": {
          "init": 0,
          "used": 83886080,
          "committed": 83886080,
          "max": -1
        }
      }, {
        "name": "CodeHeap 'non-profiled nmethods'",
        "type": "NON_HEAP",
        "usage": {
          "init": 2555904,
          "used": 11334016,
          "committed": 12845056,
          "max": 121765888
        },
        "peak_usage": {
          "init": 2555904,
          "used": 12812800,
          "committed": 12845056,
          "max": 121765888
        }
      }],
      "uptime_ms": 471346,
      "vendor": "AdoptOpenJDK",
      "threads": {
        "thread_count": 8,
        "thread_count_max": 35,
        "daemon_thread_count": 7,
        "threads_total": 566
      },
      "spec_version": "11",
      "memory": {
        "heap_usage": {
          "init": 1073741824,
          "used": 381852360,
          "committed": 1690304512,
          "max": 17150509056
        },
        "nonheap_usage": {
          "init": 7667712,
          "used": 119095744,
          "committed": 130351104,
          "max": -1
        },
        "pending_finalization_count": 0
      }
    },
    "jre": {
      "java_version": "11.0.9.1",
      "name": "OpenJDK Runtime Environment",
      "spec_vendor": "Oracle Corporation",
      "spec_name": "Java Platform API Specification",
      "class_path": ["target/renaissance-gpl-0.11.0.jar"],
      "home": "C:\\Program Files\\AdoptOpenJDK\\jdk-11.0.9.101-hotspot",
      "version": "11.0.9.1+1",
      "java_vendor": "AdoptOpenJDK",
      "library_path": ["C:\\Program Files\\AdoptOpenJDK\\jdk-11.0.9.101-hotspot\\bin", "C:\\Windows\\Sun\\Java\\bin", "C:\\Windows\\system32", "C:\\Windows", "C:\\Users\\hank\\apps\\apache-maven-3.6.3\\bin", "C:\\Users\\hank\\apps\\gradle-6.7.1\\bin", "C:\\Users\\hank\\bin", "C:\\Program Files\\Git\\mingw64\\bin", "C:\\Program Files\\Git\\usr\\local\\bin", "C:\\Program Files\\Git\\usr\\bin", "C:\\Program Files\\Git\\usr\\bin", "C:\\Program Files\\Git\\mingw64\\bin", "C:\\Program Files\\Git\\usr\\bin", "C:\\Users\\hank\\bin", "C:\\Program Files\\AdoptOpenJDK\\jdk-11.0.9.101-hotspot\\bin", "C:\\Windows\\system32", "C:\\Windows", "C:\\Windows\\System32\\Wbem", "C:\\Windows\\System32\\WindowsPowerShell\\v1.0", "C:\\Windows\\System32\\OpenSSH", "C:\\Program Files\\NVIDIA Corporation\\NVIDIA NvDLISR", "C:\\Program Files (x86)\\NVIDIA Corporation\\PhysX\\Common", "C:\\Program Files\\Git\\cmd", "C:\\Program Files\\dotnet", "C:\\Users\\hank\\AppData\\Local\\Microsoft\\WindowsApps", "C:\\Users\\hank\\.dotnet\\tools", "C:\\Program Files\\Git\\usr\\bin\\vendor_perl", "C:\\Program Files\\Git\\usr\\bin\\core_perl", "."],
      "spec_version": "11"
    }
  },
  "suite": {
    "git": {
      "commit_hash": "91cf51ddb8af003685eca89f96371fd2e7bb3c7e",
      "commit_date": "2020-06-05T09:40:32+0200",
      "dirty": "true"
    },
    "name": "Renaissance Benchmark Suite",
    "version": "0.11.0"
  }
}