
------------------------------------------------------------
Gradle 4.4.1
------------------------------------------------------------

Build time:   2012-12-21 00:00:00 UTC
Revision:     none

Groovy:       2.4.16
Ant:          Apache Ant(TM) version 1.10.5 compiled on March 28 2019
JVM:          11.0.9.1 (Ubuntu 11.0.9.1+1-Ubuntu-0ubuntu1.18.04)
OS:           Linux 5.4.0-1029-aws aarch64

