benchmark,duration_ns,uptime_ns,vm_start_unix_ms
scala-stm-bench7,2708481464,1031417854,1606341753266
scala-stm-bench7,1809824128,3797348113,1606341753266
scala-stm-bench7,1724878812,5650596176,1606341753266
scala-stm-bench7,1689985919,7417545869,1606341753266
scala-stm-bench7,1791737672,9151634829,1606341753266
scala-stm-bench7,1772204600,10986632393,1606341753266
scala-stm-bench7,1760223863,12806090551,1606341753266
scala-stm-bench7,1739942146,14610684776,1606341753266
scala-stm-bench7,1740376686,16395115888,1606341753266
scala-stm-bench7,1824980837,18188567005,1606341753266
scala-stm-bench7,1788542104,20058109382,1606341753266
scala-stm-bench7,1777600897,21892039701,1606341753266
scala-stm-bench7,1781948416,23714659667,1606341753266
scala-stm-bench7,1729178022,25539130513,1606341753266
scala-stm-bench7,1782526601,27311480829,1606341753266
scala-stm-bench7,1761041631,29137526601,1606341753266
scala-stm-bench7,1722102214,30940924903,1606341753266
scala-stm-bench7,1725551910,32706747295,1606341753266
scala-stm-bench7,1726203753,34476477725,1606341753266
scala-stm-bench7,1721384191,36244002188,1606341753266
scala-stm-bench7,1792738604,38010925411,1606341753266
scala-stm-bench7,1744945867,39847526936,1606341753266
scala-stm-bench7,1745639744,41636298958,1606341753266
scala-stm-bench7,1734748883,43424807254,1606341753266
scala-stm-bench7,1767168416,45203274830,1606341753266
scala-stm-bench7,1686023102,47018942601,1606341753266
scala-stm-bench7,1751670668,48754484289,1606341753266
scala-stm-bench7,1748801150,50548192288,1606341753266
scala-stm-bench7,1814331712,52340411802,1606341753266
scala-stm-bench7,1775577326,54197634794,1606341753266
scala-stm-bench7,1840197727,56015692860,1606341753266
scala-stm-bench7,1742391009,57900819466,1606341753266
scala-stm-bench7,1728917527,59685911759,1606341753266
scala-stm-bench7,1772716679,61458286386,1606341753266
scala-stm-bench7,1738755813,63273616793,1606341753266
scala-stm-bench7,1784995105,65055696464,1606341753266
scala-stm-bench7,1699514426,66883271123,1606341753266
scala-stm-bench7,1702427193,68625390161,1606341753266
scala-stm-bench7,1725953350,70371055609,1606341753266
scala-stm-bench7,1770458128,72140346716,1606341753266
scala-stm-bench7,1716478245,73952327719,1606341753266
scala-stm-bench7,1763071848,75710839890,1606341753266
scala-stm-bench7,1775564220,77517063265,1606341753266
scala-stm-bench7,1839434400,79336765127,1606341753266
scala-stm-bench7,1757314580,81220774220,1606341753266
scala-stm-bench7,1802215909,83021523369,1606341753266
scala-stm-bench7,1762440479,84867393340,1606341753266
scala-stm-bench7,1781706568,86673989931,1606341753266
scala-stm-bench7,1830137928,88501305701,1606341753266
scala-stm-bench7,1763749808,90374854887,1606341753266
scala-stm-bench7,1755791808,92182917861,1606341753266
scala-stm-bench7,1790680937,93983032590,1606341753266
scala-stm-bench7,1841118907,95817628731,1606341753266
scala-stm-bench7,1777931535,97701696862,1606341753266
scala-stm-bench7,1746994614,99522763284,1606341753266
scala-stm-bench7,1754295997,101313499631,1606341753266
scala-stm-bench7,1743530879,103110058426,1606341753266
scala-stm-bench7,1772432334,104897188057,1606341753266
scala-stm-bench7,1735977986,106713244045,1606341753266
scala-stm-bench7,1814060161,108493061839,1606341753266
scala-stm-bench7,1745919500,110351086278,1606341753266
scala-stm-bench7,1746120261,112140600469,1606341753266
scala-stm-bench7,1777302219,113930209838,1606341753266
scala-stm-bench7,1751724383,115750958088,1606341753266
scala-stm-bench7,1778336728,117545878528,1606341753266
scala-stm-bench7,1755694871,119367333364,1606341753266
scala-stm-bench7,1748392191,121165905173,1606341753266
scala-stm-bench7,1771363351,122956705014,1606341753266
scala-stm-bench7,1814584293,124772242561,1606341753266
scala-stm-bench7,1737116563,126629113144,1606341753266
scala-stm-bench7,1781083106,128409558218,1606341753266
scala-stm-bench7,1715615167,130233162778,1606341753266
scala-stm-bench7,1726242269,131991457953,1606341753266
scala-stm-bench7,1743845728,133761678950,1606341753266
scala-stm-bench7,1740543312,135547293918,1606341753266
scala-stm-bench7,1784209929,137331325205,1606341753266
scala-stm-bench7,1707197028,139167418677,1606341753266
scala-stm-bench7,1765536105,140921743292,1606341753266
scala-stm-bench7,1730490999,142730243719,1606341753266
scala-stm-bench7,1776754299,144506907492,1606341753266
scala-stm-bench7,1731243624,146326251766,1606341753266
scala-stm-bench7,1747020919,148099296408,1606341753266
scala-stm-bench7,1821286540,149890136090,1606341753266
scala-stm-bench7,1819507991,151754305656,1606341753266
scala-stm-bench7,1724303067,153616652956,1606341753266
scala-stm-bench7,1759356641,155384033993,1606341753266
scala-stm-bench7,1745942901,157187388127,1606341753266
scala-stm-bench7,1783408750,158976322664,1606341753266
scala-stm-bench7,1803779747,160801065262,1606341753266
scala-stm-bench7,1802043370,162646788188,1606341753266
scala-stm-bench7,1787911483,164490883151,1606341753266
scala-stm-bench7,1792760700,166320147509,1606341753266
scala-stm-bench7,1782623184,168155437039,1606341753266
scala-stm-bench7,1800260966,169980100115,1606341753266
scala-stm-bench7,1794051715,171822638147,1606341753266
scala-stm-bench7,1791207641,173660207696,1606341753266
scala-stm-bench7,1787729096,175493942469,1606341753266
scala-stm-bench7,1756293110,177324144749,1606341753266
scala-stm-bench7,1744375174,179123405553,1606341753266
scala-stm-bench7,1739853768,180910522708,1606341753266
