{
  "benchmarks": ["scala-kmeans"],
  "format_version": 5,
  "data": {
    "scala-kmeans": {
      "results": [{
        "duration_ns": 705440417,
        "uptime_ns": 1157095425
      }, {
        "duration_ns": 615098569,
        "uptime_ns": 1896070226
      }, {
        "duration_ns": 614659804,
        "uptime_ns": 2539291451
      }, {
        "duration_ns": 611738677,
        "uptime_ns": 3181722464
      }, {
        "duration_ns": 608814013,
        "uptime_ns": 3821034485
      }, {
        "duration_ns": 609979268,
        "uptime_ns": 4457396292
      }, {
        "duration_ns": 614261942,
        "uptime_ns": 5095007866
      }, {
        "duration_ns": 613923615,
        "uptime_ns": 5736757500
      }, {
        "duration_ns": 612883347,
        "uptime_ns": 6378207452
      }, {
        "duration_ns": 611288737,
        "uptime_ns": 7018643680
      }, {
        "duration_ns": 614572577,
        "uptime_ns": 7657096526
      }, {
        "duration_ns": 611583036,
        "uptime_ns": 8299255698
      }, {
        "duration_ns": 612952335,
        "uptime_ns": 8938334434
      }, {
        "duration_ns": 612125692,
        "uptime_ns": 9578721719
      }, {
        "duration_ns": 611641858,
        "uptime_ns": 10218164184
      }, {
        "duration_ns": 608010977,
        "uptime_ns": 10856829738
      }, {
        "duration_ns": 605701495,
        "uptime_ns": 11492040279
      }, {
        "duration_ns": 607608520,
        "uptime_ns": 12125010046
      }, {
        "duration_ns": 609041490,
        "uptime_ns": 12759974001
      }, {
        "duration_ns": 608328513,
        "uptime_ns": 13396364952
      }, {
        "duration_ns": 611160213,
        "uptime_ns": 14032134733
      }, {
        "duration_ns": 609440650,
        "uptime_ns": 14670574000
      }, {
        "duration_ns": 609401749,
        "uptime_ns": 15307435077
      }, {
        "duration_ns": 608477320,
        "uptime_ns": 15944164306
      }, {
        "duration_ns": 611132661,
        "uptime_ns": 16580072695
      }, {
        "duration_ns": 617323205,
        "uptime_ns": 17218424792
      }, {
        "duration_ns": 621023713,
        "uptime_ns": 17863711696
      }, {
        "duration_ns": 616867989,
        "uptime_ns": 18512582539
      }, {
        "duration_ns": 615440114,
        "uptime_ns": 19156914138
      }, {
        "duration_ns": 613333419,
        "uptime_ns": 19799637769
      }, {
        "duration_ns": 614422467,
        "uptime_ns": 20440368551
      }, {
        "duration_ns": 614433560,
        "uptime_ns": 21082178222
      }, {
        "duration_ns": 619881374,
        "uptime_ns": 21723960005
      }, {
        "duration_ns": 624846699,
        "uptime_ns": 22371553733
      }, {
        "duration_ns": 625311481,
        "uptime_ns": 23024269774
      }, {
        "duration_ns": 625998269,
        "uptime_ns": 23677374503
      }, {
        "duration_ns": 625138257,
        "uptime_ns": 24331087424
      }, {
        "duration_ns": 624021936,
        "uptime_ns": 24983649702
      }, {
        "duration_ns": 624468610,
        "uptime_ns": 25635209061
      }, {
        "duration_ns": 624040020,
        "uptime_ns": 26287412253
      }, {
        "duration_ns": 625794981,
        "uptime_ns": 26939033281
      }, {
        "duration_ns": 623063940,
        "uptime_ns": 27592496875
      }, {
        "duration_ns": 625018374,
        "uptime_ns": 28243274662
      }, {
        "duration_ns": 624079372,
        "uptime_ns": 28895808994
      }, {
        "duration_ns": 622831105,
        "uptime_ns": 29547762704
      }, {
        "duration_ns": 624867746,
        "uptime_ns": 30198145763
      }, {
        "duration_ns": 623012108,
        "uptime_ns": 30850645298
      }, {
        "duration_ns": 620268398,
        "uptime_ns": 31501113698
      }, {
        "duration_ns": 620777063,
        "uptime_ns": 32149079977
      }, {
        "duration_ns": 618526476,
        "uptime_ns": 32797296272
      }, {
        "duration_ns": 616331725,
        "uptime_ns": 33443260537
      }, {
        "duration_ns": 612981678,
        "uptime_ns": 34086790923
      }, {
        "duration_ns": 611134263,
        "uptime_ns": 34727030354
      }, {
        "duration_ns": 607948080,
        "uptime_ns": 35365361563
      }, {
        "duration_ns": 608677237,
        "uptime_ns": 36000411140
      }, {
        "duration_ns": 606471204,
        "uptime_ns": 36636318644
      }, {
        "duration_ns": 571062911,
        "uptime_ns": 37270047429
      }, {
        "duration_ns": 567822705,
        "uptime_ns": 37868204690
      }, {
        "duration_ns": 568685934,
        "uptime_ns": 38463360372
      }, {
        "duration_ns": 568531957,
        "uptime_ns": 39059170703
      }, {
        "duration_ns": 569787739,
        "uptime_ns": 39654670571
      }, {
        "duration_ns": 570620749,
        "uptime_ns": 40251510675
      }, {
        "duration_ns": 568411935,
        "uptime_ns": 40849176150
      }, {
        "duration_ns": 569959677,
        "uptime_ns": 41444601106
      }, {
        "duration_ns": 576805262,
        "uptime_ns": 42042194910
      }, {
        "duration_ns": 574315211,
        "uptime_ns": 42646462141
      }, {
        "duration_ns": 576119607,
        "uptime_ns": 43248250094
      }, {
        "duration_ns": 571507436,
        "uptime_ns": 43851683774
      }, {
        "duration_ns": 570985702,
        "uptime_ns": 44450176810
      }, {
        "duration_ns": 568409727,
        "uptime_ns": 45048105602
      }, {
        "duration_ns": 570677922,
        "uptime_ns": 45643506550
      }, {
        "duration_ns": 571584252,
        "uptime_ns": 46241359445
      }, {
        "duration_ns": 569145769,
        "uptime_ns": 46840156840
      }, {
        "duration_ns": 568480644,
        "uptime_ns": 47436387712
      }, {
        "duration_ns": 570408830,
        "uptime_ns": 48031949381
      }, {
        "duration_ns": 569431888,
        "uptime_ns": 48629299668
      }, {
        "duration_ns": 568214497,
        "uptime_ns": 49225844925
      }, {
        "duration_ns": 568961099,
        "uptime_ns": 49821312671
      }, {
        "duration_ns": 569908675,
        "uptime_ns": 50417283879
      }, {
        "duration_ns": 569353669,
        "uptime_ns": 51014347457
      }, {
        "duration_ns": 569142971,
        "uptime_ns": 51610683084
      }, {
        "duration_ns": 570535688,
        "uptime_ns": 52206843910
      }, {
        "duration_ns": 568175113,
        "uptime_ns": 52804310742
      }, {
        "duration_ns": 567808609,
        "uptime_ns": 53399573272
      }, {
        "duration_ns": 569257006,
        "uptime_ns": 53994283577
      }, {
        "duration_ns": 569319790,
        "uptime_ns": 54590552046
      }, {
        "duration_ns": 569186016,
        "uptime_ns": 55186942802
      }, {
        "duration_ns": 569683635,
        "uptime_ns": 55783188740
      }, {
        "duration_ns": 568777675,
        "uptime_ns": 56380083713
      }, {
        "duration_ns": 568738956,
        "uptime_ns": 56975990823
      }, {
        "duration_ns": 568327259,
        "uptime_ns": 57571706879
      }, {
        "duration_ns": 567968248,
        "uptime_ns": 58167013257
      }, {
        "duration_ns": 568940677,
        "uptime_ns": 58761720281
      }, {
        "duration_ns": 571203046,
        "uptime_ns": 59357515532
      }, {
        "duration_ns": 570025917,
        "uptime_ns": 59955797725
      }, {
        "duration_ns": 570917798,
        "uptime_ns": 60552698507
      }, {
        "duration_ns": 569486066,
        "uptime_ns": 61150642143
      }, {
        "duration_ns": 568671445,
        "uptime_ns": 61747166109
      }, {
        "duration_ns": 569255144,
        "uptime_ns": 62342918415
      }, {
        "duration_ns": 569178418,
        "uptime_ns": 62939201358
      }],
      "termination": "normal"
    }
  },
  "environment": {
    "os": {
      "virt_mem_committed": 7360622592,
      "name": "Linux",
      "open_fd_count": 17,
      "phys_mem_free": 9303359488,
      "swap_space_total": 0,
      "available_processors": 8,
      "phys_mem_total": 16472342528,
      "version": "5.4.0-1029-aws",
      "arch": "aarch64",
      "max_fd_count": 1048576,
      "swap_space_free": 0
    },
    "vm": {
      "termination": "normal",
      "name": "OpenJDK 64-Bit Server VM",
      "spec_vendor": "Oracle Corporation",
      "spec_name": "Java Virtual Machine Specification",
      "classloading": {
        "class_count": 2513,
        "classes_total": 2513
      },
      "compiler": {
        "name": "HotSpot 64-Bit Tiered Compilers",
        "compilation_time_ms": 2206
      },
      "start_iso": "2020-11-25T22:01:29.569Z",
      "collectors": [{
        "name": "G1 Young Generation",
        "collection_count": 201,
        "collection_time_ms": 212
      }, {
        "name": "G1 Old Generation",
        "collection_count": 100,
        "collection_time_ms": 2621
      }],
      "start_unix_ms": 1606341689569,
      "version": "11.0.9.1+1-Ubuntu-0ubuntu1.18.04",
      "mode": "mixed mode",
      "args": [],
      "pools": [{
        "name": "CodeHeap 'non-nmethods'",
        "type": "NON_HEAP",
        "usage": {
          "init": 2555904,
          "used": 1593728,
          "committed": 2555904,
          "max": 5836800
        },
        "peak_usage": {
          "init": 2555904,
          "used": 1617024,
          "committed": 2555904,
          "max": 5836800
        }
      }, {
        "name": "Metaspace",
        "type": "NON_HEAP",
        "usage": {
          "init": 0,
          "used": 21760488,
          "committed": 22675456,
          "max": -1
        },
        "peak_usage": {
          "init": 0,
          "used": 21760488,
          "committed": 22675456,
          "max": -1
        }
      }, {
        "name": "CodeHeap 'profiled nmethods'",
        "type": "NON_HEAP",
        "usage": {
          "init": 2555904,
          "used": 3186048,
          "committed": 3276800,
          "max": 122908672
        },
        "peak_usage": {
          "init": 2555904,
          "used": 3188352,
          "committed": 3276800,
          "max": 122908672
        }
      }, {
        "name": "Compressed Class Space",
        "type": "NON_HEAP",
        "usage": {
          "init": 0,
          "used": 3146448,
          "committed": 3538944,
          "max": 1073741824
        },
        "peak_usage": {
          "init": 0,
          "used": 3146448,
          "committed": 3538944,
          "max": 1073741824
        }
      }, {
        "name": "G1 Eden Space",
        "type": "HEAP",
        "usage": {
          "init": 27262976,
          "used": 10485760,
          "committed": 49283072,
          "max": -1
        },
        "peak_usage": {
          "init": 27262976,
          "used": 49283072,
          "committed": 159383552,
          "max": -1
        }
      }, {
        "name": "G1 Old Gen",
        "type": "HEAP",
        "usage": {
          "init": 230686720,
          "used": 25112488,
          "committed": 38797312,
          "max": 4118806528
        },
        "peak_usage": {
          "init": 230686720,
          "used": 25833336,
          "committed": 230686720,
          "max": 4118806528
        }
      }, {
        "name": "G1 Survivor Space",
        "type": "HEAP",
        "usage": {
          "init": 0,
          "used": 3145728,
          "committed": 3145728,
          "max": -1
        },
        "peak_usage": {
          "init": 0,
          "used": 3145728,
          "committed": 3145728,
          "max": -1
        }
      }, {
        "name": "CodeHeap 'non-profiled nmethods'",
        "type": "NON_HEAP",
        "usage": {
          "init": 2555904,
          "used": 778496,
          "committed": 2555904,
          "max": 122912768
        },
        "peak_usage": {
          "init": 2555904,
          "used": 778496,
          "committed": 2555904,
          "max": 122912768
        }
      }],
      "uptime_ms": 63624,
      "vendor": "Ubuntu",
      "threads": {
        "thread_count": 5,
        "thread_count_max": 6,
        "daemon_thread_count": 4,
        "threads_total": 105
      },
      "spec_version": "11",
      "memory": {
        "heap_usage": {
          "init": 257949696,
          "used": 38743976,
          "committed": 91226112,
          "max": 4118806528
        },
        "nonheap_usage": {
          "init": 7667712,
          "used": 30407696,
          "committed": 34603008,
          "max": -1
        },
        "pending_finalization_count": 0
      }
    },
    "jre": {
      "java_version": "11.0.9.1",
      "name": "OpenJDK Runtime Environment",
      "spec_vendor": "Oracle Corporation",
      "spec_name": "Java Platform API Specification",
      "class_path": ["target/renaissance-gpl-0.11.0.jar"],
      "home": "/usr/lib/jvm/java-11-openjdk-arm64",
      "version": "11.0.9.1+1-Ubuntu-0ubuntu1.18.04",
      "java_vendor": "Ubuntu",
      "library_path": ["/usr/java/packages/lib", "/usr/lib/aarch64-linux-gnu/jni", "/lib/aarch64-linux-gnu", "/usr/lib/aarch64-linux-gnu", "/usr/lib/jni", "/lib", "/usr/lib"],
      "spec_version": "11"
    }
  },
  "suite": {
    "git": {
      "commit_hash": null,
      "commit_date": null,
      "dirty": "true"
    },
    "name": null,
    "version": null
  }
}