{
  "benchmarks": ["dec-tree"],
  "format_version": 5,
  "data": {
    "dec-tree": {
      "results": [{
        "duration_ns": 5790546075,
        "uptime_ns": 6600682979
      }, {
        "duration_ns": 2666713596,
        "uptime_ns": 12475666685
      }, {
        "duration_ns": 2505221100,
        "uptime_ns": 15209130178
      }, {
        "duration_ns": 2271535491,
        "uptime_ns": 17798527383
      }, {
        "duration_ns": 2337822704,
        "uptime_ns": 20149780117
      }, {
        "duration_ns": 2266003114,
        "uptime_ns": 22560792533
      }, {
        "duration_ns": 2174729847,
        "uptime_ns": 24905331904
      }, {
        "duration_ns": 2226557115,
        "uptime_ns": 27146619334
      }, {
        "duration_ns": 2169799388,
        "uptime_ns": 29442616726
      }, {
        "duration_ns": 2233153020,
        "uptime_ns": 31687029868
      }, {
        "duration_ns": 2269362215,
        "uptime_ns": 34006327322
      }, {
        "duration_ns": 2205161095,
        "uptime_ns": 36369101176
      }, {
        "duration_ns": 2175864576,
        "uptime_ns": 38655277655
      }, {
        "duration_ns": 2159143020,
        "uptime_ns": 40921522527
      }, {
        "duration_ns": 2223704621,
        "uptime_ns": 43168373412
      }, {
        "duration_ns": 2243942901,
        "uptime_ns": 45473931739
      }, {
        "duration_ns": 2193934910,
        "uptime_ns": 47803036934
      }, {
        "duration_ns": 2246356139,
        "uptime_ns": 50080995358
      }, {
        "duration_ns": 2212029814,
        "uptime_ns": 52412991903
      }, {
        "duration_ns": 2123707992,
        "uptime_ns": 54706929228
      }, {
        "duration_ns": 2208613308,
        "uptime_ns": 56914669500
      }, {
        "duration_ns": 2160500471,
        "uptime_ns": 59204522125
      }, {
        "duration_ns": 2180696936,
        "uptime_ns": 61452097424
      }, {
        "duration_ns": 2178853537,
        "uptime_ns": 63716233754
      }, {
        "duration_ns": 2192682943,
        "uptime_ns": 65986781616
      }, {
        "duration_ns": 2186549278,
        "uptime_ns": 68272943479
      }, {
        "duration_ns": 2120122559,
        "uptime_ns": 70544716305
      }, {
        "duration_ns": 2177834659,
        "uptime_ns": 72757850237
      }, {
        "duration_ns": 2128425062,
        "uptime_ns": 75019323456
      }, {
        "duration_ns": 2196012973,
        "uptime_ns": 77231929721
      }, {
        "duration_ns": 2129672758,
        "uptime_ns": 79514574924
      }, {
        "duration_ns": 2146098009,
        "uptime_ns": 81730678134
      }, {
        "duration_ns": 2175580176,
        "uptime_ns": 83968769026
      }, {
        "duration_ns": 2181228858,
        "uptime_ns": 86236070966
      }, {
        "duration_ns": 2169292509,
        "uptime_ns": 88505069994
      }, {
        "duration_ns": 2166089372,
        "uptime_ns": 90760050941
      }, {
        "duration_ns": 2182285390,
        "uptime_ns": 93011241188
      }, {
        "duration_ns": 2143411172,
        "uptime_ns": 95278525850
      }, {
        "duration_ns": 2159045423,
        "uptime_ns": 97508265189
      }, {
        "duration_ns": 2179270033,
        "uptime_ns": 99757579289
      }, {
        "duration_ns": 2211319504,
        "uptime_ns": 102029554701
      }, {
        "duration_ns": 2109922345,
        "uptime_ns": 104331108882
      }, {
        "duration_ns": 2183023210,
        "uptime_ns": 106530684707
      }, {
        "duration_ns": 2173692945,
        "uptime_ns": 108802245533
      }, {
        "duration_ns": 2136073056,
        "uptime_ns": 111060192153
      }, {
        "duration_ns": 2129456829,
        "uptime_ns": 113284094967
      }, {
        "duration_ns": 2147804350,
        "uptime_ns": 115501904152
      }, {
        "duration_ns": 2124249698,
        "uptime_ns": 117746059482
      }, {
        "duration_ns": 2199993871,
        "uptime_ns": 119960854516
      }, {
        "duration_ns": 2162951773,
        "uptime_ns": 122249405241
      }, {
        "duration_ns": 2111418395,
        "uptime_ns": 124498135263
      }, {
        "duration_ns": 2180344469,
        "uptime_ns": 126704669533
      }, {
        "duration_ns": 2123865655,
        "uptime_ns": 128974021883
      }, {
        "duration_ns": 2139678268,
        "uptime_ns": 131185146369
      }, {
        "duration_ns": 2206295083,
        "uptime_ns": 133413279047
      }, {
        "duration_ns": 2135106864,
        "uptime_ns": 135711301659
      }, {
        "duration_ns": 2160233793,
        "uptime_ns": 137940176228
      }, {
        "duration_ns": 2192385880,
        "uptime_ns": 140192823315
      }, {
        "duration_ns": 2169341474,
        "uptime_ns": 142478046479
      }, {
        "duration_ns": 2124546900,
        "uptime_ns": 144736178070
      }, {
        "duration_ns": 2131744106,
        "uptime_ns": 146951076496
      }, {
        "duration_ns": 2158442282,
        "uptime_ns": 149173123555
      }, {
        "duration_ns": 2158816643,
        "uptime_ns": 151421857526
      }, {
        "duration_ns": 2168428988,
        "uptime_ns": 153674603118
      }, {
        "duration_ns": 2128988557,
        "uptime_ns": 155941333900
      }, {
        "duration_ns": 2125714639,
        "uptime_ns": 158160712896
      }, {
        "duration_ns": 2168506236,
        "uptime_ns": 160378940881
      }, {
        "duration_ns": 2136824052,
        "uptime_ns": 162641010157
      }, {
        "duration_ns": 2158336624,
        "uptime_ns": 164868941602
      }, {
        "duration_ns": 2220349713,
        "uptime_ns": 167118463584
      }, {
        "duration_ns": 2154148731,
        "uptime_ns": 169436941994
      }, {
        "duration_ns": 2145518951,
        "uptime_ns": 171687078325
      }, {
        "duration_ns": 2139365207,
        "uptime_ns": 173925268363
      }, {
        "duration_ns": 2119943098,
        "uptime_ns": 176155294111
      }, {
        "duration_ns": 2147661625,
        "uptime_ns": 178365663873
      }, {
        "duration_ns": 2129046690,
        "uptime_ns": 180610422683
      }, {
        "duration_ns": 2125972318,
        "uptime_ns": 182834076228
      }, {
        "duration_ns": 2125498954,
        "uptime_ns": 185055084618
      }, {
        "duration_ns": 2145426241,
        "uptime_ns": 187276873781
      }, {
        "duration_ns": 2088068384,
        "uptime_ns": 189517223767
      }, {
        "duration_ns": 2124781904,
        "uptime_ns": 191700938092
      }, {
        "duration_ns": 2122827991,
        "uptime_ns": 193923933182
      }, {
        "duration_ns": 2170914401,
        "uptime_ns": 196143971865
      }, {
        "duration_ns": 2115481404,
        "uptime_ns": 198414008510
      }, {
        "duration_ns": 2141553905,
        "uptime_ns": 200624840000
      }, {
        "duration_ns": 2167633079,
        "uptime_ns": 202858750584
      }, {
        "duration_ns": 2178570765,
        "uptime_ns": 205122693095
      }, {
        "duration_ns": 2171035416,
        "uptime_ns": 207396865754
      }, {
        "duration_ns": 2123865064,
        "uptime_ns": 209670383906
      }, {
        "duration_ns": 2159832542,
        "uptime_ns": 211888844464
      }, {
        "duration_ns": 2104661929,
        "uptime_ns": 214145325230
      }, {
        "duration_ns": 2136050212,
        "uptime_ns": 216348832440
      }, {
        "duration_ns": 2130478526,
        "uptime_ns": 218580773008
      }, {
        "duration_ns": 2117758562,
        "uptime_ns": 220809413473
      }, {
        "duration_ns": 2122376699,
        "uptime_ns": 223022528020
      }, {
        "duration_ns": 2142969657,
        "uptime_ns": 225242146617
      }, {
        "duration_ns": 2115336913,
        "uptime_ns": 227482547217
      }, {
        "duration_ns": 2170463708,
        "uptime_ns": 229704837162
      }, {
        "duration_ns": 2123150936,
        "uptime_ns": 231973627120
      }, {
        "duration_ns": 2166272149,
        "uptime_ns": 234201993845
      }],
      "termination": "normal"
    }
  },
  "environment": {
    "os": {
      "virt_mem_committed": 5943877632,
      "name": "Linux",
      "open_fd_count": 212,
      "phys_mem_free": 1707122688,
      "swap_space_total": 0,
      "available_processors": 4,
      "phys_mem_total": 8180551680,
      "version": "5.4.0-1029-aws",
      "arch": "aarch64",
      "max_fd_count": 1048576,
      "swap_space_free": 0
    },
    "vm": {
      "termination": "normal",
      "name": "OpenJDK 64-Bit Server VM",
      "spec_vendor": "Oracle Corporation",
      "spec_name": "Java Virtual Machine Specification",
      "classloading": {
        "class_count": 14443,
        "classes_total": 15046
      },
      "compiler": {
        "name": "HotSpot 64-Bit Tiered Compilers",
        "compilation_time_ms": 49642
      },
      "start_iso": "2020-11-25T18:53:02.515Z",
      "collectors": [{
        "name": "G1 Young Generation",
        "collection_count": 2623,
        "collection_time_ms": 4866
      }, {
        "name": "G1 Old Generation",
        "collection_count": 100,
        "collection_time_ms": 8835
      }],
      "start_unix_ms": 1606330382515,
      "version": "11.0.9.1+1-Ubuntu-0ubuntu1.18.04",
      "mode": "mixed mode",
      "args": [],
      "pools": [{
        "name": "CodeHeap 'non-nmethods'",
        "type": "NON_HEAP",
        "usage": {
          "init": 2555904,
          "used": 1737856,
          "committed": 2555904,
          "max": 5832704
        },
        "peak_usage": {
          "init": 2555904,
          "used": 1881088,
          "committed": 2555904,
          "max": 5832704
        }
      }, {
        "name": "Metaspace",
        "type": "NON_HEAP",
        "usage": {
          "init": 0,
          "used": 106016528,
          "committed": 108113920,
          "max": -1
        },
        "peak_usage": {
          "init": 0,
          "used": 106016528,
          "committed": 108113920,
          "max": -1
        }
      }, {
        "name": "CodeHeap 'profiled nmethods'",
        "type": "NON_HEAP",
        "usage": {
          "init": 2555904,
          "used": 34620544,
          "committed": 36569088,
          "max": 122912768
        },
        "peak_usage": {
          "init": 2555904,
          "used": 35243008,
          "committed": 36569088,
          "max": 122912768
        }
      }, {
        "name": "Compressed Class Space",
        "type": "NON_HEAP",
        "usage": {
          "init": 0,
          "used": 13348400,
          "committed": 14155776,
          "max": 1073741824
        },
        "peak_usage": {
          "init": 0,
          "used": 13348400,
          "committed": 14155776,
          "max": 1073741824
        }
      }, {
        "name": "G1 Eden Space",
        "type": "HEAP",
        "usage": {
          "init": 15728640,
          "used": 69206016,
          "committed": 226492416,
          "max": -1
        },
        "peak_usage": {
          "init": 15728640,
          "used": 263192576,
          "committed": 277872640,
          "max": -1
        }
      }, {
        "name": "G1 Old Gen",
        "type": "HEAP",
        "usage": {
          "init": 112197632,
          "used": 163668792,
          "committed": 232783872,
          "max": 2046820352
        },
        "peak_usage": {
          "init": 112197632,
          "used": 174212776,
          "committed": 332398592,
          "max": 2046820352
        }
      }, {
        "name": "G1 Survivor Space",
        "type": "HEAP",
        "usage": {
          "init": 0,
          "used": 20971520,
          "committed": 20971520,
          "max": -1
        },
        "peak_usage": {
          "init": 0,
          "used": 30408704,
          "committed": 30408704,
          "max": -1
        }
      }, {
        "name": "CodeHeap 'non-profiled nmethods'",
        "type": "NON_HEAP",
        "usage": {
          "init": 2555904,
          "used": 16425472,
          "committed": 16449536,
          "max": 122912768
        },
        "peak_usage": {
          "init": 2555904,
          "used": 16425472,
          "committed": 16449536,
          "max": 122912768
        }
      }],
      "uptime_ms": 236485,
      "vendor": "Ubuntu",
      "threads": {
        "thread_count": 21,
        "thread_count_max": 53,
        "daemon_thread_count": 20,
        "threads_total": 171
      },
      "spec_version": "11",
      "memory": {
        "heap_usage": {
          "init": 127926272,
          "used": 253846328,
          "committed": 480247808,
          "max": 2046820352
        },
        "nonheap_usage": {
          "init": 7667712,
          "used": 172134552,
          "committed": 177844224,
          "max": -1
        },
        "pending_finalization_count": 0
      }
    },
    "jre": {
      "java_version": "11.0.9.1",
      "name": "OpenJDK Runtime Environment",
      "spec_vendor": "Oracle Corporation",
      "spec_name": "Java Platform API Specification",
      "class_path": ["target/renaissance-gpl-0.11.0.jar"],
      "home": "/usr/lib/jvm/java-11-openjdk-arm64",
      "version": "11.0.9.1+1-Ubuntu-0ubuntu1.18.04",
      "java_vendor": "Ubuntu",
      "library_path": ["/usr/java/packages/lib", "/usr/lib/aarch64-linux-gnu/jni", "/lib/aarch64-linux-gnu", "/usr/lib/aarch64-linux-gnu", "/usr/lib/jni", "/lib", "/usr/lib"],
      "spec_version": "11"
    }
  },
  "suite": {
    "git": {
      "commit_hash": null,
      "commit_date": null,
      "dirty": "true"
    },
    "name": null,
    "version": null
  }
}