benchmark,duration_ns,uptime_ns,vm_start_unix_ms
philosophers,2926382863,873900051,1606337410168
philosophers,1720545438,3820500451,1606337410168
philosophers,1686139363,5562560630,1606337410168
philosophers,1861176982,7264417242,1606337410168
philosophers,2112387326,9141148791,1606337410168
philosophers,1913524842,11269112058,1606337410168
philosophers,2062479338,13197792848,1606337410168
philosophers,1864623121,15274501085,1606337410168
philosophers,1919091101,17153291281,1606337410168
philosophers,2013086365,19086264126,1606337410168
philosophers,1993974691,21114013578,1606337410168
philosophers,2074667586,23122611988,1606337410168
philosophers,1867007862,25211375470,1606337410168
philosophers,1820305335,27093623293,1606337410168
philosophers,1898920972,28927904484,1606337410168
philosophers,2022830761,30840957101,1606337410168
philosophers,1882762991,32877937985,1606337410168
philosophers,1973868496,34774672565,1606337410168
philosophers,1797336875,36762116493,1606337410168
philosophers,1945147037,38573084341,1606337410168
philosophers,2238782473,40531967432,1606337410168
philosophers,1863466165,42784861111,1606337410168
philosophers,2243493724,44662432247,1606337410168
philosophers,1929872448,46919862573,1606337410168
philosophers,1897389844,48863980946,1606337410168
philosophers,2012769586,50775535920,1606337410168
philosophers,1892775368,52802376540,1606337410168
philosophers,1976657006,54708591227,1606337410168
philosophers,1929073379,56699215596,1606337410168
philosophers,2169116619,58641676076,1606337410168
philosophers,1912620047,60824361957,1606337410168
philosophers,2023962833,62751656873,1606337410168
philosophers,1880427591,64792331778,1606337410168
philosophers,2074692121,66686799848,1606337410168
philosophers,1862829129,68775294476,1606337410168
philosophers,1877315217,70652003593,1606337410168
philosophers,2015301893,72543062725,1606337410168
philosophers,1978702884,74571979558,1606337410168
philosophers,2123269692,76564677489,1606337410168
philosophers,1909500992,78701980948,1606337410168
philosophers,1867771651,80625220948,1606337410168
philosophers,1829801140,82506698353,1606337410168
philosophers,1926574146,84351180402,1606337410168
philosophers,1864227271,86291703492,1606337410168
philosophers,2140932836,88169590585,1606337410168
philosophers,1835850236,90324015982,1606337410168
philosophers,2202511753,92173477211,1606337410168
philosophers,2305742579,94389441854,1606337410168
philosophers,2043070875,96709086919,1606337410168
philosophers,1928478516,98765836471,1606337410168
philosophers,2107036078,100708509295,1606337410168
philosophers,1991857952,102829590135,1606337410168
philosophers,1878202332,104835329380,1606337410168
philosophers,1915030931,106727667329,1606337410168
philosophers,1925332412,108656264987,1606337410168
philosophers,1927843959,110595688003,1606337410168
philosophers,1878361063,112536952138,1606337410168
philosophers,1800035623,114428982114,1606337410168
philosophers,2222094708,116242743380,1606337410168
philosophers,1833491983,118478541946,1606337410168
philosophers,2007238212,120325935783,1606337410168
philosophers,1877895119,122346981491,1606337410168
philosophers,1846552697,124238827933,1606337410168
philosophers,2008847432,126099141982,1606337410168
philosophers,1913643678,128121503637,1606337410168
philosophers,2205224507,130048791768,1606337410168
philosophers,2040722464,132267624799,1606337410168
philosophers,1900327455,134321794942,1606337410168
philosophers,2094151186,136235777656,1606337410168
philosophers,2001854517,138343484706,1606337410168
philosophers,1927096729,140359062035,1606337410168
philosophers,1992202289,142299677106,1606337410168
philosophers,1862854780,144305959972,1606337410168
philosophers,1962685848,146183196669,1606337410168
philosophers,1847843438,148159671929,1606337410168
philosophers,1897293984,150021293276,1606337410168
philosophers,1947248599,151932489500,1606337410168
philosophers,1928677638,153893279530,1606337410168
philosophers,2218182645,155835875777,1606337410168
philosophers,2221427617,158068385299,1606337410168
philosophers,1893945157,160303459585,1606337410168
philosophers,1797047918,162211006439,1606337410168
philosophers,1912293042,164021625080,1606337410168
philosophers,1878542862,165947707698,1606337410168
philosophers,1861446300,167840256693,1606337410168
philosophers,1914926098,169715125492,1606337410168
philosophers,2318344966,171643741894,1606337410168
philosophers,1918290135,173976686154,1606337410168
philosophers,1883730714,175909115639,1606337410168
philosophers,2047507801,177807005707,1606337410168
philosophers,2092578074,179868426621,1606337410168
philosophers,1798826036,181974506914,1606337410168
philosophers,1915173987,183786950492,1606337410168
philosophers,2139957040,185715764297,1606337410168
philosophers,1913350364,187869448449,1606337410168
philosophers,1900290441,189796667478,1606337410168
philosophers,1804374657,191710616198,1606337410168
philosophers,1910422111,193529911967,1606337410168
philosophers,1881563009,195455072464,1606337410168
philosophers,1944713886,197350641499,1606337410168
