{
  "benchmarks": ["reactors"],
  "format_version": 5,
  "data": {
    "reactors": {
      "results": [{
        "duration_ns": 22237283359,
        "uptime_ns": 994572228
      }, {
        "duration_ns": 21062171651,
        "uptime_ns": 23343363297
      }, {
        "duration_ns": 20266648415,
        "uptime_ns": 44514858257
      }, {
        "duration_ns": 30421482104,
        "uptime_ns": 64898020842
      }, {
        "duration_ns": 28481929777,
        "uptime_ns": 95424777780
      }, {
        "duration_ns": 19962902142,
        "uptime_ns": 124011926819
      }, {
        "duration_ns": 30126044838,
        "uptime_ns": 144090534425
      }, {
        "duration_ns": 31623858320,
        "uptime_ns": 174317377916
      }, {
        "duration_ns": 19891844173,
        "uptime_ns": 206048128495
      }, {
        "duration_ns": 26619821801,
        "uptime_ns": 226049285954
      }, {
        "duration_ns": 30845698966,
        "uptime_ns": 252771598039
      }, {
        "duration_ns": 33179913350,
        "uptime_ns": 283722162015
      }, {
        "duration_ns": 29677402110,
        "uptime_ns": 317009308226
      }, {
        "duration_ns": 31539360051,
        "uptime_ns": 346795765517
      }, {
        "duration_ns": 34065031051,
        "uptime_ns": 378441219320
      }, {
        "duration_ns": 29283945537,
        "uptime_ns": 412617124148
      }, {
        "duration_ns": 32340491068,
        "uptime_ns": 442010387609
      }, {
        "duration_ns": 31473430441,
        "uptime_ns": 474455515408
      }, {
        "duration_ns": 30594774236,
        "uptime_ns": 506038320586
      }, {
        "duration_ns": 34129370192,
        "uptime_ns": 536749771221
      }, {
        "duration_ns": 32238478087,
        "uptime_ns": 570987086435
      }, {
        "duration_ns": 32875325219,
        "uptime_ns": 603333382899
      }, {
        "duration_ns": 32503830036,
        "uptime_ns": 636314413043
      }, {
        "duration_ns": 28392428335,
        "uptime_ns": 668924074133
      }, {
        "duration_ns": 31438505426,
        "uptime_ns": 697429628928
      }, {
        "duration_ns": 32330226060,
        "uptime_ns": 728978463881
      }, {
        "duration_ns": 33354838383,
        "uptime_ns": 761428300635
      }, {
        "duration_ns": 32684625526,
        "uptime_ns": 794897227645
      }, {
        "duration_ns": 31619901507,
        "uptime_ns": 827691216487
      }, {
        "duration_ns": 33679364368,
        "uptime_ns": 859423413921
      }, {
        "duration_ns": 30531185268,
        "uptime_ns": 893210623976
      }, {
        "duration_ns": 33116344162,
        "uptime_ns": 923866615728
      }, {
        "duration_ns": 33169987753,
        "uptime_ns": 957104184489
      }, {
        "duration_ns": 32233273160,
        "uptime_ns": 990388062943
      }, {
        "duration_ns": 33072523972,
        "uptime_ns": 1022743478428
      }, {
        "duration_ns": 29653543841,
        "uptime_ns": 1055928619074
      }, {
        "duration_ns": 34431080833,
        "uptime_ns": 1085702988225
      }, {
        "duration_ns": 32161690591,
        "uptime_ns": 1120242452993
      }, {
        "duration_ns": 32103662699,
        "uptime_ns": 1152527899799
      }, {
        "duration_ns": 33918400916,
        "uptime_ns": 1184747457672
      }, {
        "duration_ns": 30528740701,
        "uptime_ns": 1218788271692
      }, {
        "duration_ns": 31455728688,
        "uptime_ns": 1249435094359
      }, {
        "duration_ns": 28416770028,
        "uptime_ns": 1281019629601
      }, {
        "duration_ns": 32065452693,
        "uptime_ns": 1309554606734
      }, {
        "duration_ns": 31828005372,
        "uptime_ns": 1341734606066
      }, {
        "duration_ns": 33171652457,
        "uptime_ns": 1373684217515
      }, {
        "duration_ns": 31995112803,
        "uptime_ns": 1406973299516
      }, {
        "duration_ns": 32503004741,
        "uptime_ns": 1439085162318
      }, {
        "duration_ns": 31549464837,
        "uptime_ns": 1471706532621
      }, {
        "duration_ns": 33611368804,
        "uptime_ns": 1503383588060
      }, {
        "duration_ns": 32872714311,
        "uptime_ns": 1537110463940
      }, {
        "duration_ns": 33855195201,
        "uptime_ns": 1570100959600
      }, {
        "duration_ns": 32179248435,
        "uptime_ns": 1604075079866
      }, {
        "duration_ns": 31088569126,
        "uptime_ns": 1636383624873
      }, {
        "duration_ns": 33225230549,
        "uptime_ns": 1667593250702
      }, {
        "duration_ns": 34604669565,
        "uptime_ns": 1700936099832
      }, {
        "duration_ns": 33739437625,
        "uptime_ns": 1735662629702
      }, {
        "duration_ns": 31906749782,
        "uptime_ns": 1769520395488
      }, {
        "duration_ns": 31289675059,
        "uptime_ns": 1801548279342
      }, {
        "duration_ns": 30266892633,
        "uptime_ns": 1832967593428
      }, {
        "duration_ns": 19916787028,
        "uptime_ns": 1863364845495
      }, {
        "duration_ns": 29826506851,
        "uptime_ns": 1883411511101
      }, {
        "duration_ns": 28758237041,
        "uptime_ns": 1913360549919
      }, {
        "duration_ns": 32299610596,
        "uptime_ns": 1942253533069
      }, {
        "duration_ns": 33242833953,
        "uptime_ns": 1974678622679
      }, {
        "duration_ns": 34146663022,
        "uptime_ns": 2008048063909
      }, {
        "duration_ns": 30427059317,
        "uptime_ns": 2042314465188
      }, {
        "duration_ns": 33479875255,
        "uptime_ns": 2072869512647
      }, {
        "duration_ns": 29503849713,
        "uptime_ns": 2106477221503
      }, {
        "duration_ns": 33514916034,
        "uptime_ns": 2136117633255
      }, {
        "duration_ns": 34277326240,
        "uptime_ns": 2169759133205
      }, {
        "duration_ns": 33100878151,
        "uptime_ns": 2204170533187
      }, {
        "duration_ns": 33225749622,
        "uptime_ns": 2237423774087
      }, {
        "duration_ns": 33090692836,
        "uptime_ns": 2270773567670
      }, {
        "duration_ns": 32243489201,
        "uptime_ns": 2303995741772
      }, {
        "duration_ns": 32849392995,
        "uptime_ns": 2336375194352
      }, {
        "duration_ns": 31471863801,
        "uptime_ns": 2369359228482
      }, {
        "duration_ns": 30557411947,
        "uptime_ns": 2400965410476
      }, {
        "duration_ns": 31794267914,
        "uptime_ns": 2431649985656
      }, {
        "duration_ns": 31345421922,
        "uptime_ns": 2463577544196
      }, {
        "duration_ns": 29934940282,
        "uptime_ns": 2495051718945
      }, {
        "duration_ns": 20484139196,
        "uptime_ns": 2525125992633
      }, {
        "duration_ns": 19730016779,
        "uptime_ns": 2545752117284
      }, {
        "duration_ns": 31470955133,
        "uptime_ns": 2565617032947
      }, {
        "duration_ns": 29572412275,
        "uptime_ns": 2597218964535
      }, {
        "duration_ns": 30647669427,
        "uptime_ns": 2626924432636
      }, {
        "duration_ns": 29244643295,
        "uptime_ns": 2657700701826
      }, {
        "duration_ns": 30718140118,
        "uptime_ns": 2687073142572
      }, {
        "duration_ns": 35254259584,
        "uptime_ns": 2717939817482
      }, {
        "duration_ns": 30226444735,
        "uptime_ns": 2753323756494
      }, {
        "duration_ns": 30086476448,
        "uptime_ns": 2783685877951
      }, {
        "duration_ns": 31946517140,
        "uptime_ns": 2813904997049
      }, {
        "duration_ns": 33092626155,
        "uptime_ns": 2845991681659
      }, {
        "duration_ns": 31979249822,
        "uptime_ns": 2879216134969
      }, {
        "duration_ns": 32431182510,
        "uptime_ns": 2911341112564
      }, {
        "duration_ns": 32450632342,
        "uptime_ns": 2943916213094
      }, {
        "duration_ns": 31687944877,
        "uptime_ns": 2976500039760
      }, {
        "duration_ns": 29478883658,
        "uptime_ns": 3008327668319
      }, {
        "duration_ns": 35178049598,
        "uptime_ns": 3037953034454
      }, {
        "duration_ns": 33181968634,
        "uptime_ns": 3073272328505
      }],
      "termination": "normal"
    }
  },
  "environment": {
    "os": {
      "virt_mem_committed": 5760663552,
      "name": "Linux",
      "open_fd_count": 21,
      "phys_mem_free": 1896480768,
      "swap_space_total": 0,
      "available_processors": 4,
      "phys_mem_total": 8180551680,
      "version": "5.4.0-1029-aws",
      "arch": "aarch64",
      "max_fd_count": 1048576,
      "swap_space_free": 0
    },
    "vm": {
      "termination": "normal",
      "name": "OpenJDK 64-Bit Server VM",
      "spec_vendor": "Oracle Corporation",
      "spec_name": "Java Virtual Machine Specification",
      "classloading": {
        "class_count": 3169,
        "classes_total": 3218
      },
      "compiler": {
        "name": "HotSpot 64-Bit Tiered Compilers",
        "compilation_time_ms": 12941
      },
      "start_iso": "2020-11-25T20:53:29.658Z",
      "collectors": [{
        "name": "G1 Young Generation",
        "collection_count": 6675,
        "collection_time_ms": 156624
      }, {
        "name": "G1 Old Generation",
        "collection_count": 100,
        "collection_time_ms": 12002
      }],
      "start_unix_ms": 1606337609658,
      "version": "11.0.9.1+1-Ubuntu-0ubuntu1.18.04",
      "mode": "mixed mode",
      "args": [],
      "pools": [{
        "name": "CodeHeap 'non-nmethods'",
        "type": "NON_HEAP",
        "usage": {
          "init": 2555904,
          "used": 1621760,
          "committed": 2555904,
          "max": 5832704
        },
        "peak_usage": {
          "init": 2555904,
          "used": 1697536,
          "committed": 2555904,
          "max": 5832704
        }
      }, {
        "name": "Metaspace",
        "type": "NON_HEAP",
        "usage": {
          "init": 0,
          "used": 25494776,
          "committed": 26345472,
          "max": -1
        },
        "peak_usage": {
          "init": 0,
          "used": 25494776,
          "committed": 26345472,
          "max": -1
        }
      }, {
        "name": "CodeHeap 'profiled nmethods'",
        "type": "NON_HEAP",
        "usage": {
          "init": 2555904,
          "used": 3922176,
          "committed": 6225920,
          "max": 122912768
        },
        "peak_usage": {
          "init": 2555904,
          "used": 6194688,
          "committed": 6225920,
          "max": 122912768
        }
      }, {
        "name": "Compressed Class Space",
        "type": "NON_HEAP",
        "usage": {
          "init": 0,
          "used": 3449904,
          "committed": 3801088,
          "max": 1073741824
        },
        "peak_usage": {
          "init": 0,
          "used": 3449904,
          "committed": 3801088,
          "max": 1073741824
        }
      }, {
        "name": "G1 Eden Space",
        "type": "HEAP",
        "usage": {
          "init": 15728640,
          "used": 20971520,
          "committed": 269484032,
          "max": -1
        },
        "peak_usage": {
          "init": 15728640,
          "used": 540016640,
          "committed": 567279616,
          "max": -1
        }
      }, {
        "name": "G1 Old Gen",
        "type": "HEAP",
        "usage": {
          "init": 112197632,
          "used": 703833536,
          "committed": 1175453696,
          "max": 2046820352
        },
        "peak_usage": {
          "init": 112197632,
          "used": 1237949032,
          "committed": 1737490432,
          "max": 2046820352
        }
      }, {
        "name": "G1 Survivor Space",
        "type": "HEAP",
        "usage": {
          "init": 0,
          "used": 3145728,
          "committed": 3145728,
          "max": -1
        },
        "peak_usage": {
          "init": 0,
          "used": 68157440,
          "committed": 68157440,
          "max": -1
        }
      }, {
        "name": "CodeHeap 'non-profiled nmethods'",
        "type": "NON_HEAP",
        "usage": {
          "init": 2555904,
          "used": 2683648,
          "committed": 3342336,
          "max": 122912768
        },
        "peak_usage": {
          "init": 2555904,
          "used": 3319168,
          "committed": 3342336,
          "max": 122912768
        }
      }],
      "uptime_ms": 3106572,
      "vendor": "Ubuntu",
      "threads": {
        "thread_count": 11,
        "thread_count_max": 13,
        "daemon_thread_count": 10,
        "threads_total": 112
      },
      "spec_version": "11",
      "memory": {
        "heap_usage": {
          "init": 127926272,
          "used": 727950784,
          "committed": 1448083456,
          "max": 2046820352
        },
        "nonheap_usage": {
          "init": 7667712,
          "used": 37054608,
          "committed": 42270720,
          "max": -1
        },
        "pending_finalization_count": 0
      }
    },
    "jre": {
      "java_version": "11.0.9.1",
      "name": "OpenJDK Runtime Environment",
      "spec_vendor": "Oracle Corporation",
      "spec_name": "Java Platform API Specification",
      "class_path": ["target/renaissance-gpl-0.11.0.jar"],
      "home": "/usr/lib/jvm/java-11-openjdk-arm64",
      "version": "11.0.9.1+1-Ubuntu-0ubuntu1.18.04",
      "java_vendor": "Ubuntu",
      "library_path": ["/usr/java/packages/lib", "/usr/lib/aarch64-linux-gnu/jni", "/lib/aarch64-linux-gnu", "/usr/lib/aarch64-linux-gnu", "/usr/lib/jni", "/lib", "/usr/lib"],
      "spec_version": "11"
    }
  },
  "suite": {
    "git": {
      "commit_hash": null,
      "commit_date": null,
      "dirty": "true"
    },
    "name": null,
    "version": null
  }
}