benchmark,duration_ns,uptime_ns,vm_start_unix_ms
rx-scrabble,857439690,1689900876,1606340716398
rx-scrabble,442335397,2643358344,1606340716398
rx-scrabble,328611965,3156638214,1606340716398
rx-scrabble,291033600,3539127178,1606340716398
rx-scrabble,280192182,3892507909,1606340716398
rx-scrabble,318952247,4234561540,1606340716398
rx-scrabble,273469171,4603216578,1606340716398
rx-scrabble,272832516,4939852852,1606340716398
rx-scrabble,304885052,5272684038,1606340716398
rx-scrabble,272921853,5626477459,1606340716398
rx-scrabble,276188648,5960093935,1606340716398
rx-scrabble,315471752,6296973104,1606340716398
rx-scrabble,273117207,6668728522,1606340716398
rx-scrabble,274125634,7001878401,1606340716398
rx-scrabble,303807900,7335517376,1606340716398
rx-scrabble,273517557,7690539693,1606340716398
rx-scrabble,274338431,8024084622,1606340716398
rx-scrabble,360648026,8357095983,1606340716398
rx-scrabble,329548277,8765089454,1606340716398
rx-scrabble,328975031,9153805180,1606340716398
rx-scrabble,360699513,9541534075,1606340716398
rx-scrabble,328951105,9949243405,1606340716398
rx-scrabble,330752886,10337476444,1606340716398
rx-scrabble,360259960,10727153844,1606340716398
rx-scrabble,329295882,11137687264,1606340716398
rx-scrabble,328603646,11526036643,1606340716398
rx-scrabble,360814745,11913506284,1606340716398
rx-scrabble,332554234,12319535341,1606340716398
rx-scrabble,333522053,12710694805,1606340716398
rx-scrabble,364849427,13102850461,1606340716398
rx-scrabble,334800000,13513507327,1606340716398
rx-scrabble,333144695,13907221297,1606340716398
rx-scrabble,365544461,14299252951,1606340716398
rx-scrabble,333318404,14718790496,1606340716398
rx-scrabble,343810582,15111205761,1606340716398
rx-scrabble,364554340,15513778003,1606340716398
rx-scrabble,336887596,15923799043,1606340716398
rx-scrabble,336704197,16319988438,1606340716398
rx-scrabble,364755463,16715486229,1606340716398
rx-scrabble,339453162,17126720740,1606340716398
rx-scrabble,337775819,17525402840,1606340716398
rx-scrabble,368147073,17921996163,1606340716398
rx-scrabble,337971592,18342563616,1606340716398
rx-scrabble,336932791,18739618358,1606340716398
rx-scrabble,368916027,19135305046,1606340716398
rx-scrabble,338108715,19554867356,1606340716398
rx-scrabble,337553741,19951830218,1606340716398
rx-scrabble,369113646,20348253048,1606340716398
rx-scrabble,339017975,20772288099,1606340716398
rx-scrabble,337666931,21170463447,1606340716398
rx-scrabble,369211951,21566858979,1606340716398
rx-scrabble,341268492,21983664176,1606340716398
rx-scrabble,337770601,22383943335,1606340716398
rx-scrabble,368798761,22780332565,1606340716398
rx-scrabble,338147656,23195635843,1606340716398
rx-scrabble,336477320,23592939256,1606340716398
rx-scrabble,368256931,23988175816,1606340716398
rx-scrabble,337672617,24405593348,1606340716398
rx-scrabble,341832614,24802555842,1606340716398
rx-scrabble,378105800,25203169021,1606340716398
rx-scrabble,338327020,25634939539,1606340716398
rx-scrabble,337541000,26032200837,1606340716398
rx-scrabble,368865698,26428564895,1606340716398
rx-scrabble,337780768,26847818671,1606340716398
rx-scrabble,336821005,27244326999,1606340716398
rx-scrabble,368864263,27639846280,1606340716398
rx-scrabble,337942621,28056379464,1606340716398
rx-scrabble,345305800,28452707461,1606340716398
rx-scrabble,368930396,28856557208,1606340716398
rx-scrabble,338369087,29279512943,1606340716398
rx-scrabble,337693360,29677087288,1606340716398
rx-scrabble,379294796,30073159920,1606340716398
rx-scrabble,339062620,30503427683,1606340716398
rx-scrabble,337576823,30901613905,1606340716398
rx-scrabble,368735370,31297627550,1606340716398
rx-scrabble,337961034,31719173869,1606340716398
rx-scrabble,348457134,32115796478,1606340716398
rx-scrabble,368909572,32522726027,1606340716398
rx-scrabble,338859816,32941502204,1606340716398
rx-scrabble,337901687,33339157370,1606340716398
rx-scrabble,368929133,33735490332,1606340716398
rx-scrabble,340561422,34157943951,1606340716398
rx-scrabble,337775017,34557300116,1606340716398
rx-scrabble,367892547,34953672733,1606340716398
rx-scrabble,338047467,35376275561,1606340716398
rx-scrabble,337473556,35773226364,1606340716398
rx-scrabble,368859710,36169399837,1606340716398
rx-scrabble,337663922,36584661894,1606340716398
rx-scrabble,337596829,36981155233,1606340716398
rx-scrabble,368099249,37377162184,1606340716398
rx-scrabble,337983353,37793965882,1606340716398
rx-scrabble,344945172,38190698858,1606340716398
rx-scrabble,369311038,38593992377,1606340716398
rx-scrabble,338751625,39009575302,1606340716398
rx-scrabble,337123782,39407368610,1606340716398
rx-scrabble,367944576,39802975228,1606340716398
rx-scrabble,337029556,40221195874,1606340716398
rx-scrabble,337169091,40616644283,1606340716398
rx-scrabble,376756235,41012231045,1606340716398
rx-scrabble,337174950,41438710699,1606340716398
