benchmark,duration_ns,uptime_ns,vm_start_unix_ms
scala-doku,8325770210,979388863,1606340758374
scala-doku,12077327459,9337588296,1606340758374
scala-doku,12036157714,21451108360,1606340758374
scala-doku,12032546969,33519349232,1606340758374
scala-doku,12465257180,45583773741,1606340758374
scala-doku,12960092707,58076845086,1606340758374
scala-doku,13034613597,71067336240,1606340758374
scala-doku,12935477999,84128377101,1606340758374
scala-doku,13053263696,97103151655,1606340758374
scala-doku,12966522386,110196990394,1606340758374
scala-doku,12938032029,123189242508,1606340758374
scala-doku,13035688990,136155242540,1606340758374
scala-doku,12579289764,149225331438,1606340758374
scala-doku,12951645654,161829735903,1606340758374
scala-doku,13107335839,174805419763,1606340758374
scala-doku,12905654834,187947753486,1606340758374
scala-doku,12811750822,200878391897,1606340758374
scala-doku,12944415828,213725464195,1606340758374
scala-doku,13075984622,226695999853,1606340758374
scala-doku,12995068388,239807786562,1606340758374
scala-doku,13025796345,252840826168,1606340758374
scala-doku,13006072555,265891134053,1606340758374
scala-doku,13018915367,278928087243,1606340758374
scala-doku,12833636793,291979440378,1606340758374
scala-doku,13045951836,304838161696,1606340758374
scala-doku,12900535596,317915175672,1606340758374
scala-doku,13010094641,330839661411,1606340758374
scala-doku,12947221537,343883707612,1606340758374
scala-doku,13022713937,356857683083,1606340758374
scala-doku,13050807536,369913180122,1606340758374
scala-doku,12998816865,383006947200,1606340758374
scala-doku,12835131413,396032153153,1606340758374
scala-doku,13072242225,408905877334,1606340758374
scala-doku,13011085195,422016183602,1606340758374
scala-doku,13188784048,435061587936,1606340758374
scala-doku,12751919638,448290592637,1606340758374
scala-doku,13073539470,461077973009,1606340758374
scala-doku,12923565184,474186333736,1606340758374
scala-doku,13000215829,487135279122,1606340758374
scala-doku,12959192393,500164473499,1606340758374
scala-doku,12986710163,513150690569,1606340758374
scala-doku,12820411987,526167524345,1606340758374
scala-doku,12983051360,539027020265,1606340758374
scala-doku,12935790674,552051291827,1606340758374
scala-doku,12963939245,565012181714,1606340758374
scala-doku,13066284187,578008289052,1606340758374
scala-doku,13024367964,591102042393,1606340758374
scala-doku,12944153022,604161389142,1606340758374
scala-doku,13145265788,617130917559,1606340758374
scala-doku,13028455827,630308872937,1606340758374
scala-doku,12957721419,643367716836,1606340758374
scala-doku,12955585284,656350962867,1606340758374
scala-doku,13000008137,669335730300,1606340758374
scala-doku,12946014552,682365587469,1606340758374
scala-doku,13152195519,695335802706,1606340758374
scala-doku,12996163020,708524415858,1606340758374
scala-doku,12963662646,721554813900,1606340758374
scala-doku,12921683023,734547333611,1606340758374
scala-doku,12980750544,747493560545,1606340758374
scala-doku,13020938992,760503918761,1606340758374
scala-doku,13132888551,773551898087,1606340758374
scala-doku,13012085969,786718170853,1606340758374
scala-doku,13083514222,799764362770,1606340758374
scala-doku,12968522239,812883978600,1606340758374
scala-doku,13044870682,825894944630,1606340758374
scala-doku,12952272949,838978947401,1606340758374
scala-doku,13049100851,851968997218,1606340758374
scala-doku,12952849921,865063957578,1606340758374
scala-doku,12971356340,878042085796,1606340758374
scala-doku,13132788695,891052192066,1606340758374
scala-doku,13111812060,904226941430,1606340758374
scala-doku,13031023687,917369682718,1606340758374
scala-doku,13052386688,930438636101,1606340758374
scala-doku,13001791410,943522745923,1606340758374
scala-doku,12954981626,956556123229,1606340758374
scala-doku,12909527261,969542723547,1606340758374
scala-doku,13054691343,982484174432,1606340758374
scala-doku,13005853112,995572845809,1606340758374
scala-doku,13016303521,1008616884302,1606340758374
scala-doku,12912120287,1021676316146,1606340758374
scala-doku,12916128705,1034618757109,1606340758374
scala-doku,13110590101,1047559983773,1606340758374
scala-doku,13032281286,1060705227864,1606340758374
scala-doku,13029724910,1073770787356,1606340758374
scala-doku,13019352458,1086828154064,1606340758374
scala-doku,12941758935,1099881264831,1606340758374
scala-doku,12983130735,1112847758946,1606340758374
scala-doku,13018836276,1125861900082,1606340758374
scala-doku,12919744188,1138918694035,1606340758374
scala-doku,12989289128,1151863458692,1606340758374
scala-doku,12954612471,1164882282966,1606340758374
scala-doku,13049085578,1177863334790,1606340758374
scala-doku,12960696861,1190943429626,1606340758374
scala-doku,12989654123,1203929286696,1606340758374
scala-doku,13006946039,1216948612686,1606340758374
scala-doku,12946593426,1229983901529,1606340758374
scala-doku,12581917378,1242952655397,1606340758374
scala-doku,13043099624,1255565401844,1606340758374
scala-doku,12688809965,1268644628034,1606340758374
scala-doku,13104799223,1281367619999,1606340758374
