{
   "Title":"MicroBenchmarks.Serializers.Xml_FromStream_LoginViewModel_-20201121-154558",
   "HostEnvironmentInfo":{
      "BenchmarkDotNetCaption":"BenchmarkDotNet",
      "BenchmarkDotNetVersion":"0.12.1.1405-nightly",
      "OsVersion":"macOS 11.0 (20A2411) [Darwin 20.1.0]",
      "ProcessorName":"VirtualApple 2.50GHz processor",
      "PhysicalProcessorCount":1,
      "PhysicalCoreCount":8,
      "LogicalCoreCount":8,
      "RuntimeVersion":".NET Core 5.0.0 (CoreCLR 5.0.20.51904, CoreFX 5.0.20.51904)",
      "Architecture":"X64",
      "HasAttachedDebugger":false,
      "HasRyuJit":true,
      "Configuration":"RELEASE",
      "DotNetCliVersion":"5.0.100",
      "ChronometerFrequency":{
         "Hertz":1000000000
      },
      "HardwareTimerKind":"Unknown"
   },
   "Benchmarks":[
      {
         "DisplayInfo":"Xml_FromStream<LoginViewModel>.XmlSerializer: Job-RGYCHM(PowerPlanMode=00000000-0000-0000-0000-000000000000, Arguments=/p:DebugType=portable, IterationTime=250.0000 ms, MaxIterationCount=20, MinIterationCount=15, WarmupCount=1)",
         "Namespace":"MicroBenchmarks.Serializers",
         "Type":"Xml_FromStream<LoginViewModel>",
         "Method":"XmlSerializer_",
         "MethodTitle":"XmlSerializer",
         "Parameters":"",
         "FullName":"MicroBenchmarks.Serializers.Xml_FromStream<LoginViewModel>.XmlSerializer_",
         "Statistics":{
            "OriginalValues":[
               6507.764986967854,6609.9224587315375,6506.190269331017,6482.46090356212,6443.726542137272,6550.010860121633,6441.862076455256,6456.767810599479,7211.591225021721,5615.651172893136,5608.972198088619,5976.433536055604,5564.934404865335,5608.673544743701,5692.975238922676,5596.057775847089,5668.802562988705
            ],
            "N":17,
            "Min":5564.934404865335,
            "LowerFence":4279.842528236316,
            "Q1":5615.651172893136,
            "Median":6441.862076455256,
            "Mean":6149.576327490162,
            "Q3":6506.190269331017,
            "UpperFence":7841.998913987837,
            "Max":7211.591225021721,
            "InterquartileRange":890.5390964378803,
            "LowerOutliers":[
               
            ],
            "UpperOutliers":[
               
            ],
            "AllOutliers":[
               
            ],
            "StandardError":123.08009059914916,
            "Variance":257528.04793221102,
            "StandardDeviation":507.47221395088326,
            "Skewness":0.23306348052731468,
            "Kurtosis":1.749167230935824,
            "ConfidenceInterval":{
               "N":17,
               "Mean":6149.576327490162,
               "StandardError":123.08009059914916,
               "Level":12,
               "Margin":494.166111736766,
               "Lower":5655.410215753396,
               "Upper":6643.742439226928
            },
            "Percentiles":{
               "P0":5564.934404865335,
               "P25":5615.651172893136,
               "P50":6441.862076455256,
               "P67":6475.26683753258,
               "P80":6507.450043440487,
               "P85":6533.112510860122,
               "P90":6573.975499565595,
               "P95":6730.256211989574,
               "P100":7211.591225021721
            }
         },
         "Memory":{
            "Gen0Collections":13,
            "Gen1Collections":0,
            "Gen2Collections":0,
            "TotalOperations":4604,
            "BytesAllocatedPerOperation":6016
         },
         "Measurements":[
            {
               "IterationMode":"Overhead",
               "IterationStage":"Jitting",
               "LaunchIndex":1,
               "IterationIndex":1,
               "Operations":1,
               "Nanoseconds":615542
            },{
               "IterationMode":"Workload",
               "IterationStage":"Jitting",
               "LaunchIndex":1,
               "IterationIndex":1,
               "Operations":1,
               "Nanoseconds":27228750
            },{
               "IterationMode":"Workload",
               "IterationStage":"Pilot",
               "LaunchIndex":1,
               "IterationIndex":1,
               "Operations":4,
               "Nanoseconds":1019833
            },{
               "IterationMode":"Workload",
               "IterationStage":"Pilot",
               "LaunchIndex":1,
               "IterationIndex":2,
               "Operations":981,
               "Nanoseconds":12751333
            },{
               "IterationMode":"Workload",
               "IterationStage":"Pilot",
               "LaunchIndex":1,
               "IterationIndex":3,
               "Operations":19233,
               "Nanoseconds":461933041
            },{
               "IterationMode":"Workload",
               "IterationStage":"Pilot",
               "LaunchIndex":1,
               "IterationIndex":4,
               "Operations":10409,
               "Nanoseconds":947356084
            },{
               "IterationMode":"Workload",
               "IterationStage":"Pilot",
               "LaunchIndex":1,
               "IterationIndex":5,
               "Operations":2747,
               "Nanoseconds":149173750
            },{
               "IterationMode":"Workload",
               "IterationStage":"Pilot",
               "LaunchIndex":1,
               "IterationIndex":6,
               "Operations":4604,
               "Nanoseconds":622275416
            },{
               "IterationMode":"Workload",
               "IterationStage":"Warmup",
               "LaunchIndex":1,
               "IterationIndex":1,
               "Operations":4604,
               "Nanoseconds":29889666
            },{
               "IterationMode":"Workload",
               "IterationStage":"Actual",
               "LaunchIndex":1,
               "IterationIndex":1,
               "Operations":4604,
               "Nanoseconds":29961750
            },{
               "IterationMode":"Workload",
               "IterationStage":"Actual",
               "LaunchIndex":1,
               "IterationIndex":2,
               "Operations":4604,
               "Nanoseconds":30432083
            },{
               "IterationMode":"Workload",
               "IterationStage":"Actual",
               "LaunchIndex":1,
               "IterationIndex":3,
               "Operations":4604,
               "Nanoseconds":29954500
            },{
               "IterationMode":"Workload",
               "IterationStage":"Actual",
               "LaunchIndex":1,
               "IterationIndex":4,
               "Operations":4604,
               "Nanoseconds":29845250
            },{
               "IterationMode":"Workload",
               "IterationStage":"Actual",
               "LaunchIndex":1,
               "IterationIndex":5,
               "Operations":4604,
               "Nanoseconds":29666917
            },{
               "IterationMode":"Workload",
               "IterationStage":"Actual",
               "LaunchIndex":1,
               "IterationIndex":6,
               "Operations":4604,
               "Nanoseconds":30156250
            },{
               "IterationMode":"Workload",
               "IterationStage":"Actual",
               "LaunchIndex":1,
               "IterationIndex":7,
               "Operations":4604,
               "Nanoseconds":29658333
            },{
               "IterationMode":"Workload",
               "IterationStage":"Actual",
               "LaunchIndex":1,
               "IterationIndex":8,
               "Operations":4604,
               "Nanoseconds":29726959
            },{
               "IterationMode":"Workload",
               "IterationStage":"Actual",
               "LaunchIndex":1,
               "IterationIndex":9,
               "Operations":4604,
               "Nanoseconds":33202166
            },{
               "IterationMode":"Workload",
               "IterationStage":"Actual",
               "LaunchIndex":1,
               "IterationIndex":10,
               "Operations":4604,
               "Nanoseconds":398574708
            },{
               "IterationMode":"Workload",
               "IterationStage":"Actual",
               "LaunchIndex":1,
               "IterationIndex":11,
               "Operations":4604,
               "Nanoseconds":356977625
            },{
               "IterationMode":"Workload",
               "IterationStage":"Actual",
               "LaunchIndex":1,
               "IterationIndex":12,
               "Operations":4604,
               "Nanoseconds":224787208
            },{
               "IterationMode":"Workload",
               "IterationStage":"Actual",
               "LaunchIndex":1,
               "IterationIndex":13,
               "Operations":4604,
               "Nanoseconds":25854458
            },{
               "IterationMode":"Workload",
               "IterationStage":"Actual",
               "LaunchIndex":1,
               "IterationIndex":14,
               "Operations":4604,
               "Nanoseconds":25823708
            },{
               "IterationMode":"Workload",
               "IterationStage":"Actual",
               "LaunchIndex":1,
               "IterationIndex":15,
               "Operations":4604,
               "Nanoseconds":27515500
            },{
               "IterationMode":"Workload",
               "IterationStage":"Actual",
               "LaunchIndex":1,
               "IterationIndex":16,
               "Operations":4604,
               "Nanoseconds":25620958
            },{
               "IterationMode":"Workload",
               "IterationStage":"Actual",
               "LaunchIndex":1,
               "IterationIndex":17,
               "Operations":4604,
               "Nanoseconds":25822333
            },{
               "IterationMode":"Workload",
               "IterationStage":"Actual",
               "LaunchIndex":1,
               "IterationIndex":18,
               "Operations":4604,
               "Nanoseconds":26210458
            },{
               "IterationMode":"Workload",
               "IterationStage":"Actual",
               "LaunchIndex":1,
               "IterationIndex":19,
               "Operations":4604,
               "Nanoseconds":25764250
            },{
               "IterationMode":"Workload",
               "IterationStage":"Actual",
               "LaunchIndex":1,
               "IterationIndex":20,
               "Operations":4604,
               "Nanoseconds":26099167
            },{
               "IterationMode":"Workload",
               "IterationStage":"Result",
               "LaunchIndex":1,
               "IterationIndex":1,
               "Operations":4604,
               "Nanoseconds":29961750
            },{
               "IterationMode":"Workload",
               "IterationStage":"Result",
               "LaunchIndex":1,
               "IterationIndex":2,
               "Operations":4604,
               "Nanoseconds":30432083
            },{
               "IterationMode":"Workload",
               "IterationStage":"Result",
               "LaunchIndex":1,
               "IterationIndex":3,
               "Operations":4604,
               "Nanoseconds":29954500
            },{
               "IterationMode":"Workload",
               "IterationStage":"Result",
               "LaunchIndex":1,
               "IterationIndex":4,
               "Operations":4604,
               "Nanoseconds":29845250
            },{
               "IterationMode":"Workload",
               "IterationStage":"Result",
               "LaunchIndex":1,
               "IterationIndex":5,
               "Operations":4604,
               "Nanoseconds":29666917
            },{
               "IterationMode":"Workload",
               "IterationStage":"Result",
               "LaunchIndex":1,
               "IterationIndex":6,
               "Operations":4604,
               "Nanoseconds":30156250
            },{
               "IterationMode":"Workload",
               "IterationStage":"Result",
               "LaunchIndex":1,
               "IterationIndex":7,
               "Operations":4604,
               "Nanoseconds":29658333
            },{
               "IterationMode":"Workload",
               "IterationStage":"Result",
               "LaunchIndex":1,
               "IterationIndex":8,
               "Operations":4604,
               "Nanoseconds":29726959
            },{
               "IterationMode":"Workload",
               "IterationStage":"Result",
               "LaunchIndex":1,
               "IterationIndex":9,
               "Operations":4604,
               "Nanoseconds":33202166
            },{
               "IterationMode":"Workload",
               "IterationStage":"Result",
               "LaunchIndex":1,
               "IterationIndex":10,
               "Operations":4604,
               "Nanoseconds":25854458
            },{
               "IterationMode":"Workload",
               "IterationStage":"Result",
               "LaunchIndex":1,
               "IterationIndex":11,
               "Operations":4604,
               "Nanoseconds":25823708
            },{
               "IterationMode":"Workload",
               "IterationStage":"Result",
               "LaunchIndex":1,
               "IterationIndex":12,
               "Operations":4604,
               "Nanoseconds":27515500
            },{
               "IterationMode":"Workload",
               "IterationStage":"Result",
               "LaunchIndex":1,
               "IterationIndex":13,
               "Operations":4604,
               "Nanoseconds":25620958
            },{
               "IterationMode":"Workload",
               "IterationStage":"Result",
               "LaunchIndex":1,
               "IterationIndex":14,
               "Operations":4604,
               "Nanoseconds":25822333
            },{
               "IterationMode":"Workload",
               "IterationStage":"Result",
               "LaunchIndex":1,
               "IterationIndex":15,
               "Operations":4604,
               "Nanoseconds":26210458
            },{
               "IterationMode":"Workload",
               "IterationStage":"Result",
               "LaunchIndex":1,
               "IterationIndex":16,
               "Operations":4604,
               "Nanoseconds":25764250
            },{
               "IterationMode":"Workload",
               "IterationStage":"Result",
               "LaunchIndex":1,
               "IterationIndex":17,
               "Operations":4604,
               "Nanoseconds":26099167
            }
         ],
         "Metrics":[
            {
               "Value":2.8236316246741966,
               "Descriptor":{
                  "Id":"Gen0Collects",
                  "DisplayName":"Gen 0",
                  "Legend":"GC Generation 0 collects per 1000 operations",
                  "NumberFormat":"#0.0000",
                  "UnitType":0,
                  "Unit":"Count",
                  "TheGreaterTheBetter":false
               }
            },{
               "Value":0,
               "Descriptor":{
                  "Id":"Gen1Collects",
                  "DisplayName":"Gen 1",
                  "Legend":"GC Generation 1 collects per 1000 operations",
                  "NumberFormat":"#0.0000",
                  "UnitType":0,
                  "Unit":"Count",
                  "TheGreaterTheBetter":false
               }
            },{
               "Value":0,
               "Descriptor":{
                  "Id":"Gen2Collects",
                  "DisplayName":"Gen 2",
                  "Legend":"GC Generation 2 collects per 1000 operations",
                  "NumberFormat":"#0.0000",
                  "UnitType":0,
                  "Unit":"Count",
                  "TheGreaterTheBetter":false
               }
            },{
               "Value":6016,
               "Descriptor":{
                  "Id":"Allocated Memory",
                  "DisplayName":"Allocated",
                  "Legend":"Allocated memory per single operation (managed only, inclusive, 1KB = 1024B)",
                  "NumberFormat":"N0",
                  "UnitType":2,
                  "Unit":"B",
                  "TheGreaterTheBetter":false
               }
            }
         ]
      },{
         "DisplayInfo":"Xml_FromStream<LoginViewModel>.DataContractSerializer: Job-RGYCHM(PowerPlanMode=00000000-0000-0000-0000-000000000000, Arguments=/p:DebugType=portable, IterationTime=250.0000 ms, MaxIterationCount=20, MinIterationCount=15, WarmupCount=1)",
         "Namespace":"MicroBenchmarks.Serializers",
         "Type":"Xml_FromStream<LoginViewModel>",
         "Method":"DataContractSerializer_",
         "MethodTitle":"DataContractSerializer",
         "Parameters":"",
         "FullName":"MicroBenchmarks.Serializers.Xml_FromStream<LoginViewModel>.DataContractSerializer_",
         "Statistics":{
            "OriginalValues":[
               3934.965279949953,3989.2477322489835,3884.214576165155,3927.0147012824523,3954.970910228339,3754.9136690647483,3877.437284954645,3816.5727244291525,3851.6318423522052,3861.0025023459493,3825.956834532374,3817.7979355645916,3848.673131060369,3929.6474820143885
            ],
            "N":14,
            "Min":3754.9136690647483,
            "LowerFence":3685.6058414138242,
            "Q1":3831.6359086643724,
            "Median":3869.2198936502973,
            "Mean":3876.717614728093,
            "Q3":3928.9892868314046,
            "UpperFence":4075.0193540819528,
            "Max":3989.2477322489835,
            "InterquartileRange":97.35337816703213,
            "LowerOutliers":[
               
            ],
            "UpperOutliers":[
               
            ],
            "AllOutliers":[
               
            ],
            "StandardError":17.18228618208581,
            "Variance":4133.233418203357,
            "StandardDeviation":64.29022801486519,
            "Skewness":-0.006451574854083686,
            "Kurtosis":1.9926277125027527,
            "ConfidenceInterval":{
               "N":14,
               "Mean":3876.717614728093,
               "StandardError":17.18228618208581,
               "Level":12,
               "Margin":72.5235386718939,
               "Lower":3804.1940760561993,
               "Upper":3949.2411533999866
            },
            "Percentiles":{
               "P0":3754.9136690647483,
               "P25":3831.6359086643724,
               "P50":3869.2198936502973,
               "P67":3914.602664998436,
               "P80":3931.7746011886147,
               "P85":3935.9655614638727,
               "P90":3948.9692211448237,
               "P95":3966.9677979355647,
               "P100":3989.2477322489835
            }
         },
         "Memory":{
            "Gen0Collections":19,
            "Gen1Collections":0,
            "Gen2Collections":0,
            "TotalOperations":3197,
            "BytesAllocatedPerOperation":12488
         },
         "Measurements":[
            {
               "IterationMode":"Overhead",
               "IterationStage":"Jitting",
               "LaunchIndex":1,
               "IterationIndex":1,
               "Operations":1,
               "Nanoseconds":607458
            },{
               "IterationMode":"Workload",
               "IterationStage":"Jitting",
               "LaunchIndex":1,
               "IterationIndex":1,
               "Operations":1,
               "Nanoseconds":23399042
            },{
               "IterationMode":"Workload",
               "IterationStage":"Pilot",
               "LaunchIndex":1,
               "IterationIndex":1,
               "Operations":4,
               "Nanoseconds":842708
            },{
               "IterationMode":"Workload",
               "IterationStage":"Pilot",
               "LaunchIndex":1,
               "IterationIndex":2,
               "Operations":1187,
               "Nanoseconds":7713750
            },{
               "IterationMode":"Workload",
               "IterationStage":"Pilot",
               "LaunchIndex":1,
               "IterationIndex":3,
               "Operations":38470,
               "Nanoseconds":1197073875
            },{
               "IterationMode":"Workload",
               "IterationStage":"Pilot",
               "LaunchIndex":1,
               "IterationIndex":4,
               "Operations":8034,
               "Nanoseconds":673920209
            },{
               "IterationMode":"Workload",
               "IterationStage":"Pilot",
               "LaunchIndex":1,
               "IterationIndex":5,
               "Operations":2980,
               "Nanoseconds":233041041
            },{
               "IterationMode":"Workload",
               "IterationStage":"Pilot",
               "LaunchIndex":1,
               "IterationIndex":6,
               "Operations":3197,
               "Nanoseconds":298567625
            },{
               "IterationMode":"Workload",
               "IterationStage":"Warmup",
               "LaunchIndex":1,
               "IterationIndex":1,
               "Operations":3197,
               "Nanoseconds":12622958
            },{
               "IterationMode":"Workload",
               "IterationStage":"Actual",
               "LaunchIndex":1,
               "IterationIndex":1,
               "Operations":3197,
               "Nanoseconds":12580084
            },{
               "IterationMode":"Workload",
               "IterationStage":"Actual",
               "LaunchIndex":1,
               "IterationIndex":2,
               "Operations":3197,
               "Nanoseconds":12753625
            },{
               "IterationMode":"Workload",
               "IterationStage":"Actual",
               "LaunchIndex":1,
               "IterationIndex":3,
               "Operations":3197,
               "Nanoseconds":12417834
            },{
               "IterationMode":"Workload",
               "IterationStage":"Actual",
               "LaunchIndex":1,
               "IterationIndex":4,
               "Operations":3197,
               "Nanoseconds":12554666
            },{
               "IterationMode":"Workload",
               "IterationStage":"Actual",
               "LaunchIndex":1,
               "IterationIndex":5,
               "Operations":3197,
               "Nanoseconds":12644042
            },{
               "IterationMode":"Workload",
               "IterationStage":"Actual",
               "LaunchIndex":1,
               "IterationIndex":6,
               "Operations":3197,
               "Nanoseconds":12004459
            },{
               "IterationMode":"Workload",
               "IterationStage":"Actual",
               "LaunchIndex":1,
               "IterationIndex":7,
               "Operations":3197,
               "Nanoseconds":12396167
            },{
               "IterationMode":"Workload",
               "IterationStage":"Actual",
               "LaunchIndex":1,
               "IterationIndex":8,
               "Operations":3197,
               "Nanoseconds":12201583
            },{
               "IterationMode":"Workload",
               "IterationStage":"Actual",
               "LaunchIndex":1,
               "IterationIndex":9,
               "Operations":3197,
               "Nanoseconds":12313667
            },{
               "IterationMode":"Workload",
               "IterationStage":"Actual",
               "LaunchIndex":1,
               "IterationIndex":10,
               "Operations":3197,
               "Nanoseconds":12343625
            },{
               "IterationMode":"Workload",
               "IterationStage":"Actual",
               "LaunchIndex":1,
               "IterationIndex":11,
               "Operations":3197,
               "Nanoseconds":12231584
            },{
               "IterationMode":"Workload",
               "IterationStage":"Actual",
               "LaunchIndex":1,
               "IterationIndex":12,
               "Operations":3197,
               "Nanoseconds":12205500
            },{
               "IterationMode":"Workload",
               "IterationStage":"Actual",
               "LaunchIndex":1,
               "IterationIndex":13,
               "Operations":3197,
               "Nanoseconds":12304208
            },{
               "IterationMode":"Workload",
               "IterationStage":"Actual",
               "LaunchIndex":1,
               "IterationIndex":14,
               "Operations":3197,
               "Nanoseconds":35909583
            },{
               "IterationMode":"Workload",
               "IterationStage":"Actual",
               "LaunchIndex":1,
               "IterationIndex":15,
               "Operations":3197,
               "Nanoseconds":307504959
            },{
               "IterationMode":"Workload",
               "IterationStage":"Actual",
               "LaunchIndex":1,
               "IterationIndex":16,
               "Operations":3197,
               "Nanoseconds":286998292
            },{
               "IterationMode":"Workload",
               "IterationStage":"Actual",
               "LaunchIndex":1,
               "IterationIndex":17,
               "Operations":3197,
               "Nanoseconds":78938167
            },{
               "IterationMode":"Workload",
               "IterationStage":"Actual",
               "LaunchIndex":1,
               "IterationIndex":18,
               "Operations":3197,
               "Nanoseconds":12563083
            },{
               "IterationMode":"Workload",
               "IterationStage":"Result",
               "LaunchIndex":1,
               "IterationIndex":1,
               "Operations":3197,
               "Nanoseconds":12580084
            },{
               "IterationMode":"Workload",
               "IterationStage":"Result",
               "LaunchIndex":1,
               "IterationIndex":2,
               "Operations":3197,
               "Nanoseconds":12753625
            },{
               "IterationMode":"Workload",
               "IterationStage":"Result",
               "LaunchIndex":1,
               "IterationIndex":3,
               "Operations":3197,
               "Nanoseconds":12417834
            },{
               "IterationMode":"Workload",
               "IterationStage":"Result",
               "LaunchIndex":1,
               "IterationIndex":4,
               "Operations":3197,
               "Nanoseconds":12554666
            },{
               "IterationMode":"Workload",
               "IterationStage":"Result",
               "LaunchIndex":1,
               "IterationIndex":5,
               "Operations":3197,
               "Nanoseconds":12644042
            },{
               "IterationMode":"Workload",
               "IterationStage":"Result",
               "LaunchIndex":1,
               "IterationIndex":6,
               "Operations":3197,
               "Nanoseconds":12004459
            },{
               "IterationMode":"Workload",
               "IterationStage":"Result",
               "LaunchIndex":1,
               "IterationIndex":7,
               "Operations":3197,
               "Nanoseconds":12396167
            },{
               "IterationMode":"Workload",
               "IterationStage":"Result",
               "LaunchIndex":1,
               "IterationIndex":8,
               "Operations":3197,
               "Nanoseconds":12201583
            },{
               "IterationMode":"Workload",
               "IterationStage":"Result",
               "LaunchIndex":1,
               "IterationIndex":9,
               "Operations":3197,
               "Nanoseconds":12313667
            },{
               "IterationMode":"Workload",
               "IterationStage":"Result",
               "LaunchIndex":1,
               "IterationIndex":10,
               "Operations":3197,
               "Nanoseconds":12343625
            },{
               "IterationMode":"Workload",
               "IterationStage":"Result",
               "LaunchIndex":1,
               "IterationIndex":11,
               "Operations":3197,
               "Nanoseconds":12231584
            },{
               "IterationMode":"Workload",
               "IterationStage":"Result",
               "LaunchIndex":1,
               "IterationIndex":12,
               "Operations":3197,
               "Nanoseconds":12205500
            },{
               "IterationMode":"Workload",
               "IterationStage":"Result",
               "LaunchIndex":1,
               "IterationIndex":13,
               "Operations":3197,
               "Nanoseconds":12304208
            },{
               "IterationMode":"Workload",
               "IterationStage":"Result",
               "LaunchIndex":1,
               "IterationIndex":14,
               "Operations":3197,
               "Nanoseconds":12563083
            }
         ],
         "Metrics":[
            {
               "Value":5.9430716296528,
               "Descriptor":{
                  "Id":"Gen0Collects",
                  "DisplayName":"Gen 0",
                  "Legend":"GC Generation 0 collects per 1000 operations",
                  "NumberFormat":"#0.0000",
                  "UnitType":0,
                  "Unit":"Count",
                  "TheGreaterTheBetter":false
               }
            },{
               "Value":0,
               "Descriptor":{
                  "Id":"Gen1Collects",
                  "DisplayName":"Gen 1",
                  "Legend":"GC Generation 1 collects per 1000 operations",
                  "NumberFormat":"#0.0000",
                  "UnitType":0,
                  "Unit":"Count",
                  "TheGreaterTheBetter":false
               }
            },{
               "Value":0,
               "Descriptor":{
                  "Id":"Gen2Collects",
                  "DisplayName":"Gen 2",
                  "Legend":"GC Generation 2 collects per 1000 operations",
                  "NumberFormat":"#0.0000",
                  "UnitType":0,
                  "Unit":"Count",
                  "TheGreaterTheBetter":false
               }
            },{
               "Value":12488,
               "Descriptor":{
                  "Id":"Allocated Memory",
                  "DisplayName":"Allocated",
                  "Legend":"Allocated memory per single operation (managed only, inclusive, 1KB = 1024B)",
                  "NumberFormat":"N0",
                  "UnitType":2,
                  "Unit":"B",
                  "TheGreaterTheBetter":false
               }
            }
         ]
      }
   ]
}
