benchmark,duration_ns,uptime_ns,vm_start_unix_ms
akka-uct,11062779194,585823844,1606367909224
akka-uct,8775833872,11931552210,1606367909224
akka-uct,8453330554,20998166533,1606367909224
akka-uct,8457996550,29783390871,1606367909224
akka-uct,8683800771,38526775403,1606367909224
akka-uct,8306303406,47610642891,1606367909224
akka-uct,8786940794,56367969756,1606367909224
akka-uct,8162124242,65425770901,1606367909224
akka-uct,8251266097,73868389394,1606367909224
akka-uct,8306026447,82588130521,1606367909224
akka-uct,8205322275,91355609114,1606367909224
akka-uct,8473279943,99858872352,1606367909224
akka-uct,7954207851,108636098567,1606367909224
akka-uct,8378368526,116952752605,1606367909224
akka-uct,8132602618,125600770027,1606367909224
akka-uct,8453236630,134025745664,1606367909224
akka-uct,8271461411,142846459162,1606367909224
akka-uct,8152029970,151518420573,1606367909224
akka-uct,8242905907,160107071519,1606367909224
akka-uct,8544191558,168657751945,1606367909224
akka-uct,8835209176,177559963153,1606367909224
akka-uct,8403521360,186742666867,1606367909224
akka-uct,8232481975,195457381877,1606367909224
akka-uct,8161616530,204090481247,1606367909224
akka-uct,7800938455,212760256942,1606367909224
akka-uct,8318118319,220900058794,1606367909224
akka-uct,8570145026,229503812738,1606367909224
akka-uct,8425241153,238524377832,1606367909224
akka-uct,8387152792,247324434148,1606367909224
akka-uct,8428615870,256182468671,1606367909224
akka-uct,8357908938,264905698876,1606367909224
akka-uct,8125974290,273659055222,1606367909224
akka-uct,8359065307,282197953588,1606367909224
akka-uct,8421619958,291032599525,1606367909224
akka-uct,8588807707,299817994014,1606367909224
akka-uct,8175705250,308726033150,1606367909224
akka-uct,8279252281,317292650536,1606367909224
akka-uct,8347430056,325962976796,1606367909224
akka-uct,8084974417,334661820767,1606367909224
akka-uct,8212456647,343155033008,1606367909224
akka-uct,7962014683,351645068222,1606367909224
akka-uct,8237487449,360035102191,1606367909224
akka-uct,8104622175,368739182694,1606367909224
akka-uct,7921661519,377170733437,1606367909224
akka-uct,8144266543,385363008005,1606367909224
akka-uct,8207848026,393962828062,1606367909224
akka-uct,8332215970,402502547096,1606367909224
akka-uct,8126244448,411126813765,1606367909224
akka-uct,8086625364,419700489471,1606367909224
akka-uct,7760909709,428160622100,1606367909224
akka-uct,8437352598,436152926509,1606367909224
akka-uct,8255488182,445040165707,1606367909224
akka-uct,8039199496,453605163104,1606367909224
akka-uct,8464883074,462102962431,1606367909224
akka-uct,8807903923,470868292482,1606367909224
akka-uct,8950337575,480076740272,1606367909224
akka-uct,8131059446,489344786266,1606367909224
akka-uct,8115471982,497833225371,1606367909224
akka-uct,8339599847,506336379123,1606367909224
akka-uct,8311553101,514981682667,1606367909224
akka-uct,8106109582,523765249704,1606367909224
akka-uct,8418639708,532202491229,1606367909224
akka-uct,9134389997,541059572918,1606367909224
akka-uct,8739582364,550567415679,1606367909224
akka-uct,8208463966,559597508150,1606367909224
akka-uct,8206109109,568119759055,1606367909224
akka-uct,8246147102,576721148579,1606367909224
akka-uct,8685537892,585221058731,1606367909224
akka-uct,8443095166,594191561976,1606367909224
akka-uct,8254028162,603027960441,1606367909224
akka-uct,8020796762,611763381010,1606367909224
akka-uct,8064852220,620054242165,1606367909224
akka-uct,8515696816,628424244251,1606367909224
akka-uct,7813977399,637355396603,1606367909224
akka-uct,8131469325,645637649262,1606367909224
akka-uct,8031402627,654119120869,1606367909224
akka-uct,8029114021,662585133724,1606367909224
akka-uct,8041641363,670921442843,1606367909224
akka-uct,8287162097,679357820736,1606367909224
akka-uct,8318084133,688019486882,1606367909224
akka-uct,8388603308,696824524608,1606367909224
akka-uct,8235580582,705511651975,1606367909224
akka-uct,8509306423,714201627676,1606367909224
akka-uct,8505386610,723208275879,1606367909224
akka-uct,7939942031,732135763475,1606367909224
akka-uct,8163662389,740469634632,1606367909224
akka-uct,8477740600,749035451531,1606367909224
akka-uct,7985160990,757806239980,1606367909224
akka-uct,8372486269,766258368405,1606367909224
akka-uct,8170673590,774940674144,1606367909224
akka-uct,8195809848,783451525995,1606367909224
akka-uct,8298859963,791957497350,1606367909224
akka-uct,8398072548,800641261758,1606367909224
akka-uct,8396370008,809347444706,1606367909224
akka-uct,8312099582,818031806204,1606367909224
akka-uct,8226025829,826728177925,1606367909224
akka-uct,8316384612,835219945550,1606367909224
akka-uct,8181668697,843793625584,1606367909224
akka-uct,8350303169,852220549688,1606367909224
akka-uct,8268716765,860978902065,1606367909224
