benchmark,duration_ns,uptime_ns,vm_start_unix_ms
chi-square,2839860920,3482558674,1606369034080
chi-square,985210183,6432633558,1606369034080
chi-square,1129425051,7529772234,1606369034080
chi-square,1124469469,8742814734,1606369034080
chi-square,1116751932,9983340760,1606369034080
chi-square,1097848625,11182919981,1606369034080
chi-square,1124469985,12364896075,1606369034080
chi-square,1104288457,13574790948,1606369034080
chi-square,1136866909,14770862837,1606369034080
chi-square,1106255482,15999275372,1606369034080
chi-square,1102323331,17175980815,1606369034080
chi-square,1121828501,18347438892,1606369034080
chi-square,1131008217,19563757948,1606369034080
chi-square,1107779315,20772592056,1606369034080
chi-square,1118257738,21964309365,1606369034080
chi-square,1088650521,23163186192,1606369034080
chi-square,1125104448,24331516065,1606369034080
chi-square,1131846294,25549874657,1606369034080
chi-square,1101764777,26762867090,1606369034080
chi-square,1094207850,27977883896,1606369034080
chi-square,1107986940,29166879856,1606369034080
chi-square,1142952738,30366613865,1606369034080
chi-square,1109235387,31600793868,1606369034080
chi-square,1103034872,32791754963,1606369034080
chi-square,1141741781,33979548238,1606369034080
chi-square,1099419555,35207333072,1606369034080
chi-square,1091272524,36389240364,1606369034080
chi-square,1131460329,37562537840,1606369034080
chi-square,1095397526,38785934437,1606369034080
chi-square,1099059862,39951959973,1606369034080
chi-square,1082457021,41127350129,1606369034080
chi-square,1085206571,42280482263,1606369034080
chi-square,1088906917,43444429316,1606369034080
chi-square,1102610155,44604185264,1606369034080
chi-square,1114624585,45787762536,1606369034080
chi-square,1109958653,46983026550,1606369034080
chi-square,1214034482,48167601672,1606369034080
chi-square,1096002425,49475995441,1606369034080
chi-square,1203210506,50656157463,1606369034080
chi-square,1087340142,51954490919,1606369034080
chi-square,1103306514,53122145542,1606369034080
chi-square,1111856772,54298426053,1606369034080
chi-square,1130501338,55488892351,1606369034080
chi-square,1088137146,56717645522,1606369034080
chi-square,1180091964,57880188103,1606369034080
chi-square,1090953879,59154869252,1606369034080
chi-square,1143480745,60316613943,1606369034080
chi-square,1091487313,61542409702,1606369034080
chi-square,1104305619,62723793971,1606369034080
chi-square,1086482845,63913046720,1606369034080
chi-square,1086629730,65103618182,1606369034080
chi-square,1086588522,66276288936,1606369034080
chi-square,1091333267,67440024909,1606369034080
chi-square,1122663113,68602882602,1606369034080
chi-square,1092688777,69808597057,1606369034080
chi-square,1108996264,70986155496,1606369034080
chi-square,1101263744,72171609578,1606369034080
chi-square,1174267357,73348613700,1606369034080
chi-square,1082817677,74614734830,1606369034080
chi-square,1092685517,75769467875,1606369034080
chi-square,1098828258,76947635750,1606369034080
chi-square,1103918855,78134268117,1606369034080
chi-square,1086718698,79312756321,1606369034080
chi-square,1078209057,80482277387,1606369034080
chi-square,1130587779,81640765713,1606369034080
chi-square,1083947368,82866093506,1606369034080
chi-square,1102111783,84033511840,1606369034080
chi-square,1111927431,85217237143,1606369034080
chi-square,1101278581,86413891986,1606369034080
chi-square,1100770098,87588575311,1606369034080
chi-square,1082599213,88766046436,1606369034080
chi-square,1132505232,89932637695,1606369034080
chi-square,1094164706,91151071058,1606369034080
chi-square,1133750085,92321222537,1606369034080
chi-square,1080854571,93539650260,1606369034080
chi-square,1086155894,94704464316,1606369034080
chi-square,1105323911,95864630440,1606369034080
chi-square,1080293884,97047537413,1606369034080
chi-square,1084466873,98211953746,1606369034080
chi-square,1080887739,99380949419,1606369034080
chi-square,1087863912,100543966849,1606369034080
chi-square,1083546465,101705197160,1606369034080
chi-square,1129707797,102872307878,1606369034080
chi-square,1080972950,104090902915,1606369034080
chi-square,1147028107,105249762091,1606369034080
chi-square,1079633262,106482820697,1606369034080
chi-square,1147475698,107652665100,1606369034080
chi-square,1080782893,108896680278,1606369034080
chi-square,1133782257,110058910776,1606369034080
chi-square,1086365394,111287162850,1606369034080
chi-square,1108000390,112460909128,1606369034080
chi-square,1081776597,113656840437,1606369034080
chi-square,1082937926,114813245050,1606369034080
chi-square,1100784536,115970113931,1606369034080
chi-square,1082778244,117147940933,1606369034080
chi-square,1134991126,118317993628,1606369034080
chi-square,1085034921,119549652527,1606369034080
chi-square,1102818570,120716428361,1606369034080
chi-square,1111601673,121900473671,1606369034080
chi-square,1111656963,123089370023,1606369034080
