{
  "benchmarks": ["dotty"],
  "format_version": 5,
  "data": {
    "dotty": {
      "results": [{
        "duration_ns": 5916428354,
        "uptime_ns": 692199458
      }, {
        "duration_ns": 2837326635,
        "uptime_ns": 6656120300
      }, {
        "duration_ns": 2635595604,
        "uptime_ns": 9551308892
      }, {
        "duration_ns": 2413187638,
        "uptime_ns": 12234915133
      }, {
        "duration_ns": 2363681168,
        "uptime_ns": 14689515231
      }, {
        "duration_ns": 2267162422,
        "uptime_ns": 17102746506
      }, {
        "duration_ns": 2179447263,
        "uptime_ns": 19417305524
      }, {
        "duration_ns": 2112774406,
        "uptime_ns": 21646307878
      }, {
        "duration_ns": 2063343540,
        "uptime_ns": 23806026348
      }, {
        "duration_ns": 2028592956,
        "uptime_ns": 25924724558
      }, {
        "duration_ns": 2009900653,
        "uptime_ns": 28003046315
      }, {
        "duration_ns": 1995744222,
        "uptime_ns": 30059650015
      }, {
        "duration_ns": 1943288760,
        "uptime_ns": 32109735184
      }, {
        "duration_ns": 1892859354,
        "uptime_ns": 34102659935
      }, {
        "duration_ns": 1853065697,
        "uptime_ns": 36044639136
      }, {
        "duration_ns": 1878005776,
        "uptime_ns": 37945642018
      }, {
        "duration_ns": 1826798823,
        "uptime_ns": 39875131588
      }, {
        "duration_ns": 1820104029,
        "uptime_ns": 41750744800
      }, {
        "duration_ns": 1814778895,
        "uptime_ns": 43622043878
      }, {
        "duration_ns": 1828573832,
        "uptime_ns": 45486536205
      }, {
        "duration_ns": 1839606367,
        "uptime_ns": 47405589320
      }, {
        "duration_ns": 1802324200,
        "uptime_ns": 49295163135
      }, {
        "duration_ns": 1772937325,
        "uptime_ns": 51150964030
      }, {
        "duration_ns": 1767769206,
        "uptime_ns": 52973107610
      }, {
        "duration_ns": 1786798603,
        "uptime_ns": 54793811834
      }, {
        "duration_ns": 1764056170,
        "uptime_ns": 56640089945
      }, {
        "duration_ns": 1782116569,
        "uptime_ns": 58453224995
      }, {
        "duration_ns": 1766914246,
        "uptime_ns": 60285724956
      }, {
        "duration_ns": 1773071016,
        "uptime_ns": 62105652284
      }, {
        "duration_ns": 1741937247,
        "uptime_ns": 63932642352
      }, {
        "duration_ns": 1745362062,
        "uptime_ns": 65727921717
      }, {
        "duration_ns": 1748609754,
        "uptime_ns": 67523730804
      }, {
        "duration_ns": 1728719283,
        "uptime_ns": 69325682769
      }, {
        "duration_ns": 1736776217,
        "uptime_ns": 71106458678
      }, {
        "duration_ns": 1718681204,
        "uptime_ns": 72893134860
      }, {
        "duration_ns": 1752207975,
        "uptime_ns": 74665222147
      }, {
        "duration_ns": 1710059818,
        "uptime_ns": 76474879982
      }, {
        "duration_ns": 1714699381,
        "uptime_ns": 78236714586
      }, {
        "duration_ns": 1713811906,
        "uptime_ns": 80003594357
      }, {
        "duration_ns": 1728124944,
        "uptime_ns": 81769521349
      }, {
        "duration_ns": 1718220271,
        "uptime_ns": 83549987627
      }, {
        "duration_ns": 1708469508,
        "uptime_ns": 85320519063
      }, {
        "duration_ns": 1720477756,
        "uptime_ns": 87081671675
      }, {
        "duration_ns": 1722020696,
        "uptime_ns": 88855521636
      }, {
        "duration_ns": 1717284324,
        "uptime_ns": 90631254189
      }, {
        "duration_ns": 1720894986,
        "uptime_ns": 92403295078
      }, {
        "duration_ns": 1702729887,
        "uptime_ns": 94177927327
      }, {
        "duration_ns": 1709424253,
        "uptime_ns": 95933777329
      }, {
        "duration_ns": 1702255940,
        "uptime_ns": 97695152747
      }, {
        "duration_ns": 1728882071,
        "uptime_ns": 99451932678
      }, {
        "duration_ns": 1705101790,
        "uptime_ns": 101235157212
      }, {
        "duration_ns": 1717804669,
        "uptime_ns": 102994915635
      }, {
        "duration_ns": 1700707341,
        "uptime_ns": 104771932798
      }, {
        "duration_ns": 1713326319,
        "uptime_ns": 106525151971
      }, {
        "duration_ns": 1740394257,
        "uptime_ns": 108292175250
      }, {
        "duration_ns": 1693285625,
        "uptime_ns": 110084893919
      }, {
        "duration_ns": 1686861427,
        "uptime_ns": 111831525715
      }, {
        "duration_ns": 1700551220,
        "uptime_ns": 113569179645
      }, {
        "duration_ns": 1697668520,
        "uptime_ns": 115322528438
      }, {
        "duration_ns": 1676016703,
        "uptime_ns": 117073431573
      }, {
        "duration_ns": 1718537353,
        "uptime_ns": 118818266172
      }, {
        "duration_ns": 1717955163,
        "uptime_ns": 120588980565
      }, {
        "duration_ns": 1711122891,
        "uptime_ns": 122359674696
      }, {
        "duration_ns": 1697822215,
        "uptime_ns": 124123192862
      }, {
        "duration_ns": 1699344037,
        "uptime_ns": 125879394275
      }, {
        "duration_ns": 1681369892,
        "uptime_ns": 127631294843
      }, {
        "duration_ns": 1700563927,
        "uptime_ns": 129366477053
      }, {
        "duration_ns": 1705805356,
        "uptime_ns": 131122943904
      }, {
        "duration_ns": 1700067199,
        "uptime_ns": 132879594692
      }, {
        "duration_ns": 1699468107,
        "uptime_ns": 134635334046
      }, {
        "duration_ns": 1687208647,
        "uptime_ns": 136387189179
      }, {
        "duration_ns": 1694035664,
        "uptime_ns": 138125482022
      }, {
        "duration_ns": 1704458395,
        "uptime_ns": 139877164861
      }, {
        "duration_ns": 1711664909,
        "uptime_ns": 141634392490
      }, {
        "duration_ns": 1728857407,
        "uptime_ns": 143401307075
      }, {
        "duration_ns": 1698635029,
        "uptime_ns": 145185241543
      }, {
        "duration_ns": 1713383191,
        "uptime_ns": 146939883095
      }, {
        "duration_ns": 1700107144,
        "uptime_ns": 148709441284
      }, {
        "duration_ns": 1690724163,
        "uptime_ns": 150467258612
      }, {
        "duration_ns": 1682652694,
        "uptime_ns": 152209994399
      }, {
        "duration_ns": 1728132978,
        "uptime_ns": 153945798651
      }, {
        "duration_ns": 1678537885,
        "uptime_ns": 155727362266
      }, {
        "duration_ns": 1678180504,
        "uptime_ns": 157454951895
      }, {
        "duration_ns": 1688607567,
        "uptime_ns": 159183306280
      }, {
        "duration_ns": 1722543853,
        "uptime_ns": 160921763647
      }, {
        "duration_ns": 1691480453,
        "uptime_ns": 162693540985
      }, {
        "duration_ns": 1678377848,
        "uptime_ns": 164436591782
      }, {
        "duration_ns": 1657159487,
        "uptime_ns": 166164818651
      }, {
        "duration_ns": 1714786072,
        "uptime_ns": 167874587898
      }, {
        "duration_ns": 1721371680,
        "uptime_ns": 169638253882
      }, {
        "duration_ns": 1696057218,
        "uptime_ns": 171411964958
      }, {
        "duration_ns": 1679943706,
        "uptime_ns": 173159071533
      }, {
        "duration_ns": 1683401883,
        "uptime_ns": 174890202188
      }, {
        "duration_ns": 1673539912,
        "uptime_ns": 176626216666
      }, {
        "duration_ns": 1669977082,
        "uptime_ns": 178349100373
      }, {
        "duration_ns": 1691491996,
        "uptime_ns": 180069261887
      }, {
        "duration_ns": 1696451584,
        "uptime_ns": 181811888772
      }, {
        "duration_ns": 1672812369,
        "uptime_ns": 183556747639
      }, {
        "duration_ns": 1688735537,
        "uptime_ns": 185282131590
      }, {
        "duration_ns": 1675129750,
        "uptime_ns": 187024726116
      }],
      "termination": "normal"
    }
  },
  "environment": {
    "os": {
      "virt_mem_committed": 11766185984,
      "name": "Linux",
      "open_fd_count": 27,
      "phys_mem_free": 25546792960,
      "swap_space_total": 2147479552,
      "available_processors": 4,
      "phys_mem_total": 33628647424,
      "version": "5.4.0-54-generic",
      "arch": "amd64",
      "max_fd_count": 1048576,
      "swap_space_free": 2147479552
    },
    "vm": {
      "termination": "normal",
      "name": "OpenJDK 64-Bit Server VM",
      "spec_vendor": "Oracle Corporation",
      "spec_name": "Java Virtual Machine Specification",
      "classloading": {
        "class_count": 6470,
        "classes_total": 6470
      },
      "compiler": {
        "name": "HotSpot 64-Bit Tiered Compilers",
        "compilation_time_ms": 103485
      },
      "start_iso": "2020-11-26T05:48:17.792Z",
      "collectors": [{
        "name": "G1 Young Generation",
        "collection_count": 839,
        "collection_time_ms": 4345
      }, {
        "name": "G1 Old Generation",
        "collection_count": 100,
        "collection_time_ms": 5127
      }],
      "start_unix_ms": 1606369697792,
      "version": "11.0.9.1+1-Ubuntu-0ubuntu1.20.04",
      "mode": "mixed mode, sharing",
      "args": ["-XX:ActiveProcessorCount=4"],
      "pools": [{
        "name": "CodeHeap 'non-nmethods'",
        "type": "NON_HEAP",
        "usage": {
          "init": 2555904,
          "used": 1256064,
          "committed": 2555904,
          "max": 5832704
        },
        "peak_usage": {
          "init": 2555904,
          "used": 1289216,
          "committed": 2555904,
          "max": 5832704
        }
      }, {
        "name": "Metaspace",
        "type": "NON_HEAP",
        "usage": {
          "init": 0,
          "used": 57374896,
          "committed": 99532800,
          "max": -1
        },
        "peak_usage": {
          "init": 0,
          "used": 57374896,
          "committed": 99532800,
          "max": -1
        }
      }, {
        "name": "CodeHeap 'profiled nmethods'",
        "type": "NON_HEAP",
        "usage": {
          "init": 2555904,
          "used": 31106688,
          "committed": 43778048,
          "max": 122912768
        },
        "peak_usage": {
          "init": 2555904,
          "used": 42707456,
          "committed": 43778048,
          "max": 122912768
        }
      }, {
        "name": "Compressed Class Space",
        "type": "NON_HEAP",
        "usage": {
          "init": 0,
          "used": 9390424,
          "committed": 48205824,
          "max": 1073741824
        },
        "peak_usage": {
          "init": 0,
          "used": 9390424,
          "committed": 48205824,
          "max": 1073741824
        }
      }, {
        "name": "G1 Eden Space",
        "type": "HEAP",
        "usage": {
          "init": 27262976,
          "used": 94371840,
          "committed": 211812352,
          "max": -1
        },
        "peak_usage": {
          "init": 27262976,
          "used": 251658240,
          "committed": 327155712,
          "max": -1
        }
      }, {
        "name": "G1 Old Gen",
        "type": "HEAP",
        "usage": {
          "init": 499122176,
          "used": 37054240,
          "committed": 157286400,
          "max": 8407482368
        },
        "peak_usage": {
          "init": 499122176,
          "used": 41780392,
          "committed": 499122176,
          "max": 8407482368
        }
      }, {
        "name": "G1 Survivor Space",
        "type": "HEAP",
        "usage": {
          "init": 0,
          "used": 6291456,
          "committed": 6291456,
          "max": -1
        },
        "peak_usage": {
          "init": 0,
          "used": 18874368,
          "committed": 18874368,
          "max": -1
        }
      }, {
        "name": "CodeHeap 'non-profiled nmethods'",
        "type": "NON_HEAP",
        "usage": {
          "init": 2555904,
          "used": 33089408,
          "committed": 33095680,
          "max": 122912768
        },
        "peak_usage": {
          "init": 2555904,
          "used": 33090304,
          "committed": 33095680,
          "max": 122912768
        }
      }],
      "uptime_ms": 188760,
      "vendor": "Ubuntu",
      "threads": {
        "thread_count": 5,
        "thread_count_max": 6,
        "daemon_thread_count": 4,
        "threads_total": 105
      },
      "spec_version": "11",
      "memory": {
        "heap_usage": {
          "init": 526385152,
          "used": 137717536,
          "committed": 375390208,
          "max": 8407482368
        },
        "nonheap_usage": {
          "init": 7667712,
          "used": 132162288,
          "committed": 227168256,
          "max": -1
        },
        "pending_finalization_count": 0
      }
    },
    "jre": {
      "java_version": "11.0.9.1",
      "name": "OpenJDK Runtime Environment",
      "spec_vendor": "Oracle Corporation",
      "spec_name": "Java Platform API Specification",
      "class_path": ["target/renaissance-gpl-0.11.0.jar"],
      "home": "/usr/lib/jvm/java-11-openjdk-amd64",
      "version": "11.0.9.1+1-Ubuntu-0ubuntu1.20.04",
      "java_vendor": "Ubuntu",
      "library_path": ["/usr/java/packages/lib", "/usr/lib/x86_64-linux-gnu/jni", "/lib/x86_64-linux-gnu", "/usr/lib/x86_64-linux-gnu", "/usr/lib/jni", "/lib", "/usr/lib"],
      "spec_version": "11"
    }
  },
  "suite": {
    "git": {
      "commit_hash": "91cf51ddb8af003685eca89f96371fd2e7bb3c7e",
      "commit_date": "2020-06-05T09:40:32+0200",
      "dirty": "false"
    },
    "name": "Renaissance Benchmark Suite",
    "version": "0.11.0"
  }
}