benchmark,duration_ns,uptime_ns,vm_start_unix_ms
mnemonics,3302594201,492406609,1606370963729
mnemonics,3862761000,4127952508,1606370963729
mnemonics,3790654157,8181516486,1606370963729
mnemonics,3808267247,12200003155,1606370963729
mnemonics,3939456577,16196702014,1606370963729
mnemonics,3819759105,20333314483,1606370963729
mnemonics,3835153630,24382971890,1606370963729
mnemonics,3846743780,28409514570,1606370963729
mnemonics,3853958218,32444442481,1606370963729
mnemonics,3861366525,36495754430,1606370963729
mnemonics,3842127488,40549802583,1606370963729
mnemonics,3836895369,44580550201,1606370963729
mnemonics,3827684478,48604776185,1606370963729
mnemonics,3832361015,52618882336,1606370963729
mnemonics,3858583883,56640874597,1606370963729
mnemonics,3817107957,60693254552,1606370963729
mnemonics,3800717168,64697399656,1606370963729
mnemonics,3806714248,68686980108,1606370963729
mnemonics,3864792225,72680352300,1606370963729
mnemonics,3843689119,76736224523,1606370963729
mnemonics,3833670336,80769542891,1606370963729
mnemonics,3845758562,84786193648,1606370963729
mnemonics,3862718385,88819322022,1606370963729
mnemonics,3821290610,92871336888,1606370963729
mnemonics,3858721184,96881247957,1606370963729
mnemonics,3809997767,100928169076,1606370963729
mnemonics,3926935102,104961699594,1606370963729
mnemonics,3884497205,109081621920,1606370963729
mnemonics,3868319125,113167256884,1606370963729
mnemonics,3840150907,117225651478,1606370963729
mnemonics,3795997023,121254237273,1606370963729
mnemonics,3868037977,125267371670,1606370963729
mnemonics,3804279805,129332450798,1606370963729
mnemonics,3835062986,133320842971,1606370963729
mnemonics,3858963975,137341299977,1606370963729
mnemonics,3869493305,141391052167,1606370963729
mnemonics,3815984616,145456786584,1606370963729
mnemonics,3796371497,149460482028,1606370963729
mnemonics,3804886054,153442277495,1606370963729
mnemonics,3779215800,157430764190,1606370963729
mnemonics,3810681328,161395273437,1606370963729
mnemonics,3824813839,165392375079,1606370963729
mnemonics,3849329221,169403131043,1606370963729
mnemonics,3914708909,173446632674,1606370963729
mnemonics,3850946569,177556686340,1606370963729
mnemonics,3829720870,181595123002,1606370963729
mnemonics,3834888960,185616235592,1606370963729
mnemonics,3838716393,189645145487,1606370963729
mnemonics,3860901453,193674019432,1606370963729
mnemonics,3932558725,197738652668,1606370963729
mnemonics,3900463781,201871287281,1606370963729
mnemonics,3841493698,205967947907,1606370963729
mnemonics,3822900656,209999941871,1606370963729
mnemonics,3844549888,214021999143,1606370963729
mnemonics,3832210329,218056492437,1606370963729
mnemonics,3797230300,222077142306,1606370963729
mnemonics,3916277386,226057980157,1606370963729
mnemonics,3939096143,230171391782,1606370963729
mnemonics,3832585692,234304773776,1606370963729
mnemonics,3900427427,238297956770,1606370963729
mnemonics,3836034790,242388191757,1606370963729
mnemonics,3801073508,246411919078,1606370963729
mnemonics,3799592467,250420275761,1606370963729
mnemonics,3824375396,254406348266,1606370963729
mnemonics,3887389455,258422745274,1606370963729
mnemonics,3856202865,262502862757,1606370963729
mnemonics,3908691123,266546999561,1606370963729
mnemonics,3845836705,270659066320,1606370963729
mnemonics,3825223851,274692026574,1606370963729
mnemonics,3815063424,278705107206,1606370963729
mnemonics,3806861585,282706303842,1606370963729
mnemonics,3839027808,286694904249,1606370963729
mnemonics,3811013078,290727666230,1606370963729
mnemonics,3847671764,294736261772,1606370963729
mnemonics,3811498974,298771443750,1606370963729
mnemonics,3838067456,302770765855,1606370963729
mnemonics,3840562465,306773632956,1606370963729
mnemonics,3799801413,310801277056,1606370963729
mnemonics,3854827200,314790178798,1606370963729
mnemonics,3840044306,318846116494,1606370963729
mnemonics,3805786215,322873821560,1606370963729
mnemonics,3852539848,326866872736,1606370963729
mnemonics,3870730230,330908286632,1606370963729
mnemonics,3869537788,334970844480,1606370963729
mnemonics,3878458361,339031980680,1606370963729
mnemonics,3848803296,343104834905,1606370963729
mnemonics,3838115486,347143849140,1606370963729
mnemonics,3832371210,351184071708,1606370963729
mnemonics,3815078456,355228645308,1606370963729
mnemonics,3817437967,359243929729,1606370963729
mnemonics,3804401547,363245496687,1606370963729
mnemonics,3841577300,367234656295,1606370963729
mnemonics,3802808416,371267572981,1606370963729
mnemonics,3844589366,375285682305,1606370963729
mnemonics,3873437171,379319786165,1606370963729
mnemonics,3815140990,383381983204,1606370963729
mnemonics,3838937426,387358162347,1606370963729
mnemonics,3957930830,391387113599,1606370963729
mnemonics,3882281401,395541718133,1606370963729
mnemonics,3811845323,399612471793,1606370963729
