benchmark,duration_ns,uptime_ns,vm_start_unix_ms
als,6375360094,8629995622,1606324616930
als,3469102541,15087478474,1606324616930
als,3226044998,18606757061,1606324616930
als,3140418123,21884514403,1606324616930
als,3161406826,25090986290,1606324616930
als,3037398450,28303017179,1606324616930
als,2925284078,31391218736,1606324616930
als,2949247460,34370689604,1606324616930
als,3047193552,37384875396,1606324616930
als,3029290615,40486225237,1606324616930
als,3078056941,43570876024,1606324616930
als,2842118743,46704262176,1606324616930
als,3753667184,49600987756,1606324616930
als,3491128283,53410515540,1606324616930
als,3517646227,56958675555,1606324616930
als,3000785772,60531558850,1606324616930
als,3560101220,63588711011,1606324616930
als,3039143310,67205129159,1606324616930
als,3665260709,70302216838,1606324616930
als,2891003796,74026176129,1606324616930
als,3257491358,76973947981,1606324616930
als,3643520282,80289115012,1606324616930
als,3669499265,83985855263,1606324616930
als,3510813424,87709178858,1606324616930
als,3519685058,91274613087,1606324616930
als,3031804175,94848325828,1606324616930
als,3440388766,97934285929,1606324616930
als,3604164335,101428965843,1606324616930
als,3687084696,105088548277,1606324616930
als,3568700233,108831883628,1606324616930
als,3619281419,112458373774,1606324616930
als,3493169753,116133973359,1606324616930
als,3569472431,119682526919,1606324616930
als,3531145790,123309277832,1606324616930
als,3307048122,126896267498,1606324616930
als,3563455461,130259008653,1606324616930
als,3567183479,133878920221,1606324616930
als,3598824458,137502318882,1606324616930
als,3504035163,141157163438,1606324616930
als,3466083412,144717414443,1606324616930
als,3559846154,148239422871,1606324616930
als,3611402776,151855094589,1606324616930
als,3609645042,155522695946,1606324616930
als,3538117602,159188688281,1606324616930
als,2715357983,162782637817,1606324616930
als,3397347421,165554821483,1606324616930
als,3465356652,169007103081,1606324616930
als,3498919088,172528750675,1606324616930
als,3592442395,176083205450,1606324616930
als,3532211478,179731804064,1606324616930
als,3625983208,183319946596,1606324616930
als,3557083140,187001612514,1606324616930
als,3609889695,190616146257,1606324616930
als,3499837591,194282053917,1606324616930
als,3035050558,197837599887,1606324616930
als,3585224793,200929141409,1606324616930
als,3435314357,204571718152,1606324616930
als,3544987692,208063097175,1606324616930
als,3493446611,211664061951,1606324616930
als,3648647434,215223507303,1606324616930
als,3629455326,218928342905,1606324616930
als,3484048024,222614220643,1606324616930
als,3560779336,226154212170,1606324616930
als,3678840365,229772067889,1606324616930
als,3391439719,233506872997,1606324616930
als,3565200097,236954470783,1606324616930
als,3596646004,240576403157,1606324616930
als,2990677159,244229084244,1606324616930
als,3444866279,247276259905,1606324616930
als,3597386479,250777052205,1606324616930
als,2812199693,254430435417,1606324616930
als,3628483540,257297577183,1606324616930
als,3584418830,260982653927,1606324616930
als,3550790846,264623523367,1606324616930
als,3577465892,268232240841,1606324616930
als,3404166999,271867011279,1606324616930
als,3544661103,275327415115,1606324616930
als,3489540270,278927194693,1606324616930
als,3480188447,282472691303,1606324616930
als,3349625761,286009196358,1606324616930
als,3631495053,289415099875,1606324616930
als,3508076540,293102711971,1606324616930
als,3412873261,296666966585,1606324616930
als,3645369064,300136130782,1606324616930
als,3460476069,303837529587,1606324616930
als,3597584798,307354205801,1606324616930
als,3487912362,311008600744,1606324616930
als,3601578396,314551822753,1606324616930
als,3644000465,318209697354,1606324616930
als,3474224993,321910161067,1606324616930
als,3730875171,325441835796,1606324616930
als,3580319467,329227823539,1606324616930
als,3439955192,332864203746,1606324616930
als,3395043831,336360618116,1606324616930
als,3580885652,339811570575,1606324616930
als,3576041905,343448310483,1606324616930
als,3455421459,347081348225,1606324616930
als,3686996386,350592835884,1606324616930
als,3622276167,354336747046,1606324616930
als,3520703626,358015371758,1606324616930
