benchmark,duration_ns,uptime_ns,vm_start_unix_ms
dotty,7838328305,918708941,1606325781815
dotty,3508395853,8799560253,1606325781815
dotty,3013652057,12359280298,1606325781815
dotty,3012438513,15422773349,1606325781815
dotty,2793450000,18486214805,1606325781815
dotty,2627114851,21338365335,1606325781815
dotty,2567339352,24016916447,1606325781815
dotty,2536012915,26642393423,1606325781815
dotty,2471553497,29241148913,1606325781815
dotty,2334483873,31771022516,1606325781815
dotty,2289341157,34161324042,1606325781815
dotty,2273454729,36506121043,1606325781815
dotty,2285898033,38837902404,1606325781815
dotty,2241101820,41190242307,1606325781815
dotty,2198414833,43490100208,1606325781815
dotty,2237332843,45748502181,1606325781815
dotty,2212721467,48043352594,1606325781815
dotty,2168575077,50319789949,1606325781815
dotty,2177630592,52549700216,1606325781815
dotty,2157424006,54782670711,1606325781815
dotty,2132115708,57000726598,1606325781815
dotty,2143378776,59190935965,1606325781815
dotty,2122786683,61394164430,1606325781815
dotty,2128784556,63576922755,1606325781815
dotty,2106732849,65768623543,1606325781815
dotty,2113129372,67939159405,1606325781815
dotty,2136771340,70115874283,1606325781815
dotty,2064954502,72317083089,1606325781815
dotty,2076946241,74446297292,1606325781815
dotty,2136542656,76581467508,1606325781815
dotty,2097573105,78783005811,1606325781815
dotty,2105458374,80943331238,1606325781815
dotty,2075314367,83109683998,1606325781815
dotty,2076180246,85246094575,1606325781815
dotty,2060538790,87386767082,1606325781815
dotty,2120589332,89506152417,1606325781815
dotty,2063067491,91691795942,1606325781815
dotty,2065721745,93818795617,1606325781815
dotty,2055405088,95942882392,1606325781815
dotty,2040323457,98060698957,1606325781815
dotty,2046766383,100166160315,1606325781815
dotty,2036031727,102273599341,1606325781815
dotty,2069941330,104367934463,1606325781815
dotty,2059316817,106501941145,1606325781815
dotty,2054194336,108625939938,1606325781815
dotty,2048165724,110747298307,1606325781815
dotty,2023894206,112861524829,1606325781815
dotty,2033666882,114949441972,1606325781815
dotty,2019922166,117043335681,1606325781815
dotty,2066140301,119126458703,1606325781815
dotty,2047431277,121257465679,1606325781815
dotty,2049363994,123370483767,1606325781815
dotty,2012710525,125484950001,1606325781815
dotty,2055783273,127559449265,1606325781815
dotty,2066390977,129679310602,1606325781815
dotty,2033125540,131807190330,1606325781815
dotty,2035569051,133904772300,1606325781815
dotty,2033357591,136006683946,1606325781815
dotty,2024507626,138106909583,1606325781815
dotty,2016818668,140196607464,1606325781815
dotty,2026227124,142279428036,1606325781815
dotty,2046701033,144365937697,1606325781815
dotty,2056016547,146477262509,1606325781815
dotty,2019571019,148598357525,1606325781815
dotty,2035410868,150684991659,1606325781815
dotty,2033373933,152785853794,1606325781815
dotty,2043362964,154884545149,1606325781815
dotty,2020708353,156993496032,1606325781815
dotty,2029997487,159086046030,1606325781815
dotty,2037626402,161180771393,1606325781815
dotty,2013203140,163285881196,1606325781815
dotty,2043624723,165363157825,1606325781815
dotty,2031295577,167471862530,1606325781815
dotty,2011440166,169567278686,1606325781815
dotty,2015693892,171648113233,1606325781815
dotty,2035201906,173728593577,1606325781815
dotty,2021444528,175826040465,1606325781815
dotty,2009732969,177910956283,1606325781815
dotty,1986170392,179987186573,1606325781815
dotty,2052742729,182039164089,1606325781815
dotty,2021361530,184158408077,1606325781815
dotty,2031678818,186242132268,1606325781815
dotty,1987267354,188338763597,1606325781815
dotty,2033233947,190391453902,1606325781815
dotty,1999900843,192488094572,1606325781815
dotty,2031408157,194547884555,1606325781815
dotty,2012584213,196640518773,1606325781815
dotty,1975230428,198717209474,1606325781815
dotty,2049317786,200757445290,1606325781815
dotty,1997373920,202883757912,1606325781815
dotty,2009645094,204949551888,1606325781815
dotty,2060456145,207025396695,1606325781815
dotty,2005170174,209155700228,1606325781815
dotty,2001783032,211227849562,1606325781815
dotty,2013628186,213297064443,1606325781815
dotty,2008166746,215376225594,1606325781815
dotty,1993787470,217450873886,1606325781815
dotty,1990683136,219511675274,1606325781815
dotty,2006523672,221569824898,1606325781815
dotty,2010752367,223644882372,1606325781815
