{
  "benchmarks": ["gauss-mix"],
  "format_version": 5,
  "data": {
    "gauss-mix": {
      "results": [{
        "duration_ns": 2778722719,
        "uptime_ns": 3013063743
      }, {
        "duration_ns": 1361233128,
        "uptime_ns": 5826069583
      }, {
        "duration_ns": 1184588462,
        "uptime_ns": 7215247675
      }, {
        "duration_ns": 1166688309,
        "uptime_ns": 8430802901
      }, {
        "duration_ns": 1127125577,
        "uptime_ns": 9627618671
      }, {
        "duration_ns": 1140872436,
        "uptime_ns": 10784377426
      }, {
        "duration_ns": 1106600126,
        "uptime_ns": 11953857833
      }, {
        "duration_ns": 1118146678,
        "uptime_ns": 13093040053
      }, {
        "duration_ns": 1076490885,
        "uptime_ns": 14242976484
      }, {
        "duration_ns": 1080694765,
        "uptime_ns": 15353564462
      }, {
        "duration_ns": 1062405785,
        "uptime_ns": 16465988818
      }, {
        "duration_ns": 1081278159,
        "uptime_ns": 17561676745
      }, {
        "duration_ns": 1085685443,
        "uptime_ns": 18677444366
      }, {
        "duration_ns": 1067672181,
        "uptime_ns": 19798743711
      }, {
        "duration_ns": 1079436098,
        "uptime_ns": 20899756834
      }, {
        "duration_ns": 1100010896,
        "uptime_ns": 22013600742
      }, {
        "duration_ns": 1067942307,
        "uptime_ns": 23147930375
      }, {
        "duration_ns": 1053275264,
        "uptime_ns": 24250736943
      }, {
        "duration_ns": 1082572401,
        "uptime_ns": 25341131186
      }, {
        "duration_ns": 1057910275,
        "uptime_ns": 26460985951
      }, {
        "duration_ns": 1058447008,
        "uptime_ns": 27556039336
      }, {
        "duration_ns": 1050417679,
        "uptime_ns": 28651204122
      }, {
        "duration_ns": 1068342676,
        "uptime_ns": 29739714715
      }, {
        "duration_ns": 1048047617,
        "uptime_ns": 30845138938
      }, {
        "duration_ns": 1050653095,
        "uptime_ns": 31929168422
      }, {
        "duration_ns": 1053443858,
        "uptime_ns": 33016358230
      }, {
        "duration_ns": 1068377438,
        "uptime_ns": 34107030207
      }, {
        "duration_ns": 1062396842,
        "uptime_ns": 35211191607
      }, {
        "duration_ns": 1065818912,
        "uptime_ns": 36311647009
      }, {
        "duration_ns": 1052926796,
        "uptime_ns": 37415039698
      }, {
        "duration_ns": 1048470220,
        "uptime_ns": 38506638550
      }, {
        "duration_ns": 1064130317,
        "uptime_ns": 39592992705
      }, {
        "duration_ns": 1056480959,
        "uptime_ns": 40693200890
      }, {
        "duration_ns": 1039180840,
        "uptime_ns": 41787720036
      }, {
        "duration_ns": 1052239949,
        "uptime_ns": 42866826343
      }, {
        "duration_ns": 1047316763,
        "uptime_ns": 43957972682
      }, {
        "duration_ns": 1059782986,
        "uptime_ns": 45043912847
      }, {
        "duration_ns": 1044429059,
        "uptime_ns": 46143455454
      }, {
        "duration_ns": 1046087552,
        "uptime_ns": 47228209988
      }, {
        "duration_ns": 1053077304,
        "uptime_ns": 48313980019
      }, {
        "duration_ns": 1056604976,
        "uptime_ns": 49405814177
      }, {
        "duration_ns": 1046336120,
        "uptime_ns": 50499409001
      }, {
        "duration_ns": 1066817840,
        "uptime_ns": 51582722238
      }, {
        "duration_ns": 1040266334,
        "uptime_ns": 52686460204
      }, {
        "duration_ns": 1071637006,
        "uptime_ns": 53765972053
      }, {
        "duration_ns": 1047047541,
        "uptime_ns": 54872592504
      }, {
        "duration_ns": 1060548861,
        "uptime_ns": 55958490219
      }, {
        "duration_ns": 1041535700,
        "uptime_ns": 57058210982
      }, {
        "duration_ns": 1042435473,
        "uptime_ns": 58139187461
      }, {
        "duration_ns": 1052841673,
        "uptime_ns": 59221347521
      }, {
        "duration_ns": 1061092847,
        "uptime_ns": 60312535674
      }, {
        "duration_ns": 1036575085,
        "uptime_ns": 61409560819
      }, {
        "duration_ns": 1051148842,
        "uptime_ns": 62486385593
      }, {
        "duration_ns": 1035712654,
        "uptime_ns": 63575951546
      }, {
        "duration_ns": 1038199800,
        "uptime_ns": 64649489055
      }, {
        "duration_ns": 1035192873,
        "uptime_ns": 65727999184
      }, {
        "duration_ns": 1052266244,
        "uptime_ns": 66802156351
      }, {
        "duration_ns": 1036406826,
        "uptime_ns": 67893623345
      }, {
        "duration_ns": 1033702018,
        "uptime_ns": 68971094808
      }, {
        "duration_ns": 1040261408,
        "uptime_ns": 70042921498
      }, {
        "duration_ns": 1072678763,
        "uptime_ns": 71119938642
      }, {
        "duration_ns": 1076165053,
        "uptime_ns": 72232817189
      }, {
        "duration_ns": 1043496254,
        "uptime_ns": 73351053234
      }, {
        "duration_ns": 1043639968,
        "uptime_ns": 74434993908
      }, {
        "duration_ns": 1037115202,
        "uptime_ns": 75520551744
      }, {
        "duration_ns": 1053288199,
        "uptime_ns": 76595711693
      }, {
        "duration_ns": 1035483523,
        "uptime_ns": 77690160819
      }, {
        "duration_ns": 1033699948,
        "uptime_ns": 78764293824
      }, {
        "duration_ns": 1044562547,
        "uptime_ns": 79835811043
      }, {
        "duration_ns": 1024595677,
        "uptime_ns": 80918668623
      }, {
        "duration_ns": 1045150775,
        "uptime_ns": 81982157788
      }, {
        "duration_ns": 1022606329,
        "uptime_ns": 83065063181
      }, {
        "duration_ns": 1034267429,
        "uptime_ns": 84126355492
      }, {
        "duration_ns": 1054076648,
        "uptime_ns": 85198873052
      }, {
        "duration_ns": 1038400228,
        "uptime_ns": 86289071876
      }, {
        "duration_ns": 1041701904,
        "uptime_ns": 87365050996
      }, {
        "duration_ns": 1025849350,
        "uptime_ns": 88446705943
      }, {
        "duration_ns": 1040157267,
        "uptime_ns": 89511601352
      }, {
        "duration_ns": 1049330683,
        "uptime_ns": 90590017869
      }, {
        "duration_ns": 1031378186,
        "uptime_ns": 91678421191
      }, {
        "duration_ns": 1060218884,
        "uptime_ns": 92748074885
      }, {
        "duration_ns": 1036478278,
        "uptime_ns": 93848689482
      }, {
        "duration_ns": 1040100083,
        "uptime_ns": 94924775262
      }, {
        "duration_ns": 1039184022,
        "uptime_ns": 96003299206
      }, {
        "duration_ns": 1061521923,
        "uptime_ns": 97082333125
      }, {
        "duration_ns": 1037410779,
        "uptime_ns": 98184994598
      }, {
        "duration_ns": 1046129483,
        "uptime_ns": 99260389346
      }, {
        "duration_ns": 1031650635,
        "uptime_ns": 100344521499
      }, {
        "duration_ns": 1054251614,
        "uptime_ns": 101414781388
      }, {
        "duration_ns": 1062179937,
        "uptime_ns": 102507424951
      }, {
        "duration_ns": 1055496887,
        "uptime_ns": 103608908699
      }, {
        "duration_ns": 1039232614,
        "uptime_ns": 104702872907
      }, {
        "duration_ns": 1048360649,
        "uptime_ns": 105780782236
      }, {
        "duration_ns": 1051009157,
        "uptime_ns": 106866527367
      }, {
        "duration_ns": 1038393688,
        "uptime_ns": 107955706846
      }, {
        "duration_ns": 1040159535,
        "uptime_ns": 109031960527
      }, {
        "duration_ns": 1053399793,
        "uptime_ns": 110109492833
      }, {
        "duration_ns": 1024860319,
        "uptime_ns": 111201791246
      }, {
        "duration_ns": 1041326520,
        "uptime_ns": 112263504782
      }, {
        "duration_ns": 1038273304,
        "uptime_ns": 113341836682
      }],
      "termination": "normal"
    }
  },
  "environment": {
    "os": {
      "virt_mem_committed": 10287427584,
      "name": "Linux",
      "open_fd_count": 260,
      "phys_mem_free": 10465710080,
      "swap_space_total": 0,
      "available_processors": 8,
      "phys_mem_total": 16596082688,
      "version": "5.4.0-1029-aws",
      "arch": "amd64",
      "max_fd_count": 1048576,
      "swap_space_free": 0
    },
    "vm": {
      "termination": "normal",
      "name": "OpenJDK 64-Bit Server VM",
      "spec_vendor": "Oracle Corporation",
      "spec_name": "Java Virtual Machine Specification",
      "classloading": {
        "class_count": 9295,
        "classes_total": 9503
      },
      "compiler": {
        "name": "HotSpot 64-Bit Tiered Compilers",
        "compilation_time_ms": 30832
      },
      "start_iso": "2020-11-25T17:59:22.410Z",
      "collectors": [{
        "name": "G1 Young Generation",
        "collection_count": 1563,
        "collection_time_ms": 1769
      }, {
        "name": "G1 Old Generation",
        "collection_count": 100,
        "collection_time_ms": 3624
      }],
      "start_unix_ms": 1606327162410,
      "version": "11.0.9.1+1-Ubuntu-0ubuntu1.18.04",
      "mode": "mixed mode, sharing",
      "args": [],
      "pools": [{
        "name": "CodeHeap 'non-nmethods'",
        "type": "NON_HEAP",
        "usage": {
          "init": 2555904,
          "used": 1952640,
          "committed": 2555904,
          "max": 5836800
        },
        "peak_usage": {
          "init": 2555904,
          "used": 2016640,
          "committed": 2555904,
          "max": 5836800
        }
      }, {
        "name": "Metaspace",
        "type": "NON_HEAP",
        "usage": {
          "init": 0,
          "used": 61656648,
          "committed": 63225856,
          "max": -1
        },
        "peak_usage": {
          "init": 0,
          "used": 61656648,
          "committed": 63225856,
          "max": -1
        }
      }, {
        "name": "CodeHeap 'profiled nmethods'",
        "type": "NON_HEAP",
        "usage": {
          "init": 2555904,
          "used": 13352192,
          "committed": 20054016,
          "max": 122908672
        },
        "peak_usage": {
          "init": 2555904,
          "used": 19846528,
          "committed": 20054016,
          "max": 122908672
        }
      }, {
        "name": "Compressed Class Space",
        "type": "NON_HEAP",
        "usage": {
          "init": 0,
          "used": 7726344,
          "committed": 8257536,
          "max": 1073741824
        },
        "peak_usage": {
          "init": 0,
          "used": 7726344,
          "committed": 8257536,
          "max": 1073741824
        }
      }, {
        "name": "G1 Eden Space",
        "type": "HEAP",
        "usage": {
          "init": 27262976,
          "used": 26214400,
          "committed": 201326592,
          "max": -1
        },
        "peak_usage": {
          "init": 27262976,
          "used": 201326592,
          "committed": 211812352,
          "max": -1
        }
      }, {
        "name": "G1 Old Gen",
        "type": "HEAP",
        "usage": {
          "init": 232783872,
          "used": 41056648,
          "committed": 119537664,
          "max": 4150263808
        },
        "peak_usage": {
          "init": 232783872,
          "used": 61909880,
          "committed": 232783872,
          "max": 4150263808
        }
      }, {
        "name": "G1 Survivor Space",
        "type": "HEAP",
        "usage": {
          "init": 0,
          "used": 2097152,
          "committed": 2097152,
          "max": -1
        },
        "peak_usage": {
          "init": 0,
          "used": 14680064,
          "committed": 14680064,
          "max": -1
        }
      }, {
        "name": "CodeHeap 'non-profiled nmethods'",
        "type": "NON_HEAP",
        "usage": {
          "init": 2555904,
          "used": 8835968,
          "committed": 8978432,
          "max": 122912768
        },
        "peak_usage": {
          "init": 2555904,
          "used": 8835968,
          "committed": 8978432,
          "max": 122912768
        }
      }],
      "uptime_ms": 114469,
      "vendor": "Ubuntu",
      "threads": {
        "thread_count": 37,
        "thread_count_max": 51,
        "daemon_thread_count": 36,
        "threads_total": 183
      },
      "spec_version": "11",
      "memory": {
        "heap_usage": {
          "init": 260046848,
          "used": 69368200,
          "committed": 322961408,
          "max": 4150263808
        },
        "nonheap_usage": {
          "init": 7667712,
          "used": 93510056,
          "committed": 103071744,
          "max": -1
        },
        "pending_finalization_count": 0
      }
    },
    "jre": {
      "java_version": "11.0.9.1",
      "name": "OpenJDK Runtime Environment",
      "spec_vendor": "Oracle Corporation",
      "spec_name": "Java Platform API Specification",
      "class_path": ["target/renaissance-gpl-0.11.0.jar"],
      "home": "/usr/lib/jvm/java-11-openjdk-amd64",
      "version": "11.0.9.1+1-Ubuntu-0ubuntu1.18.04",
      "java_vendor": "Ubuntu",
      "library_path": ["/usr/java/packages/lib", "/usr/lib/x86_64-linux-gnu/jni", "/lib/x86_64-linux-gnu", "/usr/lib/x86_64-linux-gnu", "/usr/lib/jni", "/lib", "/usr/lib"],
      "spec_version": "11"
    }
  },
  "suite": {
    "git": {
      "commit_hash": null,
      "commit_date": null,
      "dirty": "true"
    },
    "name": null,
    "version": null
  }
}