{
    "id": "4d5195a6-ea40-45cd-b6c5-85ccce828f9f",
    "hardwareInfo": {
        "modelName": "Amazon EC2",
        "modelIdentifier": "c5ad.2xlarge",
        "processorName": "AMD EPYC 7R32 3.3 GHz",
        "processorSpeed": 3.3,
        "numberProcessors": 1,
        "numberPhysicalCores": 4,
        "numberTotalCores": 8,
        "memoryGB": 15.0
    }
}
