benchmark,duration_ns,uptime_ns,vm_start_unix_ms
scala-kmeans,527965683,962974977,1606332943801
scala-kmeans,392743656,1526891680,1606332943801
scala-kmeans,390894012,1943412478,1606332943801
scala-kmeans,389792155,2363197763,1606332943801
scala-kmeans,387768958,2775279845,1606332943801
scala-kmeans,398298956,3185970615,1606332943801
scala-kmeans,387682895,3604823586,1606332943801
scala-kmeans,387201493,4018539917,1606332943801
scala-kmeans,387293125,4428793705,1606332943801
scala-kmeans,387347916,4838508930,1606332943801
scala-kmeans,385500422,5255169799,1606332943801
scala-kmeans,387809347,5670341082,1606332943801
scala-kmeans,397145127,6080606470,1606332943801
scala-kmeans,387818567,6498197680,1606332943801
scala-kmeans,387036308,6909004410,1606332943801
scala-kmeans,387568089,7318836447,1606332943801
scala-kmeans,386560596,7729180584,1606332943801
scala-kmeans,387529379,8138388745,1606332943801
scala-kmeans,386677158,8548971499,1606332943801
scala-kmeans,387410036,8958276791,1606332943801
scala-kmeans,387041037,9368237639,1606332943801
scala-kmeans,387599510,9777984962,1606332943801
scala-kmeans,398189219,10188206986,1606332943801
scala-kmeans,386863461,10608768394,1606332943801
scala-kmeans,387275221,11025095881,1606332943801
scala-kmeans,385597841,11434609717,1606332943801
scala-kmeans,387606818,11843183931,1606332943801
scala-kmeans,385975459,12254103810,1606332943801
scala-kmeans,387641899,12662584351,1606332943801
scala-kmeans,386729036,13073014508,1606332943801
scala-kmeans,386831988,13482648926,1606332943801
scala-kmeans,387048754,13892445877,1606332943801
scala-kmeans,387132905,14302671208,1606332943801
scala-kmeans,389262686,14718835839,1606332943801
scala-kmeans,389082931,15138897042,1606332943801
scala-kmeans,389426449,15549652455,1606332943801
scala-kmeans,386472409,15960799907,1606332943801
scala-kmeans,386635283,16369255275,1606332943801
scala-kmeans,386855887,16784815531,1606332943801
scala-kmeans,391664821,17194893447,1606332943801
scala-kmeans,386459677,17609390897,1606332943801
scala-kmeans,397201651,18019108254,1606332943801
scala-kmeans,387699246,18438549370,1606332943801
scala-kmeans,385837543,18849831463,1606332943801
scala-kmeans,386333314,19257728266,1606332943801
scala-kmeans,386530728,19666399758,1606332943801
scala-kmeans,387478060,20081674544,1606332943801
scala-kmeans,387624734,20491504172,1606332943801
scala-kmeans,386333193,20897736655,1606332943801
scala-kmeans,386477895,21306306003,1606332943801
scala-kmeans,385952383,21714951972,1606332943801
scala-kmeans,385811809,22122873694,1606332943801
scala-kmeans,385960034,22531689626,1606332943801
scala-kmeans,397023654,22940585921,1606332943801
scala-kmeans,386279370,23359788649,1606332943801
scala-kmeans,388570184,23768727983,1606332943801
scala-kmeans,363581923,24185680898,1606332943801
scala-kmeans,362483257,24571915636,1606332943801
scala-kmeans,362686583,24956474774,1606332943801
scala-kmeans,361922024,25342067747,1606332943801
scala-kmeans,361972315,25726814680,1606332943801
scala-kmeans,362310983,26111847019,1606332943801
scala-kmeans,372826210,26496276454,1606332943801
scala-kmeans,361378421,26891094423,1606332943801
scala-kmeans,362535797,27275999529,1606332943801
scala-kmeans,362891536,27661704983,1606332943801
scala-kmeans,362737022,28047171201,1606332943801
scala-kmeans,361979783,28432153328,1606332943801
scala-kmeans,362674350,28816389766,1606332943801
scala-kmeans,362962646,29198076285,1606332943801
scala-kmeans,362458945,29583173533,1606332943801
scala-kmeans,363394436,29974330485,1606332943801
scala-kmeans,362145647,30360559730,1606332943801
scala-kmeans,361352808,30745074144,1606332943801
scala-kmeans,361930891,31128486122,1606332943801
scala-kmeans,361080901,31512488064,1606332943801
scala-kmeans,361776797,31896248570,1606332943801
scala-kmeans,362610186,32280427185,1606332943801
scala-kmeans,372782587,32666258379,1606332943801
scala-kmeans,362898913,33060432550,1606332943801
scala-kmeans,362117344,33446009598,1606332943801
scala-kmeans,362378480,33832293172,1606332943801
scala-kmeans,362103553,34217328987,1606332943801
scala-kmeans,362486392,34601966542,1606332943801
scala-kmeans,372035727,34986955355,1606332943801
scala-kmeans,361982730,35380810747,1606332943801
scala-kmeans,362403420,35766962517,1606332943801
scala-kmeans,362580573,36152499632,1606332943801
scala-kmeans,362373429,36537993686,1606332943801
scala-kmeans,362356958,36922390394,1606332943801
scala-kmeans,362063291,37307091559,1606332943801
scala-kmeans,362587843,37691765253,1606332943801
scala-kmeans,364966219,38076484428,1606332943801
scala-kmeans,362327856,38465230058,1606332943801
scala-kmeans,361795695,38850103025,1606332943801
scala-kmeans,361176618,39234763389,1606332943801
scala-kmeans,362091671,39618372116,1606332943801
scala-kmeans,361501206,40002449585,1606332943801
scala-kmeans,361466535,40386331539,1606332943801
scala-kmeans,362066649,40770316045,1606332943801
