benchmark,duration_ns,uptime_ns,vm_start_unix_ms
db-shootout,7533827676,8772361815,1606325038353
db-shootout,6370529974,16336650816,1606325038353
db-shootout,5468430390,22745713557,1606325038353
db-shootout,5500363694,28249864814,1606325038353
db-shootout,5453274728,33784092297,1606325038353
db-shootout,5568792585,39272968770,1606325038353
db-shootout,5603372605,44876531933,1606325038353
db-shootout,5467830368,50516313104,1606325038353
db-shootout,5465111283,56012868602,1606325038353
db-shootout,5345798094,61507619773,1606325038353
db-shootout,5464935694,66881484704,1606325038353
db-shootout,5488200645,72375984450,1606325038353
db-shootout,5453686079,77895677233,1606325038353
db-shootout,5449753101,83382397862,1606325038353
db-shootout,5392379838,88861554431,1606325038353
db-shootout,5396822812,94285003422,1606325038353
db-shootout,5277446526,99708244311,1606325038353
db-shootout,5450090794,105015808797,1606325038353
db-shootout,9274881349,110499317146,1606325038353
db-shootout,5424328605,119800190771,1606325038353
db-shootout,5441204607,125261043027,1606325038353
db-shootout,5322608653,130730950821,1606325038353
db-shootout,5362804824,136081927178,1606325038353
db-shootout,5381834946,141474483240,1606325038353
db-shootout,5470801765,146883219119,1606325038353
db-shootout,5538547883,152386477908,1606325038353
db-shootout,5356170418,157952010412,1606325038353
db-shootout,6026533128,163339410141,1606325038353
db-shootout,5243147906,169394127691,1606325038353
db-shootout,5538042711,174668101266,1606325038353
db-shootout,5451043687,180237979629,1606325038353
db-shootout,5448041218,185726568122,1606325038353
db-shootout,5396385088,191209436592,1606325038353
db-shootout,5320981242,196638183075,1606325038353
db-shootout,5431075480,201988460406,1606325038353
db-shootout,5375486099,207448984869,1606325038353
db-shootout,7768201175,212859112857,1606325038353
db-shootout,5347489410,220655691955,1606325038353
db-shootout,5321682384,226035154625,1606325038353
db-shootout,5446490578,231389019799,1606325038353
db-shootout,5493211734,236864778947,1606325038353
db-shootout,5340815445,242396973563,1606325038353
db-shootout,5340655069,247771193187,1606325038353
db-shootout,5342238865,253142296925,1606325038353
db-shootout,5152602993,258514223938,1606325038353
db-shootout,5471626116,263694777187,1606325038353
db-shootout,5502684052,269199492101,1606325038353
db-shootout,5212085370,274733317766,1606325038353
db-shootout,5400977689,279980577427,1606325038353
db-shootout,5391239119,285415881675,1606325038353
db-shootout,5290030746,290841782040,1606325038353
db-shootout,4979769553,296158930561,1606325038353
db-shootout,5479090311,301166858702,1606325038353
db-shootout,5346770741,306680377317,1606325038353
db-shootout,5394496926,312059355490,1606325038353
db-shootout,5355290832,317486636017,1606325038353
db-shootout,5224795539,322877328751,1606325038353
db-shootout,8411190980,328135332309,1606325038353
db-shootout,5472733926,336581649284,1606325038353
db-shootout,5306817374,342089588910,1606325038353
db-shootout,5405635051,347435269625,1606325038353
db-shootout,5309450347,352872397662,1606325038353
db-shootout,5111026085,358215017875,1606325038353
db-shootout,5413225748,363358487590,1606325038353
db-shootout,5419658917,368798450177,1606325038353
db-shootout,5452673645,374246651184,1606325038353
db-shootout,5394272968,379731738409,1606325038353
db-shootout,5301272459,385161451659,1606325038353
db-shootout,5193012077,390495437057,1606325038353
db-shootout,5413041566,395721868115,1606325038353
db-shootout,5506483591,401168904908,1606325038353
db-shootout,5403058806,406703219846,1606325038353
db-shootout,5473538788,412141328135,1606325038353
db-shootout,5416817075,417647531951,1606325038353
db-shootout,5103880524,423098520942,1606325038353
db-shootout,5326949748,428235118021,1606325038353
db-shootout,5497352936,433592322999,1606325038353
db-shootout,5385745861,439120270552,1606325038353
db-shootout,5540879672,444540621701,1606325038353
db-shootout,5424295681,450115761390,1606325038353
db-shootout,5505694202,455573696779,1606325038353
db-shootout,5315739098,461107651232,1606325038353
db-shootout,5918345988,466455307640,1606325038353
db-shootout,5300919187,472396116133,1606325038353
db-shootout,5806349167,477725515275,1606325038353
db-shootout,5432450648,483558557074,1606325038353
db-shootout,5427911127,489022786283,1606325038353
db-shootout,5377106463,494487125233,1606325038353
db-shootout,5495919725,499896770285,1606325038353
db-shootout,5381325118,505423633371,1606325038353
db-shootout,5431840067,510836979695,1606325038353
db-shootout,5350669013,516300018720,1606325038353
db-shootout,5099365641,521681734349,1606325038353
db-shootout,5439647917,526815881533,1606325038353
db-shootout,5478698046,532290656966,1606325038353
db-shootout,5483250532,537802685652,1606325038353
db-shootout,5501857930,543320273794,1606325038353
db-shootout,5038769880,548855377603,1606325038353
db-shootout,5094664487,553922919915,1606325038353
db-shootout,5399994765,559047004509,1606325038353
