{
  "benchmarks": ["gauss-mix"],
  "format_version": 5,
  "data": {
    "gauss-mix": {
      "results": [{
        "duration_ns": 2674051368,
        "uptime_ns": 3030771157
      }, {
        "duration_ns": 1282219917,
        "uptime_ns": 5734280819
      }, {
        "duration_ns": 1119842177,
        "uptime_ns": 7044051765
      }, {
        "duration_ns": 1128369778,
        "uptime_ns": 8191163310
      }, {
        "duration_ns": 1072120938,
        "uptime_ns": 9348522924
      }, {
        "duration_ns": 1073456244,
        "uptime_ns": 10453312063
      }, {
        "duration_ns": 1044457994,
        "uptime_ns": 11560113625
      }, {
        "duration_ns": 1058505211,
        "uptime_ns": 12635501047
      }, {
        "duration_ns": 1053554373,
        "uptime_ns": 13725887773
      }, {
        "duration_ns": 1014754750,
        "uptime_ns": 14810444709
      }, {
        "duration_ns": 1058225164,
        "uptime_ns": 15857253232
      }, {
        "duration_ns": 1008853366,
        "uptime_ns": 16947882683
      }, {
        "duration_ns": 1035613439,
        "uptime_ns": 17991382018
      }, {
        "duration_ns": 1022682786,
        "uptime_ns": 19058867088
      }, {
        "duration_ns": 1012382449,
        "uptime_ns": 20116995986
      }, {
        "duration_ns": 1014196636,
        "uptime_ns": 21163210664
      }, {
        "duration_ns": 1009788457,
        "uptime_ns": 22211914336
      }, {
        "duration_ns": 1011474388,
        "uptime_ns": 23256803106
      }, {
        "duration_ns": 1011202136,
        "uptime_ns": 24303815151
      }, {
        "duration_ns": 1012204683,
        "uptime_ns": 25349664186
      }, {
        "duration_ns": 997637897,
        "uptime_ns": 26396983839
      }, {
        "duration_ns": 1005076114,
        "uptime_ns": 27432117772
      }, {
        "duration_ns": 1002548144,
        "uptime_ns": 28473861726
      }, {
        "duration_ns": 1013139640,
        "uptime_ns": 29511730503
      }, {
        "duration_ns": 997811984,
        "uptime_ns": 30562307424
      }, {
        "duration_ns": 986146674,
        "uptime_ns": 31595722504
      }, {
        "duration_ns": 1002557475,
        "uptime_ns": 32618891233
      }, {
        "duration_ns": 1007893582,
        "uptime_ns": 33658480325
      }, {
        "duration_ns": 1015818047,
        "uptime_ns": 34700935774
      }, {
        "duration_ns": 1005655229,
        "uptime_ns": 35752881211
      }, {
        "duration_ns": 993237934,
        "uptime_ns": 36795743035
      }, {
        "duration_ns": 1003968807,
        "uptime_ns": 37826630238
      }, {
        "duration_ns": 1031495554,
        "uptime_ns": 38867907026
      }, {
        "duration_ns": 1050802890,
        "uptime_ns": 39937916106
      }, {
        "duration_ns": 1028320887,
        "uptime_ns": 41027534293
      }, {
        "duration_ns": 1003078349,
        "uptime_ns": 42092934812
      }, {
        "duration_ns": 1000371424,
        "uptime_ns": 43135204892
      }, {
        "duration_ns": 1023663382,
        "uptime_ns": 44174417316
      }, {
        "duration_ns": 1011135823,
        "uptime_ns": 45238296731
      }, {
        "duration_ns": 999777190,
        "uptime_ns": 46289141942
      }, {
        "duration_ns": 981603392,
        "uptime_ns": 47326763690
      }, {
        "duration_ns": 1011478898,
        "uptime_ns": 48347015460
      }, {
        "duration_ns": 985853038,
        "uptime_ns": 49399305016
      }, {
        "duration_ns": 1001141646,
        "uptime_ns": 50427227251
      }, {
        "duration_ns": 1007486709,
        "uptime_ns": 51468220771
      }, {
        "duration_ns": 1010337749,
        "uptime_ns": 52516490250
      }, {
        "duration_ns": 985388043,
        "uptime_ns": 53565998384
      }, {
        "duration_ns": 981880625,
        "uptime_ns": 54592574284
      }, {
        "duration_ns": 1028460145,
        "uptime_ns": 55617435155
      }, {
        "duration_ns": 999559124,
        "uptime_ns": 56686715031
      }, {
        "duration_ns": 990674689,
        "uptime_ns": 57727666964
      }, {
        "duration_ns": 1005458610,
        "uptime_ns": 58758674806
      }, {
        "duration_ns": 991571815,
        "uptime_ns": 59804148347
      }, {
        "duration_ns": 962874275,
        "uptime_ns": 60834733797
      }, {
        "duration_ns": 976506425,
        "uptime_ns": 61839453082
      }, {
        "duration_ns": 974774900,
        "uptime_ns": 62857171125
      }, {
        "duration_ns": 988058664,
        "uptime_ns": 63871571487
      }, {
        "duration_ns": 973760252,
        "uptime_ns": 64900448375
      }, {
        "duration_ns": 1004226519,
        "uptime_ns": 65914751928
      }, {
        "duration_ns": 972157233,
        "uptime_ns": 66959978709
      }, {
        "duration_ns": 979510835,
        "uptime_ns": 67974583900
      }, {
        "duration_ns": 975712744,
        "uptime_ns": 68994706490
      }, {
        "duration_ns": 976420001,
        "uptime_ns": 70010040851
      }, {
        "duration_ns": 998930159,
        "uptime_ns": 71027039741
      }, {
        "duration_ns": 992189678,
        "uptime_ns": 72067034800
      }, {
        "duration_ns": 963765240,
        "uptime_ns": 73098264362
      }, {
        "duration_ns": 973717683,
        "uptime_ns": 74104163361
      }, {
        "duration_ns": 1005243401,
        "uptime_ns": 75119004418
      }, {
        "duration_ns": 972263310,
        "uptime_ns": 76163995016
      }, {
        "duration_ns": 998575132,
        "uptime_ns": 77176428502
      }, {
        "duration_ns": 987645962,
        "uptime_ns": 78216046918
      }, {
        "duration_ns": 981453936,
        "uptime_ns": 79245370762
      }, {
        "duration_ns": 978654292,
        "uptime_ns": 80268661714
      }, {
        "duration_ns": 981491808,
        "uptime_ns": 81291116680
      }, {
        "duration_ns": 971096214,
        "uptime_ns": 82314004663
      }, {
        "duration_ns": 972551290,
        "uptime_ns": 83327082741
      }, {
        "duration_ns": 998676423,
        "uptime_ns": 84342181823
      }, {
        "duration_ns": 975778576,
        "uptime_ns": 85382314982
      }, {
        "duration_ns": 983410195,
        "uptime_ns": 86401710621
      }, {
        "duration_ns": 984720322,
        "uptime_ns": 87427324880
      }, {
        "duration_ns": 986407412,
        "uptime_ns": 88454080555
      }, {
        "duration_ns": 971686433,
        "uptime_ns": 89479620140
      }, {
        "duration_ns": 969260985,
        "uptime_ns": 90492220585
      }, {
        "duration_ns": 976128344,
        "uptime_ns": 91505005476
      }, {
        "duration_ns": 977856339,
        "uptime_ns": 92520007455
      }, {
        "duration_ns": 960944912,
        "uptime_ns": 93538554131
      }, {
        "duration_ns": 963759650,
        "uptime_ns": 94537446020
      }, {
        "duration_ns": 978755264,
        "uptime_ns": 95541194792
      }, {
        "duration_ns": 987462295,
        "uptime_ns": 96563024098
      }, {
        "duration_ns": 979781631,
        "uptime_ns": 97589243393
      }, {
        "duration_ns": 990873816,
        "uptime_ns": 98606478997
      }, {
        "duration_ns": 989515162,
        "uptime_ns": 99635105579
      }, {
        "duration_ns": 982430958,
        "uptime_ns": 100663636626
      }, {
        "duration_ns": 989353143,
        "uptime_ns": 101686413806
      }, {
        "duration_ns": 966973453,
        "uptime_ns": 102714207351
      }, {
        "duration_ns": 990415389,
        "uptime_ns": 103719271045
      }, {
        "duration_ns": 961749287,
        "uptime_ns": 104746494937
      }, {
        "duration_ns": 978941992,
        "uptime_ns": 105746490083
      }, {
        "duration_ns": 964113925,
        "uptime_ns": 106763144898
      }, {
        "duration_ns": 986538308,
        "uptime_ns": 107767111442
      }],
      "termination": "normal"
    }
  },
  "environment": {
    "os": {
      "virt_mem_committed": 10211274752,
      "name": "Linux",
      "open_fd_count": 260,
      "phys_mem_free": 10127851520,
      "swap_space_total": 0,
      "available_processors": 8,
      "phys_mem_total": 16304570368,
      "version": "5.4.0-1029-aws",
      "arch": "amd64",
      "max_fd_count": 1048576,
      "swap_space_free": 0
    },
    "vm": {
      "termination": "normal",
      "name": "OpenJDK 64-Bit Server VM",
      "spec_vendor": "Oracle Corporation",
      "spec_name": "Java Virtual Machine Specification",
      "classloading": {
        "class_count": 9297,
        "classes_total": 9504
      },
      "compiler": {
        "name": "HotSpot 64-Bit Tiered Compilers",
        "compilation_time_ms": 26715
      },
      "start_iso": "2020-11-25T18:00:56.614Z",
      "collectors": [{
        "name": "G1 Young Generation",
        "collection_count": 1569,
        "collection_time_ms": 2016
      }, {
        "name": "G1 Old Generation",
        "collection_count": 100,
        "collection_time_ms": 3710
      }],
      "start_unix_ms": 1606327256614,
      "version": "11.0.9.1+1-Ubuntu-0ubuntu1.18.04",
      "mode": "mixed mode, sharing",
      "args": [],
      "pools": [{
        "name": "CodeHeap 'non-nmethods'",
        "type": "NON_HEAP",
        "usage": {
          "init": 2555904,
          "used": 1963776,
          "committed": 2555904,
          "max": 5836800
        },
        "peak_usage": {
          "init": 2555904,
          "used": 2016640,
          "committed": 2555904,
          "max": 5836800
        }
      }, {
        "name": "Metaspace",
        "type": "NON_HEAP",
        "usage": {
          "init": 0,
          "used": 61637480,
          "committed": 63225856,
          "max": -1
        },
        "peak_usage": {
          "init": 0,
          "used": 61637480,
          "committed": 63225856,
          "max": -1
        }
      }, {
        "name": "CodeHeap 'profiled nmethods'",
        "type": "NON_HEAP",
        "usage": {
          "init": 2555904,
          "used": 13338880,
          "committed": 20054016,
          "max": 122908672
        },
        "peak_usage": {
          "init": 2555904,
          "used": 20002688,
          "committed": 20054016,
          "max": 122908672
        }
      }, {
        "name": "Compressed Class Space",
        "type": "NON_HEAP",
        "usage": {
          "init": 0,
          "used": 7728440,
          "committed": 8257536,
          "max": 1073741824
        },
        "peak_usage": {
          "init": 0,
          "used": 7728440,
          "committed": 8257536,
          "max": 1073741824
        }
      }, {
        "name": "G1 Eden Space",
        "type": "HEAP",
        "usage": {
          "init": 27262976,
          "used": 5242880,
          "committed": 201326592,
          "max": -1
        },
        "peak_usage": {
          "init": 27262976,
          "used": 190840832,
          "committed": 204472320,
          "max": -1
        }
      }, {
        "name": "G1 Old Gen",
        "type": "HEAP",
        "usage": {
          "init": 228589568,
          "used": 41085320,
          "committed": 119537664,
          "max": 4076863488
        },
        "peak_usage": {
          "init": 228589568,
          "used": 61731296,
          "committed": 228589568,
          "max": 4076863488
        }
      }, {
        "name": "G1 Survivor Space",
        "type": "HEAP",
        "usage": {
          "init": 0,
          "used": 2097152,
          "committed": 2097152,
          "max": -1
        },
        "peak_usage": {
          "init": 0,
          "used": 14680064,
          "committed": 14680064,
          "max": -1
        }
      }, {
        "name": "CodeHeap 'non-profiled nmethods'",
        "type": "NON_HEAP",
        "usage": {
          "init": 2555904,
          "used": 8654720,
          "committed": 9240576,
          "max": 122912768
        },
        "peak_usage": {
          "init": 2555904,
          "used": 9108608,
          "committed": 9240576,
          "max": 122912768
        }
      }],
      "uptime_ms": 108848,
      "vendor": "Ubuntu",
      "threads": {
        "thread_count": 37,
        "thread_count_max": 52,
        "daemon_thread_count": 36,
        "threads_total": 184
      },
      "spec_version": "11",
      "memory": {
        "heap_usage": {
          "init": 255852544,
          "used": 48425352,
          "committed": 322961408,
          "max": 4076863488
        },
        "nonheap_usage": {
          "init": 7667712,
          "used": 93310712,
          "committed": 103333888,
          "max": -1
        },
        "pending_finalization_count": 0
      }
    },
    "jre": {
      "java_version": "11.0.9.1",
      "name": "OpenJDK Runtime Environment",
      "spec_vendor": "Oracle Corporation",
      "spec_name": "Java Platform API Specification",
      "class_path": ["target/renaissance-gpl-0.11.0.jar"],
      "home": "/usr/lib/jvm/java-11-openjdk-amd64",
      "version": "11.0.9.1+1-Ubuntu-0ubuntu1.18.04",
      "java_vendor": "Ubuntu",
      "library_path": ["/usr/java/packages/lib", "/usr/lib/x86_64-linux-gnu/jni", "/lib/x86_64-linux-gnu", "/usr/lib/x86_64-linux-gnu", "/usr/lib/jni", "/lib", "/usr/lib"],
      "spec_version": "11"
    }
  },
  "suite": {
    "git": {
      "commit_hash": null,
      "commit_date": null,
      "dirty": "true"
    },
    "name": null,
    "version": null
  }
}