benchmark,duration_ns,uptime_ns,vm_start_unix_ms
mnemonics,3976381158,619479242,1606327594383
mnemonics,4902029009,4967068526,1606327594383
mnemonics,4883435800,10153311790,1606327594383
mnemonics,4913876014,15318028374,1606327594383
mnemonics,4909332990,20501204169,1606327594383
mnemonics,4941539861,25684420214,1606327594383
mnemonics,4921329944,30908476345,1606327594383
mnemonics,4926364343,36127248020,1606327594383
mnemonics,4926715558,41363083432,1606327594383
mnemonics,4956497030,46573850613,1606327594383
mnemonics,4878174408,51834631507,1606327594383
mnemonics,4916461018,57031271526,1606327594383
mnemonics,4915673875,62225460522,1606327594383
mnemonics,4920099868,67419923236,1606327594383
mnemonics,4962823272,72621756929,1606327594383
mnemonics,4893447817,77893548416,1606327594383
mnemonics,4915673537,83081226535,1606327594383
mnemonics,4942474588,88274593746,1606327594383
mnemonics,4934663295,93517145806,1606327594383
mnemonics,4932507100,98733753464,1606327594383
mnemonics,4962327876,103945550078,1606327594383
mnemonics,4905324494,109188250841,1606327594383
mnemonics,4964735123,114374105458,1606327594383
mnemonics,4942372689,119640780216,1606327594383
mnemonics,4927139250,124871353272,1606327594383
mnemonics,4924818986,130101475789,1606327594383
mnemonics,4921690883,135334201488,1606327594383
mnemonics,4952496924,140536474066,1606327594383
mnemonics,4910013342,145768516742,1606327594383
mnemonics,4929651891,150955024759,1606327594383
mnemonics,4945660533,156161612836,1606327594383
mnemonics,4910017394,161395556623,1606327594383
mnemonics,4953716949,166616952474,1606327594383
mnemonics,4940204206,171855221253,1606327594383
mnemonics,4938227623,177077109601,1606327594383
mnemonics,4933038785,182299147739,1606327594383
mnemonics,4941387096,187527401707,1606327594383
mnemonics,4928202014,192755451890,1606327594383
mnemonics,4892266317,197955893471,1606327594383
mnemonics,4908667783,203156838440,1606327594383
mnemonics,4883875744,208344518669,1606327594383
mnemonics,4943108977,213519548974,1606327594383
mnemonics,4938794946,218748832238,1606327594383
mnemonics,4933439015,223968337540,1606327594383
mnemonics,4936798770,229184162008,1606327594383
mnemonics,4967014432,234401228102,1606327594383
mnemonics,4950511203,239653968704,1606327594383
mnemonics,4924511749,244892264605,1606327594383
mnemonics,4924598527,250100860237,1606327594383
mnemonics,4911525107,255328499629,1606327594383
mnemonics,4928482131,260511822113,1606327594383
mnemonics,4923329776,265719794528,1606327594383
mnemonics,4940979380,270919847696,1606327594383
mnemonics,4888140385,276144498248,1606327594383
mnemonics,4960818845,281321096487,1606327594383
mnemonics,4957320317,286564194865,1606327594383
mnemonics,4913469609,291804514875,1606327594383
mnemonics,4911919151,297001666880,1606327594383
mnemonics,4922406641,302213066077,1606327594383
mnemonics,4937459494,307411979130,1606327594383
mnemonics,4924094825,312640846220,1606327594383
mnemonics,4988804703,317847502573,1606327594383
mnemonics,4927912072,323122532671,1606327594383
mnemonics,4942649835,328345964709,1606327594383
mnemonics,4920888198,333570555397,1606327594383
mnemonics,4945182745,338770925185,1606327594383
mnemonics,4959791518,343995460895,1606327594383
mnemonics,4930585914,349236350848,1606327594383
mnemonics,4956171798,354448469577,1606327594383
mnemonics,4976905988,359690417447,1606327594383
mnemonics,4918433983,364951581154,1606327594383
mnemonics,4976860453,370149378195,1606327594383
mnemonics,4982088005,375413115395,1606327594383
mnemonics,4922061743,380687237553,1606327594383
mnemonics,4984884817,385887169551,1606327594383
mnemonics,4948936654,391153829265,1606327594383
mnemonics,4945049485,396398596143,1606327594383
mnemonics,4971176338,401633963172,1606327594383
mnemonics,4973178791,406908122605,1606327594383
mnemonics,4955864797,412175626792,1606327594383
mnemonics,4968332186,417430287092,1606327594383
mnemonics,4952210399,422694038540,1606327594383
mnemonics,4970951639,427935995078,1606327594383
mnemonics,5016098774,433206521203,1606327594383
mnemonics,4963573469,438518953473,1606327594383
mnemonics,4970059215,443775325235,1606327594383
mnemonics,4961739349,449046661222,1606327594383
mnemonics,5003344116,454304274242,1606327594383
mnemonics,5058105733,459610636737,1606327594383
mnemonics,5029297958,464980790333,1606327594383
mnemonics,4965923886,470260331319,1606327594383
mnemonics,4982203379,475529537007,1606327594383
mnemonics,5034678241,480805891313,1606327594383
mnemonics,5023576166,486144400540,1606327594383
mnemonics,4984833952,491471884309,1606327594383
mnemonics,4962198091,496770322466,1606327594383
mnemonics,4933148866,502026270145,1606327594383
mnemonics,4948281480,507260393749,1606327594383
mnemonics,4980888740,512507876262,1606327594383
mnemonics,4934514775,517780031645,1606327594383
