benchmark,duration_ns,uptime_ns,vm_start_unix_ms
movie-lens,11860663541,5016959700,1606328117516
movie-lens,9280570722,16931126417,1606328117516
movie-lens,8704218893,26278717428,1606328117516
movie-lens,8679606489,35047956836,1606328117516
movie-lens,8820246529,43792926902,1606328117516
movie-lens,8576873258,52679361115,1606328117516
movie-lens,8333017698,61322981508,1606328117516
movie-lens,8401869003,69722658409,1606328117516
movie-lens,8418518580,78193065632,1606328117516
movie-lens,8389806013,86679735584,1606328117516
movie-lens,8185804230,95137307626,1606328117516
movie-lens,8098866739,103390111541,1606328117516
movie-lens,8466506947,111558295264,1606328117516
movie-lens,8547014921,120092952503,1606328117516
movie-lens,8177665736,128708616991,1606328117516
movie-lens,8198201711,136955084927,1606328117516
movie-lens,8295964428,145216788412,1606328117516
movie-lens,8406784957,153575695004,1606328117516
movie-lens,8022641512,162046726376,1606328117516
movie-lens,8276069672,170132283458,1606328117516
movie-lens,8168732397,178472988157,1606328117516
movie-lens,8070559212,186703828709,1606328117516
movie-lens,8386390249,194837760764,1606328117516
movie-lens,8212689302,203287435155,1606328117516
movie-lens,8133322156,211563091269,1606328117516
movie-lens,8239925234,219759517959,1606328117516
movie-lens,8308943736,228062827399,1606328117516
movie-lens,8078478834,236432909911,1606328117516
movie-lens,8215391319,244574914718,1606328117516
movie-lens,8416592380,252855254618,1606328117516
movie-lens,8115218431,261337636730,1606328117516
movie-lens,8285089678,269517662072,1606328117516
movie-lens,8321455410,277866525768,1606328117516
movie-lens,8294070554,286254175566,1606328117516
movie-lens,8070054399,294612563179,1606328117516
movie-lens,8193623220,302746632823,1606328117516
movie-lens,8041142566,311004704136,1606328117516
movie-lens,8224488607,319109639500,1606328117516
movie-lens,7969031272,327398261304,1606328117516
movie-lens,8070470598,335429422597,1606328117516
movie-lens,8191689919,343564013991,1606328117516
movie-lens,8058477993,351819371202,1606328117516
movie-lens,8187984745,359939619128,1606328117516
movie-lens,8084462468,368191243275,1606328117516
movie-lens,8081653221,376339095154,1606328117516
movie-lens,8245569466,384483983252,1606328117516
movie-lens,8289219389,392793394022,1606328117516
movie-lens,8185294143,401146133431,1606328117516
movie-lens,8200343317,409394708762,1606328117516
movie-lens,7996811128,417659809658,1606328117516
movie-lens,8075110485,425719394010,1606328117516
movie-lens,8261293741,433858495778,1606328117516
movie-lens,8467650363,442182560436,1606328117516
movie-lens,8185489011,450714339834,1606328117516
movie-lens,8178040768,458962815445,1606328117516
movie-lens,8131224962,467204836920,1606328117516
movie-lens,8110255246,475399002242,1606328117516
movie-lens,7965683918,483577592757,1606328117516
movie-lens,8176128275,491606875270,1606328117516
movie-lens,8097287122,499843766650,1606328117516
movie-lens,8118557679,508006364374,1606328117516
movie-lens,8127068484,516188792303,1606328117516
movie-lens,8209499455,524380163828,1606328117516
movie-lens,8016929428,532655860160,1606328117516
movie-lens,8043534238,540735554562,1606328117516
movie-lens,7908934158,548843462147,1606328117516
movie-lens,7960017154,556820298586,1606328117516
movie-lens,8093482461,564843435937,1606328117516
movie-lens,7876235848,573001378862,1606328117516
movie-lens,7944203705,580939358187,1606328117516
movie-lens,8111408930,588951239826,1606328117516
movie-lens,8198547462,597126310878,1606328117516
movie-lens,8145048298,605387110946,1606328117516
movie-lens,8140847065,613596969264,1606328117516
movie-lens,7968020989,621802575799,1606328117516
movie-lens,8011214871,629835544886,1606328117516
movie-lens,8128401955,637911054008,1606328117516
movie-lens,7903151314,646103135869,1606328117516
movie-lens,8127692498,654069498589,1606328117516
movie-lens,8085475090,662261393286,1606328117516
movie-lens,8204237848,670412334613,1606328117516
movie-lens,8255483438,678678444338,1606328117516
movie-lens,8081365288,686998215533,1606328117516
movie-lens,8089669551,695144135897,1606328117516
movie-lens,8088510585,703296598333,1606328117516
movie-lens,7999513675,711449974362,1606328117516
movie-lens,8139542292,719516325368,1606328117516
movie-lens,8079687715,727718890665,1606328117516
movie-lens,8120916379,735862668050,1606328117516
movie-lens,7746752804,744048232160,1606328117516
movie-lens,8000760149,751859440913,1606328117516
movie-lens,8199703385,759923413367,1606328117516
movie-lens,8070625249,768188213470,1606328117516
movie-lens,8078556941,776324242082,1606328117516
movie-lens,8100197984,784467319526,1606328117516
movie-lens,7924661841,792632138769,1606328117516
movie-lens,8138090150,800618516094,1606328117516
movie-lens,8041059304,808817125410,1606328117516
movie-lens,7995180075,816922469940,1606328117516
movie-lens,7984441774,824979486365,1606328117516
