{
  "benchmarks": ["par-mnemonics"],
  "format_version": 5,
  "data": {
    "par-mnemonics": {
      "results": [{
        "duration_ns": 3552551331,
        "uptime_ns": 622499984
      }, {
        "duration_ns": 4346349672,
        "uptime_ns": 4600458569
      }, {
        "duration_ns": 4349339961,
        "uptime_ns": 9254290394
      }, {
        "duration_ns": 4408319046,
        "uptime_ns": 13910104242
      }, {
        "duration_ns": 4409662375,
        "uptime_ns": 18620698731
      }, {
        "duration_ns": 4348268677,
        "uptime_ns": 23338160260
      }, {
        "duration_ns": 4410097927,
        "uptime_ns": 28020054387
      }, {
        "duration_ns": 4419536119,
        "uptime_ns": 32730172246
      }, {
        "duration_ns": 4408771102,
        "uptime_ns": 37453729972
      }, {
        "duration_ns": 4450844709,
        "uptime_ns": 42177609743
      }, {
        "duration_ns": 4349829877,
        "uptime_ns": 46954796925
      }, {
        "duration_ns": 4473554440,
        "uptime_ns": 51602715116
      }, {
        "duration_ns": 4381611418,
        "uptime_ns": 56402256601
      }, {
        "duration_ns": 4353583601,
        "uptime_ns": 61086498826
      }, {
        "duration_ns": 4378422722,
        "uptime_ns": 65745961290
      }, {
        "duration_ns": 4413852279,
        "uptime_ns": 70468082965
      }, {
        "duration_ns": 4380994996,
        "uptime_ns": 75185319464
      }, {
        "duration_ns": 4341173266,
        "uptime_ns": 79866547806
      }, {
        "duration_ns": 4432331606,
        "uptime_ns": 84535242021
      }, {
        "duration_ns": 4357105400,
        "uptime_ns": 89242072310
      }, {
        "duration_ns": 4323364961,
        "uptime_ns": 93907692613
      }, {
        "duration_ns": 4488069521,
        "uptime_ns": 98523900681
      }, {
        "duration_ns": 4336671833,
        "uptime_ns": 103317185672
      }, {
        "duration_ns": 4363466791,
        "uptime_ns": 107978578803
      }, {
        "duration_ns": 4367927573,
        "uptime_ns": 112645708831
      }, {
        "duration_ns": 4412050379,
        "uptime_ns": 117324210823
      }, {
        "duration_ns": 4402812399,
        "uptime_ns": 122040694447
      }, {
        "duration_ns": 4464694616,
        "uptime_ns": 126746827708
      }, {
        "duration_ns": 4474099898,
        "uptime_ns": 131514573766
      }, {
        "duration_ns": 4358857691,
        "uptime_ns": 136291303195
      }, {
        "duration_ns": 4480470543,
        "uptime_ns": 140952756815
      }, {
        "duration_ns": 4329146409,
        "uptime_ns": 145740801784
      }, {
        "duration_ns": 4461580966,
        "uptime_ns": 150365914226
      }, {
        "duration_ns": 4354393173,
        "uptime_ns": 155127876711
      }, {
        "duration_ns": 4424854198,
        "uptime_ns": 159753446509
      }, {
        "duration_ns": 4349849214,
        "uptime_ns": 164485522613
      }, {
        "duration_ns": 4429231142,
        "uptime_ns": 169170113732
      }, {
        "duration_ns": 4373984892,
        "uptime_ns": 173921750654
      }, {
        "duration_ns": 4387524535,
        "uptime_ns": 178598847474
      }, {
        "duration_ns": 4378336015,
        "uptime_ns": 183302265694
      }, {
        "duration_ns": 4441044316,
        "uptime_ns": 188010738199
      }, {
        "duration_ns": 4355196036,
        "uptime_ns": 192755128659
      }, {
        "duration_ns": 4343616584,
        "uptime_ns": 197416399630
      }, {
        "duration_ns": 4430366944,
        "uptime_ns": 202063367583
      }, {
        "duration_ns": 4371940642,
        "uptime_ns": 206796250873
      }, {
        "duration_ns": 4349122026,
        "uptime_ns": 211460983667
      }, {
        "duration_ns": 4328881218,
        "uptime_ns": 216117720812
      }, {
        "duration_ns": 4390684943,
        "uptime_ns": 220786167323
      }, {
        "duration_ns": 4378250545,
        "uptime_ns": 225483323493
      }, {
        "duration_ns": 4383097253,
        "uptime_ns": 230168301077
      }, {
        "duration_ns": 4453498024,
        "uptime_ns": 234859950994
      }, {
        "duration_ns": 4341322704,
        "uptime_ns": 239626722802
      }, {
        "duration_ns": 4420047428,
        "uptime_ns": 244275582810
      }, {
        "duration_ns": 4323546528,
        "uptime_ns": 249007440387
      }, {
        "duration_ns": 4290406841,
        "uptime_ns": 253640973805
      }, {
        "duration_ns": 4419852953,
        "uptime_ns": 258251102690
      }, {
        "duration_ns": 4411738689,
        "uptime_ns": 262971040895
      }, {
        "duration_ns": 4382708004,
        "uptime_ns": 267686820721
      }, {
        "duration_ns": 4389888912,
        "uptime_ns": 272374716016
      }, {
        "duration_ns": 4413780844,
        "uptime_ns": 277071123607
      }, {
        "duration_ns": 4455854413,
        "uptime_ns": 281794072766
      }, {
        "duration_ns": 4333552394,
        "uptime_ns": 286555363254
      }, {
        "duration_ns": 4443618504,
        "uptime_ns": 291196368935
      }, {
        "duration_ns": 4354345998,
        "uptime_ns": 295949204440
      }, {
        "duration_ns": 4371572838,
        "uptime_ns": 300611277156
      }, {
        "duration_ns": 4506538338,
        "uptime_ns": 305235249794
      }, {
        "duration_ns": 4368942331,
        "uptime_ns": 310038693366
      }, {
        "duration_ns": 4440744532,
        "uptime_ns": 314708169708
      }, {
        "duration_ns": 4338564869,
        "uptime_ns": 319454939900
      }, {
        "duration_ns": 4484635328,
        "uptime_ns": 324133290547
      }, {
        "duration_ns": 4442825446,
        "uptime_ns": 328926180742
      }, {
        "duration_ns": 4384046967,
        "uptime_ns": 333667231953
      }, {
        "duration_ns": 4475794753,
        "uptime_ns": 338347061858
      }, {
        "duration_ns": 4332301982,
        "uptime_ns": 343130308739
      }, {
        "duration_ns": 4475970640,
        "uptime_ns": 347786860804
      }, {
        "duration_ns": 4343345087,
        "uptime_ns": 352562207571
      }, {
        "duration_ns": 4341897986,
        "uptime_ns": 357209916624
      }, {
        "duration_ns": 4354311349,
        "uptime_ns": 361858035881
      }, {
        "duration_ns": 4406634996,
        "uptime_ns": 366516132700
      }, {
        "duration_ns": 4468690985,
        "uptime_ns": 371228795809
      }, {
        "duration_ns": 4397352181,
        "uptime_ns": 376027629080
      }, {
        "duration_ns": 4403227732,
        "uptime_ns": 380753303405
      }, {
        "duration_ns": 4464439777,
        "uptime_ns": 385489780727
      }, {
        "duration_ns": 4361519603,
        "uptime_ns": 390257816008
      }, {
        "duration_ns": 4440493903,
        "uptime_ns": 394922036976
      }, {
        "duration_ns": 4373130792,
        "uptime_ns": 399668822811
      }, {
        "duration_ns": 4359822390,
        "uptime_ns": 404345286630
      }, {
        "duration_ns": 4348852884,
        "uptime_ns": 409049756318
      }, {
        "duration_ns": 4391298481,
        "uptime_ns": 413705036919
      }, {
        "duration_ns": 4334968945,
        "uptime_ns": 418401056200
      }, {
        "duration_ns": 4393102300,
        "uptime_ns": 423036684977
      }, {
        "duration_ns": 4448605549,
        "uptime_ns": 427676668073
      }, {
        "duration_ns": 4407477579,
        "uptime_ns": 432454033942
      }, {
        "duration_ns": 4467402098,
        "uptime_ns": 437152500798
      }, {
        "duration_ns": 4399398959,
        "uptime_ns": 441868958100
      }, {
        "duration_ns": 4396409349,
        "uptime_ns": 446577371690
      }, {
        "duration_ns": 4467983131,
        "uptime_ns": 451270874204
      }, {
        "duration_ns": 4454905147,
        "uptime_ns": 456061083562
      }, {
        "duration_ns": 4419656596,
        "uptime_ns": 460821286653
      }, {
        "duration_ns": 4466753056,
        "uptime_ns": 465534427857
      }],
      "termination": "normal"
    }
  },
  "environment": {
    "os": {
      "virt_mem_committed": 8581263360,
      "name": "Linux",
      "open_fd_count": 16,
      "phys_mem_free": 8423669760,
      "swap_space_total": 0,
      "available_processors": 8,
      "phys_mem_total": 16304570368,
      "version": "5.4.0-1029-aws",
      "arch": "amd64",
      "max_fd_count": 1048576,
      "swap_space_free": 0
    },
    "vm": {
      "termination": "normal",
      "name": "OpenJDK 64-Bit Server VM",
      "spec_vendor": "Oracle Corporation",
      "spec_name": "Java Virtual Machine Specification",
      "classloading": {
        "class_count": 2219,
        "classes_total": 2249
      },
      "compiler": {
        "name": "HotSpot 64-Bit Tiered Compilers",
        "compilation_time_ms": 3695
      },
      "start_iso": "2020-11-25T19:02:49.799Z",
      "collectors": [{
        "name": "G1 Young Generation",
        "collection_count": 3251,
        "collection_time_ms": 13880
      }, {
        "name": "G1 Old Generation",
        "collection_count": 100,
        "collection_time_ms": 4350
      }],
      "start_unix_ms": 1606330969799,
      "version": "11.0.9.1+1-Ubuntu-0ubuntu1.18.04",
      "mode": "mixed mode, sharing",
      "args": [],
      "pools": [{
        "name": "CodeHeap 'non-nmethods'",
        "type": "NON_HEAP",
        "usage": {
          "init": 2555904,
          "used": 1194752,
          "committed": 2555904,
          "max": 5836800
        },
        "peak_usage": {
          "init": 2555904,
          "used": 1202560,
          "committed": 2555904,
          "max": 5836800
        }
      }, {
        "name": "Metaspace",
        "type": "NON_HEAP",
        "usage": {
          "init": 0,
          "used": 10422288,
          "committed": 12320768,
          "max": -1
        },
        "peak_usage": {
          "init": 0,
          "used": 10422288,
          "committed": 12320768,
          "max": -1
        }
      }, {
        "name": "CodeHeap 'profiled nmethods'",
        "type": "NON_HEAP",
        "usage": {
          "init": 2555904,
          "used": 2939392,
          "committed": 3014656,
          "max": 122908672
        },
        "peak_usage": {
          "init": 2555904,
          "used": 2939392,
          "committed": 3014656,
          "max": 122908672
        }
      }, {
        "name": "Compressed Class Space",
        "type": "NON_HEAP",
        "usage": {
          "init": 0,
          "used": 1694800,
          "committed": 2097152,
          "max": 1073741824
        },
        "peak_usage": {
          "init": 0,
          "used": 1694800,
          "committed": 2097152,
          "max": 1073741824
        }
      }, {
        "name": "G1 Eden Space",
        "type": "HEAP",
        "usage": {
          "init": 27262976,
          "used": 58720256,
          "committed": 606076928,
          "max": -1
        },
        "peak_usage": {
          "init": 27262976,
          "used": 707788800,
          "committed": 842006528,
          "max": -1
        }
      }, {
        "name": "G1 Old Gen",
        "type": "HEAP",
        "usage": {
          "init": 228589568,
          "used": 29463104,
          "committed": 403701760,
          "max": 4076863488
        },
        "peak_usage": {
          "init": 228589568,
          "used": 90154288,
          "committed": 653262848,
          "max": 4076863488
        }
      }, {
        "name": "G1 Survivor Space",
        "type": "HEAP",
        "usage": {
          "init": 0,
          "used": 81788928,
          "committed": 81788928,
          "max": -1
        },
        "peak_usage": {
          "init": 0,
          "used": 87031808,
          "committed": 87031808,
          "max": -1
        }
      }, {
        "name": "CodeHeap 'non-profiled nmethods'",
        "type": "NON_HEAP",
        "usage": {
          "init": 2555904,
          "used": 986752,
          "committed": 2555904,
          "max": 122912768
        },
        "peak_usage": {
          "init": 2555904,
          "used": 986752,
          "committed": 2555904,
          "max": 122912768
        }
      }],
      "uptime_ms": 470318,
      "vendor": "Ubuntu",
      "threads": {
        "thread_count": 12,
        "thread_count_max": 13,
        "daemon_thread_count": 11,
        "threads_total": 112
      },
      "spec_version": "11",
      "memory": {
        "heap_usage": {
          "init": 255852544,
          "used": 169972288,
          "committed": 1091567616,
          "max": 4076863488
        },
        "nonheap_usage": {
          "init": 7667712,
          "used": 17190720,
          "committed": 22544384,
          "max": -1
        },
        "pending_finalization_count": 0
      }
    },
    "jre": {
      "java_version": "11.0.9.1",
      "name": "OpenJDK Runtime Environment",
      "spec_vendor": "Oracle Corporation",
      "spec_name": "Java Platform API Specification",
      "class_path": ["target/renaissance-gpl-0.11.0.jar"],
      "home": "/usr/lib/jvm/java-11-openjdk-amd64",
      "version": "11.0.9.1+1-Ubuntu-0ubuntu1.18.04",
      "java_vendor": "Ubuntu",
      "library_path": ["/usr/java/packages/lib", "/usr/lib/x86_64-linux-gnu/jni", "/lib/x86_64-linux-gnu", "/usr/lib/x86_64-linux-gnu", "/usr/lib/jni", "/lib", "/usr/lib"],
      "spec_version": "11"
    }
  },
  "suite": {
    "git": {
      "commit_hash": null,
      "commit_date": null,
      "dirty": "true"
    },
    "name": null,
    "version": null
  }
}