{
  "benchmarks": ["philosophers"],
  "format_version": 5,
  "data": {
    "philosophers": {
      "results": [{
        "duration_ns": 4065950925,
        "uptime_ns": 694210242
      }, {
        "duration_ns": 3210863923,
        "uptime_ns": 4777110120
      }, {
        "duration_ns": 3202896645,
        "uptime_ns": 8005684501
      }, {
        "duration_ns": 3377647088,
        "uptime_ns": 11227392230
      }, {
        "duration_ns": 3258276785,
        "uptime_ns": 14620294169
      }, {
        "duration_ns": 3453810448,
        "uptime_ns": 17891585520
      }, {
        "duration_ns": 3377364807,
        "uptime_ns": 21362099831
      }, {
        "duration_ns": 3195945529,
        "uptime_ns": 24752742613
      }, {
        "duration_ns": 3259330153,
        "uptime_ns": 27963207980
      }, {
        "duration_ns": 3162793207,
        "uptime_ns": 31238218744
      }, {
        "duration_ns": 3255884473,
        "uptime_ns": 34414402564
      }, {
        "duration_ns": 3277726792,
        "uptime_ns": 37686056434
      }, {
        "duration_ns": 3243891927,
        "uptime_ns": 40977025842
      }, {
        "duration_ns": 3325796371,
        "uptime_ns": 44236932049
      }, {
        "duration_ns": 3033149621,
        "uptime_ns": 47579972406
      }, {
        "duration_ns": 3259001828,
        "uptime_ns": 50627612125
      }, {
        "duration_ns": 3069017611,
        "uptime_ns": 53901280168
      }, {
        "duration_ns": 3209823071,
        "uptime_ns": 56984626391
      }, {
        "duration_ns": 3157975613,
        "uptime_ns": 60208472427
      }, {
        "duration_ns": 3244179731,
        "uptime_ns": 63386005297
      }, {
        "duration_ns": 3293960777,
        "uptime_ns": 66642045931
      }, {
        "duration_ns": 3157950154,
        "uptime_ns": 69949056518
      }, {
        "duration_ns": 3506388906,
        "uptime_ns": 73121409102
      }, {
        "duration_ns": 3225366072,
        "uptime_ns": 76644971946
      }, {
        "duration_ns": 3344074576,
        "uptime_ns": 79884823034
      }, {
        "duration_ns": 3275066174,
        "uptime_ns": 83245111731
      }, {
        "duration_ns": 3441010023,
        "uptime_ns": 86537659260
      }, {
        "duration_ns": 3323797361,
        "uptime_ns": 89993873597
      }, {
        "duration_ns": 3241258123,
        "uptime_ns": 93332154982
      }, {
        "duration_ns": 3326803438,
        "uptime_ns": 96587567984
      }, {
        "duration_ns": 3328395600,
        "uptime_ns": 99927942504
      }, {
        "duration_ns": 3116987850,
        "uptime_ns": 103271396428
      }, {
        "duration_ns": 3244367678,
        "uptime_ns": 106401280793
      }, {
        "duration_ns": 3496231560,
        "uptime_ns": 109664198160
      }, {
        "duration_ns": 3258843821,
        "uptime_ns": 113172432428
      }, {
        "duration_ns": 3313827037,
        "uptime_ns": 116449865613
      }, {
        "duration_ns": 3489631365,
        "uptime_ns": 119775620553
      }, {
        "duration_ns": 3116234416,
        "uptime_ns": 123280091789
      }, {
        "duration_ns": 3412453080,
        "uptime_ns": 126409482078
      }, {
        "duration_ns": 3521931977,
        "uptime_ns": 129835744226
      }, {
        "duration_ns": 3514667252,
        "uptime_ns": 133370312908
      }, {
        "duration_ns": 3378062686,
        "uptime_ns": 136896715719
      }, {
        "duration_ns": 3032137779,
        "uptime_ns": 140287204745
      }, {
        "duration_ns": 3459933151,
        "uptime_ns": 143333090451
      }, {
        "duration_ns": 3295375538,
        "uptime_ns": 146807350345
      }, {
        "duration_ns": 3127391568,
        "uptime_ns": 150115702223
      }, {
        "duration_ns": 3260914079,
        "uptime_ns": 153257944599
      }, {
        "duration_ns": 3208644502,
        "uptime_ns": 156531995449
      }, {
        "duration_ns": 3511718426,
        "uptime_ns": 159756529893
      }, {
        "duration_ns": 3406594969,
        "uptime_ns": 163281576702
      }, {
        "duration_ns": 3440844144,
        "uptime_ns": 166700863480
      }, {
        "duration_ns": 3581931875,
        "uptime_ns": 170155066009
      }, {
        "duration_ns": 3288441726,
        "uptime_ns": 173749375115
      }, {
        "duration_ns": 3523965872,
        "uptime_ns": 177052574494
      }, {
        "duration_ns": 3141746156,
        "uptime_ns": 180589874978
      }, {
        "duration_ns": 3601411048,
        "uptime_ns": 183748385281
      }, {
        "duration_ns": 3128575048,
        "uptime_ns": 187363503969
      }, {
        "duration_ns": 3162804763,
        "uptime_ns": 190504813603
      }, {
        "duration_ns": 3507933373,
        "uptime_ns": 193685428403
      }, {
        "duration_ns": 3362083709,
        "uptime_ns": 197207026210
      }, {
        "duration_ns": 3345620695,
        "uptime_ns": 200581917221
      }, {
        "duration_ns": 3294515335,
        "uptime_ns": 203943453273
      }, {
        "duration_ns": 2994694531,
        "uptime_ns": 207252725103
      }, {
        "duration_ns": 2955980936,
        "uptime_ns": 210261196700
      }, {
        "duration_ns": 3407410242,
        "uptime_ns": 213231280882
      }, {
        "duration_ns": 3423466356,
        "uptime_ns": 216654916195
      }, {
        "duration_ns": 3046113466,
        "uptime_ns": 220094119653
      }, {
        "duration_ns": 3104543720,
        "uptime_ns": 223154571829
      }, {
        "duration_ns": 3600699506,
        "uptime_ns": 226268977516
      }, {
        "duration_ns": 3115067243,
        "uptime_ns": 229884587326
      }, {
        "duration_ns": 3117132623,
        "uptime_ns": 233016418255
      }, {
        "duration_ns": 3323556347,
        "uptime_ns": 236149374536
      }, {
        "duration_ns": 3282944966,
        "uptime_ns": 239487364357
      }, {
        "duration_ns": 3231208006,
        "uptime_ns": 242787908732
      }, {
        "duration_ns": 3247644143,
        "uptime_ns": 246033241121
      }, {
        "duration_ns": 3160962916,
        "uptime_ns": 249295746473
      }, {
        "duration_ns": 3239318991,
        "uptime_ns": 252470828726
      }, {
        "duration_ns": 3329118373,
        "uptime_ns": 255723622975
      }, {
        "duration_ns": 3146657281,
        "uptime_ns": 259068649814
      }, {
        "duration_ns": 3157711349,
        "uptime_ns": 262229060057
      }, {
        "duration_ns": 3263900100,
        "uptime_ns": 265402118164
      }, {
        "duration_ns": 3242967986,
        "uptime_ns": 268684424193
      }, {
        "duration_ns": 3194652654,
        "uptime_ns": 271939906835
      }, {
        "duration_ns": 3208216932,
        "uptime_ns": 275150639586
      }, {
        "duration_ns": 3292671581,
        "uptime_ns": 278373082567
      }, {
        "duration_ns": 3385439200,
        "uptime_ns": 281679443159
      }, {
        "duration_ns": 3190233654,
        "uptime_ns": 285081382132
      }, {
        "duration_ns": 3243697124,
        "uptime_ns": 288286368323
      }, {
        "duration_ns": 3260324504,
        "uptime_ns": 291542160413
      }, {
        "duration_ns": 3133289520,
        "uptime_ns": 294815477704
      }, {
        "duration_ns": 3482496388,
        "uptime_ns": 297963555054
      }, {
        "duration_ns": 3388669046,
        "uptime_ns": 301460694775
      }, {
        "duration_ns": 3027796181,
        "uptime_ns": 304862007496
      }, {
        "duration_ns": 3160671611,
        "uptime_ns": 307906542410
      }, {
        "duration_ns": 3242195687,
        "uptime_ns": 311083976437
      }, {
        "duration_ns": 3260702400,
        "uptime_ns": 314339025604
      }, {
        "duration_ns": 3310284507,
        "uptime_ns": 317614791629
      }, {
        "duration_ns": 3016271083,
        "uptime_ns": 320940025118
      }, {
        "duration_ns": 3371361956,
        "uptime_ns": 323970477885
      }, {
        "duration_ns": 3059982598,
        "uptime_ns": 327357249260
      }],
      "termination": "normal"
    }
  },
  "environment": {
    "os": {
      "virt_mem_committed": 8176459776,
      "name": "Linux",
      "open_fd_count": 28,
      "phys_mem_free": 9257582592,
      "swap_space_total": 0,
      "available_processors": 8,
      "phys_mem_total": 16304570368,
      "version": "5.4.0-1029-aws",
      "arch": "amd64",
      "max_fd_count": 1048576,
      "swap_space_free": 0
    },
    "vm": {
      "termination": "normal",
      "name": "OpenJDK 64-Bit Server VM",
      "spec_vendor": "Oracle Corporation",
      "spec_name": "Java Virtual Machine Specification",
      "classloading": {
        "class_count": 2671,
        "classes_total": 2712
      },
      "compiler": {
        "name": "HotSpot 64-Bit Tiered Compilers",
        "compilation_time_ms": 6986
      },
      "start_iso": "2020-11-25T19:10:40.198Z",
      "collectors": [{
        "name": "G1 Young Generation",
        "collection_count": 4562,
        "collection_time_ms": 2397
      }, {
        "name": "G1 Old Generation",
        "collection_count": 100,
        "collection_time_ms": 1327
      }],
      "start_unix_ms": 1606331440198,
      "version": "11.0.9.1+1-Ubuntu-0ubuntu1.18.04",
      "mode": "mixed mode, sharing",
      "args": [],
      "pools": [{
        "name": "CodeHeap 'non-nmethods'",
        "type": "NON_HEAP",
        "usage": {
          "init": 2555904,
          "used": 1194880,
          "committed": 2555904,
          "max": 5836800
        },
        "peak_usage": {
          "init": 2555904,
          "used": 1207680,
          "committed": 2555904,
          "max": 5836800
        }
      }, {
        "name": "Metaspace",
        "type": "NON_HEAP",
        "usage": {
          "init": 0,
          "used": 15718296,
          "committed": 17563648,
          "max": -1
        },
        "peak_usage": {
          "init": 0,
          "used": 15718960,
          "committed": 17563648,
          "max": -1
        }
      }, {
        "name": "CodeHeap 'profiled nmethods'",
        "type": "NON_HEAP",
        "usage": {
          "init": 2555904,
          "used": 3261952,
          "committed": 4325376,
          "max": 122908672
        },
        "peak_usage": {
          "init": 2555904,
          "used": 4274816,
          "committed": 4325376,
          "max": 122908672
        }
      }, {
        "name": "Compressed Class Space",
        "type": "NON_HEAP",
        "usage": {
          "init": 0,
          "used": 2465144,
          "committed": 2883584,
          "max": 1073741824
        },
        "peak_usage": {
          "init": 0,
          "used": 2465144,
          "committed": 2883584,
          "max": 1073741824
        }
      }, {
        "name": "G1 Eden Space",
        "type": "HEAP",
        "usage": {
          "init": 27262976,
          "used": 26214400,
          "committed": 148897792,
          "max": -1
        },
        "peak_usage": {
          "init": 27262976,
          "used": 153092096,
          "committed": 161480704,
          "max": -1
        }
      }, {
        "name": "G1 Old Gen",
        "type": "HEAP",
        "usage": {
          "init": 228589568,
          "used": 4315312,
          "committed": 88080384,
          "max": 4076863488
        },
        "peak_usage": {
          "init": 228589568,
          "used": 4849760,
          "committed": 228589568,
          "max": 4076863488
        }
      }, {
        "name": "G1 Survivor Space",
        "type": "HEAP",
        "usage": {
          "init": 0,
          "used": 1048576,
          "committed": 1048576,
          "max": -1
        },
        "peak_usage": {
          "init": 0,
          "used": 1048576,
          "committed": 1048576,
          "max": -1
        }
      }, {
        "name": "CodeHeap 'non-profiled nmethods'",
        "type": "NON_HEAP",
        "usage": {
          "init": 2555904,
          "used": 1661440,
          "committed": 2555904,
          "max": 122912768
        },
        "peak_usage": {
          "init": 2555904,
          "used": 1972480,
          "committed": 2555904,
          "max": 122912768
        }
      }],
      "uptime_ms": 330505,
      "vendor": "Ubuntu",
      "threads": {
        "thread_count": 5,
        "thread_count_max": 14,
        "daemon_thread_count": 4,
        "threads_total": 1005
      },
      "spec_version": "11",
      "memory": {
        "heap_usage": {
          "init": 255852544,
          "used": 31578288,
          "committed": 238026752,
          "max": 4076863488
        },
        "nonheap_usage": {
          "init": 7667712,
          "used": 24237680,
          "committed": 29884416,
          "max": -1
        },
        "pending_finalization_count": 0
      }
    },
    "jre": {
      "java_version": "11.0.9.1",
      "name": "OpenJDK Runtime Environment",
      "spec_vendor": "Oracle Corporation",
      "spec_name": "Java Platform API Specification",
      "class_path": ["target/renaissance-gpl-0.11.0.jar"],
      "home": "/usr/lib/jvm/java-11-openjdk-amd64",
      "version": "11.0.9.1+1-Ubuntu-0ubuntu1.18.04",
      "java_vendor": "Ubuntu",
      "library_path": ["/usr/java/packages/lib", "/usr/lib/x86_64-linux-gnu/jni", "/lib/x86_64-linux-gnu", "/usr/lib/x86_64-linux-gnu", "/usr/lib/jni", "/lib", "/usr/lib"],
      "spec_version": "11"
    }
  },
  "suite": {
    "git": {
      "commit_hash": null,
      "commit_date": null,
      "dirty": "true"
    },
    "name": null,
    "version": null
  }
}