{
  "benchmarks": ["reactors"],
  "format_version": 5,
  "data": {
    "reactors": {
      "results": [{
        "duration_ns": 35390826129,
        "uptime_ns": 804589040
      }, {
        "duration_ns": 34547303570,
        "uptime_ns": 36246474423
      }, {
        "duration_ns": 33771545945,
        "uptime_ns": 70851203496
      }, {
        "duration_ns": 33852175190,
        "uptime_ns": 104677452660
      }, {
        "duration_ns": 32823308073,
        "uptime_ns": 138596347222
      }, {
        "duration_ns": 34689379684,
        "uptime_ns": 171480276927
      }, {
        "duration_ns": 33532161915,
        "uptime_ns": 206227809625
      }, {
        "duration_ns": 31993553362,
        "uptime_ns": 239824224362
      }, {
        "duration_ns": 32984484582,
        "uptime_ns": 271882549041
      }, {
        "duration_ns": 32935578213,
        "uptime_ns": 304920024800
      }, {
        "duration_ns": 33840265729,
        "uptime_ns": 337921908876
      }, {
        "duration_ns": 33154174295,
        "uptime_ns": 371821563150
      }, {
        "duration_ns": 33313548100,
        "uptime_ns": 405055163410
      }, {
        "duration_ns": 33959419660,
        "uptime_ns": 438446971899
      }, {
        "duration_ns": 33585273849,
        "uptime_ns": 472483008696
      }, {
        "duration_ns": 33704682803,
        "uptime_ns": 506124321157
      }, {
        "duration_ns": 34715015879,
        "uptime_ns": 539891142763
      }, {
        "duration_ns": 33938296149,
        "uptime_ns": 574671066116
      }, {
        "duration_ns": 33514975587,
        "uptime_ns": 608686147843
      }, {
        "duration_ns": 34739186800,
        "uptime_ns": 642266329275
      }, {
        "duration_ns": 34510113826,
        "uptime_ns": 677105290451
      }, {
        "duration_ns": 34414158163,
        "uptime_ns": 711703285735
      }, {
        "duration_ns": 33578001051,
        "uptime_ns": 746202203407
      }, {
        "duration_ns": 33798191065,
        "uptime_ns": 779834182851
      }, {
        "duration_ns": 33854737996,
        "uptime_ns": 813695881913
      }, {
        "duration_ns": 33511430525,
        "uptime_ns": 847612042606
      }, {
        "duration_ns": 34646688478,
        "uptime_ns": 881180865535
      }, {
        "duration_ns": 34731541372,
        "uptime_ns": 915891964995
      }, {
        "duration_ns": 33924373569,
        "uptime_ns": 950705735052
      }, {
        "duration_ns": 34407474069,
        "uptime_ns": 984689603276
      }, {
        "duration_ns": 33997656446,
        "uptime_ns": 1019164752752
      }, {
        "duration_ns": 33835204166,
        "uptime_ns": 1053242828803
      }, {
        "duration_ns": 33761849989,
        "uptime_ns": 1087131144562
      }, {
        "duration_ns": 33693408203,
        "uptime_ns": 1120980148110
      }, {
        "duration_ns": 34280501288,
        "uptime_ns": 1154739323837
      }, {
        "duration_ns": 34260396443,
        "uptime_ns": 1189087686065
      }, {
        "duration_ns": 33824204571,
        "uptime_ns": 1223417676153
      }, {
        "duration_ns": 33537149523,
        "uptime_ns": 1257325502626
      }, {
        "duration_ns": 32903941857,
        "uptime_ns": 1290946818752
      }, {
        "duration_ns": 33545589916,
        "uptime_ns": 1323930439591
      }, {
        "duration_ns": 34219269185,
        "uptime_ns": 1357537060176
      }, {
        "duration_ns": 33685752582,
        "uptime_ns": 1391822146965
      }, {
        "duration_ns": 33529891491,
        "uptime_ns": 1425589426375
      }, {
        "duration_ns": 34177211830,
        "uptime_ns": 1459201657112
      }, {
        "duration_ns": 35031857807,
        "uptime_ns": 1493460377049
      }, {
        "duration_ns": 35043890247,
        "uptime_ns": 1528574049836
      }, {
        "duration_ns": 33888623329,
        "uptime_ns": 1563699389162
      }, {
        "duration_ns": 34030490914,
        "uptime_ns": 1597658076778
      }, {
        "duration_ns": 33746176427,
        "uptime_ns": 1631769783387
      }, {
        "duration_ns": 34064317924,
        "uptime_ns": 1665597787969
      }, {
        "duration_ns": 33631090256,
        "uptime_ns": 1699749237985
      }, {
        "duration_ns": 33701177680,
        "uptime_ns": 1733464128563
      }, {
        "duration_ns": 33472233224,
        "uptime_ns": 1767251535514
      }, {
        "duration_ns": 34669003400,
        "uptime_ns": 1800786663144
      }, {
        "duration_ns": 33975701669,
        "uptime_ns": 1835553947257
      }, {
        "duration_ns": 33240137436,
        "uptime_ns": 1869597764413
      }, {
        "duration_ns": 33386218495,
        "uptime_ns": 1902904021223
      }, {
        "duration_ns": 34191790714,
        "uptime_ns": 1936379917467
      }, {
        "duration_ns": 34547234244,
        "uptime_ns": 1970658440106
      }, {
        "duration_ns": 33593692913,
        "uptime_ns": 2005279078192
      }, {
        "duration_ns": 34149963899,
        "uptime_ns": 2038936864264
      }, {
        "duration_ns": 34506472242,
        "uptime_ns": 2073160576169
      }, {
        "duration_ns": 34238680818,
        "uptime_ns": 2107742803797
      }, {
        "duration_ns": 33779136608,
        "uptime_ns": 2142068576769
      }, {
        "duration_ns": 34665060232,
        "uptime_ns": 2175921602901
      }, {
        "duration_ns": 33615126432,
        "uptime_ns": 2210662833917
      }, {
        "duration_ns": 34001783455,
        "uptime_ns": 2244366605261
      }, {
        "duration_ns": 34052340427,
        "uptime_ns": 2278456282499
      }, {
        "duration_ns": 34217077262,
        "uptime_ns": 2312570595731
      }, {
        "duration_ns": 34519311830,
        "uptime_ns": 2346851472839
      }, {
        "duration_ns": 34319009296,
        "uptime_ns": 2381443255862
      }, {
        "duration_ns": 34555157687,
        "uptime_ns": 2415850673375
      }, {
        "duration_ns": 33798602141,
        "uptime_ns": 2450492646949
      }, {
        "duration_ns": 34213253419,
        "uptime_ns": 2484364527514
      }, {
        "duration_ns": 34333177049,
        "uptime_ns": 2518650391215
      }, {
        "duration_ns": 34260146327,
        "uptime_ns": 2553067492452
      }, {
        "duration_ns": 34185097410,
        "uptime_ns": 2587409166589
      }, {
        "duration_ns": 33906944039,
        "uptime_ns": 2621672859954
      }, {
        "duration_ns": 33077412788,
        "uptime_ns": 2655654369375
      }, {
        "duration_ns": 34619141957,
        "uptime_ns": 2688823861507
      }, {
        "duration_ns": 33490291406,
        "uptime_ns": 2723517361701
      }, {
        "duration_ns": 34299592133,
        "uptime_ns": 2757089124165
      }, {
        "duration_ns": 34499550791,
        "uptime_ns": 2791459748636
      }, {
        "duration_ns": 34064178719,
        "uptime_ns": 2826038594278
      }, {
        "duration_ns": 32964232617,
        "uptime_ns": 2860176454424
      }, {
        "duration_ns": 33755334246,
        "uptime_ns": 2893227869262
      }, {
        "duration_ns": 33607090985,
        "uptime_ns": 2927055640333
      }, {
        "duration_ns": 34518950056,
        "uptime_ns": 2960748691784
      }, {
        "duration_ns": 33869270525,
        "uptime_ns": 2995347661227
      }, {
        "duration_ns": 34754921188,
        "uptime_ns": 3029308664556
      }, {
        "duration_ns": 33554181759,
        "uptime_ns": 3064143639522
      }, {
        "duration_ns": 34179872367,
        "uptime_ns": 3097767502191
      }, {
        "duration_ns": 34219322069,
        "uptime_ns": 3132042367903
      }, {
        "duration_ns": 34635925536,
        "uptime_ns": 3166356290504
      }, {
        "duration_ns": 34305494316,
        "uptime_ns": 3201074408142
      }, {
        "duration_ns": 34962487979,
        "uptime_ns": 3235458043225
      }, {
        "duration_ns": 33239135029,
        "uptime_ns": 3270491028333
      }, {
        "duration_ns": 34000698161,
        "uptime_ns": 3303812110163
      }, {
        "duration_ns": 34036981118,
        "uptime_ns": 3337898172330
      }, {
        "duration_ns": 33725434398,
        "uptime_ns": 3372024831823
      }],
      "termination": "normal"
    }
  },
  "environment": {
    "os": {
      "virt_mem_committed": 8860205056,
      "name": "Linux",
      "open_fd_count": 21,
      "phys_mem_free": 7563108352,
      "swap_space_total": 0,
      "available_processors": 8,
      "phys_mem_total": 16304570368,
      "version": "5.4.0-1029-aws",
      "arch": "amd64",
      "max_fd_count": 1048576,
      "swap_space_free": 0
    },
    "vm": {
      "termination": "normal",
      "name": "OpenJDK 64-Bit Server VM",
      "spec_vendor": "Oracle Corporation",
      "spec_name": "Java Virtual Machine Specification",
      "classloading": {
        "class_count": 3151,
        "classes_total": 3201
      },
      "compiler": {
        "name": "HotSpot 64-Bit Tiered Compilers",
        "compilation_time_ms": 13142
      },
      "start_iso": "2020-11-25T19:16:10.769Z",
      "collectors": [{
        "name": "G1 Young Generation",
        "collection_count": 4927,
        "collection_time_ms": 105628
      }, {
        "name": "G1 Old Generation",
        "collection_count": 100,
        "collection_time_ms": 7328
      }],
      "start_unix_ms": 1606331770769,
      "version": "11.0.9.1+1-Ubuntu-0ubuntu1.18.04",
      "mode": "mixed mode, sharing",
      "args": [],
      "pools": [{
        "name": "CodeHeap 'non-nmethods'",
        "type": "NON_HEAP",
        "usage": {
          "init": 2555904,
          "used": 1199488,
          "committed": 2555904,
          "max": 5836800
        },
        "peak_usage": {
          "init": 2555904,
          "used": 1216384,
          "committed": 2555904,
          "max": 5836800
        }
      }, {
        "name": "Metaspace",
        "type": "NON_HEAP",
        "usage": {
          "init": 0,
          "used": 17543432,
          "committed": 19136512,
          "max": -1
        },
        "peak_usage": {
          "init": 0,
          "used": 17543432,
          "committed": 19136512,
          "max": -1
        }
      }, {
        "name": "CodeHeap 'profiled nmethods'",
        "type": "NON_HEAP",
        "usage": {
          "init": 2555904,
          "used": 3575936,
          "committed": 5505024,
          "max": 122908672
        },
        "peak_usage": {
          "init": 2555904,
          "used": 5478144,
          "committed": 5505024,
          "max": 122908672
        }
      }, {
        "name": "Compressed Class Space",
        "type": "NON_HEAP",
        "usage": {
          "init": 0,
          "used": 2734792,
          "committed": 3145728,
          "max": 1073741824
        },
        "peak_usage": {
          "init": 0,
          "used": 2734792,
          "committed": 3145728,
          "max": 1073741824
        }
      }, {
        "name": "G1 Eden Space",
        "type": "HEAP",
        "usage": {
          "init": 27262976,
          "used": 256901120,
          "committed": 362807296,
          "max": -1
        },
        "peak_usage": {
          "init": 27262976,
          "used": 682622976,
          "committed": 722468864,
          "max": -1
        }
      }, {
        "name": "G1 Old Gen",
        "type": "HEAP",
        "usage": {
          "init": 228589568,
          "used": 1196784968,
          "committed": 1764753408,
          "max": 4076863488
        },
        "peak_usage": {
          "init": 228589568,
          "used": 1236793384,
          "committed": 2769289216,
          "max": 4076863488
        }
      }, {
        "name": "G1 Survivor Space",
        "type": "HEAP",
        "usage": {
          "init": 0,
          "used": 5242880,
          "committed": 5242880,
          "max": -1
        },
        "peak_usage": {
          "init": 0,
          "used": 96468992,
          "committed": 96468992,
          "max": -1
        }
      }, {
        "name": "CodeHeap 'non-profiled nmethods'",
        "type": "NON_HEAP",
        "usage": {
          "init": 2555904,
          "used": 2336896,
          "committed": 3473408,
          "max": 122912768
        },
        "peak_usage": {
          "init": 2555904,
          "used": 3464064,
          "committed": 3473408,
          "max": 122912768
        }
      }],
      "uptime_ms": 3405840,
      "vendor": "Ubuntu",
      "threads": {
        "thread_count": 15,
        "thread_count_max": 17,
        "daemon_thread_count": 14,
        "threads_total": 116
      },
      "spec_version": "11",
      "memory": {
        "heap_usage": {
          "init": 255852544,
          "used": 1458928968,
          "committed": 2132803584,
          "max": 4076863488
        },
        "nonheap_usage": {
          "init": 7667712,
          "used": 27318664,
          "committed": 33816576,
          "max": -1
        },
        "pending_finalization_count": 0
      }
    },
    "jre": {
      "java_version": "11.0.9.1",
      "name": "OpenJDK Runtime Environment",
      "spec_vendor": "Oracle Corporation",
      "spec_name": "Java Platform API Specification",
      "class_path": ["target/renaissance-gpl-0.11.0.jar"],
      "home": "/usr/lib/jvm/java-11-openjdk-amd64",
      "version": "11.0.9.1+1-Ubuntu-0ubuntu1.18.04",
      "java_vendor": "Ubuntu",
      "library_path": ["/usr/java/packages/lib", "/usr/lib/x86_64-linux-gnu/jni", "/lib/x86_64-linux-gnu", "/usr/lib/x86_64-linux-gnu", "/usr/lib/jni", "/lib", "/usr/lib"],
      "spec_version": "11"
    }
  },
  "suite": {
    "git": {
      "commit_hash": null,
      "commit_date": null,
      "dirty": "true"
    },
    "name": null,
    "version": null
  }
}