benchmark,duration_ns,uptime_ns,vm_start_unix_ms
rx-scrabble,639413143,1342668221,1606335176720
rx-scrabble,311488522,2058177144,1606335176720
rx-scrabble,202661110,2434080387,1606335176720
rx-scrabble,275322185,2690759438,1606335176720
rx-scrabble,197533485,3002195622,1606335176720
rx-scrabble,203386628,3242439720,1606335176720
rx-scrabble,234322518,3504514935,1606335176720
rx-scrabble,192298108,3774988004,1606335176720
rx-scrabble,193028606,4007061709,1606335176720
rx-scrabble,193059000,4249109500,1606335176720
rx-scrabble,248598179,4490622239,1606335176720
rx-scrabble,190513354,4778605599,1606335176720
rx-scrabble,190646147,5009397144,1606335176720
rx-scrabble,194744239,5248439657,1606335176720
rx-scrabble,193894500,5472336762,1606335176720
rx-scrabble,244904579,5706993198,1606335176720
rx-scrabble,231042430,5994046959,1606335176720
rx-scrabble,231514995,6280719730,1606335176720
rx-scrabble,233699074,6559893047,1606335176720
rx-scrabble,231769192,6822657891,1606335176720
rx-scrabble,229386991,7090591869,1606335176720
rx-scrabble,231866530,7374430177,1606335176720
rx-scrabble,284322613,7654397095,1606335176720
rx-scrabble,230826467,7974592071,1606335176720
rx-scrabble,230337594,8244091470,1606335176720
rx-scrabble,231800406,8524174842,1606335176720
rx-scrabble,286760748,8814055323,1606335176720
rx-scrabble,230538796,9135840546,1606335176720
rx-scrabble,231117535,9405798441,1606335176720
rx-scrabble,230609423,9684831325,1606335176720
rx-scrabble,286259872,9973341459,1606335176720
rx-scrabble,230949918,10295045266,1606335176720
rx-scrabble,230213319,10562159749,1606335176720
rx-scrabble,232214672,10830143943,1606335176720
rx-scrabble,288050978,11109895146,1606335176720
rx-scrabble,233607303,11432182153,1606335176720
rx-scrabble,231401144,11702075654,1606335176720
rx-scrabble,230517035,11981344305,1606335176720
rx-scrabble,285808197,12259885902,1606335176720
rx-scrabble,232189211,12581326008,1606335176720
rx-scrabble,235250105,12853480623,1606335176720
rx-scrabble,236453054,13142718417,1606335176720
rx-scrabble,289410599,13426437948,1606335176720
rx-scrabble,234328971,13752649737,1606335176720
rx-scrabble,235355284,14025370868,1606335176720
rx-scrabble,234561032,14297768829,1606335176720
rx-scrabble,291164425,14568960305,1606335176720
rx-scrabble,234359880,14894912902,1606335176720
rx-scrabble,233987654,15168962676,1606335176720
rx-scrabble,234824432,15443522480,1606335176720
rx-scrabble,292043210,15714780376,1606335176720
rx-scrabble,234018984,16042898200,1606335176720
rx-scrabble,231653416,16314754110,1606335176720
rx-scrabble,235652805,16594128660,1606335176720
rx-scrabble,290377271,16881116314,1606335176720
rx-scrabble,235109915,17208652919,1606335176720
rx-scrabble,234799326,17479478017,1606335176720
rx-scrabble,234262388,17761759851,1606335176720
rx-scrabble,289452612,18045182225,1606335176720
rx-scrabble,234846455,18369315813,1606335176720
rx-scrabble,235938034,18644014646,1606335176720
rx-scrabble,233181997,18921596890,1606335176720
rx-scrabble,290771516,19189387074,1606335176720
rx-scrabble,235365558,19513561146,1606335176720
rx-scrabble,234147832,19789149078,1606335176720
rx-scrabble,233244729,20070614775,1606335176720
rx-scrabble,291272880,20350982558,1606335176720
rx-scrabble,234424024,20676096951,1606335176720
rx-scrabble,234290639,20952056133,1606335176720
rx-scrabble,233799831,21233033094,1606335176720
rx-scrabble,289808398,21513831963,1606335176720
rx-scrabble,233604393,21839366210,1606335176720
rx-scrabble,234595688,22110361208,1606335176720
rx-scrabble,234164909,22382295410,1606335176720
rx-scrabble,288078206,22663090056,1606335176720
rx-scrabble,234484226,22986122582,1606335176720
rx-scrabble,234547636,23261317906,1606335176720
rx-scrabble,241190882,23543289266,1606335176720
rx-scrabble,288607947,23831507128,1606335176720
rx-scrabble,233698076,24155557653,1606335176720
rx-scrabble,234160180,24425987675,1606335176720
rx-scrabble,234303186,24707425778,1606335176720
rx-scrabble,288476643,24988549350,1606335176720
rx-scrabble,234002736,25312515015,1606335176720
rx-scrabble,233883368,25586791170,1606335176720
rx-scrabble,233656182,25855375514,1606335176720
rx-scrabble,290352425,26124369303,1606335176720
rx-scrabble,234225661,26448636966,1606335176720
rx-scrabble,235651116,26723674757,1606335176720
rx-scrabble,271933133,27006465326,1606335176720
rx-scrabble,236112563,27311554537,1606335176720
rx-scrabble,235307446,27584626624,1606335176720
rx-scrabble,234794269,27867481658,1606335176720
rx-scrabble,302294902,28149749546,1606335176720
rx-scrabble,235896836,28488044145,1606335176720
rx-scrabble,237608881,28759189588,1606335176720
rx-scrabble,234180664,29035493086,1606335176720
rx-scrabble,300909258,29309353988,1606335176720
rx-scrabble,235052329,29645305040,1606335176720
rx-scrabble,236090626,29917738834,1606335176720
