benchmark,duration_ns,uptime_ns,vm_start_unix_ms
scala-stm-bench7,2413198246,683605003,1606335889393
scala-stm-bench7,1743489083,3133095657,1606335889393
scala-stm-bench7,1647557692,4904745102,1606335889393
scala-stm-bench7,1617635098,6584495624,1606335889393
scala-stm-bench7,1850877566,8231039096,1606335889393
scala-stm-bench7,1630287390,10115422264,1606335889393
scala-stm-bench7,1711832487,11773760591,1606335889393
scala-stm-bench7,1615804961,13513001409,1606335889393
scala-stm-bench7,1642260417,15156020555,1606335889393
scala-stm-bench7,1627937916,16824886458,1606335889393
scala-stm-bench7,1688164315,18480199335,1606335889393
scala-stm-bench7,1646752658,20195250033,1606335889393
scala-stm-bench7,1696978370,21870733078,1606335889393
scala-stm-bench7,1625037044,23594602984,1606335889393
scala-stm-bench7,1650467869,25247635012,1606335889393
scala-stm-bench7,1651005889,26923580508,1606335889393
scala-stm-bench7,1659228309,28602899885,1606335889393
scala-stm-bench7,1546573194,30288908347,1606335889393
scala-stm-bench7,1627248269,31862912224,1606335889393
scala-stm-bench7,1618682514,33516416238,1606335889393
scala-stm-bench7,1561748022,35160965070,1606335889393
scala-stm-bench7,1600445719,36749185296,1606335889393
scala-stm-bench7,1606165442,38381051952,1606335889393
scala-stm-bench7,1554919945,40014618073,1606335889393
scala-stm-bench7,1579480999,41596992772,1606335889393
scala-stm-bench7,1562494958,43203240093,1606335889393
scala-stm-bench7,1526357286,44791475805,1606335889393
scala-stm-bench7,1611943984,46344640979,1606335889393
scala-stm-bench7,1538747440,47983439585,1606335889393
scala-stm-bench7,1572262936,49548561577,1606335889393
scala-stm-bench7,1531800745,51147922472,1606335889393
scala-stm-bench7,1534597237,52706461537,1606335889393
scala-stm-bench7,1565273780,54268301793,1606335889393
scala-stm-bench7,1546545895,55860157722,1606335889393
scala-stm-bench7,1561543535,57432670407,1606335889393
scala-stm-bench7,1556832818,59019993932,1606335889393
scala-stm-bench7,1600741645,60604076071,1606335889393
scala-stm-bench7,1580527161,62230940317,1606335889393
scala-stm-bench7,1526868260,63838446678,1606335889393
scala-stm-bench7,1562820210,65392528979,1606335889393
scala-stm-bench7,1637037910,66982300020,1606335889393
scala-stm-bench7,1646065268,68646917413,1606335889393
scala-stm-bench7,1629917694,70320982605,1606335889393
scala-stm-bench7,1547730361,71977031364,1606335889393
scala-stm-bench7,1595778828,73551987362,1606335889393
scala-stm-bench7,1550596507,75174326934,1606335889393
scala-stm-bench7,1581129258,76751469020,1606335889393
scala-stm-bench7,1554139997,78359008236,1606335889393
scala-stm-bench7,1576003053,79940170798,1606335889393
scala-stm-bench7,1577880277,81541941389,1606335889393
scala-stm-bench7,1566765455,83145646153,1606335889393
scala-stm-bench7,1528670829,84739491385,1606335889393
scala-stm-bench7,1541638676,86294394033,1606335889393
scala-stm-bench7,1546747259,87862822549,1606335889393
scala-stm-bench7,1559907438,89435869292,1606335889393
scala-stm-bench7,1513304477,91022807398,1606335889393
scala-stm-bench7,1557588537,92561926334,1606335889393
scala-stm-bench7,1539186140,94146277332,1606335889393
scala-stm-bench7,1591531508,95712749486,1606335889393
scala-stm-bench7,1695509152,97330772181,1606335889393
scala-stm-bench7,1535949348,99053118510,1606335889393
scala-stm-bench7,1609355183,100615468003,1606335889393
scala-stm-bench7,1582284750,102251759428,1606335889393
scala-stm-bench7,1561805302,103859532180,1606335889393
scala-stm-bench7,1577101319,105447393603,1606335889393
scala-stm-bench7,1521265125,107049900516,1606335889393
scala-stm-bench7,1616250755,108597497236,1606335889393
scala-stm-bench7,1585809297,110241139059,1606335889393
scala-stm-bench7,1582895394,111852743249,1606335889393
scala-stm-bench7,1593508016,113461767664,1606335889393
scala-stm-bench7,1649904976,115081186513,1606335889393
scala-stm-bench7,1638314116,116758004287,1606335889393
scala-stm-bench7,1590821416,118421905573,1606335889393
scala-stm-bench7,1560389560,120038680408,1606335889393
scala-stm-bench7,1565312107,121624647540,1606335889393
scala-stm-bench7,1589599008,123216294771,1606335889393
scala-stm-bench7,1522967045,124830950224,1606335889393
scala-stm-bench7,1566783987,126379967069,1606335889393
scala-stm-bench7,1534739965,127972425790,1606335889393
scala-stm-bench7,1608989782,129533104188,1606335889393
scala-stm-bench7,1584346208,131168478099,1606335889393
scala-stm-bench7,1597232989,132778297616,1606335889393
scala-stm-bench7,1626614621,134402135320,1606335889393
scala-stm-bench7,1651582032,136055644783,1606335889393
scala-stm-bench7,1651440774,137732411034,1606335889393
scala-stm-bench7,1592517508,139410140318,1606335889393
scala-stm-bench7,1559595830,141028242835,1606335889393
scala-stm-bench7,1564440767,142613737930,1606335889393
scala-stm-bench7,1521078957,144203502355,1606335889393
scala-stm-bench7,1616377216,145750396327,1606335889393
scala-stm-bench7,1626155692,147393304139,1606335889393
scala-stm-bench7,1608545748,149045075246,1606335889393
scala-stm-bench7,1539655652,150680439165,1606335889393
scala-stm-bench7,1613219613,152246149401,1606335889393
scala-stm-bench7,1624232652,153885368805,1606335889393
scala-stm-bench7,1623516902,155536371828,1606335889393
scala-stm-bench7,1627446369,157186744269,1606335889393
scala-stm-bench7,1636992002,158840867493,1606335889393
scala-stm-bench7,1638221525,160505443219,1606335889393
scala-stm-bench7,1593980849,162170423752,1606335889393
