Method,Job,AnalyzeLaunchVariance,EvaluateOverhead,MaxAbsoluteError,MaxRelativeError,MinInvokeCount,MinIterationTime,OutlierMode,Affinity,EnvironmentVariables,Jit,Platform,PowerPlanMode,Runtime,AllowVeryLargeObjects,Concurrent,CpuGroups,Force,HeapAffinitizeMask,HeapCount,NoAffinitize,RetainVm,Server,Arguments,BuildConfiguration,Clock,EngineFactory,NuGetReferences,Toolchain,IsMutator,InvocationCount,IterationCount,IterationTime,LaunchCount,MaxIterationCount,MaxWarmupIterationCount,MinIterationCount,MinWarmupIterationCount,RunStrategy,UnrollFactor,WarmupCount,Mean,Error,StdDev,Median,Min,Max,Gen 0,Gen 1,Gen 2,Allocated
BinaryFormatter,Job-NXBZBK,False,Default,Default,Default,Default,Default,Default,00000000,Empty,RyuJit,X64,00000000-0000-0000-0000-000000000000,.NET Core 5.0,False,True,False,True,Default,Default,False,False,False,/p:DebugType=portable,Default,Default,Default,Default,Default,Default,1,Default,250.0000 ms,Default,20,Default,15,Default,Default,16,1,"4,787.8 ns",82.93 ns,77.57 ns,"4,800.4 ns","4,641.5 ns","4,890.0 ns",1.1860,0.0000,0.0000,5008 B
protobuf-net,Job-NXBZBK,False,Default,Default,Default,Default,Default,Default,00000000,Empty,RyuJit,X64,00000000-0000-0000-0000-000000000000,.NET Core 5.0,False,True,False,True,Default,Default,False,False,False,/p:DebugType=portable,Default,Default,Default,Default,Default,Default,1,Default,250.0000 ms,Default,20,Default,15,Default,Default,16,1,702.6 ns,10.91 ns,9.67 ns,703.7 ns,685.4 ns,715.6 ns,0.1026,0.0000,0.0000,440 B
MessagePack,Job-NXBZBK,False,Default,Default,Default,Default,Default,Default,00000000,Empty,RyuJit,X64,00000000-0000-0000-0000-000000000000,.NET Core 5.0,False,True,False,True,Default,Default,False,False,False,/p:DebugType=portable,Default,Default,Default,Default,Default,Default,1,Default,250.0000 ms,Default,20,Default,15,Default,Default,16,1,136.8 ns,2.78 ns,2.98 ns,135.4 ns,133.9 ns,143.9 ns,0.0401,0.0000,0.0000,168 B
