{
   "Title":"Microsoft.Extensions.DependencyInjection.GetServiceIEnumerable-20201117-214924",
   "HostEnvironmentInfo":{
      "BenchmarkDotNetCaption":"BenchmarkDotNet",
      "BenchmarkDotNetVersion":"0.12.1.1405-nightly",
      "OsVersion":"macOS Catalina 10.15.7 (19H15) [Darwin 19.6.0]",
      "ProcessorName":"Intel Core i7-8559U CPU 2.70GHz (Coffee Lake)",
      "PhysicalProcessorCount":1,
      "PhysicalCoreCount":4,
      "LogicalCoreCount":8,
      "RuntimeVersion":".NET Core 5.0.0 (CoreCLR 5.0.20.51904, CoreFX 5.0.20.51904)",
      "Architecture":"X64",
      "HasAttachedDebugger":false,
      "HasRyuJit":true,
      "Configuration":"RELEASE",
      "DotNetCliVersion":"5.0.100",
      "ChronometerFrequency":{
         "Hertz":1000000000
      },
      "HardwareTimerKind":"Unknown"
   },
   "Benchmarks":[
      {
         "DisplayInfo":"GetServiceIEnumerable.Transient: Job-NXBZBK(PowerPlanMode=00000000-0000-0000-0000-000000000000, Arguments=/p:DebugType=portable, IterationTime=250.0000 ms, MaxIterationCount=20, MinIterationCount=15, WarmupCount=1)",
         "Namespace":"Microsoft.Extensions.DependencyInjection",
         "Type":"GetServiceIEnumerable",
         "Method":"Transient",
         "MethodTitle":"Transient",
         "Parameters":"",
         "FullName":"Microsoft.Extensions.DependencyInjection.GetServiceIEnumerable.Transient",
         "Statistics":{
            "OriginalValues":[
               94.21096641181222,98.48819576202732,93.46995676240928,93.01297127721526,92.31244051309025,95.857582076281,91.95191931383415,93.93402784300466,91.58771110025737,95.33888166175117,96.78386996787707,93.24384662709221,92.6483740505576,95.88869216463472,94.20610766191398,92.32839709390791,93.67958276194591
            ],
            "N":17,
            "Min":91.58771110025737,
            "LowerFence":88.61261263376726,
            "Q1":92.6483740505576,
            "Median":93.67958276194591,
            "Mean":94.05550135585953,
            "Q3":95.33888166175117,
            "UpperFence":99.37464307854152,
            "Max":98.48819576202732,
            "InterquartileRange":2.690507611193567,
            "LowerOutliers":[
               
            ],
            "UpperOutliers":[
               
            ],
            "AllOutliers":[
               
            ],
            "StandardError":0.4543724023967135,
            "Variance":3.5097227610159356,
            "StandardDeviation":1.8734254084473008,
            "Skewness":0.7340082359491377,
            "Kurtosis":2.609790017610315,
            "ConfidenceInterval":{
               "N":17,
               "Mean":94.05550135585953,
               "StandardError":0.4543724023967135,
               "Level":12,
               "Margin":1.8243035269136316,
               "Lower":92.2311978289459,
               "Upper":95.87980488277317
            },
            "Percentiles":{
               "P0":91.58771110025737,
               "P25":92.6483740505576,
               "P50":93.67958276194591,
               "P67":94.20960596184071,
               "P80":95.75384199337503,
               "P85":95.87624812929323,
               "P90":96.24676328593165,
               "P95":97.12473512670712,
               "P100":98.48819576202732
            }
         },
         "Memory":{
            "Gen0Collections":210,
            "Gen1Collections":0,
            "Gen2Collections":0,
            "TotalOperations":2555184,
            "BytesAllocatedPerOperation":344
         },
         "Measurements":[
            {
               "IterationMode":"Overhead",
               "IterationStage":"Jitting",
               "LaunchIndex":1,
               "IterationIndex":1,
               "Operations":1,
               "Nanoseconds":310885
            },{
               "IterationMode":"Workload",
               "IterationStage":"Jitting",
               "LaunchIndex":1,
               "IterationIndex":1,
               "Operations":1,
               "Nanoseconds":10257908
            },{
               "IterationMode":"Overhead",
               "IterationStage":"Jitting",
               "LaunchIndex":1,
               "IterationIndex":2,
               "Operations":16,
               "Nanoseconds":532750
            },{
               "IterationMode":"Workload",
               "IterationStage":"Jitting",
               "LaunchIndex":1,
               "IterationIndex":2,
               "Operations":16,
               "Nanoseconds":1234981
            },{
               "IterationMode":"Workload",
               "IterationStage":"Pilot",
               "LaunchIndex":1,
               "IterationIndex":1,
               "Operations":16,
               "Nanoseconds":89802
            },{
               "IterationMode":"Workload",
               "IterationStage":"Pilot",
               "LaunchIndex":1,
               "IterationIndex":2,
               "Operations":44544,
               "Nanoseconds":12489767
            },{
               "IterationMode":"Workload",
               "IterationStage":"Pilot",
               "LaunchIndex":1,
               "IterationIndex":3,
               "Operations":891616,
               "Nanoseconds":100360951
            },{
               "IterationMode":"Workload",
               "IterationStage":"Pilot",
               "LaunchIndex":1,
               "IterationIndex":4,
               "Operations":2221024,
               "Nanoseconds":225627288
            },{
               "IterationMode":"Workload",
               "IterationStage":"Pilot",
               "LaunchIndex":1,
               "IterationIndex":5,
               "Operations":2460944,
               "Nanoseconds":239456836
            },{
               "IterationMode":"Workload",
               "IterationStage":"Pilot",
               "LaunchIndex":1,
               "IterationIndex":6,
               "Operations":2569312,
               "Nanoseconds":246509838
            },{
               "IterationMode":"Workload",
               "IterationStage":"Pilot",
               "LaunchIndex":1,
               "IterationIndex":7,
               "Operations":2605696,
               "Nanoseconds":285582748
            },{
               "IterationMode":"Workload",
               "IterationStage":"Pilot",
               "LaunchIndex":1,
               "IterationIndex":8,
               "Operations":2281040,
               "Nanoseconds":218943697
            },{
               "IterationMode":"Workload",
               "IterationStage":"Pilot",
               "LaunchIndex":1,
               "IterationIndex":9,
               "Operations":2604608,
               "Nanoseconds":263350794
            },{
               "IterationMode":"Workload",
               "IterationStage":"Pilot",
               "LaunchIndex":1,
               "IterationIndex":10,
               "Operations":2472576,
               "Nanoseconds":241917944
            },{
               "IterationMode":"Workload",
               "IterationStage":"Pilot",
               "LaunchIndex":1,
               "IterationIndex":11,
               "Operations":2555184,
               "Nanoseconds":251959432
            },{
               "IterationMode":"Overhead",
               "IterationStage":"Warmup",
               "LaunchIndex":1,
               "IterationIndex":1,
               "Operations":2555184,
               "Nanoseconds":8678255
            },{
               "IterationMode":"Overhead",
               "IterationStage":"Warmup",
               "LaunchIndex":1,
               "IterationIndex":2,
               "Operations":2555184,
               "Nanoseconds":8849914
            },{
               "IterationMode":"Overhead",
               "IterationStage":"Warmup",
               "LaunchIndex":1,
               "IterationIndex":3,
               "Operations":2555184,
               "Nanoseconds":8687431
            },{
               "IterationMode":"Overhead",
               "IterationStage":"Warmup",
               "LaunchIndex":1,
               "IterationIndex":4,
               "Operations":2555184,
               "Nanoseconds":9020360
            },{
               "IterationMode":"Overhead",
               "IterationStage":"Warmup",
               "LaunchIndex":1,
               "IterationIndex":5,
               "Operations":2555184,
               "Nanoseconds":8954102
            },{
               "IterationMode":"Overhead",
               "IterationStage":"Actual",
               "LaunchIndex":1,
               "IterationIndex":1,
               "Operations":2555184,
               "Nanoseconds":9157505
            },{
               "IterationMode":"Overhead",
               "IterationStage":"Actual",
               "LaunchIndex":1,
               "IterationIndex":2,
               "Operations":2555184,
               "Nanoseconds":8961630
            },{
               "IterationMode":"Overhead",
               "IterationStage":"Actual",
               "LaunchIndex":1,
               "IterationIndex":3,
               "Operations":2555184,
               "Nanoseconds":9631858
            },{
               "IterationMode":"Overhead",
               "IterationStage":"Actual",
               "LaunchIndex":1,
               "IterationIndex":4,
               "Operations":2555184,
               "Nanoseconds":9386594
            },{
               "IterationMode":"Overhead",
               "IterationStage":"Actual",
               "LaunchIndex":1,
               "IterationIndex":5,
               "Operations":2555184,
               "Nanoseconds":8920288
            },{
               "IterationMode":"Overhead",
               "IterationStage":"Actual",
               "LaunchIndex":1,
               "IterationIndex":6,
               "Operations":2555184,
               "Nanoseconds":8950429
            },{
               "IterationMode":"Overhead",
               "IterationStage":"Actual",
               "LaunchIndex":1,
               "IterationIndex":7,
               "Operations":2555184,
               "Nanoseconds":9373855
            },{
               "IterationMode":"Overhead",
               "IterationStage":"Actual",
               "LaunchIndex":1,
               "IterationIndex":8,
               "Operations":2555184,
               "Nanoseconds":8920714
            },{
               "IterationMode":"Overhead",
               "IterationStage":"Actual",
               "LaunchIndex":1,
               "IterationIndex":9,
               "Operations":2555184,
               "Nanoseconds":9741830
            },{
               "IterationMode":"Overhead",
               "IterationStage":"Actual",
               "LaunchIndex":1,
               "IterationIndex":10,
               "Operations":2555184,
               "Nanoseconds":8994239
            },{
               "IterationMode":"Overhead",
               "IterationStage":"Actual",
               "LaunchIndex":1,
               "IterationIndex":11,
               "Operations":2555184,
               "Nanoseconds":9461556
            },{
               "IterationMode":"Overhead",
               "IterationStage":"Actual",
               "LaunchIndex":1,
               "IterationIndex":12,
               "Operations":2555184,
               "Nanoseconds":9010630
            },{
               "IterationMode":"Overhead",
               "IterationStage":"Actual",
               "LaunchIndex":1,
               "IterationIndex":13,
               "Operations":2555184,
               "Nanoseconds":8852715
            },{
               "IterationMode":"Overhead",
               "IterationStage":"Actual",
               "LaunchIndex":1,
               "IterationIndex":14,
               "Operations":2555184,
               "Nanoseconds":8855208
            },{
               "IterationMode":"Overhead",
               "IterationStage":"Actual",
               "LaunchIndex":1,
               "IterationIndex":15,
               "Operations":2555184,
               "Nanoseconds":8809033
            },{
               "IterationMode":"Workload",
               "IterationStage":"Warmup",
               "LaunchIndex":1,
               "IterationIndex":1,
               "Operations":2555184,
               "Nanoseconds":245393770
            },{
               "IterationMode":"Workload",
               "IterationStage":"Actual",
               "LaunchIndex":1,
               "IterationIndex":1,
               "Operations":2555184,
               "Nanoseconds":249720593
            },{
               "IterationMode":"Workload",
               "IterationStage":"Actual",
               "LaunchIndex":1,
               "IterationIndex":2,
               "Operations":2555184,
               "Nanoseconds":260649701
            },{
               "IterationMode":"Workload",
               "IterationStage":"Actual",
               "LaunchIndex":1,
               "IterationIndex":3,
               "Operations":2555184,
               "Nanoseconds":247827177
            },{
               "IterationMode":"Workload",
               "IterationStage":"Actual",
               "LaunchIndex":1,
               "IterationIndex":4,
               "Operations":2555184,
               "Nanoseconds":246659495
            },{
               "IterationMode":"Workload",
               "IterationStage":"Actual",
               "LaunchIndex":1,
               "IterationIndex":5,
               "Operations":2555184,
               "Nanoseconds":244869510
            },{
               "IterationMode":"Workload",
               "IterationStage":"Actual",
               "LaunchIndex":1,
               "IterationIndex":6,
               "Operations":2555184,
               "Nanoseconds":253927999
            },{
               "IterationMode":"Workload",
               "IterationStage":"Actual",
               "LaunchIndex":1,
               "IterationIndex":7,
               "Operations":2555184,
               "Nanoseconds":243948312
            },{
               "IterationMode":"Workload",
               "IterationStage":"Actual",
               "LaunchIndex":1,
               "IterationIndex":8,
               "Operations":2555184,
               "Nanoseconds":249012964
            },{
               "IterationMode":"Workload",
               "IterationStage":"Actual",
               "LaunchIndex":1,
               "IterationIndex":9,
               "Operations":2555184,
               "Nanoseconds":243017693
            },{
               "IterationMode":"Workload",
               "IterationStage":"Actual",
               "LaunchIndex":1,
               "IterationIndex":10,
               "Operations":2555184,
               "Nanoseconds":252602624
            },{
               "IterationMode":"Workload",
               "IterationStage":"Actual",
               "LaunchIndex":1,
               "IterationIndex":11,
               "Operations":2555184,
               "Nanoseconds":256294835
            },{
               "IterationMode":"Workload",
               "IterationStage":"Actual",
               "LaunchIndex":1,
               "IterationIndex":12,
               "Operations":2555184,
               "Nanoseconds":247249424
            },{
               "IterationMode":"Workload",
               "IterationStage":"Actual",
               "LaunchIndex":1,
               "IterationIndex":13,
               "Operations":2555184,
               "Nanoseconds":245727882
            },{
               "IterationMode":"Workload",
               "IterationStage":"Actual",
               "LaunchIndex":1,
               "IterationIndex":14,
               "Operations":2555184,
               "Nanoseconds":254007491
            },{
               "IterationMode":"Workload",
               "IterationStage":"Actual",
               "LaunchIndex":1,
               "IterationIndex":15,
               "Operations":2555184,
               "Nanoseconds":249708178
            },{
               "IterationMode":"Workload",
               "IterationStage":"Actual",
               "LaunchIndex":1,
               "IterationIndex":16,
               "Operations":2555184,
               "Nanoseconds":244910282
            },{
               "IterationMode":"Workload",
               "IterationStage":"Actual",
               "LaunchIndex":1,
               "IterationIndex":17,
               "Operations":2555184,
               "Nanoseconds":248362810
            },{
               "IterationMode":"Workload",
               "IterationStage":"Result",
               "LaunchIndex":1,
               "IterationIndex":1,
               "Operations":2555184,
               "Nanoseconds":240726354
            },{
               "IterationMode":"Workload",
               "IterationStage":"Result",
               "LaunchIndex":1,
               "IterationIndex":2,
               "Operations":2555184,
               "Nanoseconds":251655462
            },{
               "IterationMode":"Workload",
               "IterationStage":"Result",
               "LaunchIndex":1,
               "IterationIndex":3,
               "Operations":2555184,
               "Nanoseconds":238832938
            },{
               "IterationMode":"Workload",
               "IterationStage":"Result",
               "LaunchIndex":1,
               "IterationIndex":4,
               "Operations":2555184,
               "Nanoseconds":237665256
            },{
               "IterationMode":"Workload",
               "IterationStage":"Result",
               "LaunchIndex":1,
               "IterationIndex":5,
               "Operations":2555184,
               "Nanoseconds":235875271
            },{
               "IterationMode":"Workload",
               "IterationStage":"Result",
               "LaunchIndex":1,
               "IterationIndex":6,
               "Operations":2555184,
               "Nanoseconds":244933760
            },{
               "IterationMode":"Workload",
               "IterationStage":"Result",
               "LaunchIndex":1,
               "IterationIndex":7,
               "Operations":2555184,
               "Nanoseconds":234954073
            },{
               "IterationMode":"Workload",
               "IterationStage":"Result",
               "LaunchIndex":1,
               "IterationIndex":8,
               "Operations":2555184,
               "Nanoseconds":240018725
            },{
               "IterationMode":"Workload",
               "IterationStage":"Result",
               "LaunchIndex":1,
               "IterationIndex":9,
               "Operations":2555184,
               "Nanoseconds":234023454
            },{
               "IterationMode":"Workload",
               "IterationStage":"Result",
               "LaunchIndex":1,
               "IterationIndex":10,
               "Operations":2555184,
               "Nanoseconds":243608385
            },{
               "IterationMode":"Workload",
               "IterationStage":"Result",
               "LaunchIndex":1,
               "IterationIndex":11,
               "Operations":2555184,
               "Nanoseconds":247300596
            },{
               "IterationMode":"Workload",
               "IterationStage":"Result",
               "LaunchIndex":1,
               "IterationIndex":12,
               "Operations":2555184,
               "Nanoseconds":238255185
            },{
               "IterationMode":"Workload",
               "IterationStage":"Result",
               "LaunchIndex":1,
               "IterationIndex":13,
               "Operations":2555184,
               "Nanoseconds":236733643
            },{
               "IterationMode":"Workload",
               "IterationStage":"Result",
               "LaunchIndex":1,
               "IterationIndex":14,
               "Operations":2555184,
               "Nanoseconds":245013252
            },{
               "IterationMode":"Workload",
               "IterationStage":"Result",
               "LaunchIndex":1,
               "IterationIndex":15,
               "Operations":2555184,
               "Nanoseconds":240713939
            },{
               "IterationMode":"Workload",
               "IterationStage":"Result",
               "LaunchIndex":1,
               "IterationIndex":16,
               "Operations":2555184,
               "Nanoseconds":235916043
            },{
               "IterationMode":"Workload",
               "IterationStage":"Result",
               "LaunchIndex":1,
               "IterationIndex":17,
               "Operations":2555184,
               "Nanoseconds":239368571
            }
         ],
         "Metrics":[
            {
               "Value":0.08218586215317567,
               "Descriptor":{
                  "Id":"Gen0Collects",
                  "DisplayName":"Gen 0",
                  "Legend":"GC Generation 0 collects per 1000 operations",
                  "NumberFormat":"#0.0000",
                  "UnitType":0,
                  "Unit":"Count",
                  "TheGreaterTheBetter":false
               }
            },{
               "Value":0,
               "Descriptor":{
                  "Id":"Gen1Collects",
                  "DisplayName":"Gen 1",
                  "Legend":"GC Generation 1 collects per 1000 operations",
                  "NumberFormat":"#0.0000",
                  "UnitType":0,
                  "Unit":"Count",
                  "TheGreaterTheBetter":false
               }
            },{
               "Value":0,
               "Descriptor":{
                  "Id":"Gen2Collects",
                  "DisplayName":"Gen 2",
                  "Legend":"GC Generation 2 collects per 1000 operations",
                  "NumberFormat":"#0.0000",
                  "UnitType":0,
                  "Unit":"Count",
                  "TheGreaterTheBetter":false
               }
            },{
               "Value":344,
               "Descriptor":{
                  "Id":"Allocated Memory",
                  "DisplayName":"Allocated",
                  "Legend":"Allocated memory per single operation (managed only, inclusive, 1KB = 1024B)",
                  "NumberFormat":"N0",
                  "UnitType":2,
                  "Unit":"B",
                  "TheGreaterTheBetter":false
               }
            }
         ]
      },{
         "DisplayInfo":"GetServiceIEnumerable.Scoped: Job-NXBZBK(PowerPlanMode=00000000-0000-0000-0000-000000000000, Arguments=/p:DebugType=portable, IterationTime=250.0000 ms, MaxIterationCount=20, MinIterationCount=15, WarmupCount=1)",
         "Namespace":"Microsoft.Extensions.DependencyInjection",
         "Type":"GetServiceIEnumerable",
         "Method":"Scoped",
         "MethodTitle":"Scoped",
         "Parameters":"",
         "FullName":"Microsoft.Extensions.DependencyInjection.GetServiceIEnumerable.Scoped",
         "Statistics":{
            "OriginalValues":[
               47.14276356069632,48.76943961808313,48.70543544810696,48.265483518665604,48.11681021644162,49.134764901045806,48.54581719949695,48.67407375231665,49.15131863085782,48.477442207770714,48.389392829957636,48.07551897173683,49.00781291368811,49.014051537265026,48.18946853488218
            ],
            "N":15,
            "Min":47.14276356069632,
            "LowerFence":47.235750668106306,
            "Q1":48.22747602677389,
            "Median":48.54581719949695,
            "Mean":48.51063958940076,
            "Q3":48.88862626588562,
            "UpperFence":49.880351624553214,
            "Max":49.15131863085782,
            "InterquartileRange":0.661150239111727,
            "LowerOutliers":[
               47.14276356069632
            ],
            "UpperOutliers":[
               
            ],
            "AllOutliers":[
               47.14276356069632
            ],
            "StandardError":0.13501410082683032,
            "Variance":0.2734321113311626,
            "StandardDeviation":0.5229073640054829,
            "Skewness":-0.9170815704139594,
            "Kurtosis":3.5912594650243057,
            "ConfidenceInterval":{
               "N":15,
               "Mean":48.51063958940076,
               "StandardError":0.13501410082683032,
               "Level":12,
               "Margin":0.5590196890794246,
               "Lower":47.95161990032133,
               "Upper":49.06965927848019
            },
            "Percentiles":{
               "P0":47.14276356069632,
               "P25":48.22747602677389,
               "P50":48.54581719949695,
               "P67":48.729757032697904,
               "P80":49.0090606384035,
               "P85":49.013427674907334,
               "P90":49.086479555533494,
               "P95":49.139731019989405,
               "P100":49.15131863085782
            }
         },
         "Memory":{
            "Gen0Collections":0,
            "Gen1Collections":0,
            "Gen2Collections":0,
            "TotalOperations":4834560,
            "BytesAllocatedPerOperation":0
         },
         "Measurements":[
            {
               "IterationMode":"Overhead",
               "IterationStage":"Jitting",
               "LaunchIndex":1,
               "IterationIndex":1,
               "Operations":1,
               "Nanoseconds":309816
            },{
               "IterationMode":"Workload",
               "IterationStage":"Jitting",
               "LaunchIndex":1,
               "IterationIndex":1,
               "Operations":1,
               "Nanoseconds":13375957
            },{
               "IterationMode":"Overhead",
               "IterationStage":"Jitting",
               "LaunchIndex":1,
               "IterationIndex":2,
               "Operations":16,
               "Nanoseconds":530176
            },{
               "IterationMode":"Workload",
               "IterationStage":"Jitting",
               "LaunchIndex":1,
               "IterationIndex":2,
               "Operations":16,
               "Nanoseconds":1120492
            },{
               "IterationMode":"Workload",
               "IterationStage":"Pilot",
               "LaunchIndex":1,
               "IterationIndex":1,
               "Operations":16,
               "Nanoseconds":5087
            },{
               "IterationMode":"Workload",
               "IterationStage":"Pilot",
               "LaunchIndex":1,
               "IterationIndex":2,
               "Operations":786320,
               "Nanoseconds":60171764
            },{
               "IterationMode":"Workload",
               "IterationStage":"Pilot",
               "LaunchIndex":1,
               "IterationIndex":3,
               "Operations":3266992,
               "Nanoseconds":187664605
            },{
               "IterationMode":"Workload",
               "IterationStage":"Pilot",
               "LaunchIndex":1,
               "IterationIndex":4,
               "Operations":4352176,
               "Nanoseconds":216312399
            },{
               "IterationMode":"Workload",
               "IterationStage":"Pilot",
               "LaunchIndex":1,
               "IterationIndex":5,
               "Operations":5029968,
               "Nanoseconds":258521235
            },{
               "IterationMode":"Workload",
               "IterationStage":"Pilot",
               "LaunchIndex":1,
               "IterationIndex":6,
               "Operations":4864176,
               "Nanoseconds":246352197
            },{
               "IterationMode":"Workload",
               "IterationStage":"Pilot",
               "LaunchIndex":1,
               "IterationIndex":7,
               "Operations":4936208,
               "Nanoseconds":248500931
            },{
               "IterationMode":"Workload",
               "IterationStage":"Pilot",
               "LaunchIndex":1,
               "IterationIndex":8,
               "Operations":4966000,
               "Nanoseconds":256797407
            },{
               "IterationMode":"Workload",
               "IterationStage":"Pilot",
               "LaunchIndex":1,
               "IterationIndex":9,
               "Operations":4834560,
               "Nanoseconds":268114613
            },{
               "IterationMode":"Overhead",
               "IterationStage":"Warmup",
               "LaunchIndex":1,
               "IterationIndex":1,
               "Operations":4834560,
               "Nanoseconds":17518675
            },{
               "IterationMode":"Overhead",
               "IterationStage":"Warmup",
               "LaunchIndex":1,
               "IterationIndex":2,
               "Operations":4834560,
               "Nanoseconds":17433571
            },{
               "IterationMode":"Overhead",
               "IterationStage":"Warmup",
               "LaunchIndex":1,
               "IterationIndex":3,
               "Operations":4834560,
               "Nanoseconds":17657276
            },{
               "IterationMode":"Overhead",
               "IterationStage":"Warmup",
               "LaunchIndex":1,
               "IterationIndex":4,
               "Operations":4834560,
               "Nanoseconds":17465822
            },{
               "IterationMode":"Overhead",
               "IterationStage":"Warmup",
               "LaunchIndex":1,
               "IterationIndex":5,
               "Operations":4834560,
               "Nanoseconds":17560187
            },{
               "IterationMode":"Overhead",
               "IterationStage":"Warmup",
               "LaunchIndex":1,
               "IterationIndex":6,
               "Operations":4834560,
               "Nanoseconds":17352664
            },{
               "IterationMode":"Overhead",
               "IterationStage":"Actual",
               "LaunchIndex":1,
               "IterationIndex":1,
               "Operations":4834560,
               "Nanoseconds":17363352
            },{
               "IterationMode":"Overhead",
               "IterationStage":"Actual",
               "LaunchIndex":1,
               "IterationIndex":2,
               "Operations":4834560,
               "Nanoseconds":17290238
            },{
               "IterationMode":"Overhead",
               "IterationStage":"Actual",
               "LaunchIndex":1,
               "IterationIndex":3,
               "Operations":4834560,
               "Nanoseconds":17393322
            },{
               "IterationMode":"Overhead",
               "IterationStage":"Actual",
               "LaunchIndex":1,
               "IterationIndex":4,
               "Operations":4834560,
               "Nanoseconds":17324289
            },{
               "IterationMode":"Overhead",
               "IterationStage":"Actual",
               "LaunchIndex":1,
               "IterationIndex":5,
               "Operations":4834560,
               "Nanoseconds":17432470
            },{
               "IterationMode":"Overhead",
               "IterationStage":"Actual",
               "LaunchIndex":1,
               "IterationIndex":6,
               "Operations":4834560,
               "Nanoseconds":17449169
            },{
               "IterationMode":"Overhead",
               "IterationStage":"Actual",
               "LaunchIndex":1,
               "IterationIndex":7,
               "Operations":4834560,
               "Nanoseconds":17341815
            },{
               "IterationMode":"Overhead",
               "IterationStage":"Actual",
               "LaunchIndex":1,
               "IterationIndex":8,
               "Operations":4834560,
               "Nanoseconds":17490227
            },{
               "IterationMode":"Overhead",
               "IterationStage":"Actual",
               "LaunchIndex":1,
               "IterationIndex":9,
               "Operations":4834560,
               "Nanoseconds":17063962
            },{
               "IterationMode":"Overhead",
               "IterationStage":"Actual",
               "LaunchIndex":1,
               "IterationIndex":10,
               "Operations":4834560,
               "Nanoseconds":17154166
            },{
               "IterationMode":"Overhead",
               "IterationStage":"Actual",
               "LaunchIndex":1,
               "IterationIndex":11,
               "Operations":4834560,
               "Nanoseconds":16902743
            },{
               "IterationMode":"Overhead",
               "IterationStage":"Actual",
               "LaunchIndex":1,
               "IterationIndex":12,
               "Operations":4834560,
               "Nanoseconds":16197486
            },{
               "IterationMode":"Overhead",
               "IterationStage":"Actual",
               "LaunchIndex":1,
               "IterationIndex":13,
               "Operations":4834560,
               "Nanoseconds":16430449
            },{
               "IterationMode":"Overhead",
               "IterationStage":"Actual",
               "LaunchIndex":1,
               "IterationIndex":14,
               "Operations":4834560,
               "Nanoseconds":16072072
            },{
               "IterationMode":"Overhead",
               "IterationStage":"Actual",
               "LaunchIndex":1,
               "IterationIndex":15,
               "Operations":4834560,
               "Nanoseconds":16101896
            },{
               "IterationMode":"Workload",
               "IterationStage":"Warmup",
               "LaunchIndex":1,
               "IterationIndex":1,
               "Operations":4834560,
               "Nanoseconds":269011001
            },{
               "IterationMode":"Workload",
               "IterationStage":"Actual",
               "LaunchIndex":1,
               "IterationIndex":1,
               "Operations":4834560,
               "Nanoseconds":245204757
            },{
               "IterationMode":"Workload",
               "IterationStage":"Actual",
               "LaunchIndex":1,
               "IterationIndex":2,
               "Operations":4834560,
               "Nanoseconds":253069020
            },{
               "IterationMode":"Workload",
               "IterationStage":"Actual",
               "LaunchIndex":1,
               "IterationIndex":3,
               "Operations":4834560,
               "Nanoseconds":252759588
            },{
               "IterationMode":"Workload",
               "IterationStage":"Actual",
               "LaunchIndex":1,
               "IterationIndex":4,
               "Operations":4834560,
               "Nanoseconds":250632614
            },{
               "IterationMode":"Workload",
               "IterationStage":"Actual",
               "LaunchIndex":1,
               "IterationIndex":5,
               "Operations":4834560,
               "Nanoseconds":249913844
            },{
               "IterationMode":"Workload",
               "IterationStage":"Actual",
               "LaunchIndex":1,
               "IterationIndex":6,
               "Operations":4834560,
               "Nanoseconds":254835207
            },{
               "IterationMode":"Workload",
               "IterationStage":"Actual",
               "LaunchIndex":1,
               "IterationIndex":7,
               "Operations":4834560,
               "Nanoseconds":251987904
            },{
               "IterationMode":"Workload",
               "IterationStage":"Actual",
               "LaunchIndex":1,
               "IterationIndex":8,
               "Operations":4834560,
               "Nanoseconds":252607968
            },{
               "IterationMode":"Workload",
               "IterationStage":"Actual",
               "LaunchIndex":1,
               "IterationIndex":9,
               "Operations":4834560,
               "Nanoseconds":254915237
            },{
               "IterationMode":"Workload",
               "IterationStage":"Actual",
               "LaunchIndex":1,
               "IterationIndex":10,
               "Operations":4834560,
               "Nanoseconds":251657341
            },{
               "IterationMode":"Workload",
               "IterationStage":"Actual",
               "LaunchIndex":1,
               "IterationIndex":11,
               "Operations":4834560,
               "Nanoseconds":251231661
            },{
               "IterationMode":"Workload",
               "IterationStage":"Actual",
               "LaunchIndex":1,
               "IterationIndex":12,
               "Operations":4834560,
               "Nanoseconds":249714219
            },{
               "IterationMode":"Workload",
               "IterationStage":"Actual",
               "LaunchIndex":1,
               "IterationIndex":13,
               "Operations":4834560,
               "Nanoseconds":254221450
            },{
               "IterationMode":"Workload",
               "IterationStage":"Actual",
               "LaunchIndex":1,
               "IterationIndex":14,
               "Operations":4834560,
               "Nanoseconds":254251611
            },{
               "IterationMode":"Workload",
               "IterationStage":"Actual",
               "LaunchIndex":1,
               "IterationIndex":15,
               "Operations":4834560,
               "Nanoseconds":250265115
            },{
               "IterationMode":"Workload",
               "IterationStage":"Result",
               "LaunchIndex":1,
               "IterationIndex":1,
               "Operations":4834560,
               "Nanoseconds":227914519
            },{
               "IterationMode":"Workload",
               "IterationStage":"Result",
               "LaunchIndex":1,
               "IterationIndex":2,
               "Operations":4834560,
               "Nanoseconds":235778782
            },{
               "IterationMode":"Workload",
               "IterationStage":"Result",
               "LaunchIndex":1,
               "IterationIndex":3,
               "Operations":4834560,
               "Nanoseconds":235469350
            },{
               "IterationMode":"Workload",
               "IterationStage":"Result",
               "LaunchIndex":1,
               "IterationIndex":4,
               "Operations":4834560,
               "Nanoseconds":233342376
            },{
               "IterationMode":"Workload",
               "IterationStage":"Result",
               "LaunchIndex":1,
               "IterationIndex":5,
               "Operations":4834560,
               "Nanoseconds":232623606
            },{
               "IterationMode":"Workload",
               "IterationStage":"Result",
               "LaunchIndex":1,
               "IterationIndex":6,
               "Operations":4834560,
               "Nanoseconds":237544969
            },{
               "IterationMode":"Workload",
               "IterationStage":"Result",
               "LaunchIndex":1,
               "IterationIndex":7,
               "Operations":4834560,
               "Nanoseconds":234697666
            },{
               "IterationMode":"Workload",
               "IterationStage":"Result",
               "LaunchIndex":1,
               "IterationIndex":8,
               "Operations":4834560,
               "Nanoseconds":235317730
            },{
               "IterationMode":"Workload",
               "IterationStage":"Result",
               "LaunchIndex":1,
               "IterationIndex":9,
               "Operations":4834560,
               "Nanoseconds":237624999
            },{
               "IterationMode":"Workload",
               "IterationStage":"Result",
               "LaunchIndex":1,
               "IterationIndex":10,
               "Operations":4834560,
               "Nanoseconds":234367103
            },{
               "IterationMode":"Workload",
               "IterationStage":"Result",
               "LaunchIndex":1,
               "IterationIndex":11,
               "Operations":4834560,
               "Nanoseconds":233941423
            },{
               "IterationMode":"Workload",
               "IterationStage":"Result",
               "LaunchIndex":1,
               "IterationIndex":12,
               "Operations":4834560,
               "Nanoseconds":232423981
            },{
               "IterationMode":"Workload",
               "IterationStage":"Result",
               "LaunchIndex":1,
               "IterationIndex":13,
               "Operations":4834560,
               "Nanoseconds":236931212
            },{
               "IterationMode":"Workload",
               "IterationStage":"Result",
               "LaunchIndex":1,
               "IterationIndex":14,
               "Operations":4834560,
               "Nanoseconds":236961373
            },{
               "IterationMode":"Workload",
               "IterationStage":"Result",
               "LaunchIndex":1,
               "IterationIndex":15,
               "Operations":4834560,
               "Nanoseconds":232974877
            }
         ],
         "Metrics":[
            {
               "Value":0,
               "Descriptor":{
                  "Id":"Gen0Collects",
                  "DisplayName":"Gen 0",
                  "Legend":"GC Generation 0 collects per 1000 operations",
                  "NumberFormat":"#0.0000",
                  "UnitType":0,
                  "Unit":"Count",
                  "TheGreaterTheBetter":false
               }
            },{
               "Value":0,
               "Descriptor":{
                  "Id":"Gen1Collects",
                  "DisplayName":"Gen 1",
                  "Legend":"GC Generation 1 collects per 1000 operations",
                  "NumberFormat":"#0.0000",
                  "UnitType":0,
                  "Unit":"Count",
                  "TheGreaterTheBetter":false
               }
            },{
               "Value":0,
               "Descriptor":{
                  "Id":"Gen2Collects",
                  "DisplayName":"Gen 2",
                  "Legend":"GC Generation 2 collects per 1000 operations",
                  "NumberFormat":"#0.0000",
                  "UnitType":0,
                  "Unit":"Count",
                  "TheGreaterTheBetter":false
               }
            },{
               "Value":0,
               "Descriptor":{
                  "Id":"Allocated Memory",
                  "DisplayName":"Allocated",
                  "Legend":"Allocated memory per single operation (managed only, inclusive, 1KB = 1024B)",
                  "NumberFormat":"N0",
                  "UnitType":2,
                  "Unit":"B",
                  "TheGreaterTheBetter":false
               }
            }
         ]
      },{
         "DisplayInfo":"GetServiceIEnumerable.Singleton: Job-NXBZBK(PowerPlanMode=00000000-0000-0000-0000-000000000000, Arguments=/p:DebugType=portable, IterationTime=250.0000 ms, MaxIterationCount=20, MinIterationCount=15, WarmupCount=1)",
         "Namespace":"Microsoft.Extensions.DependencyInjection",
         "Type":"GetServiceIEnumerable",
         "Method":"Singleton",
         "MethodTitle":"Singleton",
         "Parameters":"",
         "FullName":"Microsoft.Extensions.DependencyInjection.GetServiceIEnumerable.Singleton",
         "Statistics":{
            "OriginalValues":[
               22.395660375024736,22.69860468616004,22.766018124546473,23.01027658899004,22.455292441783758,22.514472013325417,23.18851909344284,22.68068247410779,22.545382796523516,22.496405600633288,22.613371285210107,22.738072370374034,22.38414452635398,22.994354529487435
            ],
            "N":14,
            "Min":22.38414452635398,
            "LowerFence":22.113757980510755,
            "Q1":22.50092220380632,
            "Median":22.64702687965895,
            "Mean":22.677232636140246,
            "Q3":22.75903168600336,
            "UpperFence":23.146195909298925,
            "Max":23.18851909344284,
            "InterquartileRange":0.25810948219704244,
            "LowerOutliers":[
               
            ],
            "UpperOutliers":[
               23.18851909344284
            ],
            "AllOutliers":[
               23.18851909344284
            ],
            "StandardError":0.06546723578516811,
            "Variance":0.060003425458911144,
            "StandardDeviation":0.24495596636724556,
            "Skewness":0.6425234598907663,
            "Kurtosis":2.1626597880689267,
            "ConfidenceInterval":{
               "N":14,
               "Mean":22.677232636140246,
               "StandardError":0.06546723578516811,
               "Level":12,
               "Margin":0.27632618592732994,
               "Lower":22.400906450212915,
               "Upper":22.953558822067578
            },
            "Percentiles":{
               "P0":22.38414452635398,
               "P25":22.50092220380632,
               "P50":22.64702687965895,
               "P67":22.726626741951975,
               "P80":22.85735268652286,
               "P85":22.995150632462565,
               "P90":23.00549997113926,
               "P95":23.07266146554852,
               "P100":23.18851909344284
            }
         },
         "Memory":{
            "Gen0Collections":0,
            "Gen1Collections":0,
            "Gen2Collections":0,
            "TotalOperations":9701760,
            "BytesAllocatedPerOperation":0
         },
         "Measurements":[
            {
               "IterationMode":"Overhead",
               "IterationStage":"Jitting",
               "LaunchIndex":1,
               "IterationIndex":1,
               "Operations":1,
               "Nanoseconds":308099
            },{
               "IterationMode":"Workload",
               "IterationStage":"Jitting",
               "LaunchIndex":1,
               "IterationIndex":1,
               "Operations":1,
               "Nanoseconds":12637335
            },{
               "IterationMode":"Overhead",
               "IterationStage":"Jitting",
               "LaunchIndex":1,
               "IterationIndex":2,
               "Operations":16,
               "Nanoseconds":495920
            },{
               "IterationMode":"Workload",
               "IterationStage":"Jitting",
               "LaunchIndex":1,
               "IterationIndex":2,
               "Operations":16,
               "Nanoseconds":1048540
            },{
               "IterationMode":"Workload",
               "IterationStage":"Pilot",
               "LaunchIndex":1,
               "IterationIndex":1,
               "Operations":16,
               "Nanoseconds":75380
            },{
               "IterationMode":"Workload",
               "IterationStage":"Pilot",
               "LaunchIndex":1,
               "IterationIndex":2,
               "Operations":53072,
               "Nanoseconds":2466283
            },{
               "IterationMode":"Workload",
               "IterationStage":"Pilot",
               "LaunchIndex":1,
               "IterationIndex":3,
               "Operations":5379760,
               "Nanoseconds":201841664
            },{
               "IterationMode":"Workload",
               "IterationStage":"Pilot",
               "LaunchIndex":1,
               "IterationIndex":4,
               "Operations":6663344,
               "Nanoseconds":173896928
            },{
               "IterationMode":"Workload",
               "IterationStage":"Pilot",
               "LaunchIndex":1,
               "IterationIndex":5,
               "Operations":9579456,
               "Nanoseconds":246668007
            },{
               "IterationMode":"Workload",
               "IterationStage":"Pilot",
               "LaunchIndex":1,
               "IterationIndex":6,
               "Operations":9708864,
               "Nanoseconds":251881237
            },{
               "IterationMode":"Workload",
               "IterationStage":"Pilot",
               "LaunchIndex":1,
               "IterationIndex":7,
               "Operations":9636352,
               "Nanoseconds":254669128
            },{
               "IterationMode":"Workload",
               "IterationStage":"Pilot",
               "LaunchIndex":1,
               "IterationIndex":8,
               "Operations":9459680,
               "Nanoseconds":247785683
            },{
               "IterationMode":"Workload",
               "IterationStage":"Pilot",
               "LaunchIndex":1,
               "IterationIndex":9,
               "Operations":9544224,
               "Nanoseconds":245961456
            },{
               "IterationMode":"Workload",
               "IterationStage":"Pilot",
               "LaunchIndex":1,
               "IterationIndex":10,
               "Operations":9700944,
               "Nanoseconds":249978971
            },{
               "IterationMode":"Workload",
               "IterationStage":"Pilot",
               "LaunchIndex":1,
               "IterationIndex":11,
               "Operations":9701760,
               "Nanoseconds":256073540
            },{
               "IterationMode":"Overhead",
               "IterationStage":"Warmup",
               "LaunchIndex":1,
               "IterationIndex":1,
               "Operations":9701760,
               "Nanoseconds":33435972
            },{
               "IterationMode":"Overhead",
               "IterationStage":"Warmup",
               "LaunchIndex":1,
               "IterationIndex":2,
               "Operations":9701760,
               "Nanoseconds":34379663
            },{
               "IterationMode":"Overhead",
               "IterationStage":"Warmup",
               "LaunchIndex":1,
               "IterationIndex":3,
               "Operations":9701760,
               "Nanoseconds":34197399
            },{
               "IterationMode":"Overhead",
               "IterationStage":"Warmup",
               "LaunchIndex":1,
               "IterationIndex":4,
               "Operations":9701760,
               "Nanoseconds":33581964
            },{
               "IterationMode":"Overhead",
               "IterationStage":"Warmup",
               "LaunchIndex":1,
               "IterationIndex":5,
               "Operations":9701760,
               "Nanoseconds":34131860
            },{
               "IterationMode":"Overhead",
               "IterationStage":"Warmup",
               "LaunchIndex":1,
               "IterationIndex":6,
               "Operations":9701760,
               "Nanoseconds":34240035
            },{
               "IterationMode":"Overhead",
               "IterationStage":"Warmup",
               "LaunchIndex":1,
               "IterationIndex":7,
               "Operations":9701760,
               "Nanoseconds":33910077
            },{
               "IterationMode":"Overhead",
               "IterationStage":"Actual",
               "LaunchIndex":1,
               "IterationIndex":1,
               "Operations":9701760,
               "Nanoseconds":34656191
            },{
               "IterationMode":"Overhead",
               "IterationStage":"Actual",
               "LaunchIndex":1,
               "IterationIndex":2,
               "Operations":9701760,
               "Nanoseconds":33970007
            },{
               "IterationMode":"Overhead",
               "IterationStage":"Actual",
               "LaunchIndex":1,
               "IterationIndex":3,
               "Operations":9701760,
               "Nanoseconds":34209347
            },{
               "IterationMode":"Overhead",
               "IterationStage":"Actual",
               "LaunchIndex":1,
               "IterationIndex":4,
               "Operations":9701760,
               "Nanoseconds":34263649
            },{
               "IterationMode":"Overhead",
               "IterationStage":"Actual",
               "LaunchIndex":1,
               "IterationIndex":5,
               "Operations":9701760,
               "Nanoseconds":33888584
            },{
               "IterationMode":"Overhead",
               "IterationStage":"Actual",
               "LaunchIndex":1,
               "IterationIndex":6,
               "Operations":9701760,
               "Nanoseconds":34247113
            },{
               "IterationMode":"Overhead",
               "IterationStage":"Actual",
               "LaunchIndex":1,
               "IterationIndex":7,
               "Operations":9701760,
               "Nanoseconds":34444496
            },{
               "IterationMode":"Overhead",
               "IterationStage":"Actual",
               "LaunchIndex":1,
               "IterationIndex":8,
               "Operations":9701760,
               "Nanoseconds":33343491
            },{
               "IterationMode":"Overhead",
               "IterationStage":"Actual",
               "LaunchIndex":1,
               "IterationIndex":9,
               "Operations":9701760,
               "Nanoseconds":30778621
            },{
               "IterationMode":"Overhead",
               "IterationStage":"Actual",
               "LaunchIndex":1,
               "IterationIndex":10,
               "Operations":9701760,
               "Nanoseconds":30241278
            },{
               "IterationMode":"Overhead",
               "IterationStage":"Actual",
               "LaunchIndex":1,
               "IterationIndex":11,
               "Operations":9701760,
               "Nanoseconds":29933026
            },{
               "IterationMode":"Overhead",
               "IterationStage":"Actual",
               "LaunchIndex":1,
               "IterationIndex":12,
               "Operations":9701760,
               "Nanoseconds":30451051
            },{
               "IterationMode":"Overhead",
               "IterationStage":"Actual",
               "LaunchIndex":1,
               "IterationIndex":13,
               "Operations":9701760,
               "Nanoseconds":29731050
            },{
               "IterationMode":"Overhead",
               "IterationStage":"Actual",
               "LaunchIndex":1,
               "IterationIndex":14,
               "Operations":9701760,
               "Nanoseconds":30382502
            },{
               "IterationMode":"Overhead",
               "IterationStage":"Actual",
               "LaunchIndex":1,
               "IterationIndex":15,
               "Operations":9701760,
               "Nanoseconds":29944297
            },{
               "IterationMode":"Overhead",
               "IterationStage":"Actual",
               "LaunchIndex":1,
               "IterationIndex":16,
               "Operations":9701760,
               "Nanoseconds":30414800
            },{
               "IterationMode":"Overhead",
               "IterationStage":"Actual",
               "LaunchIndex":1,
               "IterationIndex":17,
               "Operations":9701760,
               "Nanoseconds":29874934
            },{
               "IterationMode":"Overhead",
               "IterationStage":"Actual",
               "LaunchIndex":1,
               "IterationIndex":18,
               "Operations":9701760,
               "Nanoseconds":31137821
            },{
               "IterationMode":"Overhead",
               "IterationStage":"Actual",
               "LaunchIndex":1,
               "IterationIndex":19,
               "Operations":9701760,
               "Nanoseconds":31947053
            },{
               "IterationMode":"Overhead",
               "IterationStage":"Actual",
               "LaunchIndex":1,
               "IterationIndex":20,
               "Operations":9701760,
               "Nanoseconds":30961117
            },{
               "IterationMode":"Workload",
               "IterationStage":"Warmup",
               "LaunchIndex":1,
               "IterationIndex":1,
               "Operations":9701760,
               "Nanoseconds":251520946
            },{
               "IterationMode":"Workload",
               "IterationStage":"Actual",
               "LaunchIndex":1,
               "IterationIndex":1,
               "Operations":9701760,
               "Nanoseconds":248326791
            },{
               "IterationMode":"Workload",
               "IterationStage":"Actual",
               "LaunchIndex":1,
               "IterationIndex":2,
               "Operations":9701760,
               "Nanoseconds":251265884
            },{
               "IterationMode":"Workload",
               "IterationStage":"Actual",
               "LaunchIndex":1,
               "IterationIndex":3,
               "Operations":9701760,
               "Nanoseconds":251919913
            },{
               "IterationMode":"Workload",
               "IterationStage":"Actual",
               "LaunchIndex":1,
               "IterationIndex":4,
               "Operations":9701760,
               "Nanoseconds":254289650
            },{
               "IterationMode":"Workload",
               "IterationStage":"Actual",
               "LaunchIndex":1,
               "IterationIndex":5,
               "Operations":9701760,
               "Nanoseconds":248905327
            },{
               "IterationMode":"Workload",
               "IterationStage":"Actual",
               "LaunchIndex":1,
               "IterationIndex":6,
               "Operations":9701760,
               "Nanoseconds":249479473
            },{
               "IterationMode":"Workload",
               "IterationStage":"Actual",
               "LaunchIndex":1,
               "IterationIndex":7,
               "Operations":9701760,
               "Nanoseconds":256018916
            },{
               "IterationMode":"Workload",
               "IterationStage":"Actual",
               "LaunchIndex":1,
               "IterationIndex":8,
               "Operations":9701760,
               "Nanoseconds":251092007
            },{
               "IterationMode":"Workload",
               "IterationStage":"Actual",
               "LaunchIndex":1,
               "IterationIndex":9,
               "Operations":9701760,
               "Nanoseconds":249779362
            },{
               "IterationMode":"Workload",
               "IterationStage":"Actual",
               "LaunchIndex":1,
               "IterationIndex":10,
               "Operations":9701760,
               "Nanoseconds":249304197
            },{
               "IterationMode":"Workload",
               "IterationStage":"Actual",
               "LaunchIndex":1,
               "IterationIndex":11,
               "Operations":9701760,
               "Nanoseconds":259639953
            },{
               "IterationMode":"Workload",
               "IterationStage":"Actual",
               "LaunchIndex":1,
               "IterationIndex":12,
               "Operations":9701760,
               "Nanoseconds":250438970
            },{
               "IterationMode":"Workload",
               "IterationStage":"Actual",
               "LaunchIndex":1,
               "IterationIndex":13,
               "Operations":9701760,
               "Nanoseconds":251648790
            },{
               "IterationMode":"Workload",
               "IterationStage":"Actual",
               "LaunchIndex":1,
               "IterationIndex":14,
               "Operations":9701760,
               "Nanoseconds":248215067
            },{
               "IterationMode":"Workload",
               "IterationStage":"Actual",
               "LaunchIndex":1,
               "IterationIndex":15,
               "Operations":9701760,
               "Nanoseconds":254135178
            },{
               "IterationMode":"Workload",
               "IterationStage":"Result",
               "LaunchIndex":1,
               "IterationIndex":1,
               "Operations":9701760,
               "Nanoseconds":217277322
            },{
               "IterationMode":"Workload",
               "IterationStage":"Result",
               "LaunchIndex":1,
               "IterationIndex":2,
               "Operations":9701760,
               "Nanoseconds":220216415
            },{
               "IterationMode":"Workload",
               "IterationStage":"Result",
               "LaunchIndex":1,
               "IterationIndex":3,
               "Operations":9701760,
               "Nanoseconds":220870444
            },{
               "IterationMode":"Workload",
               "IterationStage":"Result",
               "LaunchIndex":1,
               "IterationIndex":4,
               "Operations":9701760,
               "Nanoseconds":223240181
            },{
               "IterationMode":"Workload",
               "IterationStage":"Result",
               "LaunchIndex":1,
               "IterationIndex":5,
               "Operations":9701760,
               "Nanoseconds":217855858
            },{
               "IterationMode":"Workload",
               "IterationStage":"Result",
               "LaunchIndex":1,
               "IterationIndex":6,
               "Operations":9701760,
               "Nanoseconds":218430004
            },{
               "IterationMode":"Workload",
               "IterationStage":"Result",
               "LaunchIndex":1,
               "IterationIndex":7,
               "Operations":9701760,
               "Nanoseconds":224969447
            },{
               "IterationMode":"Workload",
               "IterationStage":"Result",
               "LaunchIndex":1,
               "IterationIndex":8,
               "Operations":9701760,
               "Nanoseconds":220042538
            },{
               "IterationMode":"Workload",
               "IterationStage":"Result",
               "LaunchIndex":1,
               "IterationIndex":9,
               "Operations":9701760,
               "Nanoseconds":218729893
            },{
               "IterationMode":"Workload",
               "IterationStage":"Result",
               "LaunchIndex":1,
               "IterationIndex":10,
               "Operations":9701760,
               "Nanoseconds":218254728
            },{
               "IterationMode":"Workload",
               "IterationStage":"Result",
               "LaunchIndex":1,
               "IterationIndex":11,
               "Operations":9701760,
               "Nanoseconds":219389501
            },{
               "IterationMode":"Workload",
               "IterationStage":"Result",
               "LaunchIndex":1,
               "IterationIndex":12,
               "Operations":9701760,
               "Nanoseconds":220599321
            },{
               "IterationMode":"Workload",
               "IterationStage":"Result",
               "LaunchIndex":1,
               "IterationIndex":13,
               "Operations":9701760,
               "Nanoseconds":217165598
            },{
               "IterationMode":"Workload",
               "IterationStage":"Result",
               "LaunchIndex":1,
               "IterationIndex":14,
               "Operations":9701760,
               "Nanoseconds":223085709
            }
         ],
         "Metrics":[
            {
               "Value":0,
               "Descriptor":{
                  "Id":"Gen0Collects",
                  "DisplayName":"Gen 0",
                  "Legend":"GC Generation 0 collects per 1000 operations",
                  "NumberFormat":"#0.0000",
                  "UnitType":0,
                  "Unit":"Count",
                  "TheGreaterTheBetter":false
               }
            },{
               "Value":0,
               "Descriptor":{
                  "Id":"Gen1Collects",
                  "DisplayName":"Gen 1",
                  "Legend":"GC Generation 1 collects per 1000 operations",
                  "NumberFormat":"#0.0000",
                  "UnitType":0,
                  "Unit":"Count",
                  "TheGreaterTheBetter":false
               }
            },{
               "Value":0,
               "Descriptor":{
                  "Id":"Gen2Collects",
                  "DisplayName":"Gen 2",
                  "Legend":"GC Generation 2 collects per 1000 operations",
                  "NumberFormat":"#0.0000",
                  "UnitType":0,
                  "Unit":"Count",
                  "TheGreaterTheBetter":false
               }
            },{
               "Value":0,
               "Descriptor":{
                  "Id":"Allocated Memory",
                  "DisplayName":"Allocated",
                  "Legend":"Allocated memory per single operation (managed only, inclusive, 1KB = 1024B)",
                  "NumberFormat":"N0",
                  "UnitType":2,
                  "Unit":"B",
                  "TheGreaterTheBetter":false
               }
            }
         ]
      }
   ]
}
