Method,Job,AnalyzeLaunchVariance,EvaluateOverhead,MaxAbsoluteError,MaxRelativeError,MinInvokeCount,MinIterationTime,OutlierMode,Affinity,EnvironmentVariables,Jit,Platform,PowerPlanMode,Runtime,AllowVeryLargeObjects,Concurrent,CpuGroups,Force,HeapAffinitizeMask,HeapCount,NoAffinitize,RetainVm,Server,Arguments,BuildConfiguration,Clock,EngineFactory,NuGetReferences,Toolchain,IsMutator,InvocationCount,IterationCount,IterationTime,LaunchCount,MaxIterationCount,MaxWarmupIterationCount,MinIterationCount,MinWarmupIterationCount,RunStrategy,UnrollFactor,WarmupCount,Mean,Error,StdDev,Median,Min,Max,Gen 0,Gen 1,Gen 2,Allocated
BinaryFormatter,Job-NXBZBK,False,Default,Default,Default,Default,Default,Default,00000000,Empty,RyuJit,X64,00000000-0000-0000-0000-000000000000,.NET Core 5.0,False,True,False,True,Default,Default,False,False,False,/p:DebugType=portable,Default,Default,Default,Default,Default,Default,1,Default,250.0000 ms,Default,20,Default,15,Default,Default,16,1,14.017 μs,0.2670 μs,0.2968 μs,13.907 μs,13.720 μs,14.717 μs,2.5131,0.0000,0.0000,10682 B
protobuf-net,Job-NXBZBK,False,Default,Default,Default,Default,Default,Default,00000000,Empty,RyuJit,X64,00000000-0000-0000-0000-000000000000,.NET Core 5.0,False,True,False,True,Default,Default,False,False,False,/p:DebugType=portable,Default,Default,Default,Default,Default,Default,1,Default,250.0000 ms,Default,20,Default,15,Default,Default,16,1,21.813 μs,0.4348 μs,0.4067 μs,21.748 μs,21.369 μs,22.778 μs,1.1934,0.0000,0.0000,5009 B
MessagePack,Job-NXBZBK,False,Default,Default,Default,Default,Default,Default,00000000,Empty,RyuJit,X64,00000000-0000-0000-0000-000000000000,.NET Core 5.0,False,True,False,True,Default,Default,False,False,False,/p:DebugType=portable,Default,Default,Default,Default,Default,Default,1,Default,250.0000 ms,Default,20,Default,15,Default,Default,16,1,5.709 μs,0.0712 μs,0.0631 μs,5.690 μs,5.627 μs,5.817 μs,0.0000,0.0000,0.0000,0 B
