{
   "Title":"MicroBenchmarks.Serializers.Binary_ToStream_CollectionsOfPrimitives_-20201117-213545",
   "HostEnvironmentInfo":{
      "BenchmarkDotNetCaption":"BenchmarkDotNet",
      "BenchmarkDotNetVersion":"0.12.1.1405-nightly",
      "OsVersion":"macOS Catalina 10.15.7 (19H15) [Darwin 19.6.0]",
      "ProcessorName":"Intel Core i7-8559U CPU 2.70GHz (Coffee Lake)",
      "PhysicalProcessorCount":1,
      "PhysicalCoreCount":4,
      "LogicalCoreCount":8,
      "RuntimeVersion":".NET Core 5.0.0 (CoreCLR 5.0.20.51904, CoreFX 5.0.20.51904)",
      "Architecture":"X64",
      "HasAttachedDebugger":false,
      "HasRyuJit":true,
      "Configuration":"RELEASE",
      "DotNetCliVersion":"5.0.100",
      "ChronometerFrequency":{
         "Hertz":1000000000
      },
      "HardwareTimerKind":"Unknown"
   },
   "Benchmarks":[
      {
         "DisplayInfo":"Binary_ToStream<CollectionsOfPrimitives>.BinaryFormatter: Job-NXBZBK(PowerPlanMode=00000000-0000-0000-0000-000000000000, Arguments=/p:DebugType=portable, IterationTime=250.0000 ms, MaxIterationCount=20, MinIterationCount=15, WarmupCount=1)",
         "Namespace":"MicroBenchmarks.Serializers",
         "Type":"Binary_ToStream<CollectionsOfPrimitives>",
         "Method":"BinaryFormatter_",
         "MethodTitle":"BinaryFormatter",
         "Parameters":"",
         "FullName":"MicroBenchmarks.Serializers.Binary_ToStream<CollectionsOfPrimitives>.BinaryFormatter_",
         "Statistics":{
            "OriginalValues":[
               1047898.5416666666,1049170.4708333334,1073269.375,1050136.9333333333,1057258.5416666667,1036883.3458333333,1083257.9875,1040662.9708333333,1052396.8083333333,1049681.9958333333,1078075.4875,1066777.9041666666,1042061.8375,1059953.1,1066555.0791666666
            ],
            "N":15,
            "Min":1036883.3458333333,
            "LowerFence":1021336.5281250002,
            "Q1":1048534.5062500001,
            "Median":1052396.8083333333,
            "Mean":1056936.0252777778,
            "Q3":1066666.4916666667,
            "UpperFence":1093864.4697916666,
            "Max":1083257.9875,
            "InterquartileRange":18131.985416666605,
            "LowerOutliers":[
               
            ],
            "UpperOutliers":[
               
            ],
            "AllOutliers":[
               
            ],
            "StandardError":3621.820873653119,
            "Variance":196763796.61244163,
            "StandardDeviation":14027.251926604928,
            "Skewness":0.3925655168092789,
            "Kurtosis":1.834444176231265,
            "ConfidenceInterval":{
               "N":15,
               "Mean":1056936.0252777778,
               "StandardError":3621.820873653119,
               "Level":12,
               "Margin":14995.983132812076,
               "Lower":1041940.0421449657,
               "Upper":1071932.0084105898
            },
            "Percentiles":{
               "P0":1036883.3458333333,
               "P25":1048534.5062500001,
               "P50":1052396.8083333333,
               "P67":1062461.8520833333,
               "P80":1068076.1983333332,
               "P85":1072620.2279166665,
               "P90":1076153.0425,
               "P95":1079630.2375,
               "P100":1083257.9875
            }
         },
         "Memory":{
            "Gen0Collections":27,
            "Gen1Collections":6,
            "Gen2Collections":0,
            "TotalOperations":240,
            "BytesAllocatedPerOperation":491951
         },
         "Measurements":[
            {
               "IterationMode":"Overhead",
               "IterationStage":"Jitting",
               "LaunchIndex":1,
               "IterationIndex":1,
               "Operations":1,
               "Nanoseconds":294559
            },{
               "IterationMode":"Workload",
               "IterationStage":"Jitting",
               "LaunchIndex":1,
               "IterationIndex":1,
               "Operations":1,
               "Nanoseconds":10421324
            },{
               "IterationMode":"Overhead",
               "IterationStage":"Jitting",
               "LaunchIndex":1,
               "IterationIndex":2,
               "Operations":16,
               "Nanoseconds":199370
            },{
               "IterationMode":"Workload",
               "IterationStage":"Jitting",
               "LaunchIndex":1,
               "IterationIndex":2,
               "Operations":16,
               "Nanoseconds":24402413
            },{
               "IterationMode":"Workload",
               "IterationStage":"Pilot",
               "LaunchIndex":1,
               "IterationIndex":1,
               "Operations":16,
               "Nanoseconds":19480229
            },{
               "IterationMode":"Workload",
               "IterationStage":"Pilot",
               "LaunchIndex":1,
               "IterationIndex":2,
               "Operations":208,
               "Nanoseconds":237200332
            },{
               "IterationMode":"Workload",
               "IterationStage":"Pilot",
               "LaunchIndex":1,
               "IterationIndex":3,
               "Operations":224,
               "Nanoseconds":241776755
            },{
               "IterationMode":"Workload",
               "IterationStage":"Pilot",
               "LaunchIndex":1,
               "IterationIndex":4,
               "Operations":240,
               "Nanoseconds":248319724
            },{
               "IterationMode":"Workload",
               "IterationStage":"Pilot",
               "LaunchIndex":1,
               "IterationIndex":5,
               "Operations":256,
               "Nanoseconds":278475187
            },{
               "IterationMode":"Workload",
               "IterationStage":"Pilot",
               "LaunchIndex":1,
               "IterationIndex":6,
               "Operations":240,
               "Nanoseconds":252551897
            },{
               "IterationMode":"Overhead",
               "IterationStage":"Warmup",
               "LaunchIndex":1,
               "IterationIndex":1,
               "Operations":240,
               "Nanoseconds":1933
            },{
               "IterationMode":"Overhead",
               "IterationStage":"Warmup",
               "LaunchIndex":1,
               "IterationIndex":2,
               "Operations":240,
               "Nanoseconds":899
            },{
               "IterationMode":"Overhead",
               "IterationStage":"Warmup",
               "LaunchIndex":1,
               "IterationIndex":3,
               "Operations":240,
               "Nanoseconds":877
            },{
               "IterationMode":"Overhead",
               "IterationStage":"Warmup",
               "LaunchIndex":1,
               "IterationIndex":4,
               "Operations":240,
               "Nanoseconds":883
            },{
               "IterationMode":"Overhead",
               "IterationStage":"Warmup",
               "LaunchIndex":1,
               "IterationIndex":5,
               "Operations":240,
               "Nanoseconds":803
            },{
               "IterationMode":"Overhead",
               "IterationStage":"Warmup",
               "LaunchIndex":1,
               "IterationIndex":6,
               "Operations":240,
               "Nanoseconds":822
            },{
               "IterationMode":"Overhead",
               "IterationStage":"Warmup",
               "LaunchIndex":1,
               "IterationIndex":7,
               "Operations":240,
               "Nanoseconds":775
            },{
               "IterationMode":"Overhead",
               "IterationStage":"Actual",
               "LaunchIndex":1,
               "IterationIndex":1,
               "Operations":240,
               "Nanoseconds":792
            },{
               "IterationMode":"Overhead",
               "IterationStage":"Actual",
               "LaunchIndex":1,
               "IterationIndex":2,
               "Operations":240,
               "Nanoseconds":781
            },{
               "IterationMode":"Overhead",
               "IterationStage":"Actual",
               "LaunchIndex":1,
               "IterationIndex":3,
               "Operations":240,
               "Nanoseconds":775
            },{
               "IterationMode":"Overhead",
               "IterationStage":"Actual",
               "LaunchIndex":1,
               "IterationIndex":4,
               "Operations":240,
               "Nanoseconds":737
            },{
               "IterationMode":"Overhead",
               "IterationStage":"Actual",
               "LaunchIndex":1,
               "IterationIndex":5,
               "Operations":240,
               "Nanoseconds":948
            },{
               "IterationMode":"Overhead",
               "IterationStage":"Actual",
               "LaunchIndex":1,
               "IterationIndex":6,
               "Operations":240,
               "Nanoseconds":2019
            },{
               "IterationMode":"Overhead",
               "IterationStage":"Actual",
               "LaunchIndex":1,
               "IterationIndex":7,
               "Operations":240,
               "Nanoseconds":744
            },{
               "IterationMode":"Overhead",
               "IterationStage":"Actual",
               "LaunchIndex":1,
               "IterationIndex":8,
               "Operations":240,
               "Nanoseconds":768
            },{
               "IterationMode":"Overhead",
               "IterationStage":"Actual",
               "LaunchIndex":1,
               "IterationIndex":9,
               "Operations":240,
               "Nanoseconds":760
            },{
               "IterationMode":"Overhead",
               "IterationStage":"Actual",
               "LaunchIndex":1,
               "IterationIndex":10,
               "Operations":240,
               "Nanoseconds":770
            },{
               "IterationMode":"Overhead",
               "IterationStage":"Actual",
               "LaunchIndex":1,
               "IterationIndex":11,
               "Operations":240,
               "Nanoseconds":742
            },{
               "IterationMode":"Overhead",
               "IterationStage":"Actual",
               "LaunchIndex":1,
               "IterationIndex":12,
               "Operations":240,
               "Nanoseconds":1045
            },{
               "IterationMode":"Overhead",
               "IterationStage":"Actual",
               "LaunchIndex":1,
               "IterationIndex":13,
               "Operations":240,
               "Nanoseconds":757
            },{
               "IterationMode":"Overhead",
               "IterationStage":"Actual",
               "LaunchIndex":1,
               "IterationIndex":14,
               "Operations":240,
               "Nanoseconds":750
            },{
               "IterationMode":"Overhead",
               "IterationStage":"Actual",
               "LaunchIndex":1,
               "IterationIndex":15,
               "Operations":240,
               "Nanoseconds":709
            },{
               "IterationMode":"Workload",
               "IterationStage":"Warmup",
               "LaunchIndex":1,
               "IterationIndex":1,
               "Operations":240,
               "Nanoseconds":253104216
            },{
               "IterationMode":"Workload",
               "IterationStage":"Actual",
               "LaunchIndex":1,
               "IterationIndex":1,
               "Operations":240,
               "Nanoseconds":251496418
            },{
               "IterationMode":"Workload",
               "IterationStage":"Actual",
               "LaunchIndex":1,
               "IterationIndex":2,
               "Operations":240,
               "Nanoseconds":251801681
            },{
               "IterationMode":"Workload",
               "IterationStage":"Actual",
               "LaunchIndex":1,
               "IterationIndex":3,
               "Operations":240,
               "Nanoseconds":257585418
            },{
               "IterationMode":"Workload",
               "IterationStage":"Actual",
               "LaunchIndex":1,
               "IterationIndex":4,
               "Operations":240,
               "Nanoseconds":252033632
            },{
               "IterationMode":"Workload",
               "IterationStage":"Actual",
               "LaunchIndex":1,
               "IterationIndex":5,
               "Operations":240,
               "Nanoseconds":253742818
            },{
               "IterationMode":"Workload",
               "IterationStage":"Actual",
               "LaunchIndex":1,
               "IterationIndex":6,
               "Operations":240,
               "Nanoseconds":248852771
            },{
               "IterationMode":"Workload",
               "IterationStage":"Actual",
               "LaunchIndex":1,
               "IterationIndex":7,
               "Operations":240,
               "Nanoseconds":259982685
            },{
               "IterationMode":"Workload",
               "IterationStage":"Actual",
               "LaunchIndex":1,
               "IterationIndex":8,
               "Operations":240,
               "Nanoseconds":249759881
            },{
               "IterationMode":"Workload",
               "IterationStage":"Actual",
               "LaunchIndex":1,
               "IterationIndex":9,
               "Operations":240,
               "Nanoseconds":252576002
            },{
               "IterationMode":"Workload",
               "IterationStage":"Actual",
               "LaunchIndex":1,
               "IterationIndex":10,
               "Operations":240,
               "Nanoseconds":251924447
            },{
               "IterationMode":"Workload",
               "IterationStage":"Actual",
               "LaunchIndex":1,
               "IterationIndex":11,
               "Operations":240,
               "Nanoseconds":258738885
            },{
               "IterationMode":"Workload",
               "IterationStage":"Actual",
               "LaunchIndex":1,
               "IterationIndex":12,
               "Operations":240,
               "Nanoseconds":256027465
            },{
               "IterationMode":"Workload",
               "IterationStage":"Actual",
               "LaunchIndex":1,
               "IterationIndex":13,
               "Operations":240,
               "Nanoseconds":250095609
            },{
               "IterationMode":"Workload",
               "IterationStage":"Actual",
               "LaunchIndex":1,
               "IterationIndex":14,
               "Operations":240,
               "Nanoseconds":254389512
            },{
               "IterationMode":"Workload",
               "IterationStage":"Actual",
               "LaunchIndex":1,
               "IterationIndex":15,
               "Operations":240,
               "Nanoseconds":255973987
            },{
               "IterationMode":"Workload",
               "IterationStage":"Result",
               "LaunchIndex":1,
               "IterationIndex":1,
               "Operations":240,
               "Nanoseconds":251495650
            },{
               "IterationMode":"Workload",
               "IterationStage":"Result",
               "LaunchIndex":1,
               "IterationIndex":2,
               "Operations":240,
               "Nanoseconds":251800913
            },{
               "IterationMode":"Workload",
               "IterationStage":"Result",
               "LaunchIndex":1,
               "IterationIndex":3,
               "Operations":240,
               "Nanoseconds":257584650
            },{
               "IterationMode":"Workload",
               "IterationStage":"Result",
               "LaunchIndex":1,
               "IterationIndex":4,
               "Operations":240,
               "Nanoseconds":252032864
            },{
               "IterationMode":"Workload",
               "IterationStage":"Result",
               "LaunchIndex":1,
               "IterationIndex":5,
               "Operations":240,
               "Nanoseconds":253742050
            },{
               "IterationMode":"Workload",
               "IterationStage":"Result",
               "LaunchIndex":1,
               "IterationIndex":6,
               "Operations":240,
               "Nanoseconds":248852003
            },{
               "IterationMode":"Workload",
               "IterationStage":"Result",
               "LaunchIndex":1,
               "IterationIndex":7,
               "Operations":240,
               "Nanoseconds":259981917
            },{
               "IterationMode":"Workload",
               "IterationStage":"Result",
               "LaunchIndex":1,
               "IterationIndex":8,
               "Operations":240,
               "Nanoseconds":249759113
            },{
               "IterationMode":"Workload",
               "IterationStage":"Result",
               "LaunchIndex":1,
               "IterationIndex":9,
               "Operations":240,
               "Nanoseconds":252575234
            },{
               "IterationMode":"Workload",
               "IterationStage":"Result",
               "LaunchIndex":1,
               "IterationIndex":10,
               "Operations":240,
               "Nanoseconds":251923679
            },{
               "IterationMode":"Workload",
               "IterationStage":"Result",
               "LaunchIndex":1,
               "IterationIndex":11,
               "Operations":240,
               "Nanoseconds":258738117
            },{
               "IterationMode":"Workload",
               "IterationStage":"Result",
               "LaunchIndex":1,
               "IterationIndex":12,
               "Operations":240,
               "Nanoseconds":256026697
            },{
               "IterationMode":"Workload",
               "IterationStage":"Result",
               "LaunchIndex":1,
               "IterationIndex":13,
               "Operations":240,
               "Nanoseconds":250094841
            },{
               "IterationMode":"Workload",
               "IterationStage":"Result",
               "LaunchIndex":1,
               "IterationIndex":14,
               "Operations":240,
               "Nanoseconds":254388744
            },{
               "IterationMode":"Workload",
               "IterationStage":"Result",
               "LaunchIndex":1,
               "IterationIndex":15,
               "Operations":240,
               "Nanoseconds":255973219
            }
         ],
         "Metrics":[
            {
               "Value":112.5,
               "Descriptor":{
                  "Id":"Gen0Collects",
                  "DisplayName":"Gen 0",
                  "Legend":"GC Generation 0 collects per 1000 operations",
                  "NumberFormat":"#0.0000",
                  "UnitType":0,
                  "Unit":"Count",
                  "TheGreaterTheBetter":false
               }
            },{
               "Value":25,
               "Descriptor":{
                  "Id":"Gen1Collects",
                  "DisplayName":"Gen 1",
                  "Legend":"GC Generation 1 collects per 1000 operations",
                  "NumberFormat":"#0.0000",
                  "UnitType":0,
                  "Unit":"Count",
                  "TheGreaterTheBetter":false
               }
            },{
               "Value":0,
               "Descriptor":{
                  "Id":"Gen2Collects",
                  "DisplayName":"Gen 2",
                  "Legend":"GC Generation 2 collects per 1000 operations",
                  "NumberFormat":"#0.0000",
                  "UnitType":0,
                  "Unit":"Count",
                  "TheGreaterTheBetter":false
               }
            },{
               "Value":491951,
               "Descriptor":{
                  "Id":"Allocated Memory",
                  "DisplayName":"Allocated",
                  "Legend":"Allocated memory per single operation (managed only, inclusive, 1KB = 1024B)",
                  "NumberFormat":"N0",
                  "UnitType":2,
                  "Unit":"B",
                  "TheGreaterTheBetter":false
               }
            }
         ]
      },{
         "DisplayInfo":"Binary_ToStream<CollectionsOfPrimitives>.protobuf-net: Job-NXBZBK(PowerPlanMode=00000000-0000-0000-0000-000000000000, Arguments=/p:DebugType=portable, IterationTime=250.0000 ms, MaxIterationCount=20, MinIterationCount=15, WarmupCount=1)",
         "Namespace":"MicroBenchmarks.Serializers",
         "Type":"Binary_ToStream<CollectionsOfPrimitives>",
         "Method":"ProtoBuffNet",
         "MethodTitle":"protobuf-net",
         "Parameters":"",
         "FullName":"MicroBenchmarks.Serializers.Binary_ToStream<CollectionsOfPrimitives>.ProtoBuffNet",
         "Statistics":{
            "OriginalValues":[
               130141.22173193602,133981.43408714837,132878.75068946497,131498.2029784887,133888.23993381136,133370.44622173192,130130.6138996139,133123.1218974076,132540.2277992278,131015.74793160507,135939.72476558192,130397.52233866519,133718.8416988417,129496.9332597904
            ],
            "N":14,
            "Min":129496.9332597904,
            "LowerFence":125932.58259790402,
            "Q1":130552.07873690016,
            "Median":132709.4892443464,
            "Mean":132294.3592309511,
            "Q3":133631.74282956426,
            "UpperFence":138251.2389685604,
            "Max":135939.72476558192,
            "InterquartileRange":3079.6640926640976,
            "LowerOutliers":[
               
            ],
            "UpperOutliers":[
               
            ],
            "AllOutliers":[
               
            ],
            "StandardError":502.5286705954346,
            "Variance":3535490.9067858076,
            "StandardDeviation":1880.2901123990966,
            "Skewness":0.11593479449867833,
            "Kurtosis":1.816422350522731,
            "ConfidenceInterval":{
               "N":14,
               "Mean":132294.3592309511,
               "StandardError":502.5286705954346,
               "Level":12,
               "Margin":2121.088956931763,
               "Lower":130173.27027401932,
               "Upper":134415.44818788284
            },
            "Percentiles":{
               "P0":129496.9332597904,
               "P25":130552.07873690016,
               "P50":132709.4892443464,
               "P67":133298.72216767786,
               "P80":133786.60099282957,
               "P85":133892.8996414782,
               "P90":133953.47584114727,
               "P95":134666.83582460013,
               "P100":135939.72476558192
            }
         },
         "Memory":{
            "Gen0Collections":0,
            "Gen1Collections":0,
            "Gen2Collections":0,
            "TotalOperations":1813,
            "BytesAllocatedPerOperation":209
         },
         "Measurements":[
            {
               "IterationMode":"Overhead",
               "IterationStage":"Jitting",
               "LaunchIndex":1,
               "IterationIndex":1,
               "Operations":1,
               "Nanoseconds":313749
            },{
               "IterationMode":"Workload",
               "IterationStage":"Jitting",
               "LaunchIndex":1,
               "IterationIndex":1,
               "Operations":1,
               "Nanoseconds":59137622
            },{
               "IterationMode":"Workload",
               "IterationStage":"Pilot",
               "LaunchIndex":1,
               "IterationIndex":1,
               "Operations":4,
               "Nanoseconds":1039449
            },{
               "IterationMode":"Workload",
               "IterationStage":"Pilot",
               "LaunchIndex":1,
               "IterationIndex":2,
               "Operations":962,
               "Nanoseconds":229031452
            },{
               "IterationMode":"Workload",
               "IterationStage":"Pilot",
               "LaunchIndex":1,
               "IterationIndex":3,
               "Operations":1050,
               "Nanoseconds":146591340
            },{
               "IterationMode":"Workload",
               "IterationStage":"Pilot",
               "LaunchIndex":1,
               "IterationIndex":4,
               "Operations":1791,
               "Nanoseconds":238589806
            },{
               "IterationMode":"Workload",
               "IterationStage":"Pilot",
               "LaunchIndex":1,
               "IterationIndex":5,
               "Operations":1877,
               "Nanoseconds":248609269
            },{
               "IterationMode":"Workload",
               "IterationStage":"Pilot",
               "LaunchIndex":1,
               "IterationIndex":6,
               "Operations":1888,
               "Nanoseconds":254756329
            },{
               "IterationMode":"Workload",
               "IterationStage":"Pilot",
               "LaunchIndex":1,
               "IterationIndex":7,
               "Operations":1853,
               "Nanoseconds":256032402
            },{
               "IterationMode":"Workload",
               "IterationStage":"Pilot",
               "LaunchIndex":1,
               "IterationIndex":8,
               "Operations":1809,
               "Nanoseconds":249480365
            },{
               "IterationMode":"Workload",
               "IterationStage":"Pilot",
               "LaunchIndex":1,
               "IterationIndex":9,
               "Operations":1813,
               "Nanoseconds":254589371
            },{
               "IterationMode":"Workload",
               "IterationStage":"Warmup",
               "LaunchIndex":1,
               "IterationIndex":1,
               "Operations":1813,
               "Nanoseconds":237320636
            },{
               "IterationMode":"Workload",
               "IterationStage":"Actual",
               "LaunchIndex":1,
               "IterationIndex":1,
               "Operations":1813,
               "Nanoseconds":235946035
            },{
               "IterationMode":"Workload",
               "IterationStage":"Actual",
               "LaunchIndex":1,
               "IterationIndex":2,
               "Operations":1813,
               "Nanoseconds":242908340
            },{
               "IterationMode":"Workload",
               "IterationStage":"Actual",
               "LaunchIndex":1,
               "IterationIndex":3,
               "Operations":1813,
               "Nanoseconds":255964931
            },{
               "IterationMode":"Workload",
               "IterationStage":"Actual",
               "LaunchIndex":1,
               "IterationIndex":4,
               "Operations":1813,
               "Nanoseconds":240909175
            },{
               "IterationMode":"Workload",
               "IterationStage":"Actual",
               "LaunchIndex":1,
               "IterationIndex":5,
               "Operations":1813,
               "Nanoseconds":238406242
            },{
               "IterationMode":"Workload",
               "IterationStage":"Actual",
               "LaunchIndex":1,
               "IterationIndex":6,
               "Operations":1813,
               "Nanoseconds":242739379
            },{
               "IterationMode":"Workload",
               "IterationStage":"Actual",
               "LaunchIndex":1,
               "IterationIndex":7,
               "Operations":1813,
               "Nanoseconds":241800619
            },{
               "IterationMode":"Workload",
               "IterationStage":"Actual",
               "LaunchIndex":1,
               "IterationIndex":8,
               "Operations":1813,
               "Nanoseconds":235926803
            },{
               "IterationMode":"Workload",
               "IterationStage":"Actual",
               "LaunchIndex":1,
               "IterationIndex":9,
               "Operations":1813,
               "Nanoseconds":241352220
            },{
               "IterationMode":"Workload",
               "IterationStage":"Actual",
               "LaunchIndex":1,
               "IterationIndex":10,
               "Operations":1813,
               "Nanoseconds":240295433
            },{
               "IterationMode":"Workload",
               "IterationStage":"Actual",
               "LaunchIndex":1,
               "IterationIndex":11,
               "Operations":1813,
               "Nanoseconds":237531551
            },{
               "IterationMode":"Workload",
               "IterationStage":"Actual",
               "LaunchIndex":1,
               "IterationIndex":12,
               "Operations":1813,
               "Nanoseconds":246458721
            },{
               "IterationMode":"Workload",
               "IterationStage":"Actual",
               "LaunchIndex":1,
               "IterationIndex":13,
               "Operations":1813,
               "Nanoseconds":236410708
            },{
               "IterationMode":"Workload",
               "IterationStage":"Actual",
               "LaunchIndex":1,
               "IterationIndex":14,
               "Operations":1813,
               "Nanoseconds":242432260
            },{
               "IterationMode":"Workload",
               "IterationStage":"Actual",
               "LaunchIndex":1,
               "IterationIndex":15,
               "Operations":1813,
               "Nanoseconds":234777940
            },{
               "IterationMode":"Workload",
               "IterationStage":"Result",
               "LaunchIndex":1,
               "IterationIndex":1,
               "Operations":1813,
               "Nanoseconds":235946035
            },{
               "IterationMode":"Workload",
               "IterationStage":"Result",
               "LaunchIndex":1,
               "IterationIndex":2,
               "Operations":1813,
               "Nanoseconds":242908340
            },{
               "IterationMode":"Workload",
               "IterationStage":"Result",
               "LaunchIndex":1,
               "IterationIndex":3,
               "Operations":1813,
               "Nanoseconds":240909175
            },{
               "IterationMode":"Workload",
               "IterationStage":"Result",
               "LaunchIndex":1,
               "IterationIndex":4,
               "Operations":1813,
               "Nanoseconds":238406242
            },{
               "IterationMode":"Workload",
               "IterationStage":"Result",
               "LaunchIndex":1,
               "IterationIndex":5,
               "Operations":1813,
               "Nanoseconds":242739379
            },{
               "IterationMode":"Workload",
               "IterationStage":"Result",
               "LaunchIndex":1,
               "IterationIndex":6,
               "Operations":1813,
               "Nanoseconds":241800619
            },{
               "IterationMode":"Workload",
               "IterationStage":"Result",
               "LaunchIndex":1,
               "IterationIndex":7,
               "Operations":1813,
               "Nanoseconds":235926803
            },{
               "IterationMode":"Workload",
               "IterationStage":"Result",
               "LaunchIndex":1,
               "IterationIndex":8,
               "Operations":1813,
               "Nanoseconds":241352220
            },{
               "IterationMode":"Workload",
               "IterationStage":"Result",
               "LaunchIndex":1,
               "IterationIndex":9,
               "Operations":1813,
               "Nanoseconds":240295433
            },{
               "IterationMode":"Workload",
               "IterationStage":"Result",
               "LaunchIndex":1,
               "IterationIndex":10,
               "Operations":1813,
               "Nanoseconds":237531551
            },{
               "IterationMode":"Workload",
               "IterationStage":"Result",
               "LaunchIndex":1,
               "IterationIndex":11,
               "Operations":1813,
               "Nanoseconds":246458721
            },{
               "IterationMode":"Workload",
               "IterationStage":"Result",
               "LaunchIndex":1,
               "IterationIndex":12,
               "Operations":1813,
               "Nanoseconds":236410708
            },{
               "IterationMode":"Workload",
               "IterationStage":"Result",
               "LaunchIndex":1,
               "IterationIndex":13,
               "Operations":1813,
               "Nanoseconds":242432260
            },{
               "IterationMode":"Workload",
               "IterationStage":"Result",
               "LaunchIndex":1,
               "IterationIndex":14,
               "Operations":1813,
               "Nanoseconds":234777940
            }
         ],
         "Metrics":[
            {
               "Value":0,
               "Descriptor":{
                  "Id":"Gen0Collects",
                  "DisplayName":"Gen 0",
                  "Legend":"GC Generation 0 collects per 1000 operations",
                  "NumberFormat":"#0.0000",
                  "UnitType":0,
                  "Unit":"Count",
                  "TheGreaterTheBetter":false
               }
            },{
               "Value":0,
               "Descriptor":{
                  "Id":"Gen1Collects",
                  "DisplayName":"Gen 1",
                  "Legend":"GC Generation 1 collects per 1000 operations",
                  "NumberFormat":"#0.0000",
                  "UnitType":0,
                  "Unit":"Count",
                  "TheGreaterTheBetter":false
               }
            },{
               "Value":0,
               "Descriptor":{
                  "Id":"Gen2Collects",
                  "DisplayName":"Gen 2",
                  "Legend":"GC Generation 2 collects per 1000 operations",
                  "NumberFormat":"#0.0000",
                  "UnitType":0,
                  "Unit":"Count",
                  "TheGreaterTheBetter":false
               }
            },{
               "Value":209,
               "Descriptor":{
                  "Id":"Allocated Memory",
                  "DisplayName":"Allocated",
                  "Legend":"Allocated memory per single operation (managed only, inclusive, 1KB = 1024B)",
                  "NumberFormat":"N0",
                  "UnitType":2,
                  "Unit":"B",
                  "TheGreaterTheBetter":false
               }
            }
         ]
      },{
         "DisplayInfo":"Binary_ToStream<CollectionsOfPrimitives>.MessagePack: Job-NXBZBK(PowerPlanMode=00000000-0000-0000-0000-000000000000, Arguments=/p:DebugType=portable, IterationTime=250.0000 ms, MaxIterationCount=20, MinIterationCount=15, WarmupCount=1)",
         "Namespace":"MicroBenchmarks.Serializers",
         "Type":"Binary_ToStream<CollectionsOfPrimitives>",
         "Method":"MessagePack_",
         "MethodTitle":"MessagePack",
         "Parameters":"",
         "FullName":"MicroBenchmarks.Serializers.Binary_ToStream<CollectionsOfPrimitives>.MessagePack_",
         "Statistics":{
            "OriginalValues":[
               170068.5499334221,167247.90612516645,167834.16178428763,171914.22303595208,167037.15778961385,168368.21770972037,166265.6484687084,172435.74567243675,167262.58521970705,167629.6158455393,167931.93408788284,171214.04926764313,168682.24567243675,166376.92143808256
            ],
            "N":14,
            "Min":166265.6484687084,
            "LowerFence":163545.9789447404,
            "Q1":167251.57589880162,
            "Median":167883.04793608523,
            "Mean":168590.64014647139,
            "Q3":169721.97386817576,
            "UpperFence":173427.57082223697,
            "Max":172435.74567243675,
            "InterquartileRange":2470.397969374142,
            "LowerOutliers":[
               
            ],
            "UpperOutliers":[
               
            ],
            "AllOutliers":[
               
            ],
            "StandardError":540.5086406043109,
            "Variance":4090094.267950882,
            "StandardDeviation":2022.3981477322616,
            "Skewness":0.7020428773631461,
            "Kurtosis":1.9621291704563733,
            "ConfidenceInterval":{
               "N":14,
               "Mean":168590.64014647139,
               "StandardError":540.5086406043109,
               "Level":12,
               "Margin":2281.396019362598,
               "Lower":166309.24412710877,
               "Upper":170872.036165834
            },
            "Percentiles":{
               "P0":166265.6484687084,
               "P25":167251.57589880162,
               "P50":167883.04793608523,
               "P67":168591.177563249,
               "P80":170526.7496671105,
               "P85":171249.05795605856,
               "P90":171704.17090545938,
               "P95":172096.7559587217,
               "P100":172435.74567243675
            }
         },
         "Memory":{
            "Gen0Collections":0,
            "Gen1Collections":0,
            "Gen2Collections":0,
            "TotalOperations":1502,
            "BytesAllocatedPerOperation":1
         },
         "Measurements":[
            {
               "IterationMode":"Overhead",
               "IterationStage":"Jitting",
               "LaunchIndex":1,
               "IterationIndex":1,
               "Operations":1,
               "Nanoseconds":333378
            },{
               "IterationMode":"Workload",
               "IterationStage":"Jitting",
               "LaunchIndex":1,
               "IterationIndex":1,
               "Operations":1,
               "Nanoseconds":92808058
            },{
               "IterationMode":"Workload",
               "IterationStage":"Pilot",
               "LaunchIndex":1,
               "IterationIndex":1,
               "Operations":4,
               "Nanoseconds":842616
            },{
               "IterationMode":"Workload",
               "IterationStage":"Pilot",
               "LaunchIndex":1,
               "IterationIndex":2,
               "Operations":1187,
               "Nanoseconds":245232986
            },{
               "IterationMode":"Workload",
               "IterationStage":"Pilot",
               "LaunchIndex":1,
               "IterationIndex":3,
               "Operations":1210,
               "Nanoseconds":202944223
            },{
               "IterationMode":"Workload",
               "IterationStage":"Pilot",
               "LaunchIndex":1,
               "IterationIndex":4,
               "Operations":1491,
               "Nanoseconds":249593201
            },{
               "IterationMode":"Workload",
               "IterationStage":"Pilot",
               "LaunchIndex":1,
               "IterationIndex":5,
               "Operations":1493,
               "Nanoseconds":250756444
            },{
               "IterationMode":"Workload",
               "IterationStage":"Pilot",
               "LaunchIndex":1,
               "IterationIndex":6,
               "Operations":1488,
               "Nanoseconds":253530415
            },{
               "IterationMode":"Workload",
               "IterationStage":"Pilot",
               "LaunchIndex":1,
               "IterationIndex":7,
               "Operations":1467,
               "Nanoseconds":247162136
            },{
               "IterationMode":"Workload",
               "IterationStage":"Pilot",
               "LaunchIndex":1,
               "IterationIndex":8,
               "Operations":1484,
               "Nanoseconds":247014444
            },{
               "IterationMode":"Workload",
               "IterationStage":"Pilot",
               "LaunchIndex":1,
               "IterationIndex":9,
               "Operations":1502,
               "Nanoseconds":251753757
            },{
               "IterationMode":"Workload",
               "IterationStage":"Warmup",
               "LaunchIndex":1,
               "IterationIndex":1,
               "Operations":1502,
               "Nanoseconds":257330717
            },{
               "IterationMode":"Workload",
               "IterationStage":"Actual",
               "LaunchIndex":1,
               "IterationIndex":1,
               "Operations":1502,
               "Nanoseconds":255442962
            },{
               "IterationMode":"Workload",
               "IterationStage":"Actual",
               "LaunchIndex":1,
               "IterationIndex":2,
               "Operations":1502,
               "Nanoseconds":251206355
            },{
               "IterationMode":"Workload",
               "IterationStage":"Actual",
               "LaunchIndex":1,
               "IterationIndex":3,
               "Operations":1502,
               "Nanoseconds":252086911
            },{
               "IterationMode":"Workload",
               "IterationStage":"Actual",
               "LaunchIndex":1,
               "IterationIndex":4,
               "Operations":1502,
               "Nanoseconds":258215163
            },{
               "IterationMode":"Workload",
               "IterationStage":"Actual",
               "LaunchIndex":1,
               "IterationIndex":5,
               "Operations":1502,
               "Nanoseconds":250889811
            },{
               "IterationMode":"Workload",
               "IterationStage":"Actual",
               "LaunchIndex":1,
               "IterationIndex":6,
               "Operations":1502,
               "Nanoseconds":252889063
            },{
               "IterationMode":"Workload",
               "IterationStage":"Actual",
               "LaunchIndex":1,
               "IterationIndex":7,
               "Operations":1502,
               "Nanoseconds":249731004
            },{
               "IterationMode":"Workload",
               "IterationStage":"Actual",
               "LaunchIndex":1,
               "IterationIndex":8,
               "Operations":1502,
               "Nanoseconds":258998490
            },{
               "IterationMode":"Workload",
               "IterationStage":"Actual",
               "LaunchIndex":1,
               "IterationIndex":9,
               "Operations":1502,
               "Nanoseconds":251228403
            },{
               "IterationMode":"Workload",
               "IterationStage":"Actual",
               "LaunchIndex":1,
               "IterationIndex":10,
               "Operations":1502,
               "Nanoseconds":251779683
            },{
               "IterationMode":"Workload",
               "IterationStage":"Actual",
               "LaunchIndex":1,
               "IterationIndex":11,
               "Operations":1502,
               "Nanoseconds":252233765
            },{
               "IterationMode":"Workload",
               "IterationStage":"Actual",
               "LaunchIndex":1,
               "IterationIndex":12,
               "Operations":1502,
               "Nanoseconds":257163502
            },{
               "IterationMode":"Workload",
               "IterationStage":"Actual",
               "LaunchIndex":1,
               "IterationIndex":13,
               "Operations":1502,
               "Nanoseconds":253360733
            },{
               "IterationMode":"Workload",
               "IterationStage":"Actual",
               "LaunchIndex":1,
               "IterationIndex":14,
               "Operations":1502,
               "Nanoseconds":249898136
            },{
               "IterationMode":"Workload",
               "IterationStage":"Actual",
               "LaunchIndex":1,
               "IterationIndex":15,
               "Operations":1502,
               "Nanoseconds":275779100
            },{
               "IterationMode":"Workload",
               "IterationStage":"Result",
               "LaunchIndex":1,
               "IterationIndex":1,
               "Operations":1502,
               "Nanoseconds":255442962
            },{
               "IterationMode":"Workload",
               "IterationStage":"Result",
               "LaunchIndex":1,
               "IterationIndex":2,
               "Operations":1502,
               "Nanoseconds":251206355
            },{
               "IterationMode":"Workload",
               "IterationStage":"Result",
               "LaunchIndex":1,
               "IterationIndex":3,
               "Operations":1502,
               "Nanoseconds":252086911
            },{
               "IterationMode":"Workload",
               "IterationStage":"Result",
               "LaunchIndex":1,
               "IterationIndex":4,
               "Operations":1502,
               "Nanoseconds":258215163
            },{
               "IterationMode":"Workload",
               "IterationStage":"Result",
               "LaunchIndex":1,
               "IterationIndex":5,
               "Operations":1502,
               "Nanoseconds":250889811
            },{
               "IterationMode":"Workload",
               "IterationStage":"Result",
               "LaunchIndex":1,
               "IterationIndex":6,
               "Operations":1502,
               "Nanoseconds":252889063
            },{
               "IterationMode":"Workload",
               "IterationStage":"Result",
               "LaunchIndex":1,
               "IterationIndex":7,
               "Operations":1502,
               "Nanoseconds":249731004
            },{
               "IterationMode":"Workload",
               "IterationStage":"Result",
               "LaunchIndex":1,
               "IterationIndex":8,
               "Operations":1502,
               "Nanoseconds":258998490
            },{
               "IterationMode":"Workload",
               "IterationStage":"Result",
               "LaunchIndex":1,
               "IterationIndex":9,
               "Operations":1502,
               "Nanoseconds":251228403
            },{
               "IterationMode":"Workload",
               "IterationStage":"Result",
               "LaunchIndex":1,
               "IterationIndex":10,
               "Operations":1502,
               "Nanoseconds":251779683
            },{
               "IterationMode":"Workload",
               "IterationStage":"Result",
               "LaunchIndex":1,
               "IterationIndex":11,
               "Operations":1502,
               "Nanoseconds":252233765
            },{
               "IterationMode":"Workload",
               "IterationStage":"Result",
               "LaunchIndex":1,
               "IterationIndex":12,
               "Operations":1502,
               "Nanoseconds":257163502
            },{
               "IterationMode":"Workload",
               "IterationStage":"Result",
               "LaunchIndex":1,
               "IterationIndex":13,
               "Operations":1502,
               "Nanoseconds":253360733
            },{
               "IterationMode":"Workload",
               "IterationStage":"Result",
               "LaunchIndex":1,
               "IterationIndex":14,
               "Operations":1502,
               "Nanoseconds":249898136
            }
         ],
         "Metrics":[
            {
               "Value":0,
               "Descriptor":{
                  "Id":"Gen0Collects",
                  "DisplayName":"Gen 0",
                  "Legend":"GC Generation 0 collects per 1000 operations",
                  "NumberFormat":"#0.0000",
                  "UnitType":0,
                  "Unit":"Count",
                  "TheGreaterTheBetter":false
               }
            },{
               "Value":0,
               "Descriptor":{
                  "Id":"Gen1Collects",
                  "DisplayName":"Gen 1",
                  "Legend":"GC Generation 1 collects per 1000 operations",
                  "NumberFormat":"#0.0000",
                  "UnitType":0,
                  "Unit":"Count",
                  "TheGreaterTheBetter":false
               }
            },{
               "Value":0,
               "Descriptor":{
                  "Id":"Gen2Collects",
                  "DisplayName":"Gen 2",
                  "Legend":"GC Generation 2 collects per 1000 operations",
                  "NumberFormat":"#0.0000",
                  "UnitType":0,
                  "Unit":"Count",
                  "TheGreaterTheBetter":false
               }
            },{
               "Value":1,
               "Descriptor":{
                  "Id":"Allocated Memory",
                  "DisplayName":"Allocated",
                  "Legend":"Allocated memory per single operation (managed only, inclusive, 1KB = 1024B)",
                  "NumberFormat":"N0",
                  "UnitType":2,
                  "Unit":"B",
                  "TheGreaterTheBetter":false
               }
            }
         ]
      }
   ]
}
