{
   "Title":"MicroBenchmarks.Serializers.Xml_FromStream_XmlElement_-20201117-214439",
   "HostEnvironmentInfo":{
      "BenchmarkDotNetCaption":"BenchmarkDotNet",
      "BenchmarkDotNetVersion":"0.12.1.1405-nightly",
      "OsVersion":"macOS Catalina 10.15.7 (19H15) [Darwin 19.6.0]",
      "ProcessorName":"Intel Core i7-8559U CPU 2.70GHz (Coffee Lake)",
      "PhysicalProcessorCount":1,
      "PhysicalCoreCount":4,
      "LogicalCoreCount":8,
      "RuntimeVersion":".NET Core 5.0.0 (CoreCLR 5.0.20.51904, CoreFX 5.0.20.51904)",
      "Architecture":"X64",
      "HasAttachedDebugger":false,
      "HasRyuJit":true,
      "Configuration":"RELEASE",
      "DotNetCliVersion":"5.0.100",
      "ChronometerFrequency":{
         "Hertz":1000000000
      },
      "HardwareTimerKind":"Unknown"
   },
   "Benchmarks":[
      {
         "DisplayInfo":"Xml_FromStream<XmlElement>.XmlSerializer: Job-NXBZBK(PowerPlanMode=00000000-0000-0000-0000-000000000000, Arguments=/p:DebugType=portable, IterationTime=250.0000 ms, MaxIterationCount=20, MinIterationCount=15, WarmupCount=1)",
         "Namespace":"MicroBenchmarks.Serializers",
         "Type":"Xml_FromStream<XmlElement>",
         "Method":"XmlSerializer_",
         "MethodTitle":"XmlSerializer",
         "Parameters":"",
         "FullName":"MicroBenchmarks.Serializers.Xml_FromStream<XmlElement>.XmlSerializer_",
         "Statistics":{
            "OriginalValues":[
               2914.5412700979487,2911.583764553687,2945.5517926446128,2884.944545832563,2938.184057937535,2955.7532226021067,2946.3666258547405,2892.4050545185733,2916.321590279061,2947.240748013306,2925.9644589724635,2880.9957493993716
            ],
            "N":12,
            "Min":2880.9957493993716,
            "LowerFence":2848.3394661915545,
            "Q1":2906.7890870449087,
            "Median":2921.1430246257623,
            "Mean":2921.6544067254977,
            "Q3":2945.755500947145,
            "UpperFence":3004.205121800499,
            "Max":2955.7532226021067,
            "InterquartileRange":38.96641390223613,
            "LowerOutliers":[
               
            ],
            "UpperOutliers":[
               
            ],
            "AllOutliers":[
               
            ],
            "StandardError":7.450693092052204,
            "Variance":666.1539306234531,
            "StandardDeviation":25.80995797407375,
            "Skewness":-0.2593412321451797,
            "Kurtosis":1.4739672837624238,
            "ConfidenceInterval":{
               "N":12,
               "Mean":2921.6544067254977,
               "StandardError":7.450693092052204,
               "Level":12,
               "Margin":33.05857130434757,
               "Lower":2888.5958354211502,
               "Upper":2954.712978029845
            },
            "Percentiles":{
               "P0":2880.9957493993716,
               "P25":2906.7890870449087,
               "P50":2921.1430246257623,
               "P67":2940.9101197791533,
               "P80":2946.203659212715,
               "P85":2946.6725686102386,
               "P90":2947.1533357974495,
               "P95":2951.071361578266,
               "P100":2955.7532226021067
            }
         },
         "Memory":{
            "Gen0Collections":125,
            "Gen1Collections":0,
            "Gen2Collections":0,
            "TotalOperations":86576,
            "BytesAllocatedPerOperation":6040
         },
         "Measurements":[
            {
               "IterationMode":"Overhead",
               "IterationStage":"Jitting",
               "LaunchIndex":1,
               "IterationIndex":1,
               "Operations":1,
               "Nanoseconds":438244
            },{
               "IterationMode":"Workload",
               "IterationStage":"Jitting",
               "LaunchIndex":1,
               "IterationIndex":1,
               "Operations":1,
               "Nanoseconds":2361000
            },{
               "IterationMode":"Overhead",
               "IterationStage":"Jitting",
               "LaunchIndex":1,
               "IterationIndex":2,
               "Operations":16,
               "Nanoseconds":593786
            },{
               "IterationMode":"Workload",
               "IterationStage":"Jitting",
               "LaunchIndex":1,
               "IterationIndex":2,
               "Operations":16,
               "Nanoseconds":687765
            },{
               "IterationMode":"Workload",
               "IterationStage":"Pilot",
               "LaunchIndex":1,
               "IterationIndex":1,
               "Operations":16,
               "Nanoseconds":126418
            },{
               "IterationMode":"Workload",
               "IterationStage":"Pilot",
               "LaunchIndex":1,
               "IterationIndex":2,
               "Operations":31648,
               "Nanoseconds":167903125
            },{
               "IterationMode":"Workload",
               "IterationStage":"Pilot",
               "LaunchIndex":1,
               "IterationIndex":3,
               "Operations":47136,
               "Nanoseconds":141581445
            },{
               "IterationMode":"Workload",
               "IterationStage":"Pilot",
               "LaunchIndex":1,
               "IterationIndex":4,
               "Operations":83232,
               "Nanoseconds":239225699
            },{
               "IterationMode":"Workload",
               "IterationStage":"Pilot",
               "LaunchIndex":1,
               "IterationIndex":5,
               "Operations":86992,
               "Nanoseconds":263695395
            },{
               "IterationMode":"Workload",
               "IterationStage":"Pilot",
               "LaunchIndex":1,
               "IterationIndex":6,
               "Operations":82480,
               "Nanoseconds":240930659
            },{
               "IterationMode":"Workload",
               "IterationStage":"Pilot",
               "LaunchIndex":1,
               "IterationIndex":7,
               "Operations":85600,
               "Nanoseconds":252039735
            },{
               "IterationMode":"Workload",
               "IterationStage":"Pilot",
               "LaunchIndex":1,
               "IterationIndex":8,
               "Operations":84912,
               "Nanoseconds":245194059
            },{
               "IterationMode":"Workload",
               "IterationStage":"Pilot",
               "LaunchIndex":1,
               "IterationIndex":9,
               "Operations":86576,
               "Nanoseconds":260228961
            },{
               "IterationMode":"Overhead",
               "IterationStage":"Warmup",
               "LaunchIndex":1,
               "IterationIndex":1,
               "Operations":86576,
               "Nanoseconds":304800
            },{
               "IterationMode":"Overhead",
               "IterationStage":"Warmup",
               "LaunchIndex":1,
               "IterationIndex":2,
               "Operations":86576,
               "Nanoseconds":304353
            },{
               "IterationMode":"Overhead",
               "IterationStage":"Warmup",
               "LaunchIndex":1,
               "IterationIndex":3,
               "Operations":86576,
               "Nanoseconds":302941
            },{
               "IterationMode":"Overhead",
               "IterationStage":"Warmup",
               "LaunchIndex":1,
               "IterationIndex":4,
               "Operations":86576,
               "Nanoseconds":304383
            },{
               "IterationMode":"Overhead",
               "IterationStage":"Warmup",
               "LaunchIndex":1,
               "IterationIndex":5,
               "Operations":86576,
               "Nanoseconds":304272
            },{
               "IterationMode":"Overhead",
               "IterationStage":"Warmup",
               "LaunchIndex":1,
               "IterationIndex":6,
               "Operations":86576,
               "Nanoseconds":306051
            },{
               "IterationMode":"Overhead",
               "IterationStage":"Warmup",
               "LaunchIndex":1,
               "IterationIndex":7,
               "Operations":86576,
               "Nanoseconds":365108
            },{
               "IterationMode":"Overhead",
               "IterationStage":"Warmup",
               "LaunchIndex":1,
               "IterationIndex":8,
               "Operations":86576,
               "Nanoseconds":304130
            },{
               "IterationMode":"Overhead",
               "IterationStage":"Actual",
               "LaunchIndex":1,
               "IterationIndex":1,
               "Operations":86576,
               "Nanoseconds":304309
            },{
               "IterationMode":"Overhead",
               "IterationStage":"Actual",
               "LaunchIndex":1,
               "IterationIndex":2,
               "Operations":86576,
               "Nanoseconds":304347
            },{
               "IterationMode":"Overhead",
               "IterationStage":"Actual",
               "LaunchIndex":1,
               "IterationIndex":3,
               "Operations":86576,
               "Nanoseconds":304303
            },{
               "IterationMode":"Overhead",
               "IterationStage":"Actual",
               "LaunchIndex":1,
               "IterationIndex":4,
               "Operations":86576,
               "Nanoseconds":304327
            },{
               "IterationMode":"Overhead",
               "IterationStage":"Actual",
               "LaunchIndex":1,
               "IterationIndex":5,
               "Operations":86576,
               "Nanoseconds":304367
            },{
               "IterationMode":"Overhead",
               "IterationStage":"Actual",
               "LaunchIndex":1,
               "IterationIndex":6,
               "Operations":86576,
               "Nanoseconds":304245
            },{
               "IterationMode":"Overhead",
               "IterationStage":"Actual",
               "LaunchIndex":1,
               "IterationIndex":7,
               "Operations":86576,
               "Nanoseconds":304236
            },{
               "IterationMode":"Overhead",
               "IterationStage":"Actual",
               "LaunchIndex":1,
               "IterationIndex":8,
               "Operations":86576,
               "Nanoseconds":304421
            },{
               "IterationMode":"Overhead",
               "IterationStage":"Actual",
               "LaunchIndex":1,
               "IterationIndex":9,
               "Operations":86576,
               "Nanoseconds":304265
            },{
               "IterationMode":"Overhead",
               "IterationStage":"Actual",
               "LaunchIndex":1,
               "IterationIndex":10,
               "Operations":86576,
               "Nanoseconds":334313
            },{
               "IterationMode":"Overhead",
               "IterationStage":"Actual",
               "LaunchIndex":1,
               "IterationIndex":11,
               "Operations":86576,
               "Nanoseconds":304511
            },{
               "IterationMode":"Overhead",
               "IterationStage":"Actual",
               "LaunchIndex":1,
               "IterationIndex":12,
               "Operations":86576,
               "Nanoseconds":304194
            },{
               "IterationMode":"Overhead",
               "IterationStage":"Actual",
               "LaunchIndex":1,
               "IterationIndex":13,
               "Operations":86576,
               "Nanoseconds":304289
            },{
               "IterationMode":"Overhead",
               "IterationStage":"Actual",
               "LaunchIndex":1,
               "IterationIndex":14,
               "Operations":86576,
               "Nanoseconds":305225
            },{
               "IterationMode":"Overhead",
               "IterationStage":"Actual",
               "LaunchIndex":1,
               "IterationIndex":15,
               "Operations":86576,
               "Nanoseconds":312364
            },{
               "IterationMode":"Workload",
               "IterationStage":"Warmup",
               "LaunchIndex":1,
               "IterationIndex":1,
               "Operations":86576,
               "Nanoseconds":258048095
            },{
               "IterationMode":"Workload",
               "IterationStage":"Actual",
               "LaunchIndex":1,
               "IterationIndex":1,
               "Operations":86576,
               "Nanoseconds":252633652
            },{
               "IterationMode":"Workload",
               "IterationStage":"Actual",
               "LaunchIndex":1,
               "IterationIndex":2,
               "Operations":86576,
               "Nanoseconds":252377603
            },{
               "IterationMode":"Workload",
               "IterationStage":"Actual",
               "LaunchIndex":1,
               "IterationIndex":3,
               "Operations":86576,
               "Nanoseconds":266131903
            },{
               "IterationMode":"Workload",
               "IterationStage":"Actual",
               "LaunchIndex":1,
               "IterationIndex":4,
               "Operations":86576,
               "Nanoseconds":255318419
            },{
               "IterationMode":"Workload",
               "IterationStage":"Actual",
               "LaunchIndex":1,
               "IterationIndex":5,
               "Operations":86576,
               "Nanoseconds":250071286
            },{
               "IterationMode":"Workload",
               "IterationStage":"Actual",
               "LaunchIndex":1,
               "IterationIndex":6,
               "Operations":86576,
               "Nanoseconds":254680550
            },{
               "IterationMode":"Workload",
               "IterationStage":"Actual",
               "LaunchIndex":1,
               "IterationIndex":7,
               "Operations":86576,
               "Nanoseconds":256201618
            },{
               "IterationMode":"Workload",
               "IterationStage":"Actual",
               "LaunchIndex":1,
               "IterationIndex":8,
               "Operations":86576,
               "Nanoseconds":255388964
            },{
               "IterationMode":"Workload",
               "IterationStage":"Actual",
               "LaunchIndex":1,
               "IterationIndex":9,
               "Operations":86576,
               "Nanoseconds":250717187
            },{
               "IterationMode":"Workload",
               "IterationStage":"Actual",
               "LaunchIndex":1,
               "IterationIndex":10,
               "Operations":86576,
               "Nanoseconds":252787785
            },{
               "IterationMode":"Workload",
               "IterationStage":"Actual",
               "LaunchIndex":1,
               "IterationIndex":11,
               "Operations":86576,
               "Nanoseconds":261414108
            },{
               "IterationMode":"Workload",
               "IterationStage":"Actual",
               "LaunchIndex":1,
               "IterationIndex":12,
               "Operations":86576,
               "Nanoseconds":255464642
            },{
               "IterationMode":"Workload",
               "IterationStage":"Actual",
               "LaunchIndex":1,
               "IterationIndex":13,
               "Operations":86576,
               "Nanoseconds":253622626
            },{
               "IterationMode":"Workload",
               "IterationStage":"Actual",
               "LaunchIndex":1,
               "IterationIndex":14,
               "Operations":86576,
               "Nanoseconds":249729415
            },{
               "IterationMode":"Workload",
               "IterationStage":"Actual",
               "LaunchIndex":1,
               "IterationIndex":15,
               "Operations":86576,
               "Nanoseconds":264769505
            },{
               "IterationMode":"Workload",
               "IterationStage":"Result",
               "LaunchIndex":1,
               "IterationIndex":1,
               "Operations":86576,
               "Nanoseconds":252329325
            },{
               "IterationMode":"Workload",
               "IterationStage":"Result",
               "LaunchIndex":1,
               "IterationIndex":2,
               "Operations":86576,
               "Nanoseconds":252073276
            },{
               "IterationMode":"Workload",
               "IterationStage":"Result",
               "LaunchIndex":1,
               "IterationIndex":3,
               "Operations":86576,
               "Nanoseconds":255014092
            },{
               "IterationMode":"Workload",
               "IterationStage":"Result",
               "LaunchIndex":1,
               "IterationIndex":4,
               "Operations":86576,
               "Nanoseconds":249766959
            },{
               "IterationMode":"Workload",
               "IterationStage":"Result",
               "LaunchIndex":1,
               "IterationIndex":5,
               "Operations":86576,
               "Nanoseconds":254376223
            },{
               "IterationMode":"Workload",
               "IterationStage":"Result",
               "LaunchIndex":1,
               "IterationIndex":6,
               "Operations":86576,
               "Nanoseconds":255897291
            },{
               "IterationMode":"Workload",
               "IterationStage":"Result",
               "LaunchIndex":1,
               "IterationIndex":7,
               "Operations":86576,
               "Nanoseconds":255084637
            },{
               "IterationMode":"Workload",
               "IterationStage":"Result",
               "LaunchIndex":1,
               "IterationIndex":8,
               "Operations":86576,
               "Nanoseconds":250412860
            },{
               "IterationMode":"Workload",
               "IterationStage":"Result",
               "LaunchIndex":1,
               "IterationIndex":9,
               "Operations":86576,
               "Nanoseconds":252483458
            },{
               "IterationMode":"Workload",
               "IterationStage":"Result",
               "LaunchIndex":1,
               "IterationIndex":10,
               "Operations":86576,
               "Nanoseconds":255160315
            },{
               "IterationMode":"Workload",
               "IterationStage":"Result",
               "LaunchIndex":1,
               "IterationIndex":11,
               "Operations":86576,
               "Nanoseconds":253318299
            },{
               "IterationMode":"Workload",
               "IterationStage":"Result",
               "LaunchIndex":1,
               "IterationIndex":12,
               "Operations":86576,
               "Nanoseconds":249425088
            }
         ],
         "Metrics":[
            {
               "Value":1.443818148216596,
               "Descriptor":{
                  "Id":"Gen0Collects",
                  "DisplayName":"Gen 0",
                  "Legend":"GC Generation 0 collects per 1000 operations",
                  "NumberFormat":"#0.0000",
                  "UnitType":0,
                  "Unit":"Count",
                  "TheGreaterTheBetter":false
               }
            },{
               "Value":0,
               "Descriptor":{
                  "Id":"Gen1Collects",
                  "DisplayName":"Gen 1",
                  "Legend":"GC Generation 1 collects per 1000 operations",
                  "NumberFormat":"#0.0000",
                  "UnitType":0,
                  "Unit":"Count",
                  "TheGreaterTheBetter":false
               }
            },{
               "Value":0,
               "Descriptor":{
                  "Id":"Gen2Collects",
                  "DisplayName":"Gen 2",
                  "Legend":"GC Generation 2 collects per 1000 operations",
                  "NumberFormat":"#0.0000",
                  "UnitType":0,
                  "Unit":"Count",
                  "TheGreaterTheBetter":false
               }
            },{
               "Value":6040,
               "Descriptor":{
                  "Id":"Allocated Memory",
                  "DisplayName":"Allocated",
                  "Legend":"Allocated memory per single operation (managed only, inclusive, 1KB = 1024B)",
                  "NumberFormat":"N0",
                  "UnitType":2,
                  "Unit":"B",
                  "TheGreaterTheBetter":false
               }
            }
         ]
      },{
         "DisplayInfo":"Xml_FromStream<XmlElement>.DataContractSerializer: Job-NXBZBK(PowerPlanMode=00000000-0000-0000-0000-000000000000, Arguments=/p:DebugType=portable, IterationTime=250.0000 ms, MaxIterationCount=20, MinIterationCount=15, WarmupCount=1)",
         "Namespace":"MicroBenchmarks.Serializers",
         "Type":"Xml_FromStream<XmlElement>",
         "Method":"DataContractSerializer_",
         "MethodTitle":"DataContractSerializer",
         "Parameters":"",
         "FullName":"MicroBenchmarks.Serializers.Xml_FromStream<XmlElement>.DataContractSerializer_",
         "Statistics":{
            "OriginalValues":[
               2027.2988080525563,2024.8275091062833,2056.910506374398,2008.386960127488,2116.775741511643,2059.8630642643425,2035.5875341485626,2045.9135553531937,2089.7716843371927,2049.4274505658905,2007.6081127227787,2055.950785416938,2073.625601665149,2037.5179117340965
            ],
            "N":14,
            "Min":2007.6081127227787,
            "LowerFence":1984.7400867536094,
            "Q1":2029.3709895765578,
            "Median":2047.670502959542,
            "Mean":2049.2475160986082,
            "Q3":2059.1249247918568,
            "UpperFence":2103.755827614805,
            "Max":2116.775741511643,
            "InterquartileRange":29.753935215298952,
            "LowerOutliers":[
               
            ],
            "UpperOutliers":[
               2116.775741511643
            ],
            "AllOutliers":[
               2116.775741511643
            ],
            "StandardError":8.062168970078096,
            "Variance":909.9799590292613,
            "StandardDeviation":30.165874080312364,
            "Skewness":0.5754934412429121,
            "Kurtosis":2.6134672262972343,
            "ConfidenceInterval":{
               "N":14,
               "Mean":2049.2475160986082,
               "StandardError":8.062168970078096,
               "Level":12,
               "Margin":34.02905858304262,
               "Lower":2015.2184575155657,
               "Upper":2083.276574681651
            },
            "Percentiles":{
               "P0":2007.6081127227787,
               "P25":2029.3709895765578,
               "P50":2047.670502959542,
               "P67":2056.6321872967346,
               "P80":2065.368079224665,
               "P85":2074.4329057987516,
               "P90":2084.92785953558,
               "P95":2099.22310434825,
               "P100":2116.775741511643
            }
         },
         "Memory":{
            "Gen0Collections":214,
            "Gen1Collections":0,
            "Gen2Collections":0,
            "TotalOperations":122992,
            "BytesAllocatedPerOperation":7288
         },
         "Measurements":[
            {
               "IterationMode":"Overhead",
               "IterationStage":"Jitting",
               "LaunchIndex":1,
               "IterationIndex":1,
               "Operations":1,
               "Nanoseconds":345067
            },{
               "IterationMode":"Workload",
               "IterationStage":"Jitting",
               "LaunchIndex":1,
               "IterationIndex":1,
               "Operations":1,
               "Nanoseconds":1328583
            },{
               "IterationMode":"Overhead",
               "IterationStage":"Jitting",
               "LaunchIndex":1,
               "IterationIndex":2,
               "Operations":16,
               "Nanoseconds":573760
            },{
               "IterationMode":"Workload",
               "IterationStage":"Jitting",
               "LaunchIndex":1,
               "IterationIndex":2,
               "Operations":16,
               "Nanoseconds":671950
            },{
               "IterationMode":"Workload",
               "IterationStage":"Pilot",
               "LaunchIndex":1,
               "IterationIndex":1,
               "Operations":16,
               "Nanoseconds":79178
            },{
               "IterationMode":"Workload",
               "IterationStage":"Pilot",
               "LaunchIndex":1,
               "IterationIndex":2,
               "Operations":50528,
               "Nanoseconds":173839966
            },{
               "IterationMode":"Workload",
               "IterationStage":"Pilot",
               "LaunchIndex":1,
               "IterationIndex":3,
               "Operations":72672,
               "Nanoseconds":148802350
            },{
               "IterationMode":"Workload",
               "IterationStage":"Pilot",
               "LaunchIndex":1,
               "IterationIndex":4,
               "Operations":122096,
               "Nanoseconds":260685264
            },{
               "IterationMode":"Workload",
               "IterationStage":"Pilot",
               "LaunchIndex":1,
               "IterationIndex":5,
               "Operations":117104,
               "Nanoseconds":237495389
            },{
               "IterationMode":"Workload",
               "IterationStage":"Pilot",
               "LaunchIndex":1,
               "IterationIndex":6,
               "Operations":123280,
               "Nanoseconds":253614086
            },{
               "IterationMode":"Workload",
               "IterationStage":"Pilot",
               "LaunchIndex":1,
               "IterationIndex":7,
               "Operations":121536,
               "Nanoseconds":247046883
            },{
               "IterationMode":"Workload",
               "IterationStage":"Pilot",
               "LaunchIndex":1,
               "IterationIndex":8,
               "Operations":122992,
               "Nanoseconds":263153877
            },{
               "IterationMode":"Overhead",
               "IterationStage":"Warmup",
               "LaunchIndex":1,
               "IterationIndex":1,
               "Operations":122992,
               "Nanoseconds":457042
            },{
               "IterationMode":"Overhead",
               "IterationStage":"Warmup",
               "LaunchIndex":1,
               "IterationIndex":2,
               "Operations":122992,
               "Nanoseconds":458132
            },{
               "IterationMode":"Overhead",
               "IterationStage":"Warmup",
               "LaunchIndex":1,
               "IterationIndex":3,
               "Operations":122992,
               "Nanoseconds":456493
            },{
               "IterationMode":"Overhead",
               "IterationStage":"Warmup",
               "LaunchIndex":1,
               "IterationIndex":4,
               "Operations":122992,
               "Nanoseconds":457792
            },{
               "IterationMode":"Overhead",
               "IterationStage":"Warmup",
               "LaunchIndex":1,
               "IterationIndex":5,
               "Operations":122992,
               "Nanoseconds":489943
            },{
               "IterationMode":"Overhead",
               "IterationStage":"Warmup",
               "LaunchIndex":1,
               "IterationIndex":6,
               "Operations":122992,
               "Nanoseconds":455735
            },{
               "IterationMode":"Overhead",
               "IterationStage":"Actual",
               "LaunchIndex":1,
               "IterationIndex":1,
               "Operations":122992,
               "Nanoseconds":457155
            },{
               "IterationMode":"Overhead",
               "IterationStage":"Actual",
               "LaunchIndex":1,
               "IterationIndex":2,
               "Operations":122992,
               "Nanoseconds":671274
            },{
               "IterationMode":"Overhead",
               "IterationStage":"Actual",
               "LaunchIndex":1,
               "IterationIndex":3,
               "Operations":122992,
               "Nanoseconds":494432
            },{
               "IterationMode":"Overhead",
               "IterationStage":"Actual",
               "LaunchIndex":1,
               "IterationIndex":4,
               "Operations":122992,
               "Nanoseconds":487269
            },{
               "IterationMode":"Overhead",
               "IterationStage":"Actual",
               "LaunchIndex":1,
               "IterationIndex":5,
               "Operations":122992,
               "Nanoseconds":489807
            },{
               "IterationMode":"Overhead",
               "IterationStage":"Actual",
               "LaunchIndex":1,
               "IterationIndex":6,
               "Operations":122992,
               "Nanoseconds":489600
            },{
               "IterationMode":"Overhead",
               "IterationStage":"Actual",
               "LaunchIndex":1,
               "IterationIndex":7,
               "Operations":122992,
               "Nanoseconds":488892
            },{
               "IterationMode":"Overhead",
               "IterationStage":"Actual",
               "LaunchIndex":1,
               "IterationIndex":8,
               "Operations":122992,
               "Nanoseconds":490991
            },{
               "IterationMode":"Overhead",
               "IterationStage":"Actual",
               "LaunchIndex":1,
               "IterationIndex":9,
               "Operations":122992,
               "Nanoseconds":492608
            },{
               "IterationMode":"Overhead",
               "IterationStage":"Actual",
               "LaunchIndex":1,
               "IterationIndex":10,
               "Operations":122992,
               "Nanoseconds":527820
            },{
               "IterationMode":"Overhead",
               "IterationStage":"Actual",
               "LaunchIndex":1,
               "IterationIndex":11,
               "Operations":122992,
               "Nanoseconds":488038
            },{
               "IterationMode":"Overhead",
               "IterationStage":"Actual",
               "LaunchIndex":1,
               "IterationIndex":12,
               "Operations":122992,
               "Nanoseconds":490883
            },{
               "IterationMode":"Overhead",
               "IterationStage":"Actual",
               "LaunchIndex":1,
               "IterationIndex":13,
               "Operations":122992,
               "Nanoseconds":550691
            },{
               "IterationMode":"Overhead",
               "IterationStage":"Actual",
               "LaunchIndex":1,
               "IterationIndex":14,
               "Operations":122992,
               "Nanoseconds":491105
            },{
               "IterationMode":"Overhead",
               "IterationStage":"Actual",
               "LaunchIndex":1,
               "IterationIndex":15,
               "Operations":122992,
               "Nanoseconds":520677
            },{
               "IterationMode":"Workload",
               "IterationStage":"Warmup",
               "LaunchIndex":1,
               "IterationIndex":1,
               "Operations":122992,
               "Nanoseconds":257937859
            },{
               "IterationMode":"Workload",
               "IterationStage":"Actual",
               "LaunchIndex":1,
               "IterationIndex":1,
               "Operations":122992,
               "Nanoseconds":249832526
            },{
               "IterationMode":"Workload",
               "IterationStage":"Actual",
               "LaunchIndex":1,
               "IterationIndex":2,
               "Operations":122992,
               "Nanoseconds":264279732
            },{
               "IterationMode":"Workload",
               "IterationStage":"Actual",
               "LaunchIndex":1,
               "IterationIndex":3,
               "Operations":122992,
               "Nanoseconds":249528576
            },{
               "IterationMode":"Workload",
               "IterationStage":"Actual",
               "LaunchIndex":1,
               "IterationIndex":4,
               "Operations":122992,
               "Nanoseconds":253474528
            },{
               "IterationMode":"Workload",
               "IterationStage":"Actual",
               "LaunchIndex":1,
               "IterationIndex":5,
               "Operations":122992,
               "Nanoseconds":247506520
            },{
               "IterationMode":"Workload",
               "IterationStage":"Actual",
               "LaunchIndex":1,
               "IterationIndex":6,
               "Operations":122992,
               "Nanoseconds":260837473
            },{
               "IterationMode":"Workload",
               "IterationStage":"Actual",
               "LaunchIndex":1,
               "IterationIndex":7,
               "Operations":122992,
               "Nanoseconds":253837669
            },{
               "IterationMode":"Workload",
               "IterationStage":"Actual",
               "LaunchIndex":1,
               "IterationIndex":8,
               "Operations":122992,
               "Nanoseconds":250851973
            },{
               "IterationMode":"Workload",
               "IterationStage":"Actual",
               "LaunchIndex":1,
               "IterationIndex":9,
               "Operations":122992,
               "Nanoseconds":252121991
            },{
               "IterationMode":"Workload",
               "IterationStage":"Actual",
               "LaunchIndex":1,
               "IterationIndex":10,
               "Operations":122992,
               "Nanoseconds":257516190
            },{
               "IterationMode":"Workload",
               "IterationStage":"Actual",
               "LaunchIndex":1,
               "IterationIndex":11,
               "Operations":122992,
               "Nanoseconds":252554172
            },{
               "IterationMode":"Workload",
               "IterationStage":"Actual",
               "LaunchIndex":1,
               "IterationIndex":12,
               "Operations":122992,
               "Nanoseconds":247410728
            },{
               "IterationMode":"Workload",
               "IterationStage":"Actual",
               "LaunchIndex":1,
               "IterationIndex":13,
               "Operations":122992,
               "Nanoseconds":253356490
            },{
               "IterationMode":"Workload",
               "IterationStage":"Actual",
               "LaunchIndex":1,
               "IterationIndex":14,
               "Operations":122992,
               "Nanoseconds":255530351
            },{
               "IterationMode":"Workload",
               "IterationStage":"Actual",
               "LaunchIndex":1,
               "IterationIndex":15,
               "Operations":122992,
               "Nanoseconds":251089394
            },{
               "IterationMode":"Workload",
               "IterationStage":"Result",
               "LaunchIndex":1,
               "IterationIndex":1,
               "Operations":122992,
               "Nanoseconds":249341535
            },{
               "IterationMode":"Workload",
               "IterationStage":"Result",
               "LaunchIndex":1,
               "IterationIndex":2,
               "Operations":122992,
               "Nanoseconds":249037585
            },{
               "IterationMode":"Workload",
               "IterationStage":"Result",
               "LaunchIndex":1,
               "IterationIndex":3,
               "Operations":122992,
               "Nanoseconds":252983537
            },{
               "IterationMode":"Workload",
               "IterationStage":"Result",
               "LaunchIndex":1,
               "IterationIndex":4,
               "Operations":122992,
               "Nanoseconds":247015529
            },{
               "IterationMode":"Workload",
               "IterationStage":"Result",
               "LaunchIndex":1,
               "IterationIndex":5,
               "Operations":122992,
               "Nanoseconds":260346482
            },{
               "IterationMode":"Workload",
               "IterationStage":"Result",
               "LaunchIndex":1,
               "IterationIndex":6,
               "Operations":122992,
               "Nanoseconds":253346678
            },{
               "IterationMode":"Workload",
               "IterationStage":"Result",
               "LaunchIndex":1,
               "IterationIndex":7,
               "Operations":122992,
               "Nanoseconds":250360982
            },{
               "IterationMode":"Workload",
               "IterationStage":"Result",
               "LaunchIndex":1,
               "IterationIndex":8,
               "Operations":122992,
               "Nanoseconds":251631000
            },{
               "IterationMode":"Workload",
               "IterationStage":"Result",
               "LaunchIndex":1,
               "IterationIndex":9,
               "Operations":122992,
               "Nanoseconds":257025199
            },{
               "IterationMode":"Workload",
               "IterationStage":"Result",
               "LaunchIndex":1,
               "IterationIndex":10,
               "Operations":122992,
               "Nanoseconds":252063181
            },{
               "IterationMode":"Workload",
               "IterationStage":"Result",
               "LaunchIndex":1,
               "IterationIndex":11,
               "Operations":122992,
               "Nanoseconds":246919737
            },{
               "IterationMode":"Workload",
               "IterationStage":"Result",
               "LaunchIndex":1,
               "IterationIndex":12,
               "Operations":122992,
               "Nanoseconds":252865499
            },{
               "IterationMode":"Workload",
               "IterationStage":"Result",
               "LaunchIndex":1,
               "IterationIndex":13,
               "Operations":122992,
               "Nanoseconds":255039360
            },{
               "IterationMode":"Workload",
               "IterationStage":"Result",
               "LaunchIndex":1,
               "IterationIndex":14,
               "Operations":122992,
               "Nanoseconds":250598403
            }
         ],
         "Metrics":[
            {
               "Value":1.7399505658904644,
               "Descriptor":{
                  "Id":"Gen0Collects",
                  "DisplayName":"Gen 0",
                  "Legend":"GC Generation 0 collects per 1000 operations",
                  "NumberFormat":"#0.0000",
                  "UnitType":0,
                  "Unit":"Count",
                  "TheGreaterTheBetter":false
               }
            },{
               "Value":0,
               "Descriptor":{
                  "Id":"Gen1Collects",
                  "DisplayName":"Gen 1",
                  "Legend":"GC Generation 1 collects per 1000 operations",
                  "NumberFormat":"#0.0000",
                  "UnitType":0,
                  "Unit":"Count",
                  "TheGreaterTheBetter":false
               }
            },{
               "Value":0,
               "Descriptor":{
                  "Id":"Gen2Collects",
                  "DisplayName":"Gen 2",
                  "Legend":"GC Generation 2 collects per 1000 operations",
                  "NumberFormat":"#0.0000",
                  "UnitType":0,
                  "Unit":"Count",
                  "TheGreaterTheBetter":false
               }
            },{
               "Value":7288,
               "Descriptor":{
                  "Id":"Allocated Memory",
                  "DisplayName":"Allocated",
                  "Legend":"Allocated memory per single operation (managed only, inclusive, 1KB = 1024B)",
                  "NumberFormat":"N0",
                  "UnitType":2,
                  "Unit":"B",
                  "TheGreaterTheBetter":false
               }
            }
         ]
      }
   ]
}
