Method,Job,AnalyzeLaunchVariance,EvaluateOverhead,MaxAbsoluteError,MaxRelativeError,MinInvokeCount,MinIterationTime,OutlierMode,Affinity,EnvironmentVariables,Jit,Platform,PowerPlanMode,Runtime,AllowVeryLargeObjects,Concurrent,CpuGroups,Force,HeapAffinitizeMask,HeapCount,NoAffinitize,RetainVm,Server,Arguments,BuildConfiguration,Clock,EngineFactory,NuGetReferences,Toolchain,IsMutator,InvocationCount,IterationCount,IterationTime,LaunchCount,MaxIterationCount,MaxWarmupIterationCount,MinIterationCount,MinWarmupIterationCount,RunStrategy,UnrollFactor,WarmupCount,Mean,Error,StdDev,Median,Min,Max,Gen 0,Gen 1,Gen 2,Allocated
XmlSerializer,Job-NXBZBK,False,Default,Default,Default,Default,Default,Default,00000000,Empty,RyuJit,X64,00000000-0000-0000-0000-000000000000,.NET Core 5.0,False,True,False,True,Default,Default,False,False,False,/p:DebugType=portable,Default,Default,Default,Default,Default,Default,1,Default,250.0000 ms,Default,20,Default,15,Default,Default,16,1,37.60 μs,0.678 μs,0.666 μs,37.50 μs,36.76 μs,38.99 μs,2.6659,0.0000,0.0000,10.91 KB
DataContractSerializer,Job-NXBZBK,False,Default,Default,Default,Default,Default,Default,00000000,Empty,RyuJit,X64,00000000-0000-0000-0000-000000000000,.NET Core 5.0,False,True,False,True,Default,Default,False,False,False,/p:DebugType=portable,Default,Default,Default,Default,Default,Default,1,Default,250.0000 ms,Default,20,Default,15,Default,Default,16,1,70.21 μs,0.800 μs,0.709 μs,70.01 μs,69.19 μs,71.53 μs,4.7860,0.0000,0.0000,20.05 KB
