Method,Job,AnalyzeLaunchVariance,EvaluateOverhead,MaxAbsoluteError,MaxRelativeError,MinInvokeCount,MinIterationTime,OutlierMode,Affinity,EnvironmentVariables,Jit,Platform,PowerPlanMode,Runtime,AllowVeryLargeObjects,Concurrent,CpuGroups,Force,HeapAffinitizeMask,HeapCount,NoAffinitize,RetainVm,Server,Arguments,BuildConfiguration,Clock,EngineFactory,NuGetReferences,Toolchain,IsMutator,InvocationCount,IterationCount,IterationTime,LaunchCount,MaxIterationCount,MaxWarmupIterationCount,MinIterationCount,MinWarmupIterationCount,RunStrategy,UnrollFactor,WarmupCount,Mean,Error,StdDev,Median,Min,Max,Gen 0,Gen 1,Gen 2,Allocated
SerializeToString,Job-NXBZBK,False,Default,Default,Default,Default,Default,Default,00000000,Empty,RyuJit,X64,00000000-0000-0000-0000-000000000000,.NET Core 5.0,False,True,False,True,Default,Default,False,False,False,/p:DebugType=portable,Default,Default,Default,Default,Default,Default,1,Default,250.0000 ms,Default,20,Default,15,Default,Default,16,1,10.86 μs,0.155 μs,0.145 μs,10.87 μs,10.594 μs,11.17 μs,2.8390,0.0000,0.0000,12008 B
SerializeToUtf8Bytes,Job-NXBZBK,False,Default,Default,Default,Default,Default,Default,00000000,Empty,RyuJit,X64,00000000-0000-0000-0000-000000000000,.NET Core 5.0,False,True,False,True,Default,Default,False,False,False,/p:DebugType=portable,Default,Default,Default,Default,Default,Default,1,Default,250.0000 ms,Default,20,Default,15,Default,Default,16,1,10.23 μs,0.203 μs,0.180 μs,10.19 μs,9.961 μs,10.58 μs,1.4423,0.0000,0.0000,6096 B
SerializeToStream,Job-NXBZBK,False,Default,Default,Default,Default,Default,Default,00000000,Empty,RyuJit,X64,00000000-0000-0000-0000-000000000000,.NET Core 5.0,False,True,False,True,Default,Default,False,False,False,/p:DebugType=portable,Default,Default,Default,Default,Default,Default,1,Default,250.0000 ms,Default,20,Default,15,Default,Default,16,1,10.81 μs,0.118 μs,0.110 μs,10.78 μs,10.644 μs,11.00 μs,0.0000,0.0000,0.0000,152 B
SerializeObjectProperty,Job-NXBZBK,False,Default,Default,Default,Default,Default,Default,00000000,Empty,RyuJit,X64,00000000-0000-0000-0000-000000000000,.NET Core 5.0,False,True,False,True,Default,Default,False,False,False,/p:DebugType=portable,Default,Default,Default,Default,Default,Default,1,Default,250.0000 ms,Default,20,Default,15,Default,Default,16,1,11.16 μs,0.143 μs,0.120 μs,11.14 μs,11.020 μs,11.42 μs,2.9276,0.0000,0.0000,12336 B
