Method,Job,AnalyzeLaunchVariance,EvaluateOverhead,MaxAbsoluteError,MaxRelativeError,MinInvokeCount,MinIterationTime,OutlierMode,Affinity,EnvironmentVariables,Jit,Platform,PowerPlanMode,Runtime,AllowVeryLargeObjects,Concurrent,CpuGroups,Force,HeapAffinitizeMask,HeapCount,NoAffinitize,RetainVm,Server,Arguments,BuildConfiguration,Clock,EngineFactory,NuGetReferences,Toolchain,IsMutator,InvocationCount,IterationCount,IterationTime,LaunchCount,MaxIterationCount,MaxWarmupIterationCount,MinIterationCount,MinWarmupIterationCount,RunStrategy,UnrollFactor,WarmupCount,Size,Mean,Error,StdDev,Median,Min,Max,Gen 0,Gen 1,Gen 2,Allocated
ConcurrentBag,Job-QZKIVK,False,Default,Default,Default,Default,Default,Default,00000000,Empty,RyuJit,X64,00000000-0000-0000-0000-000000000000,.NET Core 5.0,False,True,False,True,Default,Default,False,False,False,/p:DebugType=portable,Default,Default,Default,Default,Default,Default,1,Default,250.0000 ms,Default,20,10,15,6,Default,1,-1,2000000,223.89 ms,7.716 ms,8.885 ms,222.93 ms,210.90 ms,243.83 ms,1000.0000,1000.0000,1000.0000,8.02 MB
ConcurrentStack,Job-QZKIVK,False,Default,Default,Default,Default,Default,Default,00000000,Empty,RyuJit,X64,00000000-0000-0000-0000-000000000000,.NET Core 5.0,False,True,False,True,Default,Default,False,False,False,/p:DebugType=portable,Default,Default,Default,Default,Default,Default,1,Default,250.0000 ms,Default,20,10,15,6,Default,1,-1,2000000,102.60 ms,8.680 ms,9.996 ms,101.45 ms,85.76 ms,120.00 ms,14000.0000,1000.0000,0.0000,61.65 MB
ConcurrentQueue,Job-QZKIVK,False,Default,Default,Default,Default,Default,Default,00000000,Empty,RyuJit,X64,00000000-0000-0000-0000-000000000000,.NET Core 5.0,False,True,False,True,Default,Default,False,False,False,/p:DebugType=portable,Default,Default,Default,Default,Default,Default,1,Default,250.0000 ms,Default,20,10,15,6,Default,1,-1,2000000,24.19 ms,1.918 ms,2.209 ms,23.32 ms,21.89 ms,28.13 ms,0.0000,0.0000,0.0000,1 MB
