Method,Job,AnalyzeLaunchVariance,EvaluateOverhead,MaxAbsoluteError,MaxRelativeError,MinInvokeCount,MinIterationTime,OutlierMode,Affinity,EnvironmentVariables,Jit,Platform,PowerPlanMode,Runtime,AllowVeryLargeObjects,Concurrent,CpuGroups,Force,HeapAffinitizeMask,HeapCount,NoAffinitize,RetainVm,Server,Arguments,BuildConfiguration,Clock,EngineFactory,NuGetReferences,Toolchain,IsMutator,InvocationCount,IterationCount,IterationTime,LaunchCount,MaxIterationCount,MaxWarmupIterationCount,MinIterationCount,MinWarmupIterationCount,RunStrategy,UnrollFactor,WarmupCount,CommentHandling,SegmentSize,TestCase,Mean,Error,StdDev,Median,Min,Max,Gen 0,Gen 1,Gen 2,Allocated
Utf8JsonReaderCommentParsing,Job-NXBZBK,False,Default,Default,Default,Default,Default,Default,00000000,Empty,RyuJit,X64,00000000-0000-0000-0000-000000000000,.NET Core 5.0,False,True,False,True,Default,Default,False,False,False,/p:DebugType=portable,Default,Default,Default,Default,Default,Default,1,Default,250.0000 ms,Default,20,Default,15,Default,Default,16,1,Allow,0,ShortMultiLine,109.8 ns,1.59 ns,1.49 ns,109.5 ns,107.6 ns,112.9 ns,0.0000,0.0000,0.0000,0 B
Utf8JsonReaderCommentParsing,Job-NXBZBK,False,Default,Default,Default,Default,Default,Default,00000000,Empty,RyuJit,X64,00000000-0000-0000-0000-000000000000,.NET Core 5.0,False,True,False,True,Default,Default,False,False,False,/p:DebugType=portable,Default,Default,Default,Default,Default,Default,1,Default,250.0000 ms,Default,20,Default,15,Default,Default,16,1,Allow,0,LongMultiLine,"10,896.0 ns",97.61 ns,86.53 ns,"10,895.7 ns","10,763.3 ns","11,049.0 ns",0.0000,0.0000,0.0000,0 B
Utf8JsonReaderCommentParsing,Job-NXBZBK,False,Default,Default,Default,Default,Default,Default,00000000,Empty,RyuJit,X64,00000000-0000-0000-0000-000000000000,.NET Core 5.0,False,True,False,True,Default,Default,False,False,False,/p:DebugType=portable,Default,Default,Default,Default,Default,Default,1,Default,250.0000 ms,Default,20,Default,15,Default,Default,16,1,Allow,0,ShortSingleLine,110.4 ns,1.59 ns,1.41 ns,109.9 ns,108.8 ns,113.0 ns,0.0000,0.0000,0.0000,0 B
Utf8JsonReaderCommentParsing,Job-NXBZBK,False,Default,Default,Default,Default,Default,Default,00000000,Empty,RyuJit,X64,00000000-0000-0000-0000-000000000000,.NET Core 5.0,False,True,False,True,Default,Default,False,False,False,/p:DebugType=portable,Default,Default,Default,Default,Default,Default,1,Default,250.0000 ms,Default,20,Default,15,Default,Default,16,1,Allow,0,LongSingleLine,173.1 ns,2.26 ns,2.12 ns,172.7 ns,170.2 ns,176.8 ns,0.0000,0.0000,0.0000,0 B
Utf8JsonReaderCommentParsing,Job-NXBZBK,False,Default,Default,Default,Default,Default,Default,00000000,Empty,RyuJit,X64,00000000-0000-0000-0000-000000000000,.NET Core 5.0,False,True,False,True,Default,Default,False,False,False,/p:DebugType=portable,Default,Default,Default,Default,Default,Default,1,Default,250.0000 ms,Default,20,Default,15,Default,Default,16,1,Allow,100,ShortMultiLine,120.2 ns,1.79 ns,1.59 ns,119.9 ns,118.4 ns,122.7 ns,0.0000,0.0000,0.0000,0 B
Utf8JsonReaderCommentParsing,Job-NXBZBK,False,Default,Default,Default,Default,Default,Default,00000000,Empty,RyuJit,X64,00000000-0000-0000-0000-000000000000,.NET Core 5.0,False,True,False,True,Default,Default,False,False,False,/p:DebugType=portable,Default,Default,Default,Default,Default,Default,1,Default,250.0000 ms,Default,20,Default,15,Default,Default,16,1,Allow,100,LongMultiLine,"14,500.7 ns",185.11 ns,173.15 ns,"14,459.8 ns","14,242.3 ns","14,757.2 ns",0.0000,0.0000,0.0000,0 B
Utf8JsonReaderCommentParsing,Job-NXBZBK,False,Default,Default,Default,Default,Default,Default,00000000,Empty,RyuJit,X64,00000000-0000-0000-0000-000000000000,.NET Core 5.0,False,True,False,True,Default,Default,False,False,False,/p:DebugType=portable,Default,Default,Default,Default,Default,Default,1,Default,250.0000 ms,Default,20,Default,15,Default,Default,16,1,Allow,100,ShortSingleLine,118.0 ns,1.26 ns,1.18 ns,117.6 ns,116.3 ns,120.0 ns,0.0000,0.0000,0.0000,0 B
Utf8JsonReaderCommentParsing,Job-NXBZBK,False,Default,Default,Default,Default,Default,Default,00000000,Empty,RyuJit,X64,00000000-0000-0000-0000-000000000000,.NET Core 5.0,False,True,False,True,Default,Default,False,False,False,/p:DebugType=portable,Default,Default,Default,Default,Default,Default,1,Default,250.0000 ms,Default,20,Default,15,Default,Default,16,1,Allow,100,LongSingleLine,760.6 ns,9.44 ns,8.83 ns,758.3 ns,748.5 ns,777.6 ns,0.0000,0.0000,0.0000,0 B
Utf8JsonReaderCommentParsing,Job-NXBZBK,False,Default,Default,Default,Default,Default,Default,00000000,Empty,RyuJit,X64,00000000-0000-0000-0000-000000000000,.NET Core 5.0,False,True,False,True,Default,Default,False,False,False,/p:DebugType=portable,Default,Default,Default,Default,Default,Default,1,Default,250.0000 ms,Default,20,Default,15,Default,Default,16,1,Skip,0,ShortMultiLine,107.7 ns,0.60 ns,0.47 ns,107.9 ns,106.8 ns,108.2 ns,0.0000,0.0000,0.0000,0 B
Utf8JsonReaderCommentParsing,Job-NXBZBK,False,Default,Default,Default,Default,Default,Default,00000000,Empty,RyuJit,X64,00000000-0000-0000-0000-000000000000,.NET Core 5.0,False,True,False,True,Default,Default,False,False,False,/p:DebugType=portable,Default,Default,Default,Default,Default,Default,1,Default,250.0000 ms,Default,20,Default,15,Default,Default,16,1,Skip,0,LongMultiLine,"10,963.7 ns",110.28 ns,92.09 ns,"10,997.1 ns","10,763.1 ns","11,132.7 ns",0.0000,0.0000,0.0000,0 B
Utf8JsonReaderCommentParsing,Job-NXBZBK,False,Default,Default,Default,Default,Default,Default,00000000,Empty,RyuJit,X64,00000000-0000-0000-0000-000000000000,.NET Core 5.0,False,True,False,True,Default,Default,False,False,False,/p:DebugType=portable,Default,Default,Default,Default,Default,Default,1,Default,250.0000 ms,Default,20,Default,15,Default,Default,16,1,Skip,0,ShortSingleLine,109.3 ns,0.89 ns,0.83 ns,109.5 ns,108.1 ns,110.7 ns,0.0000,0.0000,0.0000,0 B
Utf8JsonReaderCommentParsing,Job-NXBZBK,False,Default,Default,Default,Default,Default,Default,00000000,Empty,RyuJit,X64,00000000-0000-0000-0000-000000000000,.NET Core 5.0,False,True,False,True,Default,Default,False,False,False,/p:DebugType=portable,Default,Default,Default,Default,Default,Default,1,Default,250.0000 ms,Default,20,Default,15,Default,Default,16,1,Skip,0,LongSingleLine,171.8 ns,2.05 ns,1.81 ns,171.2 ns,169.6 ns,175.1 ns,0.0000,0.0000,0.0000,0 B
Utf8JsonReaderCommentParsing,Job-NXBZBK,False,Default,Default,Default,Default,Default,Default,00000000,Empty,RyuJit,X64,00000000-0000-0000-0000-000000000000,.NET Core 5.0,False,True,False,True,Default,Default,False,False,False,/p:DebugType=portable,Default,Default,Default,Default,Default,Default,1,Default,250.0000 ms,Default,20,Default,15,Default,Default,16,1,Skip,100,ShortMultiLine,118.2 ns,1.24 ns,1.10 ns,118.2 ns,116.7 ns,120.7 ns,0.0000,0.0000,0.0000,0 B
Utf8JsonReaderCommentParsing,Job-NXBZBK,False,Default,Default,Default,Default,Default,Default,00000000,Empty,RyuJit,X64,00000000-0000-0000-0000-000000000000,.NET Core 5.0,False,True,False,True,Default,Default,False,False,False,/p:DebugType=portable,Default,Default,Default,Default,Default,Default,1,Default,250.0000 ms,Default,20,Default,15,Default,Default,16,1,Skip,100,LongMultiLine,"14,271.8 ns",188.73 ns,176.54 ns,"14,198.1 ns","14,044.7 ns","14,545.0 ns",0.0000,0.0000,0.0000,0 B
Utf8JsonReaderCommentParsing,Job-NXBZBK,False,Default,Default,Default,Default,Default,Default,00000000,Empty,RyuJit,X64,00000000-0000-0000-0000-000000000000,.NET Core 5.0,False,True,False,True,Default,Default,False,False,False,/p:DebugType=portable,Default,Default,Default,Default,Default,Default,1,Default,250.0000 ms,Default,20,Default,15,Default,Default,16,1,Skip,100,ShortSingleLine,118.2 ns,1.32 ns,1.23 ns,118.0 ns,116.6 ns,120.7 ns,0.0000,0.0000,0.0000,0 B
Utf8JsonReaderCommentParsing,Job-NXBZBK,False,Default,Default,Default,Default,Default,Default,00000000,Empty,RyuJit,X64,00000000-0000-0000-0000-000000000000,.NET Core 5.0,False,True,False,True,Default,Default,False,False,False,/p:DebugType=portable,Default,Default,Default,Default,Default,Default,1,Default,250.0000 ms,Default,20,Default,15,Default,Default,16,1,Skip,100,LongSingleLine,"1,037.6 ns",13.90 ns,13.00 ns,"1,033.5 ns","1,023.2 ns","1,061.9 ns",0.0000,0.0000,0.0000,0 B
