Method,Job,AnalyzeLaunchVariance,EvaluateOverhead,MaxAbsoluteError,MaxRelativeError,MinInvokeCount,MinIterationTime,OutlierMode,Affinity,EnvironmentVariables,Jit,Platform,PowerPlanMode,Runtime,AllowVeryLargeObjects,Concurrent,CpuGroups,Force,HeapAffinitizeMask,HeapCount,NoAffinitize,RetainVm,Server,Arguments,BuildConfiguration,Clock,EngineFactory,NuGetReferences,Toolchain,IsMutator,InvocationCount,IterationCount,IterationTime,LaunchCount,MaxIterationCount,MaxWarmupIterationCount,MinIterationCount,MinWarmupIterationCount,RunStrategy,UnrollFactor,WarmupCount,Count,Options,Mean,Error,StdDev,Median,Min,Max,Gen 0,Gen 1,Gen 2,Allocated
GetHashCode,Job-NXBZBK,False,Default,Default,Default,Default,Default,Default,00000000,Empty,RyuJit,X64,00000000-0000-0000-0000-000000000000,.NET Core 5.0,False,True,False,True,Default,Default,False,False,False,/p:DebugType=portable,Default,Default,Default,Default,Default,Default,1,Default,250.0000 ms,Default,20,Default,15,Default,Default,16,1,128,"(, IgnoreCase)","1,599.82 ns",24.056 ns,21.325 ns,"1,591.92 ns","1,577.79 ns","1,644.27 ns",0.0000,0.0000,0.0000,0 B
GetHashCode,Job-NXBZBK,False,Default,Default,Default,Default,Default,Default,00000000,Empty,RyuJit,X64,00000000-0000-0000-0000-000000000000,.NET Core 5.0,False,True,False,True,Default,Default,False,False,False,/p:DebugType=portable,Default,Default,Default,Default,Default,Default,1,Default,250.0000 ms,Default,20,Default,15,Default,Default,16,1,128,"(, None)","1,953.46 ns",22.448 ns,20.998 ns,"1,945.12 ns","1,927.59 ns","1,991.24 ns",0.0000,0.0000,0.0000,0 B
GetHashCode,Job-NXBZBK,False,Default,Default,Default,Default,Default,Default,00000000,Empty,RyuJit,X64,00000000-0000-0000-0000-000000000000,.NET Core 5.0,False,True,False,True,Default,Default,False,False,False,/p:DebugType=portable,Default,Default,Default,Default,Default,Default,1,Default,250.0000 ms,Default,20,Default,15,Default,Default,16,1,128,"(en-US, IgnoreCase)","1,597.01 ns",20.518 ns,19.193 ns,"1,590.84 ns","1,577.24 ns","1,645.17 ns",0.0000,0.0000,0.0000,0 B
GetHashCode,Job-NXBZBK,False,Default,Default,Default,Default,Default,Default,00000000,Empty,RyuJit,X64,00000000-0000-0000-0000-000000000000,.NET Core 5.0,False,True,False,True,Default,Default,False,False,False,/p:DebugType=portable,Default,Default,Default,Default,Default,Default,1,Default,250.0000 ms,Default,20,Default,15,Default,Default,16,1,128,"(en-US, None)","1,950.66 ns",19.618 ns,17.391 ns,"1,945.17 ns","1,931.23 ns","1,989.30 ns",0.0000,0.0000,0.0000,0 B
GetHashCode,Job-NXBZBK,False,Default,Default,Default,Default,Default,Default,00000000,Empty,RyuJit,X64,00000000-0000-0000-0000-000000000000,.NET Core 5.0,False,True,False,True,Default,Default,False,False,False,/p:DebugType=portable,Default,Default,Default,Default,Default,Default,1,Default,250.0000 ms,Default,20,Default,15,Default,Default,16,1,128,"(en-US, Ordinal)",85.89 ns,0.915 ns,0.856 ns,85.73 ns,84.64 ns,87.18 ns,0.0000,0.0000,0.0000,0 B
GetHashCode,Job-NXBZBK,False,Default,Default,Default,Default,Default,Default,00000000,Empty,RyuJit,X64,00000000-0000-0000-0000-000000000000,.NET Core 5.0,False,True,False,True,Default,Default,False,False,False,/p:DebugType=portable,Default,Default,Default,Default,Default,Default,1,Default,250.0000 ms,Default,20,Default,15,Default,Default,16,1,128,"(en-US, OrdinalIgnoreCase)",98.71 ns,1.702 ns,1.592 ns,98.12 ns,96.82 ns,102.40 ns,0.0000,0.0000,0.0000,0 B
GetHashCode,Job-NXBZBK,False,Default,Default,Default,Default,Default,Default,00000000,Empty,RyuJit,X64,00000000-0000-0000-0000-000000000000,.NET Core 5.0,False,True,False,True,Default,Default,False,False,False,/p:DebugType=portable,Default,Default,Default,Default,Default,Default,1,Default,250.0000 ms,Default,20,Default,15,Default,Default,16,1,131072,"(, IgnoreCase)","1,573,143.19 ns","19,208.125 ns","17,027.503 ns","1,572,334.83 ns","1,547,993.65 ns","1,604,089.06 ns",0.0000,0.0000,0.0000,2 B
GetHashCode,Job-NXBZBK,False,Default,Default,Default,Default,Default,Default,00000000,Empty,RyuJit,X64,00000000-0000-0000-0000-000000000000,.NET Core 5.0,False,True,False,True,Default,Default,False,False,False,/p:DebugType=portable,Default,Default,Default,Default,Default,Default,1,Default,250.0000 ms,Default,20,Default,15,Default,Default,16,1,131072,"(, None)","1,684,037.32 ns","16,966.289 ns","15,870.277 ns","1,682,925.02 ns","1,661,388.40 ns","1,712,007.57 ns",0.0000,0.0000,0.0000,2 B
GetHashCode,Job-NXBZBK,False,Default,Default,Default,Default,Default,Default,00000000,Empty,RyuJit,X64,00000000-0000-0000-0000-000000000000,.NET Core 5.0,False,True,False,True,Default,Default,False,False,False,/p:DebugType=portable,Default,Default,Default,Default,Default,Default,1,Default,250.0000 ms,Default,20,Default,15,Default,Default,16,1,131072,"(en-US, IgnoreCase)","1,579,045.52 ns","16,122.516 ns","14,292.190 ns","1,578,582.77 ns","1,553,806.30 ns","1,600,765.54 ns",0.0000,0.0000,0.0000,2 B
GetHashCode,Job-NXBZBK,False,Default,Default,Default,Default,Default,Default,00000000,Empty,RyuJit,X64,00000000-0000-0000-0000-000000000000,.NET Core 5.0,False,True,False,True,Default,Default,False,False,False,/p:DebugType=portable,Default,Default,Default,Default,Default,Default,1,Default,250.0000 ms,Default,20,Default,15,Default,Default,16,1,131072,"(en-US, None)","1,679,941.98 ns","21,663.823 ns","20,264.353 ns","1,676,999.58 ns","1,658,697.63 ns","1,718,247.18 ns",0.0000,0.0000,0.0000,2 B
GetHashCode,Job-NXBZBK,False,Default,Default,Default,Default,Default,Default,00000000,Empty,RyuJit,X64,00000000-0000-0000-0000-000000000000,.NET Core 5.0,False,True,False,True,Default,Default,False,False,False,/p:DebugType=portable,Default,Default,Default,Default,Default,Default,1,Default,250.0000 ms,Default,20,Default,15,Default,Default,16,1,131072,"(en-US, Ordinal)","82,871.14 ns","1,563.204 ns","1,462.222 ns","82,500.42 ns","81,327.98 ns","85,850.20 ns",0.0000,0.0000,0.0000,0 B
GetHashCode,Job-NXBZBK,False,Default,Default,Default,Default,Default,Default,00000000,Empty,RyuJit,X64,00000000-0000-0000-0000-000000000000,.NET Core 5.0,False,True,False,True,Default,Default,False,False,False,/p:DebugType=portable,Default,Default,Default,Default,Default,Default,1,Default,250.0000 ms,Default,20,Default,15,Default,Default,16,1,131072,"(en-US, OrdinalIgnoreCase)","90,028.25 ns","1,119.890 ns","1,047.546 ns","89,914.78 ns","88,604.19 ns","91,525.48 ns",0.0000,0.0000,0.0000,0 B
