{
    "id": "f4c2ccac-f564-43fd-b13a-1df2f531ad29",
    "hardwareInfo": {
        "modelName": "MacBook Pro",
        "modelIdentifier": "MacBookPro17,1",
        "processorName": "Apple M1 Rosetta 2.4 GHz",
        "processorSpeed": 2.4,
        "numberProcessors": 1,
        "numberPhysicalCores": 4,
        "numberTotalCores": 8,
        "memoryGB": 16.0
    },
    "graphicsInfo": {
        "chipset": "Apple M1",
        "vendor": "Apple",
        "displayResolution": "2560 x 1600 Retina"
    }
}
