benchmark,duration_ns,uptime_ns,vm_start_unix_ms
akka-uct,11618616750,1208735938,1605933154308
akka-uct,8366212500,13258927771,1605933154308
akka-uct,7909589375,22041917980,1605933154308
akka-uct,8279755709,30306421271,1605933154308
akka-uct,8188318958,38864467188,1605933154308
akka-uct,8026113875,47335241688,1605933154308
akka-uct,7940452417,55779423146,1605933154308
akka-uct,8153617291,64059817730,1605933154308
akka-uct,8223424542,72535537938,1605933154308
akka-uct,7654283625,81095982480,1605933154308
akka-uct,7954795500,89200241730,1605933154308
akka-uct,7937494292,97498296688,1605933154308
akka-uct,7817413042,105650564646,1605933154308
akka-uct,7857118166,113873296355,1605933154308
akka-uct,7595867333,122105562063,1605933154308
akka-uct,8130461208,130126605063,1605933154308
akka-uct,7727798291,138580538980,1605933154308
akka-uct,8184555709,146694890396,1605933154308
akka-uct,8190077750,155213317230,1605933154308
akka-uct,8030998209,163759826896,1605933154308
akka-uct,8080747750,172164603313,1605933154308
akka-uct,8322085125,180483112146,1605933154308
akka-uct,7997148791,189167185980,1605933154308
akka-uct,7769180291,197519600480,1605933154308
akka-uct,7930799125,205658250605,1605933154308
akka-uct,7997542375,213799791646,1605933154308
akka-uct,7934473583,221990923105,1605933154308
akka-uct,8153769292,230174586938,1605933154308
akka-uct,8261457708,238673608188,1605933154308
akka-uct,8405805167,247238594063,1605933154308
akka-uct,7676910958,255989273438,1605933154308
akka-uct,8071135167,263928145313,1605933154308
akka-uct,7925693916,272273826855,1605933154308
akka-uct,7795623917,280481272563,1605933154308
akka-uct,8096800916,288620335605,1605933154308
akka-uct,7923243125,297041635396,1605933154308
akka-uct,8162039208,305329702688,1605933154308
akka-uct,8199865458,313809780730,1605933154308
akka-uct,8210343083,322321755438,1605933154308
akka-uct,8038020583,330859480605,1605933154308
akka-uct,8192441167,339257792271,1605933154308
akka-uct,8163311000,347865575230,1605933154308
akka-uct,8096553542,356342189021,1605933154308
akka-uct,8139584375,364789259980,1605933154308
akka-uct,8003542833,373271514480,1605933154308
akka-uct,7950917958,381596692980,1605933154308
akka-uct,8432266958,389931279188,1605933154308
akka-uct,8032011416,398734022230,1605933154308
akka-uct,8111593416,407100170480,1605933154308
akka-uct,8291611250,415547215896,1605933154308
akka-uct,8267882250,424106198230,1605933154308
akka-uct,8417065250,432761400605,1605933154308
akka-uct,8312683416,441499162230,1605933154308
akka-uct,8036927666,450120142230,1605933154308
akka-uct,7994514708,458452482605,1605933154308
akka-uct,7821924708,466842382688,1605933154308
akka-uct,8441204167,475107703188,1605933154308
akka-uct,8103540959,483898167521,1605933154308
akka-uct,8024506708,492197678188,1605933154308
akka-uct,8712009875,500555427980,1605933154308
akka-uct,8301021917,509650175688,1605933154308
akka-uct,8186788833,518238423313,1605933154308
akka-uct,8130860000,526782209563,1605933154308
akka-uct,7774812041,535193459605,1605933154308
akka-uct,8099273042,543330477646,1605933154308
akka-uct,8066722000,551867978063,1605933154308
akka-uct,7913044458,560291269980,1605933154308
akka-uct,8318953833,568551242938,1605933154308
akka-uct,8356543375,577269692646,1605933154308
akka-uct,7995999000,585943715605,1605933154308
akka-uct,8041388167,594336461396,1605933154308
akka-uct,8000007791,602722478855,1605933154308
akka-uct,7936061291,610999232355,1605933154308
akka-uct,8050841500,619271159771,1605933154308
akka-uct,7991182542,627651649688,1605933154308
akka-uct,8135472166,636011783105,1605933154308
akka-uct,7944785084,644463779021,1605933154308
akka-uct,8039604500,652688442021,1605933154308
akka-uct,8146123291,661170900480,1605933154308
akka-uct,8169113584,669656741021,1605933154308
akka-uct,8336901500,678165789646,1605933154308
akka-uct,8085228333,686844975188,1605933154308
akka-uct,8177375291,695275380730,1605933154308
akka-uct,8051532042,703676299771,1605933154308
akka-uct,8055490000,712068455188,1605933154308
akka-uct,8025719917,720462368063,1605933154308
akka-uct,8044053083,728806577938,1605933154308
akka-uct,7954758166,737115565980,1605933154308
akka-uct,8402216542,745467869938,1605933154308
akka-uct,8282382083,754218404563,1605933154308
akka-uct,8235219375,762779547313,1605933154308
akka-uct,7903967834,771286869771,1605933154308
akka-uct,7930430958,779571682313,1605933154308
akka-uct,8178978209,787948712646,1605933154308
akka-uct,7885476167,796468798646,1605933154308
akka-uct,8173207708,804717580188,1605933154308
akka-uct,8272095250,813169680980,1605933154308
akka-uct,8172759958,821812615563,1605933154308
akka-uct,8133198083,830324701230,1605933154308
akka-uct,8235803792,838873849271,1605933154308
