benchmark,duration_ns,uptime_ns,vm_start_unix_ms
dec-tree,8304154916,12530366855,1605935091601
dec-tree,2849683750,20950666771,1605935091601
dec-tree,2713674708,23900923980,1605935091601
dec-tree,2262168417,26716679688,1605935091601
dec-tree,2166498125,29092658896,1605935091601
dec-tree,2501409084,31373340396,1605935091601
dec-tree,2060518542,33995624813,1605935091601
dec-tree,2144643583,36175772688,1605935091601
dec-tree,2084520750,38447914313,1605935091601
dec-tree,2078985208,40659928938,1605935091601
dec-tree,2037699708,42871138938,1605935091601
dec-tree,2091969208,45031737938,1605935091601
dec-tree,2048342333,47259844813,1605935091601
dec-tree,2029538625,49436373938,1605935091601
dec-tree,2106277208,51595494438,1605935091601
dec-tree,2236403708,53834563855,1605935091601
dec-tree,2129482834,56194328021,1605935091601
dec-tree,2053210166,58455808480,1605935091601
dec-tree,2561363917,60644959063,1605935091601
dec-tree,2017165208,63327441480,1605935091601
dec-tree,1977522375,65482248521,1605935091601
dec-tree,2211862666,67589883730,1605935091601
dec-tree,2008808834,69938983896,1605935091601
dec-tree,2138998375,72084416438,1605935091601
dec-tree,2692817542,74375409021,1605935091601
dec-tree,2147021416,77186089980,1605935091601
dec-tree,2030660333,79454617938,1605935091601
dec-tree,2081470083,81614856480,1605935091601
dec-tree,2244576958,83838750688,1605935091601
dec-tree,2564296291,86207645730,1605935091601
dec-tree,2146890375,88888075813,1605935091601
dec-tree,2583512875,91150953521,1605935091601
dec-tree,2094101542,93852202021,1605935091601
dec-tree,2583844625,96078990021,1605935091601
dec-tree,2060542334,98788739396,1605935091601
dec-tree,2010749833,100982780980,1605935091601
dec-tree,2570614125,103131068438,1605935091601
dec-tree,2015784375,105818889396,1605935091601
dec-tree,2068562917,107964704063,1605935091601
dec-tree,2549107750,110174768480,1605935091601
dec-tree,2189178750,112844481688,1605935091601
dec-tree,2580944916,115163953730,1605935091601
dec-tree,2043306166,117864553730,1605935091601
dec-tree,2055926792,120042999646,1605935091601
dec-tree,2065448417,122234959938,1605935091601
dec-tree,2037859250,124438956771,1605935091601
dec-tree,2074619292,126614055646,1605935091601
dec-tree,2613113167,128836713146,1605935091601
dec-tree,2132183375,131570819271,1605935091601
dec-tree,2063514083,133833666438,1605935091601
dec-tree,2046550417,136040283271,1605935091601
dec-tree,2056499167,138219537313,1605935091601
dec-tree,2148348833,140411439730,1605935091601
dec-tree,2077569959,142695073896,1605935091601
dec-tree,2058869125,144910123896,1605935091601
dec-tree,2176809084,147106705771,1605935091601
dec-tree,2055804750,149415926730,1605935091601
dec-tree,2175347750,151609092396,1605935091601
dec-tree,2415967792,153911485146,1605935091601
dec-tree,2075545667,156447860313,1605935091601
dec-tree,2086909209,158658068396,1605935091601
dec-tree,2813278375,160888442855,1605935091601
dec-tree,2122428959,163816323146,1605935091601
dec-tree,2070378250,166062806938,1605935091601
dec-tree,2136939125,168270619855,1605935091601
dec-tree,2060218291,170545176480,1605935091601
dec-tree,2079240042,172741392438,1605935091601
dec-tree,2097314333,174955134980,1605935091601
dec-tree,2050405291,177181537855,1605935091601
dec-tree,2093813666,179370040105,1605935091601
dec-tree,2466799084,181598862396,1605935091601
dec-tree,2193176583,184187071980,1605935091601
dec-tree,2449000083,186518339230,1605935091601
dec-tree,2158685750,189094536355,1605935091601
dec-tree,2587528959,191380518771,1605935091601
dec-tree,2055835750,194080925938,1605935091601
dec-tree,2079512625,196266618896,1605935091601
dec-tree,2241012916,198480946105,1605935091601
dec-tree,2535749958,200847426605,1605935091601
dec-tree,2566658583,203505469938,1605935091601
dec-tree,2091447542,206194559188,1605935091601
dec-tree,2202582000,208417963063,1605935091601
dec-tree,2260164209,210749053271,1605935091601
dec-tree,2577680000,213135193730,1605935091601
dec-tree,2345989833,215847306355,1605935091601
dec-tree,2306998709,218315154021,1605935091601
dec-tree,2399909583,220761007230,1605935091601
dec-tree,2290407625,223281354063,1605935091601
dec-tree,2246638709,225712033896,1605935091601
dec-tree,2371760250,228095462313,1605935091601
dec-tree,2317432375,230589043396,1605935091601
dec-tree,2296292000,233043556813,1605935091601
dec-tree,2648636000,235476684146,1605935091601
dec-tree,2227140834,238252421021,1605935091601
dec-tree,2249931125,240616784355,1605935091601
dec-tree,2570483916,243011380605,1605935091601
dec-tree,2270820542,245707607438,1605935091601
dec-tree,2235816875,248123093938,1605935091601
dec-tree,2234375625,250497458688,1605935091601
dec-tree,2439982959,252873422146,1605935091601
