{
  "benchmarks": ["finagle-chirper"],
  "format_version": 5,
  "data": {
    "finagle-chirper": {
      "results": [{
        "duration_ns": 17327294458,
        "uptime_ns": 8571453938
      }, {
        "duration_ns": 4785651625,
        "uptime_ns": 26018552646
      }, {
        "duration_ns": 4181811500,
        "uptime_ns": 30907189688
      }, {
        "duration_ns": 3856422083,
        "uptime_ns": 35179946480
      }, {
        "duration_ns": 3741764250,
        "uptime_ns": 39128974480
      }, {
        "duration_ns": 3745811542,
        "uptime_ns": 42956513188
      }, {
        "duration_ns": 3524699875,
        "uptime_ns": 46802031896
      }, {
        "duration_ns": 3403963208,
        "uptime_ns": 50417552480
      }, {
        "duration_ns": 3278407208,
        "uptime_ns": 53907318063
      }, {
        "duration_ns": 3397720250,
        "uptime_ns": 57269652813
      }, {
        "duration_ns": 3344008500,
        "uptime_ns": 60751694313
      }, {
        "duration_ns": 3232031916,
        "uptime_ns": 64192796730
      }, {
        "duration_ns": 3077113916,
        "uptime_ns": 67510016605
      }, {
        "duration_ns": 3294579750,
        "uptime_ns": 70692162063
      }, {
        "duration_ns": 3181314083,
        "uptime_ns": 74074254105
      }, {
        "duration_ns": 3065209083,
        "uptime_ns": 77337565230
      }, {
        "duration_ns": 3220360500,
        "uptime_ns": 80493177271
      }, {
        "duration_ns": 3293744167,
        "uptime_ns": 83803652688
      }, {
        "duration_ns": 3087649917,
        "uptime_ns": 87181569563
      }, {
        "duration_ns": 3186216542,
        "uptime_ns": 90346767063
      }, {
        "duration_ns": 3236829292,
        "uptime_ns": 93632794313
      }, {
        "duration_ns": 3175763750,
        "uptime_ns": 96947405521
      }, {
        "duration_ns": 3159401083,
        "uptime_ns": 100205299063
      }, {
        "duration_ns": 3185886750,
        "uptime_ns": 103445006855
      }, {
        "duration_ns": 3265226667,
        "uptime_ns": 106706957063
      }, {
        "duration_ns": 3119977666,
        "uptime_ns": 110046993730
      }, {
        "duration_ns": 3007451750,
        "uptime_ns": 113249478021
      }, {
        "duration_ns": 3045881917,
        "uptime_ns": 116334234438
      }, {
        "duration_ns": 3062796250,
        "uptime_ns": 119457332188
      }, {
        "duration_ns": 2975861292,
        "uptime_ns": 122597549188
      }, {
        "duration_ns": 2923428958,
        "uptime_ns": 125657731730
      }, {
        "duration_ns": 2900053750,
        "uptime_ns": 128659610480
      }, {
        "duration_ns": 3047695500,
        "uptime_ns": 131640272313
      }, {
        "duration_ns": 3060742750,
        "uptime_ns": 134764824396
      }, {
        "duration_ns": 3026337208,
        "uptime_ns": 137900370313
      }, {
        "duration_ns": 3105267625,
        "uptime_ns": 141007520646
      }, {
        "duration_ns": 2828819209,
        "uptime_ns": 144188900646
      }, {
        "duration_ns": 3141877042,
        "uptime_ns": 147095978896
      }, {
        "duration_ns": 2900132667,
        "uptime_ns": 150312976563
      }, {
        "duration_ns": 2733415417,
        "uptime_ns": 153289809771
      }, {
        "duration_ns": 2752614125,
        "uptime_ns": 156110929438
      }, {
        "duration_ns": 2862283709,
        "uptime_ns": 158948884396
      }, {
        "duration_ns": 3266176333,
        "uptime_ns": 161886946188
      }, {
        "duration_ns": 2784337125,
        "uptime_ns": 165222533438
      }, {
        "duration_ns": 2927258541,
        "uptime_ns": 168088275230
      }, {
        "duration_ns": 2884401375,
        "uptime_ns": 171088142521
      }, {
        "duration_ns": 3036157459,
        "uptime_ns": 174057713521
      }, {
        "duration_ns": 2775924083,
        "uptime_ns": 177174598563
      }, {
        "duration_ns": 2668172750,
        "uptime_ns": 180035736813
      }, {
        "duration_ns": 3096501000,
        "uptime_ns": 182778963021
      }, {
        "duration_ns": 3096474292,
        "uptime_ns": 185944431521
      }, {
        "duration_ns": 2935321208,
        "uptime_ns": 189123415063
      }, {
        "duration_ns": 2958208666,
        "uptime_ns": 192128163230
      }, {
        "duration_ns": 2737663042,
        "uptime_ns": 195161628646
      }, {
        "duration_ns": 2988672417,
        "uptime_ns": 197978446563
      }, {
        "duration_ns": 2888338334,
        "uptime_ns": 201043908521
      }, {
        "duration_ns": 2917592625,
        "uptime_ns": 204004196855
      }, {
        "duration_ns": 3024817458,
        "uptime_ns": 206998314813
      }, {
        "duration_ns": 2817036417,
        "uptime_ns": 210097396438
      }, {
        "duration_ns": 2918565000,
        "uptime_ns": 212982234105
      }, {
        "duration_ns": 2655467542,
        "uptime_ns": 215980398646
      }, {
        "duration_ns": 2596966917,
        "uptime_ns": 218714622271
      }, {
        "duration_ns": 2832499625,
        "uptime_ns": 221392276980
      }, {
        "duration_ns": 2808968875,
        "uptime_ns": 224305882646
      }, {
        "duration_ns": 2918868333,
        "uptime_ns": 227199420563
      }, {
        "duration_ns": 2897423125,
        "uptime_ns": 230201783688
      }, {
        "duration_ns": 2941511416,
        "uptime_ns": 233172983855
      }, {
        "duration_ns": 2790799041,
        "uptime_ns": 236199535730
      }, {
        "duration_ns": 2753785875,
        "uptime_ns": 239079295646
      }, {
        "duration_ns": 2821528208,
        "uptime_ns": 241906621313
      }, {
        "duration_ns": 2751276666,
        "uptime_ns": 244805216980
      }, {
        "duration_ns": 2694963125,
        "uptime_ns": 247631349771
      }, {
        "duration_ns": 2945430125,
        "uptime_ns": 250402767688
      }, {
        "duration_ns": 2621700667,
        "uptime_ns": 253429334396
      }, {
        "duration_ns": 2900171500,
        "uptime_ns": 256125859438
      }, {
        "duration_ns": 2900706750,
        "uptime_ns": 259115014105
      }, {
        "duration_ns": 2754706792,
        "uptime_ns": 262089255688
      }, {
        "duration_ns": 2741408125,
        "uptime_ns": 264936052730
      }, {
        "duration_ns": 2820967291,
        "uptime_ns": 267744283730
      }, {
        "duration_ns": 2689455125,
        "uptime_ns": 270658439563
      }, {
        "duration_ns": 2700850708,
        "uptime_ns": 273428762063
      }, {
        "duration_ns": 2831562791,
        "uptime_ns": 276205560230
      }, {
        "duration_ns": 2895660792,
        "uptime_ns": 279113657646
      }, {
        "duration_ns": 2976733292,
        "uptime_ns": 282085456688
      }, {
        "duration_ns": 2876508875,
        "uptime_ns": 285138313938
      }, {
        "duration_ns": 2717740208,
        "uptime_ns": 288086289438
      }, {
        "duration_ns": 2651134292,
        "uptime_ns": 290880334313
      }, {
        "duration_ns": 2728565667,
        "uptime_ns": 293609167688
      }, {
        "duration_ns": 2905887625,
        "uptime_ns": 296415286313
      }, {
        "duration_ns": 2778047083,
        "uptime_ns": 299396524063
      }, {
        "duration_ns": 2912853792,
        "uptime_ns": 302249108313
      }, {
        "duration_ns": 2823744625,
        "uptime_ns": 305248667355
      }, {
        "duration_ns": 2813409333,
        "uptime_ns": 308160865355
      }, {
        "duration_ns": 2723485208,
        "uptime_ns": 311059730438
      }, {
        "duration_ns": 2973913625,
        "uptime_ns": 313861700563
      }, {
        "duration_ns": 2789300375,
        "uptime_ns": 316910431438
      }, {
        "duration_ns": 2707638583,
        "uptime_ns": 319780909605
      }, {
        "duration_ns": 2811010000,
        "uptime_ns": 322572892605
      }, {
        "duration_ns": 2558020833,
        "uptime_ns": 325460067480
      }, {
        "duration_ns": 2826616708,
        "uptime_ns": 328095267063
      }],
      "termination": "normal"
    }
  },
  "environment": {
    "os": {
      "virt_mem_committed": 16581095424,
      "name": "Mac OS X",
      "open_fd_count": 134,
      "phys_mem_free": 942571520,
      "swap_space_total": 1073741824,
      "available_processors": 8,
      "phys_mem_total": 17179869184,
      "version": "10.16",
      "arch": "x86_64",
      "max_fd_count": 10240,
      "swap_space_free": 1023148032
    },
    "vm": {
      "termination": "normal",
      "name": "OpenJDK 64-Bit Server VM",
      "spec_vendor": "Oracle Corporation",
      "spec_name": "Java Virtual Machine Specification",
      "classloading": {
        "class_count": 7893,
        "classes_total": 7911
      },
      "compiler": {
        "name": "HotSpot 64-Bit Tiered Compilers",
        "compilation_time_ms": 42675
      },
      "start_iso": "2020-11-21T05:17:16.673Z",
      "collectors": [{
        "name": "G1 Young Generation",
        "collection_count": 2784,
        "collection_time_ms": 6005
      }, {
        "name": "G1 Old Generation",
        "collection_count": 100,
        "collection_time_ms": 5157
      }],
      "start_unix_ms": 1605935836673,
      "version": "11.0.9.1+1",
      "mode": "mixed mode",
      "args": [],
      "pools": [{
        "name": "CodeHeap 'non-nmethods'",
        "type": "NON_HEAP",
        "usage": {
          "init": 2555904,
          "used": 1233536,
          "committed": 2555904,
          "max": 5836800
        },
        "peak_usage": {
          "init": 2555904,
          "used": 1278080,
          "committed": 2555904,
          "max": 5836800
        }
      }, {
        "name": "Metaspace",
        "type": "NON_HEAP",
        "usage": {
          "init": 0,
          "used": 54226608,
          "committed": 55750656,
          "max": -1
        },
        "peak_usage": {
          "init": 0,
          "used": 54226608,
          "committed": 55750656,
          "max": -1
        }
      }, {
        "name": "CodeHeap 'profiled nmethods'",
        "type": "NON_HEAP",
        "usage": {
          "init": 2555904,
          "used": 11085824,
          "committed": 18153472,
          "max": 122908672
        },
        "peak_usage": {
          "init": 2555904,
          "used": 17895808,
          "committed": 18153472,
          "max": 122908672
        }
      }, {
        "name": "Compressed Class Space",
        "type": "NON_HEAP",
        "usage": {
          "init": 0,
          "used": 8033936,
          "committed": 8388608,
          "max": 1073741824
        },
        "peak_usage": {
          "init": 0,
          "used": 8033936,
          "committed": 8388608,
          "max": 1073741824
        }
      }, {
        "name": "G1 Eden Space",
        "type": "HEAP",
        "usage": {
          "init": 27262976,
          "used": 169869312,
          "committed": 187695104,
          "max": -1
        },
        "peak_usage": {
          "init": 27262976,
          "used": 214958080,
          "committed": 226492416,
          "max": -1
        }
      }, {
        "name": "G1 Old Gen",
        "type": "HEAP",
        "usage": {
          "init": 241172480,
          "used": 27791800,
          "committed": 112197632,
          "max": 4294967296
        },
        "peak_usage": {
          "init": 241172480,
          "used": 32187160,
          "committed": 241172480,
          "max": 4294967296
        }
      }, {
        "name": "G1 Survivor Space",
        "type": "HEAP",
        "usage": {
          "init": 0,
          "used": 2097152,
          "committed": 2097152,
          "max": -1
        },
        "peak_usage": {
          "init": 0,
          "used": 7340032,
          "committed": 7340032,
          "max": -1
        }
      }, {
        "name": "CodeHeap 'non-profiled nmethods'",
        "type": "NON_HEAP",
        "usage": {
          "init": 2555904,
          "used": 11350400,
          "committed": 11403264,
          "max": 122912768
        },
        "peak_usage": {
          "init": 2555904,
          "used": 11350400,
          "committed": 11403264,
          "max": 122912768
        }
      }],
      "uptime_ms": 331245,
      "vendor": "AdoptOpenJDK",
      "threads": {
        "thread_count": 50,
        "thread_count_max": 79,
        "daemon_thread_count": 48,
        "threads_total": 992
      },
      "spec_version": "11",
      "memory": {
        "heap_usage": {
          "init": 268435456,
          "used": 199758264,
          "committed": 301989888,
          "max": 4294967296
        },
        "nonheap_usage": {
          "init": 7667712,
          "used": 85914176,
          "committed": 96251904,
          "max": -1
        },
        "pending_finalization_count": 0
      }
    },
    "jre": {
      "java_version": "11.0.9.1",
      "name": "OpenJDK Runtime Environment",
      "spec_vendor": "Oracle Corporation",
      "spec_name": "Java Platform API Specification",
      "class_path": ["target/renaissance-gpl-0.11.0.jar"],
      "home": "/Library/Java/JavaVirtualMachines/adoptopenjdk-11.jdk/Contents/Home",
      "version": "11.0.9.1+1",
      "java_vendor": "AdoptOpenJDK",
      "library_path": ["/Users/hankdev/Library/Java/Extensions", "/Library/Java/Extensions", "/Network/Library/Java/Extensions", "/System/Library/Java/Extensions", "/usr/lib/java", "."],
      "spec_version": "11"
    }
  },
  "suite": {
    "git": {
      "commit_hash": "91cf51ddb8af003685eca89f96371fd2e7bb3c7e",
      "commit_date": "2020-06-05T09:40:32+0200",
      "dirty": "false"
    },
    "name": "Renaissance Benchmark Suite",
    "version": "0.11.0"
  }
}