benchmark,duration_ns,uptime_ns,vm_start_unix_ms
scala-stm-bench7,3211400166,1056887855,1605967276534
scala-stm-bench7,1598302375,4320048146,1605967276534
scala-stm-bench7,1285916542,5952171021,1605967276534
scala-stm-bench7,1286846375,7274324938,1605967276534
scala-stm-bench7,1289029375,8598837730,1605967276534
scala-stm-bench7,1231309500,9930565521,1605967276534
scala-stm-bench7,1210749333,11205466438,1605967276534
scala-stm-bench7,1228796750,12457566230,1605967276534
scala-stm-bench7,1235439959,13727534396,1605967276534
scala-stm-bench7,1296880125,15004005188,1605967276534
scala-stm-bench7,1210961333,16337579855,1605967276534
scala-stm-bench7,1267730167,17587917938,1605967276534
scala-stm-bench7,1255068917,18895547146,1605967276534
scala-stm-bench7,1298822125,20188247646,1605967276534
scala-stm-bench7,1249456917,21526148021,1605967276534
scala-stm-bench7,1276000125,22814878896,1605967276534
scala-stm-bench7,1247705875,24128960730,1605967276534
scala-stm-bench7,1246085500,25416811896,1605967276534
scala-stm-bench7,1212332875,26706358271,1605967276534
scala-stm-bench7,1224012167,27961440313,1605967276534
scala-stm-bench7,1210667833,29226143313,1605967276534
scala-stm-bench7,1286683959,30478225396,1605967276534
scala-stm-bench7,1224053625,31804804688,1605967276534
scala-stm-bench7,1223951625,33067136605,1605967276534
scala-stm-bench7,1269929625,34330864813,1605967276534
scala-stm-bench7,1253873125,35639034605,1605967276534
scala-stm-bench7,1262214167,36930844271,1605967276534
scala-stm-bench7,1279564125,38231297146,1605967276534
scala-stm-bench7,1214723084,39550677021,1605967276534
scala-stm-bench7,1238447416,40808115105,1605967276534
scala-stm-bench7,1195145542,42086019896,1605967276534
scala-stm-bench7,1287799959,43322972271,1605967276534
scala-stm-bench7,1268091041,44650823355,1605967276534
scala-stm-bench7,1243553584,45959402646,1605967276534
scala-stm-bench7,1249313708,47239978813,1605967276534
scala-stm-bench7,1226509083,48527423063,1605967276534
scala-stm-bench7,1201536292,49796416188,1605967276534
scala-stm-bench7,1227472917,51037292438,1605967276534
scala-stm-bench7,1217084917,52304129146,1605967276534
scala-stm-bench7,1258923000,53563582438,1605967276534
scala-stm-bench7,1285205875,54861876813,1605967276534
scala-stm-bench7,1207752916,56184428480,1605967276534
scala-stm-bench7,1228117583,57431864313,1605967276534
scala-stm-bench7,1232230250,58700530771,1605967276534
scala-stm-bench7,1257819041,59973317105,1605967276534
scala-stm-bench7,1290263000,61271123188,1605967276534
scala-stm-bench7,1206775083,62600391355,1605967276534
scala-stm-bench7,1205410125,63846483646,1605967276534
scala-stm-bench7,1206601708,65091647438,1605967276534
scala-stm-bench7,1217588166,66338796105,1605967276534
scala-stm-bench7,1259036209,67595332646,1605967276534
scala-stm-bench7,1234091125,68893289605,1605967276534
scala-stm-bench7,1206962000,70166758063,1605967276534
scala-stm-bench7,1260879292,71412119438,1605967276534
scala-stm-bench7,1250278959,72711201396,1605967276534
scala-stm-bench7,1205457916,74000838230,1605967276534
scala-stm-bench7,1245077042,75245659396,1605967276534
scala-stm-bench7,1206153250,76533344771,1605967276534
scala-stm-bench7,1227475334,77780711521,1605967276534
scala-stm-bench7,1233406292,79049481563,1605967276534
scala-stm-bench7,1227066167,80321232563,1605967276534
scala-stm-bench7,1235818125,81587828230,1605967276534
scala-stm-bench7,1286482250,82861975480,1605967276534
scala-stm-bench7,1820200500,84190703063,1605967276534
scala-stm-bench7,1246653000,86053647188,1605967276534
scala-stm-bench7,1263785709,87349335771,1605967276534
scala-stm-bench7,1254186875,88656794105,1605967276534
scala-stm-bench7,1251099250,89952639396,1605967276534
scala-stm-bench7,1238220375,91241612021,1605967276534
scala-stm-bench7,1246136125,92520886646,1605967276534
scala-stm-bench7,1332093917,93807732438,1605967276534
scala-stm-bench7,1303456584,95180382521,1605967276534
scala-stm-bench7,1244842333,96521907480,1605967276534
scala-stm-bench7,1250750334,97807797771,1605967276534
scala-stm-bench7,1223122083,99098623105,1605967276534
scala-stm-bench7,1215732292,100363272896,1605967276534
scala-stm-bench7,1245753958,101619780355,1605967276534
scala-stm-bench7,1218843958,102906588813,1605967276534
scala-stm-bench7,1221215792,104165521313,1605967276534
scala-stm-bench7,1299239666,105430091730,1605967276534
scala-stm-bench7,1236719084,106767257771,1605967276534
scala-stm-bench7,1292011583,108043301480,1605967276534
scala-stm-bench7,1248387584,109373390646,1605967276534
scala-stm-bench7,1235596875,110662732438,1605967276534
scala-stm-bench7,1268918334,111939174521,1605967276534
scala-stm-bench7,1231951792,113250497521,1605967276534
scala-stm-bench7,1264435541,114523163855,1605967276534
scala-stm-bench7,1277234833,115825306438,1605967276534
scala-stm-bench7,1299274375,117152037605,1605967276534
scala-stm-bench7,1281869292,118488539063,1605967276534
scala-stm-bench7,1208642875,119810184688,1605967276534
scala-stm-bench7,1226893083,121057973563,1605967276534
scala-stm-bench7,1202632792,122323067063,1605967276534
scala-stm-bench7,1261131583,123565844730,1605967276534
scala-stm-bench7,1218183875,124865165313,1605967276534
scala-stm-bench7,1230651042,126121865896,1605967276534
scala-stm-bench7,1275857541,127392747355,1605967276534
scala-stm-bench7,1255976792,128707159188,1605967276534
scala-stm-bench7,1247904042,130001601146,1605967276534
scala-stm-bench7,1307364000,131290744938,1605967276534
