benchmark,duration_ns,uptime_ns,vm_start_unix_ms
db-shootout,6767932917,7039448020,1605971848861
db-shootout,5478653568,13845446748,1605971848861
db-shootout,4545776108,19378166086,1605971848861
db-shootout,4508093013,23964890000,1605971848861
db-shootout,4485561031,28515160753,1605971848861
db-shootout,4540366969,33043042416,1605971848861
db-shootout,4237646148,37623937746,1605971848861
db-shootout,4569358156,41905659190,1605971848861
db-shootout,4474008797,46521545501,1605971848861
db-shootout,4151521539,51034936123,1605971848861
db-shootout,4425560349,55228153083,1605971848861
db-shootout,4511004632,59693071987,1605971848861
db-shootout,4507615644,64240140773,1605971848861
db-shootout,4427950498,68794255546,1605971848861
db-shootout,4539137505,73261370159,1605971848861
db-shootout,4571235179,77842007036,1605971848861
db-shootout,4049648971,82455860044,1605971848861
db-shootout,4422777559,86540350847,1605971848861
db-shootout,4103144100,91007600526,1605971848861
db-shootout,4127930688,95150294690,1605971848861
db-shootout,4478864293,99327328936,1605971848861
db-shootout,4539773348,103850317538,1605971848861
db-shootout,4501586481,108431214870,1605971848861
db-shootout,4470888253,112976301797,1605971848861
db-shootout,4570824838,117489857725,1605971848861
db-shootout,4048884954,122104505421,1605971848861
db-shootout,4538042814,126199157836,1605971848861
db-shootout,4547951338,130782226378,1605971848861
db-shootout,4497071628,135369197599,1605971848861
db-shootout,4600210903,139915418667,1605971848861
db-shootout,4437136118,144564623880,1605971848861
db-shootout,4432520695,149040370021,1605971848861
db-shootout,4524633873,153512295102,1605971848861
db-shootout,4500681366,158086389915,1605971848861
db-shootout,4483534050,162633859165,1605971848861
db-shootout,4171720068,167166864714,1605971848861
db-shootout,4431958286,171381893289,1605971848861
db-shootout,4169583293,175846917005,1605971848861
db-shootout,4489513020,180053781237,1605971848861
db-shootout,4449918521,184580651555,1605971848861
db-shootout,4265348884,189075897643,1605971848861
db-shootout,4510063575,193395029208,1605971848861
db-shootout,4464552670,197946193544,1605971848861
db-shootout,4449606903,202446641089,1605971848861
db-shootout,4201221244,206933209413,1605971848861
db-shootout,4506325941,211172121000,1605971848861
db-shootout,4456782874,215717907498,1605971848861
db-shootout,4492256617,220218903981,1605971848861
db-shootout,4492562477,224748149158,1605971848861
db-shootout,4208854724,229290151572,1605971848861
db-shootout,4236540032,233547008171,1605971848861
db-shootout,4549931962,237828259343,1605971848861
db-shootout,4457128220,242417747938,1605971848861
db-shootout,4528753587,246916744743,1605971848861
db-shootout,4530583816,251490545341,1605971848861
db-shootout,4543419126,256067257502,1605971848861
db-shootout,4496777690,260651125342,1605971848861
db-shootout,4475028821,265192611263,1605971848861
db-shootout,4573948400,269720800359,1605971848861
db-shootout,4102628027,274334298152,1605971848861
db-shootout,4298958002,278482060372,1605971848861
db-shootout,4425437995,282824745133,1605971848861
db-shootout,4374063496,287291125269,1605971848861
db-shootout,4409859316,291717996682,1605971848861
db-shootout,4548607148,296166405948,1605971848861
db-shootout,4877399583,300752192250,1605971848861
db-shootout,4397344971,305682805190,1605971848861
db-shootout,4507209609,310128289282,1605971848861
db-shootout,4505154524,314680812279,1605971848861
db-shootout,4511043459,319229141540,1605971848861
db-shootout,4338148067,323781347468,1605971848861
db-shootout,4111848187,328163728608,1605971848861
db-shootout,4527891843,332314398555,1605971848861
db-shootout,4403711655,336887084857,1605971848861
db-shootout,4034553247,341337226583,1605971848861
db-shootout,4578170321,345424859760,1605971848861
db-shootout,4466669978,350048727956,1605971848861
db-shootout,4460565850,354564512411,1605971848861
db-shootout,3905532112,359062698684,1605971848861
db-shootout,4414156787,363010658383,1605971848861
db-shootout,4526668929,367466542519,1605971848861
db-shootout,4448730445,372037284636,1605971848861
db-shootout,4633277733,376521926144,1605971848861
db-shootout,4493103738,381204159735,1605971848861
db-shootout,4525198889,385753008515,1605971848861
db-shootout,4483846672,390323705445,1605971848861
db-shootout,4459030029,394849377065,1605971848861
db-shootout,4098674230,399354182937,1605971848861
db-shootout,4501046734,403490081458,1605971848861
db-shootout,4243730148,408047192947,1605971848861
db-shootout,4417908143,412325935664,1605971848861
db-shootout,4343842640,416786513888,1605971848861
db-shootout,4458728927,421183339130,1605971848861
db-shootout,4427269547,425683350500,1605971848861
db-shootout,4506875356,430158290704,1605971848861
db-shootout,4544153960,434714915123,1605971848861
db-shootout,4557820264,439305893795,1605971848861
db-shootout,4469077757,443911865630,1605971848861
db-shootout,4508353787,448422272563,1605971848861
db-shootout,4422034741,452970292111,1605971848861
