benchmark,duration_ns,uptime_ns,vm_start_unix_ms
dec-tree,4758462165,4726385269,1605972306573
dec-tree,2170881556,9548217903,1605972306573
dec-tree,1627000711,11780360460,1605972306573
dec-tree,1455247827,13460029059,1605972306573
dec-tree,1457336880,14967105996,1605972306573
dec-tree,1380273931,16478959601,1605972306573
dec-tree,1351685036,17914241891,1605972306573
dec-tree,1335280790,19319861525,1605972306573
dec-tree,1365777685,20710006254,1605972306573
dec-tree,1364003294,22136310030,1605972306573
dec-tree,1301544985,23559139192,1605972306573
dec-tree,1342153251,24917363641,1605972306573
dec-tree,1345247486,26318423850,1605972306573
dec-tree,1335601575,27719396566,1605972306573
dec-tree,1313137334,29111681989,1605972306573
dec-tree,1305414523,30478207607,1605972306573
dec-tree,1342465552,31839142695,1605972306573
dec-tree,1275042211,33238598599,1605972306573
dec-tree,1275038093,34574304432,1605972306573
dec-tree,1272200881,35905923157,1605972306573
dec-tree,1262146272,37237513972,1605972306573
dec-tree,1244676000,38559564551,1605972306573
dec-tree,1246611884,39861287534,1605972306573
dec-tree,1287056306,41166791030,1605972306573
dec-tree,1267462661,42530607182,1605972306573
dec-tree,1299720068,43858791587,1605972306573
dec-tree,1268454134,45225006220,1605972306573
dec-tree,1263220929,46555832091,1605972306573
dec-tree,1245933640,47881887324,1605972306573
dec-tree,1245322734,49189747601,1605972306573
dec-tree,1268685870,50494673279,1605972306573
dec-tree,1264804172,51826952723,1605972306573
dec-tree,1304130542,53156523866,1605972306573
dec-tree,1253114346,54531894574,1605972306573
dec-tree,1276432880,55846236182,1605972306573
dec-tree,1220019967,57188191495,1605972306573
dec-tree,1246379182,58466125271,1605972306573
dec-tree,1235355538,59773883992,1605972306573
dec-tree,1265878840,61067730927,1605972306573
dec-tree,1278257853,62401030161,1605972306573
dec-tree,1259947787,63739569400,1605972306573
dec-tree,1289877308,65065621315,1605972306573
dec-tree,1306467891,66417810082,1605972306573
dec-tree,1278045310,67787533241,1605972306573
dec-tree,1272951541,69129654590,1605972306573
dec-tree,1279887562,70465948837,1605972306573
dec-tree,1352704327,71810118114,1605972306573
dec-tree,1206640477,73231734201,1605972306573
dec-tree,1270862479,74501205733,1605972306573
dec-tree,1237985488,75837563863,1605972306573
dec-tree,1257683333,77137733157,1605972306573
dec-tree,1262638822,78455478296,1605972306573
dec-tree,1246517708,79783087611,1605972306573
dec-tree,1219302705,81096699080,1605972306573
dec-tree,1265059852,82377994205,1605972306573
dec-tree,1253598024,83705537151,1605972306573
dec-tree,1252037714,85029678257,1605972306573
dec-tree,1263245276,86344263836,1605972306573
dec-tree,1267771352,87671687217,1605972306573
dec-tree,1256130131,89006589471,1605972306573
dec-tree,1268369469,90329470820,1605972306573
dec-tree,1239128502,91666436759,1605972306573
dec-tree,1295194963,92969941589,1605972306573
dec-tree,1356598719,94335059148,1605972306573
dec-tree,1324395190,95759785924,1605972306573
dec-tree,1218149575,97157258451,1605972306573
dec-tree,1316178144,98435156280,1605972306573
dec-tree,1262582048,99820376543,1605972306573
dec-tree,1286770563,101146941775,1605972306573
dec-tree,1236818972,102505427499,1605972306573
dec-tree,1203107458,103806016363,1605972306573
dec-tree,1271008615,105068099854,1605972306573
dec-tree,1243511119,106407633647,1605972306573
dec-tree,1264406017,107715595363,1605972306573
dec-tree,1263973215,109052030242,1605972306573
dec-tree,1281602624,110380153346,1605972306573
dec-tree,1233267905,111728253961,1605972306573
dec-tree,1246802236,113025887557,1605972306573
dec-tree,1215936013,114339543470,1605972306573
dec-tree,1247250276,115622472693,1605972306573
dec-tree,1234027091,116935785322,1605972306573
dec-tree,1289151042,118237267564,1605972306573
dec-tree,1227685681,119594742299,1605972306573
dec-tree,1276605014,120889138230,1605972306573
dec-tree,1232821169,122236389681,1605972306573
dec-tree,1255615646,123539443203,1605972306573
dec-tree,1270979197,124861676904,1605972306573
dec-tree,1299154556,126198578284,1605972306573
dec-tree,1240127700,127571192608,1605972306573
dec-tree,1263380088,128873878093,1605972306573
dec-tree,1274372034,130209363069,1605972306573
dec-tree,1236282487,131550088823,1605972306573
dec-tree,1211960214,132862034656,1605972306573
dec-tree,1250397188,134137616072,1605972306573
dec-tree,1293670336,135460235778,1605972306573
dec-tree,1244477741,136821503352,1605972306573
dec-tree,1265508461,138144103413,1605972306573
dec-tree,1235365059,139474688559,1605972306573
dec-tree,1257036603,140775818227,1605972306573
dec-tree,1269517960,142099163985,1605972306573
