benchmark,duration_ns,uptime_ns,vm_start_unix_ms
finagle-http,7224515496,1932855969,1605972944663
finagle-http,3790231782,9186248008,1605972944663
finagle-http,3006216629,13006043065,1605972944663
finagle-http,2747257645,16038608967,1605972944663
finagle-http,2676680628,18813741348,1605972944663
finagle-http,2647056964,21518697959,1605972944663
finagle-http,2567145397,24193893158,1605972944663
finagle-http,2593044889,26791963493,1605972944663
finagle-http,2643783935,29413697291,1605972944663
finagle-http,2577492863,32087557976,1605972944663
finagle-http,2668554867,34688949528,1605972944663
finagle-http,2561236831,37385988173,1605972944663
finagle-http,2612266894,39969349248,1605972944663
finagle-http,2592641097,42610162415,1605972944663
finagle-http,2553775287,45223722087,1605972944663
finagle-http,2623546771,47803676093,1605972944663
finagle-http,2542099446,50452499836,1605972944663
finagle-http,2573665493,53019197418,1605972944663
finagle-http,2587585563,55624043539,1605972944663
finagle-http,2531406095,58235854010,1605972944663
finagle-http,2632148133,60791079011,1605972944663
finagle-http,2569155359,63449437566,1605972944663
finagle-http,2608990299,66044389737,1605972944663
finagle-http,2592818939,68678743337,1605972944663
finagle-http,2538686556,71296055828,1605972944663
finagle-http,2599217203,73862157205,1605972944663
finagle-http,2573239193,76489642044,1605972944663
finagle-http,2536502910,79089830202,1605972944663
finagle-http,2651095833,81652814800,1605972944663
finagle-http,2568480807,84329508348,1605972944663
finagle-http,2600717976,86921411734,1605972944663
finagle-http,2581096058,89547017606,1605972944663
finagle-http,2552886685,92150527845,1605972944663
finagle-http,2598086404,94731094998,1605972944663
finagle-http,2587482948,97357434132,1605972944663
finagle-http,2581260575,99973254870,1605972944663
finagle-http,2597559952,102581366773,1605972944663
finagle-http,2554732367,105204646339,1605972944663
finagle-http,2598047674,107781997296,1605972944663
finagle-http,2585829788,110405859307,1605972944663
finagle-http,2575798506,113020491333,1605972944663
finagle-http,2606347564,115620470469,1605972944663
finagle-http,2550189933,118253479975,1605972944663
finagle-http,2646716899,120830641345,1605972944663
finagle-http,2621258696,123506895823,1605972944663
finagle-http,2521947437,126154992765,1605972944663
finagle-http,2569206637,128701229186,1605972944663
finagle-http,2597261541,131297842689,1605972944663
finagle-http,2533184438,133923320662,1605972944663
finagle-http,2619533280,136480155051,1605972944663
finagle-http,2597613824,139123871358,1605972944663
finagle-http,2540903843,141746868607,1605972944663
finagle-http,2608197286,144315434374,1605972944663
finagle-http,2580422513,146948230409,1605972944663
finagle-http,2631921991,149557399620,1605972944663
finagle-http,2589503255,152214046402,1605972944663
finagle-http,2578053985,154826568153,1605972944663
finagle-http,2609458078,157434597582,1605972944663
finagle-http,2581275360,160068558211,1605972944663
finagle-http,2610217428,162673416981,1605972944663
finagle-http,2595363879,165309141389,1605972944663
finagle-http,2564294190,167935674912,1605972944663
finagle-http,2632042718,170525205085,1605972944663
finagle-http,2566442969,173183125748,1605972944663
finagle-http,2580397276,175775264735,1605972944663
finagle-http,2603859657,178383445389,1605972944663
finagle-http,2559177040,181017143753,1605972944663
finagle-http,2637693820,183602854541,1605972944663
finagle-http,2514737942,186268338955,1605972944663
finagle-http,2609432508,188808428210,1605972944663
finagle-http,2611981505,191443468191,1605972944663
finagle-http,2609131775,194080741731,1605972944663
finagle-http,2630772015,196718633261,1605972944663
finagle-http,2526271112,199378471874,1605972944663
finagle-http,2605876872,201929029158,1605972944663
finagle-http,2598429929,204563193247,1605972944663
finagle-http,2554439177,207187624597,1605972944663
finagle-http,2641849161,209769592733,1605972944663
finagle-http,2570242099,212438434727,1605972944663
finagle-http,2632515698,215032409120,1605972944663
finagle-http,2559011405,217690725213,1605972944663
finagle-http,2571485323,220275697781,1605972944663
finagle-http,2636526337,222875401697,1605972944663
finagle-http,2534525378,225540742263,1605972944663
finagle-http,2584127508,228101733393,1605972944663
finagle-http,2613997597,230714565194,1605972944663
finagle-http,2551120508,233354372645,1605972944663
finagle-http,2630264982,235932218407,1605972944663
finagle-http,2574554906,238587039991,1605972944663
finagle-http,2604393360,241187900507,1605972944663
finagle-http,2670479791,243818086799,1605972944663
finagle-http,2542362013,246521638843,1605972944663
finagle-http,2597515899,249089670202,1605972944663
finagle-http,2576015983,251713037327,1605972944663
finagle-http,2561922386,254313426701,1605972944663
finagle-http,2648731101,256904247564,1605972944663
finagle-http,2528222985,259580682236,1605972944663
finagle-http,2619532579,262137248556,1605972944663
finagle-http,2573793421,264785628685,1605972944663
finagle-http,2556244742,267387740290,1605972944663
