{
  "benchmarks": ["finagle-chirper"],
  "format_version": 5,
  "data": {
    "finagle-chirper": {
      "results": [{
        "duration_ns": 7137012176,
        "uptime_ns": 2315062820
      }, {
        "duration_ns": 4401860654,
        "uptime_ns": 9530916376
      }, {
        "duration_ns": 3612966582,
        "uptime_ns": 13980813926
      }, {
        "duration_ns": 3263421226,
        "uptime_ns": 17643323219
      }, {
        "duration_ns": 3180058683,
        "uptime_ns": 20956158013
      }, {
        "duration_ns": 3153291586,
        "uptime_ns": 24182980575
      }, {
        "duration_ns": 3068553082,
        "uptime_ns": 27380628472
      }, {
        "duration_ns": 3033714348,
        "uptime_ns": 30497256662
      }, {
        "duration_ns": 2940585112,
        "uptime_ns": 33579842737
      }, {
        "duration_ns": 2898576390,
        "uptime_ns": 36568858381
      }, {
        "duration_ns": 3055276647,
        "uptime_ns": 39519745491
      }, {
        "duration_ns": 2930110851,
        "uptime_ns": 42622936110
      }, {
        "duration_ns": 2869881953,
        "uptime_ns": 45598459902
      }, {
        "duration_ns": 2859438063,
        "uptime_ns": 48516428292
      }, {
        "duration_ns": 2852175454,
        "uptime_ns": 51421848115
      }, {
        "duration_ns": 2921078001,
        "uptime_ns": 54326020526
      }, {
        "duration_ns": 2772919319,
        "uptime_ns": 57294387794
      }, {
        "duration_ns": 2903187112,
        "uptime_ns": 60117194975
      }, {
        "duration_ns": 2724966828,
        "uptime_ns": 63069776887
      }, {
        "duration_ns": 2829005550,
        "uptime_ns": 65844945826
      }, {
        "duration_ns": 2741838398,
        "uptime_ns": 68723682558
      }, {
        "duration_ns": 2792386003,
        "uptime_ns": 71514552489
      }, {
        "duration_ns": 2760428250,
        "uptime_ns": 74357074835
      }, {
        "duration_ns": 2901275923,
        "uptime_ns": 77166160882
      }, {
        "duration_ns": 2820164598,
        "uptime_ns": 80116447556
      }, {
        "duration_ns": 2707216865,
        "uptime_ns": 82979861168
      }, {
        "duration_ns": 2768668623,
        "uptime_ns": 85733971738
      }, {
        "duration_ns": 2738485166,
        "uptime_ns": 88547743602
      }, {
        "duration_ns": 2667296990,
        "uptime_ns": 91330122555
      }, {
        "duration_ns": 2711819525,
        "uptime_ns": 94041560673
      }, {
        "duration_ns": 2652593337,
        "uptime_ns": 96798091085
      }, {
        "duration_ns": 2774062152,
        "uptime_ns": 99499403642
      }, {
        "duration_ns": 2635902874,
        "uptime_ns": 102314668767
      }, {
        "duration_ns": 2589660751,
        "uptime_ns": 104993970651
      }, {
        "duration_ns": 2725563621,
        "uptime_ns": 107631654150
      }, {
        "duration_ns": 2800839281,
        "uptime_ns": 110403657219
      }, {
        "duration_ns": 2563366088,
        "uptime_ns": 113247829520
      }, {
        "duration_ns": 2578428646,
        "uptime_ns": 115857324894
      }, {
        "duration_ns": 2603743011,
        "uptime_ns": 118480797882
      }, {
        "duration_ns": 2736472147,
        "uptime_ns": 121127975709
      }, {
        "duration_ns": 2548234582,
        "uptime_ns": 123908917351
      }, {
        "duration_ns": 2568254720,
        "uptime_ns": 126500786348
      }, {
        "duration_ns": 2575665777,
        "uptime_ns": 129114421627
      }, {
        "duration_ns": 2735147713,
        "uptime_ns": 131731984750
      }, {
        "duration_ns": 2588124182,
        "uptime_ns": 134513740304
      }, {
        "duration_ns": 2584844291,
        "uptime_ns": 137144450826
      }, {
        "duration_ns": 2547739848,
        "uptime_ns": 139771535194
      }, {
        "duration_ns": 2634615610,
        "uptime_ns": 142362033957
      }, {
        "duration_ns": 2558726073,
        "uptime_ns": 145037726698
      }, {
        "duration_ns": 2519366068,
        "uptime_ns": 147646037097
      }, {
        "duration_ns": 2585493879,
        "uptime_ns": 150206942051
      }, {
        "duration_ns": 2672864773,
        "uptime_ns": 152837130745
      }, {
        "duration_ns": 2556708367,
        "uptime_ns": 155551381488
      }, {
        "duration_ns": 2633150672,
        "uptime_ns": 158151310778
      }, {
        "duration_ns": 2550566203,
        "uptime_ns": 160827747954
      }, {
        "duration_ns": 2611911380,
        "uptime_ns": 163422778528
      }, {
        "duration_ns": 2521445965,
        "uptime_ns": 166076322260
      }, {
        "duration_ns": 2527729970,
        "uptime_ns": 168641882755
      }, {
        "duration_ns": 2494490255,
        "uptime_ns": 171210869559
      }, {
        "duration_ns": 2525061605,
        "uptime_ns": 173746640692
      }, {
        "duration_ns": 2576873023,
        "uptime_ns": 176320271850
      }, {
        "duration_ns": 2467410722,
        "uptime_ns": 178939092765
      }, {
        "duration_ns": 2601341844,
        "uptime_ns": 181451362128
      }, {
        "duration_ns": 2472289175,
        "uptime_ns": 184095921515
      }, {
        "duration_ns": 2541802713,
        "uptime_ns": 186611227614
      }, {
        "duration_ns": 2501707946,
        "uptime_ns": 189195159759
      }, {
        "duration_ns": 2507771813,
        "uptime_ns": 191740393426
      }, {
        "duration_ns": 2471297859,
        "uptime_ns": 194291778267
      }, {
        "duration_ns": 2596191237,
        "uptime_ns": 196808149333
      }, {
        "duration_ns": 2498096079,
        "uptime_ns": 199447766106
      }, {
        "duration_ns": 2535252561,
        "uptime_ns": 201987787552
      }, {
        "duration_ns": 2485757272,
        "uptime_ns": 204566268950
      }, {
        "duration_ns": 2455751817,
        "uptime_ns": 207093785369
      }, {
        "duration_ns": 2516955604,
        "uptime_ns": 209595571118
      }, {
        "duration_ns": 2506218514,
        "uptime_ns": 212155343215
      }, {
        "duration_ns": 2454687591,
        "uptime_ns": 214706326476
      }, {
        "duration_ns": 2481040231,
        "uptime_ns": 217203722480
      }, {
        "duration_ns": 2608099538,
        "uptime_ns": 219727350320
      }, {
        "duration_ns": 2493450518,
        "uptime_ns": 222378276367
      }, {
        "duration_ns": 2507100457,
        "uptime_ns": 224913299304
      }, {
        "duration_ns": 2473724113,
        "uptime_ns": 227465984222
      }, {
        "duration_ns": 2615611383,
        "uptime_ns": 229982776823
      }, {
        "duration_ns": 2421498470,
        "uptime_ns": 232643833187
      }, {
        "duration_ns": 2569978356,
        "uptime_ns": 235108160287
      }, {
        "duration_ns": 2425031701,
        "uptime_ns": 237722365191
      }, {
        "duration_ns": 2481617667,
        "uptime_ns": 240188702646
      }, {
        "duration_ns": 2567384528,
        "uptime_ns": 242713713174
      }, {
        "duration_ns": 2485322536,
        "uptime_ns": 245322078874
      }, {
        "duration_ns": 2520467032,
        "uptime_ns": 247849811560
      }, {
        "duration_ns": 2514452591,
        "uptime_ns": 250418027661
      }, {
        "duration_ns": 2533747916,
        "uptime_ns": 252974538510
      }, {
        "duration_ns": 2486056309,
        "uptime_ns": 255552314505
      }, {
        "duration_ns": 2573486448,
        "uptime_ns": 258081966443
      }, {
        "duration_ns": 2459619024,
        "uptime_ns": 260698755230
      }, {
        "duration_ns": 2556499312,
        "uptime_ns": 263201223684
      }, {
        "duration_ns": 2507706169,
        "uptime_ns": 265801296707
      }, {
        "duration_ns": 2631354095,
        "uptime_ns": 268351307876
      }, {
        "duration_ns": 2710775836,
        "uptime_ns": 271027150400
      }, {
        "duration_ns": 2682880889,
        "uptime_ns": 273780606210
      }, {
        "duration_ns": 2576037518,
        "uptime_ns": 276509408657
      }],
      "termination": "normal"
    }
  },
  "environment": {
    "os": {
      "virt_mem_committed": 10670149632,
      "name": "Mac OS X",
      "open_fd_count": 136,
      "phys_mem_free": 3938267136,
      "swap_space_total": 1073741824,
      "available_processors": 8,
      "phys_mem_total": 17179869184,
      "version": "10.15.7",
      "arch": "x86_64",
      "max_fd_count": 10240,
      "swap_space_free": 883687424
    },
    "vm": {
      "termination": "normal",
      "name": "OpenJDK 64-Bit Server VM",
      "spec_vendor": "Oracle Corporation",
      "spec_name": "Java Virtual Machine Specification",
      "classloading": {
        "class_count": 7893,
        "classes_total": 7896
      },
      "compiler": {
        "name": "HotSpot 64-Bit Tiered Compilers",
        "compilation_time_ms": 73018
      },
      "start_iso": "2020-11-21T15:31:04.461Z",
      "collectors": [{
        "name": "G1 Young Generation",
        "collection_count": 2699,
        "collection_time_ms": 5750
      }, {
        "name": "G1 Old Generation",
        "collection_count": 100,
        "collection_time_ms": 3622
      }],
      "start_unix_ms": 1605972664461,
      "version": "11.0.9.1+1",
      "mode": "mixed mode",
      "args": [],
      "pools": [{
        "name": "CodeHeap 'non-nmethods'",
        "type": "NON_HEAP",
        "usage": {
          "init": 2555904,
          "used": 1237120,
          "committed": 2555904,
          "max": 5836800
        },
        "peak_usage": {
          "init": 2555904,
          "used": 1297664,
          "committed": 2555904,
          "max": 5836800
        }
      }, {
        "name": "Metaspace",
        "type": "NON_HEAP",
        "usage": {
          "init": 0,
          "used": 54159576,
          "committed": 55836672,
          "max": -1
        },
        "peak_usage": {
          "init": 0,
          "used": 54159576,
          "committed": 55836672,
          "max": -1
        }
      }, {
        "name": "CodeHeap 'profiled nmethods'",
        "type": "NON_HEAP",
        "usage": {
          "init": 2555904,
          "used": 10364032,
          "committed": 20840448,
          "max": 122908672
        },
        "peak_usage": {
          "init": 2555904,
          "used": 20741504,
          "committed": 20840448,
          "max": 122908672
        }
      }, {
        "name": "Compressed Class Space",
        "type": "NON_HEAP",
        "usage": {
          "init": 0,
          "used": 8030112,
          "committed": 8388608,
          "max": 1073741824
        },
        "peak_usage": {
          "init": 0,
          "used": 8030112,
          "committed": 8388608,
          "max": 1073741824
        }
      }, {
        "name": "G1 Eden Space",
        "type": "HEAP",
        "usage": {
          "init": 27262976,
          "used": 132120576,
          "committed": 210763776,
          "max": -1
        },
        "peak_usage": {
          "init": 27262976,
          "used": 216006656,
          "committed": 238026752,
          "max": -1
        }
      }, {
        "name": "G1 Old Gen",
        "type": "HEAP",
        "usage": {
          "init": 241172480,
          "used": 29042096,
          "committed": 125829120,
          "max": 4294967296
        },
        "peak_usage": {
          "init": 241172480,
          "used": 29954136,
          "committed": 241172480,
          "max": 4294967296
        }
      }, {
        "name": "G1 Survivor Space",
        "type": "HEAP",
        "usage": {
          "init": 0,
          "used": 2097152,
          "committed": 2097152,
          "max": -1
        },
        "peak_usage": {
          "init": 0,
          "used": 7340032,
          "committed": 7340032,
          "max": -1
        }
      }, {
        "name": "CodeHeap 'non-profiled nmethods'",
        "type": "NON_HEAP",
        "usage": {
          "init": 2555904,
          "used": 10720512,
          "committed": 10747904,
          "max": 122912768
        },
        "peak_usage": {
          "init": 2555904,
          "used": 10720512,
          "committed": 10747904,
          "max": 122912768
        }
      }],
      "uptime_ms": 279196,
      "vendor": "AdoptOpenJDK",
      "threads": {
        "thread_count": 51,
        "thread_count_max": 70,
        "daemon_thread_count": 49,
        "threads_total": 970
      },
      "spec_version": "11",
      "memory": {
        "heap_usage": {
          "init": 268435456,
          "used": 163259824,
          "committed": 338690048,
          "max": 4294967296
        },
        "nonheap_usage": {
          "init": 7667712,
          "used": 84496888,
          "committed": 98369536,
          "max": -1
        },
        "pending_finalization_count": 0
      }
    },
    "jre": {
      "java_version": "11.0.9.1",
      "name": "OpenJDK Runtime Environment",
      "spec_vendor": "Oracle Corporation",
      "spec_name": "Java Platform API Specification",
      "class_path": ["target/renaissance-gpl-0.11.0.jar"],
      "home": "/Library/Java/JavaVirtualMachines/adoptopenjdk-11.jdk/Contents/Home",
      "version": "11.0.9.1+1",
      "java_vendor": "AdoptOpenJDK",
      "library_path": ["/Users/user3/Library/Java/Extensions", "/Library/Java/Extensions", "/Network/Library/Java/Extensions", "/System/Library/Java/Extensions", "/usr/lib/java", "."],
      "spec_version": "11"
    }
  },
  "suite": {
    "git": {
      "commit_hash": "91cf51ddb8af003685eca89f96371fd2e7bb3c7e",
      "commit_date": "2020-06-05T09:40:32+0200",
      "dirty": "false"
    },
    "name": "Renaissance Benchmark Suite",
    "version": "0.11.0"
  }
}