benchmark,duration_ns,uptime_ns,vm_start_unix_ms
future-genetic,1767921976,672078793,1605973572282
future-genetic,1419248000,2456846606,1605973572282
future-genetic,1468415512,3888711565,1605973572282
future-genetic,1465583853,5369772374,1605973572282
future-genetic,1458500702,6847833914,1605973572282
future-genetic,1460371125,8317203400,1605973572282
future-genetic,1462059776,9792247802,1605973572282
future-genetic,1456975651,11265380273,1605973572282
future-genetic,1450426535,12734684272,1605973572282
future-genetic,1454291616,14197680673,1605973572282
future-genetic,1458405340,15664321902,1605973572282
future-genetic,1467645672,17134385413,1605973572282
future-genetic,1458373268,18613952762,1605973572282
future-genetic,1449021081,20084127968,1605973572282
future-genetic,1458168772,21544484642,1605973572282
future-genetic,1454750770,23014329176,1605973572282
future-genetic,1455491018,24480811137,1605973572282
future-genetic,1446229239,25947934878,1605973572282
future-genetic,1453709862,27405779489,1605973572282
future-genetic,1459148855,28870870342,1605973572282
future-genetic,1460097512,30341598444,1605973572282
future-genetic,1449662109,31811956189,1605973572282
future-genetic,1453356834,33274212204,1605973572282
future-genetic,1456768181,34739098903,1605973572282
future-genetic,1460509875,36207315571,1605973572282
future-genetic,1455215584,37678428798,1605973572282
future-genetic,1455069499,39147269548,1605973572282
future-genetic,1461301305,40614003647,1605973572282
future-genetic,1455719541,42086811281,1605973572282
future-genetic,1464890120,43554175527,1605973572282
future-genetic,1452125440,45030734766,1605973572282
future-genetic,1456469674,46494279249,1605973572282
future-genetic,1453324975,47962418755,1605973572282
future-genetic,1456728631,49427414173,1605973572282
future-genetic,1460959791,50895886436,1605973572282
future-genetic,1458930221,52368394593,1605973572282
future-genetic,1453703738,53838898962,1605973572282
future-genetic,1454937201,55304428231,1605973572282
future-genetic,1459721586,56770802738,1605973572282
future-genetic,1452176834,58241961836,1605973572282
future-genetic,1456740091,59705685170,1605973572282
future-genetic,1459500802,61173974112,1605973572282
future-genetic,1465800242,62644866613,1605973572282
future-genetic,1464475300,64122417735,1605973572282
future-genetic,1453565351,65598552143,1605973572282
future-genetic,1459262358,67062602828,1605973572282
future-genetic,1446765890,68533453997,1605973572282
future-genetic,1451986261,69993639564,1605973572282
future-genetic,1453067134,71455681873,1605973572282
future-genetic,1450240135,72920110879,1605973572282
future-genetic,1449314042,74382210107,1605973572282
future-genetic,1465768929,75842914228,1605973572282
future-genetic,1454968530,77320722709,1605973572282
future-genetic,1461159743,78789401021,1605973572282
future-genetic,1452698584,80262245734,1605973572282
future-genetic,1461542974,81724696537,1605973572282
future-genetic,1460962908,83197875894,1605973572282
future-genetic,1457346606,84672228927,1605973572282
future-genetic,1452931479,86141201356,1605973572282
future-genetic,1460855870,87604164834,1605973572282
future-genetic,1455309684,89076582940,1605973572282
future-genetic,1471254052,90543281503,1605973572282
future-genetic,1455304770,92026098536,1605973572282
future-genetic,1464017834,93493097707,1605973572282
future-genetic,1452294919,94968679087,1605973572282
future-genetic,1448380997,96432711886,1605973572282
future-genetic,1472062957,97892442376,1605973572282
future-genetic,1464785620,99380244801,1605973572282
future-genetic,1460014868,100854771834,1605973572282
future-genetic,1453588666,102324680492,1605973572282
future-genetic,1451764569,103793468783,1605973572282
future-genetic,1461156439,105256674232,1605973572282
future-genetic,1458782710,106729687026,1605973572282
future-genetic,1449588908,108200146497,1605973572282
future-genetic,1457518864,109661307565,1605973572282
future-genetic,1448931917,111130435655,1605973572282
future-genetic,1457782124,112590781436,1605973572282
future-genetic,1451296208,114060127054,1605973572282
future-genetic,1470996530,115521198714,1605973572282
future-genetic,1453619129,117005725436,1605973572282
future-genetic,1456006357,118471017905,1605973572282
future-genetic,1462006502,119936903200,1605973572282
future-genetic,1457335217,121410423583,1605973572282
future-genetic,1449758608,122879487980,1605973572282
future-genetic,1458616767,124340640998,1605973572282
future-genetic,1457396454,125811321527,1605973572282
future-genetic,1459977857,127280449309,1605973572282
future-genetic,1457711343,128751881375,1605973572282
future-genetic,1449431796,130221385282,1605973572282
future-genetic,1461467170,131682653962,1605973572282
future-genetic,1462231277,133155704787,1605973572282
future-genetic,1455023061,134629688718,1605973572282
future-genetic,1454651516,136096233248,1605973572282
future-genetic,1462540492,137562593106,1605973572282
future-genetic,1454611442,139036806311,1605973572282
future-genetic,1455505292,140501291949,1605973572282
future-genetic,1452884056,141970126605,1605973572282
future-genetic,1457510871,143434609961,1605973572282
future-genetic,1456029148,144903754339,1605973572282
future-genetic,1460123914,146371352594,1605973572282
