benchmark,duration_ns,uptime_ns,vm_start_unix_ms
movie-lens,11091899875,4558146133,1605974376883
movie-lens,8561797536,15713466000,1605974376883
movie-lens,7878662714,24345796815,1605974376883
movie-lens,7995158947,32300511546,1605974376883
movie-lens,7711290136,40365242827,1605974376883
movie-lens,7473152539,48149825762,1605974376883
movie-lens,7683014564,55692622706,1605974376883
movie-lens,6864264115,63443003092,1605974376883
movie-lens,6787790724,70374660251,1605974376883
movie-lens,6830909625,77232365645,1605974376883
movie-lens,6875143436,84136462502,1605974376883
movie-lens,6768782749,91084533228,1605974376883
movie-lens,7043580789,97921271307,1605974376883
movie-lens,7121522968,105034230177,1605974376883
movie-lens,6557124040,112224970246,1605974376883
movie-lens,6757547107,118853348949,1605974376883
movie-lens,6625486785,125677574709,1605974376883
movie-lens,6568689710,132370832884,1605974376883
movie-lens,6638366700,139002592111,1605974376883
movie-lens,6705738290,145705241186,1605974376883
movie-lens,6628958208,152480885148,1605974376883
movie-lens,6689287030,159175685178,1605974376883
movie-lens,6514607299,165934899124,1605974376883
movie-lens,6511844826,172516963176,1605974376883
movie-lens,6513802225,179095111321,1605974376883
movie-lens,6737298789,185670955208,1605974376883
movie-lens,6584394595,192475004928,1605974376883
movie-lens,6576805772,199134297136,1605974376883
movie-lens,6627985950,205776171055,1605974376883
movie-lens,6535474281,212469521953,1605974376883
movie-lens,6584106485,219070867647,1605974376883
movie-lens,6677792131,225727023106,1605974376883
movie-lens,6587743915,232469333611,1605974376883
movie-lens,6505829176,239124454908,1605974376883
movie-lens,6662076149,245696920363,1605974376883
movie-lens,6502810504,252423183065,1605974376883
movie-lens,6540466468,258993881539,1605974376883
movie-lens,6539569229,265608251990,1605974376883
movie-lens,6411754360,272214418542,1605974376883
movie-lens,6601260956,278695295545,1605974376883
movie-lens,6479428023,285367458800,1605974376883
movie-lens,6575715343,291913563541,1605974376883
movie-lens,6540649299,298553064562,1605974376883
movie-lens,6581433834,305160994482,1605974376883
movie-lens,6636301935,311807885328,1605974376883
movie-lens,6632067867,318517793705,1605974376883
movie-lens,6449467588,325217676182,1605974376883
movie-lens,6549687716,331736446423,1605974376883
movie-lens,6609357704,338351281098,1605974376883
movie-lens,6507122269,345025088050,1605974376883
movie-lens,6525503318,351595226198,1605974376883
movie-lens,6464784854,358187404520,1605974376883
movie-lens,6694747840,364724735556,1605974376883
movie-lens,6513019419,371486232647,1605974376883
movie-lens,6549694411,378069237416,1605974376883
movie-lens,6586507891,384684770652,1605974376883
movie-lens,6536000226,391336819279,1605974376883
movie-lens,6639727216,397944132397,1605974376883
movie-lens,6519433811,404649964806,1605974376883
movie-lens,6614853728,411238717612,1605974376883
movie-lens,6604415904,417918692785,1605974376883
movie-lens,6520626204,424591458708,1605974376883
movie-lens,6599740442,431178144747,1605974376883
movie-lens,6563468969,437843614206,1605974376883
movie-lens,6433383599,444472689452,1605974376883
movie-lens,6582730229,450971212462,1605974376883
movie-lens,6579296939,457619634789,1605974376883
movie-lens,6550819215,464266612376,1605974376883
movie-lens,6563020195,470883691269,1605974376883
movie-lens,6506099443,477514049276,1605974376883
movie-lens,6656983166,484085986773,1605974376883
movie-lens,6591810283,490810597506,1605974376883
movie-lens,6583540146,497469387170,1605974376883
movie-lens,6583327221,504121013181,1605974376883
movie-lens,6656549742,510774009101,1605974376883
movie-lens,6624450282,517499473393,1605974376883
movie-lens,6580876042,524194872886,1605974376883
movie-lens,6618188503,530843475149,1605974376883
movie-lens,6562819043,537528029616,1605974376883
movie-lens,6643337981,544157963772,1605974376883
movie-lens,6549188877,550871853765,1605974376883
movie-lens,6575833657,557488095334,1605974376883
movie-lens,6560585313,564130130182,1605974376883
movie-lens,6417152047,570758790905,1605974376883
movie-lens,6608350171,577242699895,1605974376883
movie-lens,6579714344,583917265115,1605974376883
movie-lens,6587299487,590561399478,1605974376883
movie-lens,6587729715,597218011374,1605974376883
movie-lens,6555710595,603871976472,1605974376883
movie-lens,6779988250,610495928665,1605974376883
movie-lens,6691873909,617342783592,1605974376883
movie-lens,6525078191,624098179262,1605974376883
movie-lens,6646787188,630688016586,1605974376883
movie-lens,6596602194,637402888680,1605974376883
movie-lens,6555688315,644062681615,1605974376883
movie-lens,6485980523,650685637199,1605974376883
movie-lens,6606728743,657238245239,1605974376883
movie-lens,6478258386,663909035790,1605974376883
movie-lens,6691750278,670456404476,1605974376883
movie-lens,6482657473,677215169686,1605974376883
