{
  "benchmarks": ["naive-bayes"],
  "format_version": 5,
  "data": {
    "naive-bayes": {
      "results": [{
        "duration_ns": 10114609203,
        "uptime_ns": 4006055690
      }, {
        "duration_ns": 5665257315,
        "uptime_ns": 14341249246
      }, {
        "duration_ns": 3889538721,
        "uptime_ns": 20193458015
      }, {
        "duration_ns": 3777337904,
        "uptime_ns": 24200030445
      }, {
        "duration_ns": 3657501047,
        "uptime_ns": 28077939945
      }, {
        "duration_ns": 3880335531,
        "uptime_ns": 31833774624
      }, {
        "duration_ns": 3763437547,
        "uptime_ns": 35793852092
      }, {
        "duration_ns": 3804584239,
        "uptime_ns": 39631681173
      }, {
        "duration_ns": 3894244895,
        "uptime_ns": 43512740910
      }, {
        "duration_ns": 3827140405,
        "uptime_ns": 47482589024
      }, {
        "duration_ns": 3720160843,
        "uptime_ns": 51403850788
      }, {
        "duration_ns": 3855317505,
        "uptime_ns": 55239576082
      }, {
        "duration_ns": 3764295098,
        "uptime_ns": 59172355390
      }, {
        "duration_ns": 3730583584,
        "uptime_ns": 63012458027
      }, {
        "duration_ns": 3832520222,
        "uptime_ns": 66818883646
      }, {
        "duration_ns": 3811743614,
        "uptime_ns": 70733334785
      }, {
        "duration_ns": 3870083454,
        "uptime_ns": 74621500447
      }, {
        "duration_ns": 3854617730,
        "uptime_ns": 78572573481
      }, {
        "duration_ns": 3788047639,
        "uptime_ns": 82523106902
      }, {
        "duration_ns": 3847088169,
        "uptime_ns": 86388435654
      }, {
        "duration_ns": 3778468620,
        "uptime_ns": 90313689625
      }, {
        "duration_ns": 3866063955,
        "uptime_ns": 94167632350
      }, {
        "duration_ns": 3799683814,
        "uptime_ns": 98110700710
      }, {
        "duration_ns": 3786190630,
        "uptime_ns": 101986255220
      }, {
        "duration_ns": 3859188039,
        "uptime_ns": 105852830153
      }, {
        "duration_ns": 3775045449,
        "uptime_ns": 109788099544
      }, {
        "duration_ns": 3739385388,
        "uptime_ns": 113641092561
      }, {
        "duration_ns": 3877772322,
        "uptime_ns": 117472572847
      }, {
        "duration_ns": 3806366114,
        "uptime_ns": 121435127122
      }, {
        "duration_ns": 3874034283,
        "uptime_ns": 125324148312
      }, {
        "duration_ns": 3742302167,
        "uptime_ns": 129274927052
      }, {
        "duration_ns": 3776328177,
        "uptime_ns": 133096911263
      }, {
        "duration_ns": 3733019707,
        "uptime_ns": 136951736820
      }, {
        "duration_ns": 3893193368,
        "uptime_ns": 140762418166
      }, {
        "duration_ns": 3878188991,
        "uptime_ns": 144733092456
      }, {
        "duration_ns": 3782820551,
        "uptime_ns": 148687765763
      }, {
        "duration_ns": 3964140957,
        "uptime_ns": 152548673037
      }, {
        "duration_ns": 3772192099,
        "uptime_ns": 156592049784
      }, {
        "duration_ns": 3712776048,
        "uptime_ns": 160442719555
      }, {
        "duration_ns": 3887000908,
        "uptime_ns": 164232114026
      }, {
        "duration_ns": 3716367875,
        "uptime_ns": 168196463994
      }, {
        "duration_ns": 3785449173,
        "uptime_ns": 171993191716
      }, {
        "duration_ns": 3723324275,
        "uptime_ns": 175858261504
      }, {
        "duration_ns": 3794024913,
        "uptime_ns": 179659294654
      }, {
        "duration_ns": 3895634487,
        "uptime_ns": 183550334242
      }, {
        "duration_ns": 3858318130,
        "uptime_ns": 187525456227
      }, {
        "duration_ns": 3769463430,
        "uptime_ns": 191469616523
      }, {
        "duration_ns": 3782922766,
        "uptime_ns": 195319455360
      }, {
        "duration_ns": 3900210544,
        "uptime_ns": 199180660364
      }, {
        "duration_ns": 3748625522,
        "uptime_ns": 203158137539
      }, {
        "duration_ns": 3816418646,
        "uptime_ns": 206984964620
      }, {
        "duration_ns": 3843661413,
        "uptime_ns": 210881538989
      }, {
        "duration_ns": 3765942033,
        "uptime_ns": 214802950337
      }, {
        "duration_ns": 3794187230,
        "uptime_ns": 218654584765
      }, {
        "duration_ns": 3851031405,
        "uptime_ns": 222527291218
      }, {
        "duration_ns": 3823615054,
        "uptime_ns": 226458942701
      }, {
        "duration_ns": 3833876254,
        "uptime_ns": 230371991691
      }, {
        "duration_ns": 3858572974,
        "uptime_ns": 234287265231
      }, {
        "duration_ns": 3828052346,
        "uptime_ns": 238225100494
      }, {
        "duration_ns": 3834106939,
        "uptime_ns": 242131862116
      }, {
        "duration_ns": 3796519270,
        "uptime_ns": 246045830510
      }, {
        "duration_ns": 3832095212,
        "uptime_ns": 249923834253
      }, {
        "duration_ns": 3878507622,
        "uptime_ns": 253835127028
      }, {
        "duration_ns": 3753819099,
        "uptime_ns": 257792764410
      }, {
        "duration_ns": 3823748570,
        "uptime_ns": 261625354192
      }, {
        "duration_ns": 3819030251,
        "uptime_ns": 265528530740
      }, {
        "duration_ns": 3810694385,
        "uptime_ns": 269427023309
      }, {
        "duration_ns": 3901884214,
        "uptime_ns": 273318072567
      }, {
        "duration_ns": 3756901842,
        "uptime_ns": 277299386909
      }, {
        "duration_ns": 3843206813,
        "uptime_ns": 281135387714
      }, {
        "duration_ns": 3824632773,
        "uptime_ns": 285058338188
      }, {
        "duration_ns": 3781291820,
        "uptime_ns": 288962770668
      }, {
        "duration_ns": 3863223975,
        "uptime_ns": 292822602521
      }, {
        "duration_ns": 3748398975,
        "uptime_ns": 296764650983
      }, {
        "duration_ns": 3816781437,
        "uptime_ns": 300589356464
      }, {
        "duration_ns": 3804452713,
        "uptime_ns": 304487268613
      }, {
        "duration_ns": 3694537174,
        "uptime_ns": 308372344602
      }, {
        "duration_ns": 3856874725,
        "uptime_ns": 312147817390
      }, {
        "duration_ns": 3802797572,
        "uptime_ns": 316084313296
      }, {
        "duration_ns": 3807194078,
        "uptime_ns": 319962092276
      }, {
        "duration_ns": 3818662323,
        "uptime_ns": 323852478915
      }, {
        "duration_ns": 3811219756,
        "uptime_ns": 327750773196
      }, {
        "duration_ns": 3785237774,
        "uptime_ns": 331641482932
      }, {
        "duration_ns": 3887819139,
        "uptime_ns": 335506366329
      }, {
        "duration_ns": 3736886925,
        "uptime_ns": 339473841452
      }, {
        "duration_ns": 3846552076,
        "uptime_ns": 343291635707
      }, {
        "duration_ns": 3678740887,
        "uptime_ns": 347218130485
      }, {
        "duration_ns": 3816804655,
        "uptime_ns": 350977145234
      }, {
        "duration_ns": 3795011530,
        "uptime_ns": 354875493025
      }, {
        "duration_ns": 3726155482,
        "uptime_ns": 358752312711
      }, {
        "duration_ns": 3779006187,
        "uptime_ns": 362578675275
      }, {
        "duration_ns": 3776916500,
        "uptime_ns": 366435649905
      }, {
        "duration_ns": 3793910767,
        "uptime_ns": 370292348417
      }, {
        "duration_ns": 3787622125,
        "uptime_ns": 374167772720
      }, {
        "duration_ns": 3872379988,
        "uptime_ns": 378033640564
      }, {
        "duration_ns": 3774722881,
        "uptime_ns": 381985353405
      }, {
        "duration_ns": 3875063588,
        "uptime_ns": 385840288423
      }, {
        "duration_ns": 3848553866,
        "uptime_ns": 389797100629
      }, {
        "duration_ns": 3848666930,
        "uptime_ns": 393725377203
      }, {
        "duration_ns": 3750844343,
        "uptime_ns": 397653928679
      }],
      "termination": "normal"
    }
  },
  "environment": {
    "os": {
      "virt_mem_committed": 10644480000,
      "name": "Mac OS X",
      "open_fd_count": 261,
      "phys_mem_free": 23732224,
      "swap_space_total": 1073741824,
      "available_processors": 8,
      "phys_mem_total": 17179869184,
      "version": "10.15.7",
      "arch": "x86_64",
      "max_fd_count": 10240,
      "swap_space_free": 883687424
    },
    "vm": {
      "termination": "normal",
      "name": "OpenJDK 64-Bit Server VM",
      "spec_vendor": "Oracle Corporation",
      "spec_name": "Java Virtual Machine Specification",
      "classloading": {
        "class_count": 8060,
        "classes_total": 8195
      },
      "compiler": {
        "name": "HotSpot 64-Bit Tiered Compilers",
        "compilation_time_ms": 47113
      },
      "start_iso": "2020-11-21T16:11:01.283Z",
      "collectors": [{
        "name": "G1 Young Generation",
        "collection_count": 1830,
        "collection_time_ms": 33590
      }, {
        "name": "G1 Old Generation",
        "collection_count": 100,
        "collection_time_ms": 8221
      }],
      "start_unix_ms": 1605975061283,
      "version": "11.0.9.1+1",
      "mode": "mixed mode",
      "args": [],
      "pools": [{
        "name": "CodeHeap 'non-nmethods'",
        "type": "NON_HEAP",
        "usage": {
          "init": 2555904,
          "used": 1348096,
          "committed": 2555904,
          "max": 5836800
        },
        "peak_usage": {
          "init": 2555904,
          "used": 1390848,
          "committed": 2555904,
          "max": 5836800
        }
      }, {
        "name": "Metaspace",
        "type": "NON_HEAP",
        "usage": {
          "init": 0,
          "used": 56880200,
          "committed": 58187776,
          "max": -1
        },
        "peak_usage": {
          "init": 0,
          "used": 56880200,
          "committed": 58187776,
          "max": -1
        }
      }, {
        "name": "CodeHeap 'profiled nmethods'",
        "type": "NON_HEAP",
        "usage": {
          "init": 2555904,
          "used": 14165376,
          "committed": 15204352,
          "max": 122908672
        },
        "peak_usage": {
          "init": 2555904,
          "used": 14674176,
          "committed": 15204352,
          "max": 122908672
        }
      }, {
        "name": "Compressed Class Space",
        "type": "NON_HEAP",
        "usage": {
          "init": 0,
          "used": 7466248,
          "committed": 7942144,
          "max": 1073741824
        },
        "peak_usage": {
          "init": 0,
          "used": 7466248,
          "committed": 7942144,
          "max": 1073741824
        }
      }, {
        "name": "G1 Eden Space",
        "type": "HEAP",
        "usage": {
          "init": 27262976,
          "used": 65011712,
          "committed": 1210056704,
          "max": -1
        },
        "peak_usage": {
          "init": 27262976,
          "used": 1619001344,
          "committed": 1700790272,
          "max": -1
        }
      }, {
        "name": "G1 Old Gen",
        "type": "HEAP",
        "usage": {
          "init": 241172480,
          "used": 2274574464,
          "committed": 3034578944,
          "max": 4294967296
        },
        "peak_usage": {
          "init": 241172480,
          "used": 2791147120,
          "committed": 4069523456,
          "max": 4294967296
        }
      }, {
        "name": "G1 Survivor Space",
        "type": "HEAP",
        "usage": {
          "init": 0,
          "used": 50331648,
          "committed": 50331648,
          "max": -1
        },
        "peak_usage": {
          "init": 0,
          "used": 187695104,
          "committed": 187695104,
          "max": -1
        }
      }, {
        "name": "CodeHeap 'non-profiled nmethods'",
        "type": "NON_HEAP",
        "usage": {
          "init": 2555904,
          "used": 7584384,
          "committed": 7602176,
          "max": 122912768
        },
        "peak_usage": {
          "init": 2555904,
          "used": 7585280,
          "committed": 7602176,
          "max": 122912768
        }
      }],
      "uptime_ms": 401586,
      "vendor": "AdoptOpenJDK",
      "threads": {
        "thread_count": 37,
        "thread_count_max": 59,
        "daemon_thread_count": 36,
        "threads_total": 194
      },
      "spec_version": "11",
      "memory": {
        "heap_usage": {
          "init": 268435456,
          "used": 2388869248,
          "committed": 4294967296,
          "max": 4294967296
        },
        "nonheap_usage": {
          "init": 7667712,
          "used": 87432488,
          "committed": 91492352,
          "max": -1
        },
        "pending_finalization_count": 0
      }
    },
    "jre": {
      "java_version": "11.0.9.1",
      "name": "OpenJDK Runtime Environment",
      "spec_vendor": "Oracle Corporation",
      "spec_name": "Java Platform API Specification",
      "class_path": ["target/renaissance-gpl-0.11.0.jar"],
      "home": "/Library/Java/JavaVirtualMachines/adoptopenjdk-11.jdk/Contents/Home",
      "version": "11.0.9.1+1",
      "java_vendor": "AdoptOpenJDK",
      "library_path": ["/Users/user3/Library/Java/Extensions", "/Library/Java/Extensions", "/Network/Library/Java/Extensions", "/System/Library/Java/Extensions", "/usr/lib/java", "."],
      "spec_version": "11"
    }
  },
  "suite": {
    "git": {
      "commit_hash": "91cf51ddb8af003685eca89f96371fd2e7bb3c7e",
      "commit_date": "2020-06-05T09:40:32+0200",
      "dirty": "false"
    },
    "name": "Renaissance Benchmark Suite",
    "version": "0.11.0"
  }
}