{
  "benchmarks": ["neo4j-analytics"],
  "format_version": 5,
  "data": {
    "neo4j-analytics": {
      "results": [{
        "duration_ns": 10851801254,
        "uptime_ns": 20889687947
      }, {
        "duration_ns": 7325064573,
        "uptime_ns": 31810532600
      }, {
        "duration_ns": 7076294988,
        "uptime_ns": 39222637844
      }, {
        "duration_ns": 7129784351,
        "uptime_ns": 46367430802
      }, {
        "duration_ns": 7158292195,
        "uptime_ns": 53584641582
      }, {
        "duration_ns": 7147715544,
        "uptime_ns": 60829857416
      }, {
        "duration_ns": 7247811903,
        "uptime_ns": 68070935074
      }, {
        "duration_ns": 7228189276,
        "uptime_ns": 75408389220
      }, {
        "duration_ns": 6981950214,
        "uptime_ns": 82720788073
      }, {
        "duration_ns": 7205208746,
        "uptime_ns": 89763754755
      }, {
        "duration_ns": 7160184796,
        "uptime_ns": 97066235554
      }, {
        "duration_ns": 7116718075,
        "uptime_ns": 104317385947
      }, {
        "duration_ns": 7014263302,
        "uptime_ns": 111521842419
      }, {
        "duration_ns": 7078213741,
        "uptime_ns": 118605738129
      }, {
        "duration_ns": 7121214167,
        "uptime_ns": 125774910103
      }, {
        "duration_ns": 7102141538,
        "uptime_ns": 132965240175
      }, {
        "duration_ns": 7150663132,
        "uptime_ns": 140155279798
      }, {
        "duration_ns": 7093379356,
        "uptime_ns": 147391890564
      }, {
        "duration_ns": 6909540770,
        "uptime_ns": 154569926666
      }, {
        "duration_ns": 7091946361,
        "uptime_ns": 161537126840
      }, {
        "duration_ns": 6918607535,
        "uptime_ns": 168697548375
      }, {
        "duration_ns": 7077222725,
        "uptime_ns": 175698066881
      }, {
        "duration_ns": 7137950458,
        "uptime_ns": 182857123371
      }, {
        "duration_ns": 7145072412,
        "uptime_ns": 190076633767
      }, {
        "duration_ns": 7054801025,
        "uptime_ns": 197305023091
      }, {
        "duration_ns": 7193230318,
        "uptime_ns": 204441461800
      }, {
        "duration_ns": 7022603002,
        "uptime_ns": 211719607302
      }, {
        "duration_ns": 7203397756,
        "uptime_ns": 218824764592
      }, {
        "duration_ns": 7090669085,
        "uptime_ns": 226125253942
      }, {
        "duration_ns": 7148026838,
        "uptime_ns": 233297997771
      }, {
        "duration_ns": 7068450345,
        "uptime_ns": 240546396979
      }, {
        "duration_ns": 7099124956,
        "uptime_ns": 247696999592
      }, {
        "duration_ns": 7154616650,
        "uptime_ns": 254877510579
      }, {
        "duration_ns": 6976575703,
        "uptime_ns": 262118150654
      }, {
        "duration_ns": 6942801334,
        "uptime_ns": 269171776416
      }, {
        "duration_ns": 7096368487,
        "uptime_ns": 276177256929
      }, {
        "duration_ns": 7127226242,
        "uptime_ns": 283356386538
      }, {
        "duration_ns": 7122211597,
        "uptime_ns": 290569774002
      }, {
        "duration_ns": 7123107752,
        "uptime_ns": 297778908416
      }, {
        "duration_ns": 7110059318,
        "uptime_ns": 304983285589
      }, {
        "duration_ns": 7114195906,
        "uptime_ns": 312183676860
      }, {
        "duration_ns": 7064109493,
        "uptime_ns": 319381565333
      }, {
        "duration_ns": 7220872856,
        "uptime_ns": 326531685631
      }, {
        "duration_ns": 7051277328,
        "uptime_ns": 333845685022
      }, {
        "duration_ns": 7028469527,
        "uptime_ns": 340978772459
      }, {
        "duration_ns": 7099573934,
        "uptime_ns": 348076177767
      }, {
        "duration_ns": 6980748732,
        "uptime_ns": 355258762628
      }, {
        "duration_ns": 6935673428,
        "uptime_ns": 362313726900
      }, {
        "duration_ns": 7127213768,
        "uptime_ns": 369310696107
      }, {
        "duration_ns": 7067496766,
        "uptime_ns": 376521391204
      }, {
        "duration_ns": 7106132083,
        "uptime_ns": 383664515051
      }, {
        "duration_ns": 7069388691,
        "uptime_ns": 390861320749
      }, {
        "duration_ns": 7197565532,
        "uptime_ns": 398013237552
      }, {
        "duration_ns": 7057326743,
        "uptime_ns": 405301042096
      }, {
        "duration_ns": 7144306848,
        "uptime_ns": 412440727570
      }, {
        "duration_ns": 7163125836,
        "uptime_ns": 419682964994
      }, {
        "duration_ns": 6993486712,
        "uptime_ns": 426935589391
      }, {
        "duration_ns": 6984228602,
        "uptime_ns": 434004365622
      }, {
        "duration_ns": 7080329408,
        "uptime_ns": 441053327594
      }, {
        "duration_ns": 7136555709,
        "uptime_ns": 448217352970
      }, {
        "duration_ns": 7069358933,
        "uptime_ns": 455442696343
      }, {
        "duration_ns": 7160365358,
        "uptime_ns": 462600855076
      }, {
        "duration_ns": 7112761333,
        "uptime_ns": 469851687944
      }, {
        "duration_ns": 7004950914,
        "uptime_ns": 477046389808
      }, {
        "duration_ns": 7122427542,
        "uptime_ns": 484119889643
      }, {
        "duration_ns": 6880055996,
        "uptime_ns": 491322001959
      }, {
        "duration_ns": 7119133988,
        "uptime_ns": 498267303050
      }, {
        "duration_ns": 7002037062,
        "uptime_ns": 505471791060
      }, {
        "duration_ns": 6908426219,
        "uptime_ns": 512549263112
      }, {
        "duration_ns": 7072212463,
        "uptime_ns": 519526069520
      }, {
        "duration_ns": 7124620580,
        "uptime_ns": 526680366260
      }, {
        "duration_ns": 7103513740,
        "uptime_ns": 533888751171
      }, {
        "duration_ns": 7091570733,
        "uptime_ns": 541083657708
      }, {
        "duration_ns": 7162848113,
        "uptime_ns": 548264967815
      }, {
        "duration_ns": 7073741164,
        "uptime_ns": 555518470444
      }, {
        "duration_ns": 7219310967,
        "uptime_ns": 562673729772
      }, {
        "duration_ns": 7073495091,
        "uptime_ns": 569977784339
      }, {
        "duration_ns": 7041242620,
        "uptime_ns": 577136004790
      }, {
        "duration_ns": 6973428566,
        "uptime_ns": 584241773367
      }, {
        "duration_ns": 7125184309,
        "uptime_ns": 591283604138
      }, {
        "duration_ns": 7073856857,
        "uptime_ns": 598493033512
      }, {
        "duration_ns": 7126155114,
        "uptime_ns": 605650588764
      }, {
        "duration_ns": 7098272887,
        "uptime_ns": 612842896838
      }, {
        "duration_ns": 7122676404,
        "uptime_ns": 620022172159
      }, {
        "duration_ns": 7059841275,
        "uptime_ns": 627231925574
      }, {
        "duration_ns": 7048489515,
        "uptime_ns": 634375865261
      }, {
        "duration_ns": 7098182151,
        "uptime_ns": 641495903911
      }, {
        "duration_ns": 7055325884,
        "uptime_ns": 648677909532
      }, {
        "duration_ns": 7183612683,
        "uptime_ns": 655818590476
      }, {
        "duration_ns": 7079672499,
        "uptime_ns": 663089375531
      }, {
        "duration_ns": 7015640147,
        "uptime_ns": 670258376598
      }, {
        "duration_ns": 7182510491,
        "uptime_ns": 677342976455
      }, {
        "duration_ns": 7262942737,
        "uptime_ns": 684617332141
      }, {
        "duration_ns": 7175952482,
        "uptime_ns": 691961985324
      }, {
        "duration_ns": 7112218648,
        "uptime_ns": 699226805618
      }, {
        "duration_ns": 6940932701,
        "uptime_ns": 706430671939
      }, {
        "duration_ns": 7302630886,
        "uptime_ns": 713442684149
      }, {
        "duration_ns": 7189849008,
        "uptime_ns": 720830576011
      }, {
        "duration_ns": 7075188423,
        "uptime_ns": 728103752420
      }, {
        "duration_ns": 7354198681,
        "uptime_ns": 735248144645
      }],
      "termination": "normal"
    }
  },
  "environment": {
    "os": {
      "virt_mem_committed": 10835677184,
      "name": "Mac OS X",
      "open_fd_count": 113,
      "phys_mem_free": 2123087872,
      "swap_space_total": 1073741824,
      "available_processors": 8,
      "phys_mem_total": 17179869184,
      "version": "10.15.7",
      "arch": "x86_64",
      "max_fd_count": 10240,
      "swap_space_free": 883687424
    },
    "vm": {
      "termination": "normal",
      "name": "OpenJDK 64-Bit Server VM",
      "spec_vendor": "Oracle Corporation",
      "spec_name": "Java Virtual Machine Specification",
      "classloading": {
        "class_count": 11941,
        "classes_total": 11983
      },
      "compiler": {
        "name": "HotSpot 64-Bit Tiered Compilers",
        "compilation_time_ms": 42011
      },
      "start_iso": "2020-11-21T16:17:43.563Z",
      "collectors": [{
        "name": "G1 Young Generation",
        "collection_count": 2698,
        "collection_time_ms": 24403
      }, {
        "name": "G1 Old Generation",
        "collection_count": 100,
        "collection_time_ms": 8192
      }],
      "start_unix_ms": 1605975463563,
      "version": "11.0.9.1+1",
      "mode": "mixed mode",
      "args": [],
      "pools": [{
        "name": "CodeHeap 'non-nmethods'",
        "type": "NON_HEAP",
        "usage": {
          "init": 2555904,
          "used": 1356032,
          "committed": 2555904,
          "max": 5836800
        },
        "peak_usage": {
          "init": 2555904,
          "used": 1425024,
          "committed": 2555904,
          "max": 5836800
        }
      }, {
        "name": "Metaspace",
        "type": "NON_HEAP",
        "usage": {
          "init": 0,
          "used": 76688936,
          "committed": 78643200,
          "max": -1
        },
        "peak_usage": {
          "init": 0,
          "used": 76688936,
          "committed": 78643200,
          "max": -1
        }
      }, {
        "name": "CodeHeap 'profiled nmethods'",
        "type": "NON_HEAP",
        "usage": {
          "init": 2555904,
          "used": 15787776,
          "committed": 21364736,
          "max": 122908672
        },
        "peak_usage": {
          "init": 2555904,
          "used": 21259392,
          "committed": 21364736,
          "max": 122908672
        }
      }, {
        "name": "Compressed Class Space",
        "type": "NON_HEAP",
        "usage": {
          "init": 0,
          "used": 10643232,
          "committed": 11272192,
          "max": 1073741824
        },
        "peak_usage": {
          "init": 0,
          "used": 10643232,
          "committed": 11272192,
          "max": 1073741824
        }
      }, {
        "name": "G1 Eden Space",
        "type": "HEAP",
        "usage": {
          "init": 27262976,
          "used": 325058560,
          "committed": 935329792,
          "max": -1
        },
        "peak_usage": {
          "init": 27262976,
          "used": 1055916032,
          "committed": 1109393408,
          "max": -1
        }
      }, {
        "name": "G1 Old Gen",
        "type": "HEAP",
        "usage": {
          "init": 241172480,
          "used": 201277328,
          "committed": 558891008,
          "max": 4294967296
        },
        "peak_usage": {
          "init": 241172480,
          "used": 2124392384,
          "committed": 3483369472,
          "max": 4294967296
        }
      }, {
        "name": "G1 Survivor Space",
        "type": "HEAP",
        "usage": {
          "init": 0,
          "used": 17825792,
          "committed": 17825792,
          "max": -1
        },
        "peak_usage": {
          "init": 0,
          "used": 93323264,
          "committed": 93323264,
          "max": -1
        }
      }, {
        "name": "CodeHeap 'non-profiled nmethods'",
        "type": "NON_HEAP",
        "usage": {
          "init": 2555904,
          "used": 9758592,
          "committed": 10682368,
          "max": 122912768
        },
        "peak_usage": {
          "init": 2555904,
          "used": 10648320,
          "committed": 10682368,
          "max": 122912768
        }
      }],
      "uptime_ms": 743217,
      "vendor": "AdoptOpenJDK",
      "threads": {
        "thread_count": 7,
        "thread_count_max": 32,
        "daemon_thread_count": 6,
        "threads_total": 561
      },
      "spec_version": "11",
      "memory": {
        "heap_usage": {
          "init": 268435456,
          "used": 544161680,
          "committed": 1512046592,
          "max": 4294967296
        },
        "nonheap_usage": {
          "init": 7667712,
          "used": 114220760,
          "committed": 124518400,
          "max": -1
        },
        "pending_finalization_count": 0
      }
    },
    "jre": {
      "java_version": "11.0.9.1",
      "name": "OpenJDK Runtime Environment",
      "spec_vendor": "Oracle Corporation",
      "spec_name": "Java Platform API Specification",
      "class_path": ["target/renaissance-gpl-0.11.0.jar"],
      "home": "/Library/Java/JavaVirtualMachines/adoptopenjdk-11.jdk/Contents/Home",
      "version": "11.0.9.1+1",
      "java_vendor": "AdoptOpenJDK",
      "library_path": ["/Users/user3/Library/Java/Extensions", "/Library/Java/Extensions", "/Network/Library/Java/Extensions", "/System/Library/Java/Extensions", "/usr/lib/java", "."],
      "spec_version": "11"
    }
  },
  "suite": {
    "git": {
      "commit_hash": "91cf51ddb8af003685eca89f96371fd2e7bb3c7e",
      "commit_date": "2020-06-05T09:40:32+0200",
      "dirty": "false"
    },
    "name": "Renaissance Benchmark Suite",
    "version": "0.11.0"
  }
}