{
  "benchmarks": ["reactors"],
  "format_version": 5,
  "data": {
    "reactors": {
      "results": [{
        "duration_ns": 16195843779,
        "uptime_ns": 889658423
      }, {
        "duration_ns": 13110024493,
        "uptime_ns": 17180420561
      }, {
        "duration_ns": 12625645421,
        "uptime_ns": 30404161653
      }, {
        "duration_ns": 12310838396,
        "uptime_ns": 43140856196
      }, {
        "duration_ns": 12012865992,
        "uptime_ns": 55551998846
      }, {
        "duration_ns": 12283864554,
        "uptime_ns": 67683021907
      }, {
        "duration_ns": 12997264909,
        "uptime_ns": 80086660577
      }, {
        "duration_ns": 12025674210,
        "uptime_ns": 93187110494
      }, {
        "duration_ns": 12981049415,
        "uptime_ns": 105306685135
      }, {
        "duration_ns": 12904317276,
        "uptime_ns": 118397454923
      }, {
        "duration_ns": 13087932166,
        "uptime_ns": 131422342059
      }, {
        "duration_ns": 12873033727,
        "uptime_ns": 144618761746
      }, {
        "duration_ns": 12414260717,
        "uptime_ns": 157599810927
      }, {
        "duration_ns": 12646878856,
        "uptime_ns": 170116936268
      }, {
        "duration_ns": 13194843771,
        "uptime_ns": 182884918568
      }, {
        "duration_ns": 12808018401,
        "uptime_ns": 196186601580
      }, {
        "duration_ns": 12608645300,
        "uptime_ns": 209117616418
      }, {
        "duration_ns": 12923974644,
        "uptime_ns": 221841879183
      }, {
        "duration_ns": 12723453676,
        "uptime_ns": 234870541197
      }, {
        "duration_ns": 12436812749,
        "uptime_ns": 247698533474
      }, {
        "duration_ns": 12897235257,
        "uptime_ns": 260242804881
      }, {
        "duration_ns": 12440981466,
        "uptime_ns": 273259092380
      }, {
        "duration_ns": 13253183907,
        "uptime_ns": 285821107475
      }, {
        "duration_ns": 12516541275,
        "uptime_ns": 299196455818
      }, {
        "duration_ns": 13190550655,
        "uptime_ns": 311822517955
      }, {
        "duration_ns": 12760427016,
        "uptime_ns": 325117398734
      }, {
        "duration_ns": 12891862486,
        "uptime_ns": 337995144657
      }, {
        "duration_ns": 12950023944,
        "uptime_ns": 350992170566
      }, {
        "duration_ns": 12823798338,
        "uptime_ns": 364049592509
      }, {
        "duration_ns": 12698171803,
        "uptime_ns": 376966965266
      }, {
        "duration_ns": 12866048560,
        "uptime_ns": 389762469086
      }, {
        "duration_ns": 12876191519,
        "uptime_ns": 402751321637
      }, {
        "duration_ns": 12180670247,
        "uptime_ns": 415757785310
      }, {
        "duration_ns": 12772248873,
        "uptime_ns": 428054758295
      }, {
        "duration_ns": 13114652354,
        "uptime_ns": 440939035202
      }, {
        "duration_ns": 12627995214,
        "uptime_ns": 454171356809
      }, {
        "duration_ns": 12531403829,
        "uptime_ns": 466905215400
      }, {
        "duration_ns": 12712535257,
        "uptime_ns": 479546741628
      }, {
        "duration_ns": 13061819154,
        "uptime_ns": 492366164184
      }, {
        "duration_ns": 12837183552,
        "uptime_ns": 505552395907
      }, {
        "duration_ns": 12626603818,
        "uptime_ns": 518516771415
      }, {
        "duration_ns": 13154555059,
        "uptime_ns": 531253239344
      }, {
        "duration_ns": 12320536032,
        "uptime_ns": 544523129111
      }, {
        "duration_ns": 12381921416,
        "uptime_ns": 556965321765
      }, {
        "duration_ns": 13127734439,
        "uptime_ns": 569458336281
      }, {
        "duration_ns": 12879671306,
        "uptime_ns": 582693401639
      }, {
        "duration_ns": 12275652537,
        "uptime_ns": 595698516041
      }, {
        "duration_ns": 12770549562,
        "uptime_ns": 608096034625
      }, {
        "duration_ns": 12329198915,
        "uptime_ns": 620991118561
      }, {
        "duration_ns": 12496599473,
        "uptime_ns": 633460170123
      }, {
        "duration_ns": 13113959163,
        "uptime_ns": 646087431677
      }, {
        "duration_ns": 12519760109,
        "uptime_ns": 659350459264
      }, {
        "duration_ns": 12838113192,
        "uptime_ns": 671997443692
      }, {
        "duration_ns": 12400695159,
        "uptime_ns": 684947982100
      }, {
        "duration_ns": 12622886895,
        "uptime_ns": 697485031749
      }, {
        "duration_ns": 12547837297,
        "uptime_ns": 710251304297
      }, {
        "duration_ns": 13080223543,
        "uptime_ns": 722926987702
      }, {
        "duration_ns": 12311949797,
        "uptime_ns": 736152606743
      }, {
        "duration_ns": 13134627199,
        "uptime_ns": 748610620540
      }, {
        "duration_ns": 12329609384,
        "uptime_ns": 761890649825
      }, {
        "duration_ns": 12560999599,
        "uptime_ns": 774361188360
      }, {
        "duration_ns": 12690313246,
        "uptime_ns": 787082993689
      }, {
        "duration_ns": 12636122622,
        "uptime_ns": 799901525047
      }, {
        "duration_ns": 13108374715,
        "uptime_ns": 812658416558
      }, {
        "duration_ns": 12662704316,
        "uptime_ns": 825896082002
      }, {
        "duration_ns": 12780086852,
        "uptime_ns": 838686654808
      }, {
        "duration_ns": 12384656313,
        "uptime_ns": 851615952578
      }, {
        "duration_ns": 12805889134,
        "uptime_ns": 864147778821
      }, {
        "duration_ns": 12797138210,
        "uptime_ns": 877121968106
      }, {
        "duration_ns": 12736318424,
        "uptime_ns": 890077756191
      }, {
        "duration_ns": 12740512039,
        "uptime_ns": 902989557091
      }, {
        "duration_ns": 12505295513,
        "uptime_ns": 915873411805
      }, {
        "duration_ns": 13398749434,
        "uptime_ns": 928537305548
      }, {
        "duration_ns": 12787630456,
        "uptime_ns": 942091100420
      }, {
        "duration_ns": 12694972720,
        "uptime_ns": 955029220083
      }, {
        "duration_ns": 12682834454,
        "uptime_ns": 967880024416
      }, {
        "duration_ns": 12615718723,
        "uptime_ns": 980713324739
      }, {
        "duration_ns": 12707096609,
        "uptime_ns": 993466924944
      }, {
        "duration_ns": 11947502700,
        "uptime_ns": 1006319881732
      }, {
        "duration_ns": 12590514483,
        "uptime_ns": 1018413505370
      }, {
        "duration_ns": 12697178845,
        "uptime_ns": 1031148518089
      }, {
        "duration_ns": 12908713926,
        "uptime_ns": 1043995779111
      }, {
        "duration_ns": 12808611307,
        "uptime_ns": 1057040054056
      }, {
        "duration_ns": 12323116234,
        "uptime_ns": 1069981496959
      }, {
        "duration_ns": 12707454753,
        "uptime_ns": 1082442697826
      }, {
        "duration_ns": 12432047541,
        "uptime_ns": 1095310876281
      }, {
        "duration_ns": 12487610969,
        "uptime_ns": 1107881000444
      }, {
        "duration_ns": 12934115152,
        "uptime_ns": 1120510880382
      }, {
        "duration_ns": 12404726027,
        "uptime_ns": 1133593768707
      }, {
        "duration_ns": 12461399738,
        "uptime_ns": 1146156563945
      }, {
        "duration_ns": 12867103124,
        "uptime_ns": 1158766098561
      }, {
        "duration_ns": 12746034931,
        "uptime_ns": 1171788210281
      }, {
        "duration_ns": 13005118221,
        "uptime_ns": 1184673492512
      }, {
        "duration_ns": 12363029132,
        "uptime_ns": 1197810502104
      }, {
        "duration_ns": 12568920692,
        "uptime_ns": 1210313934113
      }, {
        "duration_ns": 12527879877,
        "uptime_ns": 1223022693131
      }, {
        "duration_ns": 12415475913,
        "uptime_ns": 1235702414870
      }, {
        "duration_ns": 12913357623,
        "uptime_ns": 1248280223815
      }, {
        "duration_ns": 12910234749,
        "uptime_ns": 1261328499550
      }, {
        "duration_ns": 12099824304,
        "uptime_ns": 1274383835426
      }],
      "termination": "normal"
    }
  },
  "environment": {
    "os": {
      "virt_mem_committed": 10593587200,
      "name": "Mac OS X",
      "open_fd_count": 20,
      "phys_mem_free": 238665728,
      "swap_space_total": 1073741824,
      "available_processors": 8,
      "phys_mem_total": 17179869184,
      "version": "10.15.7",
      "arch": "x86_64",
      "max_fd_count": 10240,
      "swap_space_free": 883687424
    },
    "vm": {
      "termination": "normal",
      "name": "OpenJDK 64-Bit Server VM",
      "spec_vendor": "Oracle Corporation",
      "spec_name": "Java Virtual Machine Specification",
      "classloading": {
        "class_count": 3169,
        "classes_total": 3174
      },
      "compiler": {
        "name": "HotSpot 64-Bit Tiered Compilers",
        "compilation_time_ms": 18621
      },
      "start_iso": "2020-11-21T16:50:19.797Z",
      "collectors": [{
        "name": "G1 Young Generation",
        "collection_count": 3870,
        "collection_time_ms": 98007
      }, {
        "name": "G1 Old Generation",
        "collection_count": 100,
        "collection_time_ms": 12655
      }],
      "start_unix_ms": 1605977419797,
      "version": "11.0.9.1+1",
      "mode": "mixed mode",
      "args": [],
      "pools": [{
        "name": "CodeHeap 'non-nmethods'",
        "type": "NON_HEAP",
        "usage": {
          "init": 2555904,
          "used": 1179776,
          "committed": 2555904,
          "max": 5836800
        },
        "peak_usage": {
          "init": 2555904,
          "used": 1192704,
          "committed": 2555904,
          "max": 5836800
        }
      }, {
        "name": "Metaspace",
        "type": "NON_HEAP",
        "usage": {
          "init": 0,
          "used": 25309464,
          "committed": 26345472,
          "max": -1
        },
        "peak_usage": {
          "init": 0,
          "used": 25309464,
          "committed": 26345472,
          "max": -1
        }
      }, {
        "name": "CodeHeap 'profiled nmethods'",
        "type": "NON_HEAP",
        "usage": {
          "init": 2555904,
          "used": 3491328,
          "committed": 5308416,
          "max": 122908672
        },
        "peak_usage": {
          "init": 2555904,
          "used": 5279232,
          "committed": 5308416,
          "max": 122908672
        }
      }, {
        "name": "Compressed Class Space",
        "type": "NON_HEAP",
        "usage": {
          "init": 0,
          "used": 3420488,
          "committed": 3801088,
          "max": 1073741824
        },
        "peak_usage": {
          "init": 0,
          "used": 3420488,
          "committed": 3801088,
          "max": 1073741824
        }
      }, {
        "name": "G1 Eden Space",
        "type": "HEAP",
        "usage": {
          "init": 27262976,
          "used": 255852544,
          "committed": 512753664,
          "max": -1
        },
        "peak_usage": {
          "init": 27262976,
          "used": 812646400,
          "committed": 857735168,
          "max": -1
        }
      }, {
        "name": "G1 Old Gen",
        "type": "HEAP",
        "usage": {
          "init": 241172480,
          "used": 1221423944,
          "committed": 2118123520,
          "max": 4294967296
        },
        "peak_usage": {
          "init": 241172480,
          "used": 1235723376,
          "committed": 2825912320,
          "max": 4294967296
        }
      }, {
        "name": "G1 Survivor Space",
        "type": "HEAP",
        "usage": {
          "init": 0,
          "used": 5242880,
          "committed": 5242880,
          "max": -1
        },
        "peak_usage": {
          "init": 0,
          "used": 111149056,
          "committed": 111149056,
          "max": -1
        }
      }, {
        "name": "CodeHeap 'non-profiled nmethods'",
        "type": "NON_HEAP",
        "usage": {
          "init": 2555904,
          "used": 2300672,
          "committed": 3407872,
          "max": 122912768
        },
        "peak_usage": {
          "init": 2555904,
          "used": 3385472,
          "committed": 3407872,
          "max": 122912768
        }
      }],
      "uptime_ms": 1286616,
      "vendor": "AdoptOpenJDK",
      "threads": {
        "thread_count": 15,
        "thread_count_max": 17,
        "daemon_thread_count": 14,
        "threads_total": 116
      },
      "spec_version": "11",
      "memory": {
        "heap_usage": {
          "init": 268435456,
          "used": 1482519368,
          "committed": 2636120064,
          "max": 4294967296
        },
        "nonheap_usage": {
          "init": 7667712,
          "used": 35645656,
          "committed": 41156608,
          "max": -1
        },
        "pending_finalization_count": 0
      }
    },
    "jre": {
      "java_version": "11.0.9.1",
      "name": "OpenJDK Runtime Environment",
      "spec_vendor": "Oracle Corporation",
      "spec_name": "Java Platform API Specification",
      "class_path": ["target/renaissance-gpl-0.11.0.jar"],
      "home": "/Library/Java/JavaVirtualMachines/adoptopenjdk-11.jdk/Contents/Home",
      "version": "11.0.9.1+1",
      "java_vendor": "AdoptOpenJDK",
      "library_path": ["/Users/user3/Library/Java/Extensions", "/Library/Java/Extensions", "/Network/Library/Java/Extensions", "/System/Library/Java/Extensions", "/usr/lib/java", "."],
      "spec_version": "11"
    }
  },
  "suite": {
    "git": {
      "commit_hash": "91cf51ddb8af003685eca89f96371fd2e7bb3c7e",
      "commit_date": "2020-06-05T09:40:32+0200",
      "dirty": "false"
    },
    "name": "Renaissance Benchmark Suite",
    "version": "0.11.0"
  }
}